Assembly	prediction
# contigs (>= 0 bp)	172
# contigs (>= 1000 bp)	112
# contigs (>= 5000 bp)	67
# contigs (>= 10000 bp)	61
# contigs (>= 25000 bp)	37
# contigs (>= 50000 bp)	18
Total length (>= 0 bp)	2687152
Total length (>= 1000 bp)	2665681
Total length (>= 5000 bp)	2554753
Total length (>= 10000 bp)	2512114
Total length (>= 25000 bp)	2144713
Total length (>= 50000 bp)	1487814
# contigs	128
Largest contig	132059
Total length	2677593
Reference length	130603
GC (%)	34.07
Reference GC (%)	50.82
N50	54922
NG50	132059
N75	28800
NG75	132059
L50	16
LG50	1
L75	32
LG75	1
# misassemblies	0
# misassembled contigs	0
Misassembled contigs length	0
# local misassemblies	0
# unaligned contigs	116 + 2 part
Unaligned length	2634698
Genome fraction (%)	34.855
Duplication ratio	1.009
# N's per 100 kbp	17.40
# mismatches per 100 kbp	166.95
# indels per 100 kbp	19.77
Largest alignment	17346
NGA50	-
