26 Nucmer: nothing aligned for /home/mmbbio/Plasmid_Assembly/completegenomes/plasmids/Corynebacterium_callunae_DSM_20147_plasmids_references/group_2.fasta_comparison_pspades/quast_corrected_input/pspades_SRR2965721_scaffolds.fasta
s_reports/nucmer_output/pspades_SRR2965721_scaffolds.ntref" of length 85024
# construct suffix tree for sequence of length 85024
# (maximum reference length is 536870908)
# (maximum query length is 4294967295)
# CONSTRUCTIONTIME /home/mmbbio/Plasmid_Assembly/programmes/quast-4.1/libs/MUMmer3.23-linux/mummer /home/mmbbio/Plasmid_Assembly/completegenomes/plasmids/Corynebacterium_callunae_DSM_20147_plasmids_references/group_2.fasta_comparison_pspades/contigs_reports/nucmer_output/pspades_SRR2965721_scaffolds.ntref 0.01
# reading input file "/home/mmbbio/Plasmid_Assembly/completegenomes/plasmids/Corynebacterium_callunae_DSM_20147_plasmids_references/group_2.fasta_comparison_pspades/quast_corrected_input/pspades_SRR2965721_scaffolds.fasta" of length 589050
# matching query-file "/home/mmbbio/Plasmid_Assembly/completegenomes/plasmids/Corynebacterium_callunae_DSM_20147_plasmids_references/group_2.fasta_comparison_pspades/quast_corrected_input/pspades_SRR2965721_scaffolds.fasta"
# against subject-file "/home/mmbbio/Plasmid_Assembly/completegenomes/plasmids/Corynebacterium_callunae_DSM_20147_plasmids_references/group_2.fasta_comparison_pspades/contigs_reports/nucmer_output/pspades_SRR2965721_scaffolds.ntref"
# COMPLETETIME /home/mmbbio/Plasmid_Assembly/programmes/quast-4.1/libs/MUMmer3.23-linux/mummer /home/mmbbio/Plasmid_Assembly/completegenomes/plasmids/Corynebacterium_callunae_DSM_20147_plasmids_references/group_2.fasta_comparison_pspades/contigs_reports/nucmer_output/pspades_SRR2965721_scaffolds.ntref 0.16
# SPACE /home/mmbbio/Plasmid_Assembly/programmes/quast-4.1/libs/MUMmer3.23-linux/mummer /home/mmbbio/Plasmid_Assembly/completegenomes/plasmids/Corynebacterium_callunae_DSM_20147_plasmids_references/group_2.fasta_comparison_pspades/contigs_reports/nucmer_output/pspades_SRR2965721_scaffolds.ntref 0.66
4: FINISHING DATA
