S1	E1	S2	E2	Reference	Contig	IDY	Ambiguous
81241	90452	1	9212	gi_828895865_gb_CP011571.1__Enterobacter_cloacae_strain_CAV1311_plasmid_pKPC_CAV1311__complete_sequence	NODE_31_length_15536_cov_83.3154	100.0	
fake misassembly (linear representation of circular genome)
1	1478	9213	10690	gi_828895865_gb_CP011571.1__Enterobacter_cloacae_strain_CAV1311_plasmid_pKPC_CAV1311__complete_sequence	NODE_31_length_15536_cov_83.3154	97.9	
local misassembly
957	6108	10385	15536	gi_828895865_gb_CP011571.1__Enterobacter_cloacae_strain_CAV1311_plasmid_pKPC_CAV1311__complete_sequence	NODE_31_length_15536_cov_83.3154	99.61	
CONTIG	NODE_31_length_15536_cov_83.3154	15536	correct
CONTIG	NODE_28_length_28815_cov_118.034	28815	unaligned
