Aligning contigs to reference...
	Running Nucmer
Parsing coords...
Loading reference...
	Loaded [gi_828895865_gb_CP011571.1__Enterobacter_cloacae_strain_CAV1311_plasmid_pKPC_CAV1311__complete_sequence]
Loading SNPs...
Loading regions...
	No regions given, using whole reference.
	Total Regions: 1
	Total Region Length: 90452
Analyzing contigs...
CONTIG: NODE_31_length_15536_cov_83.3154 (15536bp)
Top Length: 9212  Top ID: 100.0
		This contig is misassembled. 3 total aligns.
			Real Alignment 1: 81241 90452 | 1 9212 | 9212 9212 | 100.0 | gi_828895865_gb_CP011571.1__Enterobacter_cloacae_strain_CAV1311_plasmid_pKPC_CAV1311__complete_sequence NODE_31_length_15536_cov_83.3154
			  Fake misassembly (caused by linear representation of circular genome) between these two alignments
			Real Alignment 2: 1 1478 | 9213 10690 | 1478 1478 | 97.9 | gi_828895865_gb_CP011571.1__Enterobacter_cloacae_strain_CAV1311_plasmid_pKPC_CAV1311__complete_sequence NODE_31_length_15536_cov_83.3154
			  Overlap between these two alignments (local misassembly). Inconsistency = -216  
			Real Alignment 3: 957 6108 | 10385 15536 | 5152 5152 | 99.61 | gi_828895865_gb_CP011571.1__Enterobacter_cloacae_strain_CAV1311_plasmid_pKPC_CAV1311__complete_sequence NODE_31_length_15536_cov_83.3154

CONTIG: NODE_28_length_28815_cov_118.034 (28815bp)
		This contig is unaligned. (28815 bp)
		Unaligned bases: 28815  total: 28815

Analyzing coverage...
Writing SNPs into /home/mmbbio/Plasmid_Assembly/completegenomes/plasmids/CAV1311_plasmids_references/group_3.fasta_comparison_plasmidfinder/contigs_reports/nucmer_output/prediction.used_snps
	Reference gi_828895865_gb_CP011571.1__Enterobacter_cloacae_strain_CAV1311_plasmid_pKPC_CAV1311__complete_sequence: 3 total alignments. 1 total regions.
		Region: 1 to 90452 (90452 bp)
			Align 1: 1 1478 NODE_31_length_15536_cov_83.3154 9213 10690
				Negative gap (overlap) between this and next alignment: 1478 to 957 (-521 bp)
				Next Alignment: 957 6108 NODE_31_length_15536_cov_83.3154 10385 15536

			Previous gap was negative, modifying coordinates to ignore overlap
				Moving contig start from 10385 to 10907.
			Align 2: 1479 6108 NODE_31_length_15536_cov_83.3154 10907 15536
				Gap between this and next alignment: 6108 to 81241 (75132 bp)
				Next Alignment: 81241 90452 NODE_31_length_15536_cov_83.3154 1 9212

			Align 3: 81241 90452 NODE_31_length_15536_cov_83.3154 1 9212
			END in current alignment.  Modifying 90452 to 90452.

Analysis is finished!
Founded SNPs were written into /home/mmbbio/Plasmid_Assembly/completegenomes/plasmids/CAV1311_plasmids_references/group_3.fasta_comparison_plasmidfinder/contigs_reports/nucmer_output/prediction.used_snps

Results:
	Local Misassemblies: 1
	Misassemblies: 0
		Relocations: 0
		Translocations: 0
		Inversions: 0
	Misassembled Contigs: 0
	Misassembled Contig Bases: 0
	Misassemblies Inter-Contig Overlap: 0
Uncovered Regions: 0 (0)
Unaligned Contigs: 1 + 0 part
Partially Unaligned Contigs with Misassemblies: 0
Unaligned Contig Bases: 28815

Ambiguously Mapped Contigs: 0
Extra Bases in Ambiguously Mapped Contigs: 0
Note that --allow-ambiguity option was set to "all" and each of these contigs was used several times.

	Covered Bases: 15320

	SNPs: 31
	Insertions: 0
	Deletions: 0

	Positive Gaps: 1
		Internal Gaps:  1
		External Gaps:  0
		External Gap Total:  0
		External Gap Average: 0
	Negative Gaps: 1
		Internal Overlaps:  1
		External Overlaps:  0
		External Overlaps Total:  0
		External Overlaps Average: 0
	Contigs with Redundant Alignments: 0 (0)
