S1	E1	S2	E2	Reference	Contig	IDY	Ambiguous
CONTIG	NODE_107_length_4181_cov_52.6333	4181	unaligned
CONTIG	NODE_57_length_28815_cov_57.6469	28815	unaligned
CONTIG	NODE_34_length_56122_cov_65.4178	56122	unaligned
100903	110978	1	10077	gi_828933802_gb_CP011601.1__Kluyvera_intermedia_strain_CAV1151_plasmid_pCAV1151-296__complete_sequence	NODE_33_length_58861_cov_36.1777	99.46	
local misassembly
109955	159514	9300	58861	gi_828933802_gb_CP011601.1__Kluyvera_intermedia_strain_CAV1151_plasmid_pCAV1151-296__complete_sequence	NODE_33_length_58861_cov_36.1777	99.92	
CONTIG	NODE_33_length_58861_cov_36.1777	58861	correct
CONTIG	NODE_78_length_13736_cov_55.2457	13736	unaligned
