Assembly	prediction
# fully unaligned contigs	7
Fully unaligned length	69498
# partially unaligned contigs	0
    # with misassembly	0
    # both parts are significant	0
Partially unaligned length	0
# N's	0
