Assembly	prediction
# contigs (>= 0 bp)	4
# contigs (>= 1000 bp)	4
# contigs (>= 5000 bp)	4
# contigs (>= 10000 bp)	3
# contigs (>= 25000 bp)	2
# contigs (>= 50000 bp)	1
Total length (>= 0 bp)	126447
Total length (>= 1000 bp)	126447
Total length (>= 5000 bp)	126447
Total length (>= 10000 bp)	116654
Total length (>= 25000 bp)	100522
Total length (>= 50000 bp)	65587
# contigs	4
Largest contig	65587
Total length	126447
Reference length	113639
GC (%)	53.87
Reference GC (%)	53.93
N50	65587
NG50	65587
N75	34935
NG75	34935
L50	1
LG50	1
L75	2
LG75	2
# misassemblies	0
# misassembled contigs	0
Misassembled contigs length	0
# local misassemblies	0
# unaligned contigs	2 + 0 part
Unaligned length	25925
Genome fraction (%)	88.457
Duplication ratio	1.000
# N's per 100 kbp	0.00
# mismatches per 100 kbp	0.00
# indels per 100 kbp	0.00
Largest alignment	65587
NA50	65587
NGA50	65587
NA75	34935
NGA75	34935
LA50	1
LGA50	1
LA75	2
LGA75	2
