S1	E1	S2	E2	Reference	Contig	IDY	Ambiguous
9015	9634	620	1	gi_828927436_gb_CP011596.1__Klebsiella_oxytoca_strain_CAV1099_plasmid_pCAV1099-114__complete_sequence	NODE_19_length_112462_cov_61.518	100.0	
CONTIG	NODE_19_length_112462_cov_61.518	112462	correct
CONTIG	NODE_33_length_59208_cov_69.3908	59208	unaligned
