Aligning contigs to reference...
	Running Nucmer
Parsing coords...
Loading reference...
	Loaded [gi_757692273_ref_NZ_CP007735.1__Klebsiella_pneumoniae_subsp._pneumoniae_KPNIH27_plasmid_pKPN-a41__complete_sequence]
Loading SNPs...
Loading regions...
	No regions given, using whole reference.
	Total Regions: 1
	Total Region Length: 89770
Analyzing contigs...
CONTIG: NODE_57_length_21680_cov_132.807 (21680bp)
		This contig is unaligned. (21680 bp)
		Unaligned bases: 21680  total: 21680

CONTIG: NODE_69_length_12600_cov_83.3016 (12600bp)
		This contig is unaligned. (12600 bp)
		Unaligned bases: 12600  total: 34280

CONTIG: NODE_83_length_6287_cov_86.5853 (6287bp)
		This contig is unaligned. (6287 bp)
		Unaligned bases: 6287  total: 40567

CONTIG: NODE_29_length_66828_cov_123.257 (66828bp)
		This contig is unaligned. (66828 bp)
		Unaligned bases: 66828  total: 107395

CONTIG: NODE_72_length_11778_cov_116.867 (11778bp)
		This contig is unaligned. (11778 bp)
		Unaligned bases: 11778  total: 119173

CONTIG: NODE_133_length_2232_cov_66.9773 (2232bp)
Top Length: 2232  Top ID: 99.55
		Marking as insignificant: 87494 88257 | 881 118 | 764 764 | 95.03 | gi_757692273_ref_NZ_CP007735.1__Klebsiella_pneumoniae_subsp._pneumoniae_KPNIH27_plasmid_pKPN-a41__complete_sequence NODE_133_length_2232_cov_66.9773
		One align captures most of this contig: 23227 25458 | 1 2232 | 2232 2232 | 99.55 | gi_757692273_ref_NZ_CP007735.1__Klebsiella_pneumoniae_subsp._pneumoniae_KPNIH27_plasmid_pKPN-a41__complete_sequence NODE_133_length_2232_cov_66.9773

CONTIG: NODE_60_length_18034_cov_61.0516 (18034bp)
		This contig is unaligned. (18034 bp)
		Unaligned bases: 18034  total: 137207

CONTIG: NODE_78_length_8747_cov_78.5682 (8747bp)
Top Length: 8747  Top ID: 99.98
		One align captures most of this contig: 12765 21511 | 8747 1 | 8747 8747 | 99.98 | gi_757692273_ref_NZ_CP007735.1__Klebsiella_pneumoniae_subsp._pneumoniae_KPNIH27_plasmid_pKPN-a41__complete_sequence NODE_78_length_8747_cov_78.5682

Analyzing coverage...
Writing SNPs into /home/mmbbio/Plasmid_Assembly/completegenomes/plasmids/KPNIH27_plasmids_references/group_4.fasta_comparison_plasmidfinder/contigs_reports/nucmer_output/prediction.used_snps
	Reference gi_757692273_ref_NZ_CP007735.1__Klebsiella_pneumoniae_subsp._pneumoniae_KPNIH27_plasmid_pKPN-a41__complete_sequence: 2 total alignments. 1 total regions.
		Region: 1 to 89770 (89770 bp)
			START in gap: 1 to 12765 (12764 bp)
			Align 1: 12765 21511 NODE_78_length_8747_cov_78.5682 8747 1
				Gap between this and next alignment: 21511 to 23227 (1715 bp)
				Next Alignment: 23227 25458 NODE_133_length_2232_cov_66.9773 1 2232

			Align 2: 23227 25458 NODE_133_length_2232_cov_66.9773 1 2232
			END in gap: 25458 to 89770 (64312 bp)

Analysis is finished!
Founded SNPs were written into /home/mmbbio/Plasmid_Assembly/completegenomes/plasmids/KPNIH27_plasmids_references/group_4.fasta_comparison_plasmidfinder/contigs_reports/nucmer_output/prediction.used_snps

Results:
	Local Misassemblies: 0
	Misassemblies: 0
		Relocations: 0
		Translocations: 0
		Inversions: 0
	Misassembled Contigs: 0
	Misassembled Contig Bases: 0
	Misassemblies Inter-Contig Overlap: 0
Uncovered Regions: 0 (0)
Unaligned Contigs: 6 + 0 part
Partially Unaligned Contigs with Misassemblies: 0
Unaligned Contig Bases: 137207

Ambiguously Mapped Contigs: 0
Extra Bases in Ambiguously Mapped Contigs: 0
Note that --allow-ambiguity option was set to "all" and each of these contigs was used several times.

	Covered Bases: 10979

	SNPs: 12
	Insertions: 0
	Deletions: 0

	Positive Gaps: 3
		Internal Gaps:  0
		External Gaps:  3
		External Gap Total:  78791
		External Gap Average: 26264
	Negative Gaps: 0
		Internal Overlaps:  0
		External Overlaps:  0
		External Overlaps Total:  0
		External Overlaps Average: 0
	Contigs with Redundant Alignments: 0 (0)
