Assembly	prediction
# contigs (>= 0 bp)	119
# contigs (>= 1000 bp)	49
# contigs (>= 5000 bp)	20
# contigs (>= 10000 bp)	10
# contigs (>= 25000 bp)	3
# contigs (>= 50000 bp)	1
Total length (>= 0 bp)	378890
Total length (>= 1000 bp)	352941
Total length (>= 5000 bp)	297190
Total length (>= 10000 bp)	237193
Total length (>= 25000 bp)	136276
Total length (>= 50000 bp)	56873
# contigs	64
Largest contig	56873
Total length	364377
Reference length	15096
GC (%)	52.87
Reference GC (%)	53.54
N50	13083
NG50	56873
N75	5541
NG75	56873
L50	6
LG50	1
L75	16
LG75	1
# misassemblies	0
# misassembled contigs	0
Misassembled contigs length	0
# local misassemblies	0
# unaligned contigs	61 + 0 part
Unaligned length	350115
Genome fraction (%)	93.455
Duplication ratio	1.011
# N's per 100 kbp	51.32
# mismatches per 100 kbp	0.00
# indels per 100 kbp	0.00
Largest alignment	12714
NGA50	12714
NGA75	12714
LGA50	1
LGA75	1
