Assembly	prediction
# contigs (>= 0 bp)	46
# contigs (>= 1000 bp)	18
# contigs (>= 5000 bp)	10
# contigs (>= 10000 bp)	7
# contigs (>= 25000 bp)	5
# contigs (>= 50000 bp)	0
Total length (>= 0 bp)	276378
Total length (>= 1000 bp)	269485
Total length (>= 5000 bp)	251673
Total length (>= 10000 bp)	228065
Total length (>= 25000 bp)	189837
Total length (>= 50000 bp)	0
# contigs	21
Largest contig	49065
Total length	271691
Reference length	90452
GC (%)	49.00
Reference GC (%)	56.99
N50	28815
NG50	49065
N75	20082
NG75	43243
L50	4
LG50	1
L75	6
LG75	2
# misassemblies	1
# misassembled contigs	1
Misassembled contigs length	20082
# local misassemblies	1
# unaligned contigs	14 + 0 part
Unaligned length	229026
Genome fraction (%)	48.014
Duplication ratio	0.982
# N's per 100 kbp	114.84
# mismatches per 100 kbp	75.98
# indels per 100 kbp	0.00
Largest alignment	16811
NGA50	-
