Assembly	prediction
# misassemblies	0
    # relocations	0
    # translocations	0
    # inversions	0
# misassembled contigs	0
Misassembled contigs length	0
# local misassemblies	0
# mismatches	1
# indels	0
    # short indels	0
    # long indels	0
Indels length	0
