Assembly	prediction
# contigs (>= 0 bp)	6
# contigs (>= 1000 bp)	6
# contigs (>= 5000 bp)	4
# contigs (>= 10000 bp)	2
# contigs (>= 25000 bp)	2
# contigs (>= 50000 bp)	1
Total length (>= 0 bp)	106115
Total length (>= 1000 bp)	106115
Total length (>= 5000 bp)	101617
Total length (>= 10000 bp)	86411
Total length (>= 25000 bp)	86411
Total length (>= 50000 bp)	51142
# contigs	6
Largest contig	51142
Total length	106115
Reference length	58050
GC (%)	48.72
Reference GC (%)	48.55
N50	35269
NG50	51142
N75	35269
NG75	51142
L50	2
LG50	1
L75	2
LG75	1
# misassemblies	0
# misassembled contigs	0
Misassembled contigs length	0
# local misassemblies	0
# unaligned contigs	4 + 0 part
Unaligned length	67991
Genome fraction (%)	65.674
Duplication ratio	1.000
# N's per 100 kbp	0.00
# mismatches per 100 kbp	0.00
# indels per 100 kbp	0.00
Largest alignment	35269
NGA50	35269
LGA50	1
