Aligning contigs to reference...
	Running Nucmer
Parsing coords...
Loading reference...
	Loaded [gi_828927110_gb_CP011593.1__Klebsiella_oxytoca_strain_CAV1099_plasmid_pCAV1099-69__complete_sequence]
Loading SNPs...
Loading regions...
	No regions given, using whole reference.
	Total Regions: 1
	Total Region Length: 68910
Analyzing contigs...
CONTIG: NODE_1_length_173451_cov_65.4841_component_0 (173451bp)
Top Length: 49094  Top ID: 100.0
		This contig is misassembled. 3 total aligns.
			Warning! This contig is more unaligned than misassembled. Contig length is 173451 and total length of all aligns is 61156
		Alignment: 48285 49512 | 1228 1 | 1228 1228 | 100.0 | gi_828927110_gb_CP011593.1__Klebsiella_oxytoca_strain_CAV1099_plasmid_pCAV1099-69__complete_sequence NODE_1_length_173451_cov_65.4841_component_0
		Alignment: 1 49094 | 162617 113524 | 49094 49094 | 100.0 | gi_828927110_gb_CP011593.1__Klebsiella_oxytoca_strain_CAV1099_plasmid_pCAV1099-69__complete_sequence NODE_1_length_173451_cov_65.4841_component_0
		Alignment: 58077 68910 | 173451 162618 | 10834 10834 | 100.0 | gi_828927110_gb_CP011593.1__Klebsiella_oxytoca_strain_CAV1099_plasmid_pCAV1099-69__complete_sequence NODE_1_length_173451_cov_65.4841_component_0
		Unaligned bases: 112295
		This contig has both significant aligned and unaligned parts (of length >= 500)!
CONTIG: NODE_2_length_111472_cov_36.0773_component_1 (111472bp)
		This contig is unaligned. (111472 bp)
		Unaligned bases: 111472  total: 111472

CONTIG: NODE_3_length_26031_cov_53.4533_component_0 (26031bp)
		This contig is unaligned. (26031 bp)
		Unaligned bases: 26031  total: 137503

CONTIG: NODE_4_length_14425_cov_57.3877_component_3 (14425bp)
		This contig is unaligned. (14425 bp)
		Unaligned bases: 14425  total: 151928

CONTIG: NODE_5_length_12220_cov_139.728_component_2 (12220bp)
		This contig is unaligned. (12220 bp)
		Unaligned bases: 12220  total: 164148

CONTIG: NODE_6_length_9124_cov_41.2023_component_2 (9124bp)
		This contig is unaligned. (9124 bp)
		Unaligned bases: 9124  total: 173272

CONTIG: NODE_7_length_9122_cov_56.9594_component_4 (9122bp)
		This contig is unaligned. (9122 bp)
		Unaligned bases: 9122  total: 182394

CONTIG: NODE_8_length_5487_cov_180.899_component_5 (5487bp)
		This contig is unaligned. (5487 bp)
		Unaligned bases: 5487  total: 187881

CONTIG: NODE_9_length_4813_cov_178.66_component_0 (4813bp)
		This contig is unaligned. (4813 bp)
		Unaligned bases: 4813  total: 192694

CONTIG: NODE_10_length_3760_cov_78.4073_component_0 (3760bp)
Top Length: 3760  Top ID: 99.92
		One align captures most of this contig: 50620 54382 | 1 3760 | 3763 3760 | 99.92 | gi_828927110_gb_CP011593.1__Klebsiella_oxytoca_strain_CAV1099_plasmid_pCAV1099-69__complete_sequence NODE_10_length_3760_cov_78.4073_component_0

CONTIG: NODE_11_length_3490_cov_38.3777_component_0 (3490bp)
		This contig is unaligned. (3490 bp)
		Unaligned bases: 3490  total: 196184

CONTIG: NODE_12_length_3125_cov_53.7343_component_2 (3125bp)
		This contig is unaligned. (3125 bp)
		Unaligned bases: 3125  total: 199309

CONTIG: NODE_13_length_3105_cov_34.3088_component_4 (3105bp)
		This contig is unaligned. (3105 bp)
		Unaligned bases: 3105  total: 202414

CONTIG: NODE_14_length_2744_cov_49.9479_component_2 (2744bp)
		This contig is unaligned. (2744 bp)
		Unaligned bases: 2744  total: 205158

CONTIG: NODE_15_length_2561_cov_40.6727_component_0 (2561bp)
		This contig is unaligned. (2561 bp)
		Unaligned bases: 2561  total: 207719

CONTIG: NODE_16_length_2280_cov_71.9891_component_0 (2280bp)
		This contig is unaligned. (2280 bp)
		Unaligned bases: 2280  total: 209999

CONTIG: NODE_17_length_2120_cov_60.2075_component_0 (2120bp)
Top Length: 2120  Top ID: 100.0
		One align captures most of this contig: 55291 57410 | 2120 1 | 2120 2120 | 100.0 | gi_828927110_gb_CP011593.1__Klebsiella_oxytoca_strain_CAV1099_plasmid_pCAV1099-69__complete_sequence NODE_17_length_2120_cov_60.2075_component_0

CONTIG: NODE_18_length_1657_cov_60.6962_component_0 (1657bp)
		This contig is unaligned. (1657 bp)
		Unaligned bases: 1657  total: 211656

CONTIG: NODE_19_length_1261_cov_148.476_component_0 (1261bp)
Top Length: 1261  Top ID: 99.6
		One align captures most of this contig: 49436 50699 | 1 1261 | 1264 1261 | 99.6 | gi_828927110_gb_CP011593.1__Klebsiella_oxytoca_strain_CAV1099_plasmid_pCAV1099-69__complete_sequence NODE_19_length_1261_cov_148.476_component_0

CONTIG: NODE_20_length_1099_cov_57.6037_component_0 (1099bp)
		This contig is unaligned. (1099 bp)
		Unaligned bases: 1099  total: 212755

CONTIG: NODE_21_length_1062_cov_224.837_component_0 (1062bp)
Top Length: 1062  Top ID: 100.0
		One align captures most of this contig: 54306 55367 | 1062 1 | 1062 1062 | 100.0 | gi_828927110_gb_CP011593.1__Klebsiella_oxytoca_strain_CAV1099_plasmid_pCAV1099-69__complete_sequence NODE_21_length_1062_cov_224.837_component_0

CONTIG: NODE_22_length_820_cov_139.756_component_0 (820bp)
Top Length: 820  Top ID: 100.0
		One align captures most of this contig: 57334 58153 | 820 1 | 820 820 | 100.0 | gi_828927110_gb_CP011593.1__Klebsiella_oxytoca_strain_CAV1099_plasmid_pCAV1099-69__complete_sequence NODE_22_length_820_cov_139.756_component_0

CONTIG: NODE_23_length_795_cov_34.7437_component_0 (795bp)
		This contig is unaligned. (795 bp)
		Unaligned bases: 795  total: 213550

CONTIG: NODE_24_length_692_cov_24.7821_component_0 (692bp)
		This contig is unaligned. (692 bp)
		Unaligned bases: 692  total: 214242

CONTIG: NODE_25_length_687_cov_29.4672_component_4 (687bp)
		This contig is unaligned. (687 bp)
		Unaligned bases: 687  total: 214929

CONTIG: NODE_26_length_585_cov_29.5551_component_0 (585bp)
		This contig is unaligned. (585 bp)
		Unaligned bases: 585  total: 215514

CONTIG: NODE_27_length_557_cov_29.9417_component_3 (557bp)
		This contig is unaligned. (557 bp)
		Unaligned bases: 557  total: 216071

Analyzing coverage...
Writing SNPs into /home/mmbbio/Plasmid_Assembly/completegenomes/plasmids/CAV1099_plasmids_references/group_2.fasta_comparison_spades/contigs_reports/nucmer_output/prediction.used_snps
	Reference gi_828927110_gb_CP011593.1__Klebsiella_oxytoca_strain_CAV1099_plasmid_pCAV1099-69__complete_sequence: 8 total alignments. 1 total regions.
		Region: 1 to 68910 (68910 bp)
			Align 1: 1 49094 NODE_1_length_173451_cov_65.4841_component_0 162617 113524
				Negative gap (overlap) between this and next alignment: 49094 to 48285 (-809 bp)
				Next Alignment: 48285 49512 NODE_1_length_173451_cov_65.4841_component_0 1228 1

			Previous gap was negative, modifying coordinates to ignore overlap
				Moving contig start from 1228 to 418.
			Align 2: 49095 49512 NODE_1_length_173451_cov_65.4841_component_0 418 1
				Negative gap (overlap) between this and next alignment: 49512 to 49436 (-76 bp)
				Next Alignment: 49436 50699 NODE_19_length_1261_cov_148.476_component_0 1 1261

			Previous gap was negative, modifying coordinates to ignore overlap
				Moving contig start from 1 to 78.
			Align 3: 49513 50699 NODE_19_length_1261_cov_148.476_component_0 78 1261
				Negative gap (overlap) between this and next alignment: 50699 to 50620 (-79 bp)
				Next Alignment: 50620 54382 NODE_10_length_3760_cov_78.4073_component_0 1 3760

			Previous gap was negative, modifying coordinates to ignore overlap
				Moving contig start from 1 to 78.
			Align 4: 50700 54382 NODE_10_length_3760_cov_78.4073_component_0 78 3760
				Negative gap (overlap) between this and next alignment: 54382 to 54306 (-76 bp)
				Next Alignment: 54306 55367 NODE_21_length_1062_cov_224.837_component_0 1062 1

			Previous gap was negative, modifying coordinates to ignore overlap
				Moving contig start from 1062 to 985.
			Align 5: 54383 55367 NODE_21_length_1062_cov_224.837_component_0 985 1
				Negative gap (overlap) between this and next alignment: 55367 to 55291 (-76 bp)
				Next Alignment: 55291 57410 NODE_17_length_2120_cov_60.2075_component_0 2120 1

			Previous gap was negative, modifying coordinates to ignore overlap
				Moving contig start from 2120 to 2043.
			Align 6: 55368 57410 NODE_17_length_2120_cov_60.2075_component_0 2043 1
				Negative gap (overlap) between this and next alignment: 57410 to 57334 (-76 bp)
				Next Alignment: 57334 58153 NODE_22_length_820_cov_139.756_component_0 820 1

			Previous gap was negative, modifying coordinates to ignore overlap
				Moving contig start from 820 to 743.
			Align 7: 57411 58153 NODE_22_length_820_cov_139.756_component_0 743 1
				Negative gap (overlap) between this and next alignment: 58153 to 58077 (-76 bp)
				Next Alignment: 58077 68910 NODE_1_length_173451_cov_65.4841_component_0 173451 162618

			Previous gap was negative, modifying coordinates to ignore overlap
				Moving contig start from 173451 to 173374.
			Align 8: 58154 68910 NODE_1_length_173451_cov_65.4841_component_0 173374 162618
			END in current alignment.  Modifying 68910 to 68910.

Analysis is finished!
Founded SNPs were written into /home/mmbbio/Plasmid_Assembly/completegenomes/plasmids/CAV1099_plasmids_references/group_2.fasta_comparison_spades/contigs_reports/nucmer_output/prediction.used_snps

Results:
	Local Misassemblies: 0
	Misassemblies: 0
		Relocations: 0
		Translocations: 0
		Inversions: 0
	Misassembled Contigs: 0
	Misassembled Contig Bases: 0
	Misassemblies Inter-Contig Overlap: 0
Uncovered Regions: 0 (0)
Unaligned Contigs: 21 + 1 part
Partially Unaligned Contigs with Misassemblies: 1
Unaligned Contig Bases: 328366

Ambiguously Mapped Contigs: 0
Extra Bases in Ambiguously Mapped Contigs: 0
Note that --allow-ambiguity option was set to "all" and each of these contigs was used several times.

	Covered Bases: 68910

	SNPs: 2
	Insertions: 0
	Deletions: 3

	Positive Gaps: 0
		Internal Gaps:  0
		External Gaps:  0
		External Gap Total:  0
		External Gap Average: 0
	Negative Gaps: 7
		Internal Overlaps:  1
		External Overlaps:  6
		External Overlaps Total: -459
		External Overlaps Average: -76
	Contigs with Redundant Alignments: 0 (0)
