All statistics are based on contigs of size >= 500 bp, unless otherwise noted (e.g., "# contigs (>= 0 bp)" and "Total length (>= 0 bp)" include all contigs).

Assembly                     prediction
# contigs (>= 0 bp)          3         
# contigs (>= 1000 bp)       3         
# contigs (>= 5000 bp)       3         
# contigs (>= 10000 bp)      2         
# contigs (>= 25000 bp)      1         
# contigs (>= 50000 bp)      0         
Total length (>= 0 bp)       61002     
Total length (>= 1000 bp)    61002     
Total length (>= 5000 bp)    61002     
Total length (>= 10000 bp)   55592     
Total length (>= 25000 bp)   36072     
Total length (>= 50000 bp)   0         
# contigs                    3         
Largest contig               36072     
Total length                 61002     
Reference length             5410      
GC (%)                       49.32     
Reference GC (%)             52.22     
N50                          36072     
NG50                         36072     
N75                          19520     
NG75                         36072     
L50                          1         
LG50                         1         
L75                          2         
LG75                         1         
# misassemblies              0         
# misassembled contigs       0         
Misassembled contigs length  0         
# local misassemblies        0         
# unaligned contigs          2 + 0 part
Unaligned length             55592     
Genome fraction (%)          100.000   
Duplication ratio            1.000     
# N's per 100 kbp            0.00      
# mismatches per 100 kbp     0.00      
# indels per 100 kbp         0.00      
Largest alignment            5410      
NGA50                        5410      
NGA75                        5410      
LGA50                        1         
LGA75                        1         
