S1	E1	S2	E2	Reference	Contig	IDY	Ambiguous
CONTIG	RNODE_1_length_55956_cov_20.87240	55956	unaligned
CONTIG	RNODE_3_length_5167_cov_267.31200	5167	unaligned
1	5307	325	5631	gi_556579591_ref_NC_022662.1__Escherichia_coli_JJ1886_plasmid_pJJ1886_3__complete_sequence	RNODE_6_length_5631_cov_243.83020	100.0	
CONTIG	RNODE_6_length_5631_cov_243.83020	5631	correct
CONTIG	RNODE_9_length_2216_cov_17.33552	2216	unaligned
CONTIG	RNODE_8_length_2361_cov_19.80703	2361	unaligned
CONTIG	RNODE_5_length_8225_cov_24.77024	8225	unaligned
CONTIG	RNODE_2_length_1634_cov_3.26377	1634	unaligned
CONTIG	RNODE_7_length_1552_cov_139.52191	1552	unaligned
CONTIG	RNODE_4_length_42611_cov_19.18907	42611	unaligned
