Assembly	prediction
# fully unaligned contigs	2
Fully unaligned length	10352
# partially unaligned contigs	1
    # with misassembly	0
    # both parts are significant	0
Partially unaligned length	334
# N's	0
