RNODE_1_length_2973_cov_28.41884
('EDGE_50_length_100_cov_32.6957', "EDGE_51_length_2983_cov_27.2275'")
[32.6957, 27.2275]
[50, 51]
RNODE_2_length_5586_cov_33.53344
('EDGE_287_length_97_cov_82.2', "EDGE_288_length_5599_cov_32.0315'")
[82.2, 32.0315]
[287, 288]
RNODE_3_length_2099_cov_41.73955
('EDGE_157_length_2127_cov_39.2702', "EDGE_159_length_82_cov_49.8'")
[39.2702, 49.8]
[157, 159]
RNODE_4_length_7716_cov_134.77867
("EDGE_182_length_141_cov_91.2031'", 'EDGE_181_length_7685_cov_133.649')
[91.2031, 133.649]
[182, 181]
RNODE_5_length_9500_cov_39.02821
("EDGE_311_length_83_cov_69.5'", 'EDGE_310_length_9501_cov_37.6859', 'EDGE_319_length_81_cov_85.75')
[69.5, 37.6859, 85.75]
[311, 310, 319]
RNODE_6_length_43408_cov_57.91864
("EDGE_11_length_27707_cov_56.1435'", 'EDGE_9_length_146_cov_16.3043', "EDGE_74_length_15544_cov_60.5324'", 'EDGE_71_length_231_cov_66.0974')
[56.1435, 16.3043, 60.5324, 66.0974]
[11, 9, 74, 71]
RNODE_7_length_41902_cov_35.64486
('EDGE_172_length_133_cov_99.6786', "EDGE_104_length_32171_cov_34.4264'", 'EDGE_103_length_101_cov_67.9167', "EDGE_173_length_9717_cov_37.66'")
[99.6786, 34.4264, 67.9167, 37.66]
[172, 104, 103, 173]
