Assembly	prediction
# contigs (>= 0 bp)	2
# contigs (>= 1000 bp)	2
# contigs (>= 5000 bp)	2
# contigs (>= 10000 bp)	2
# contigs (>= 25000 bp)	2
# contigs (>= 50000 bp)	2
Total length (>= 0 bp)	165566
Total length (>= 1000 bp)	165566
Total length (>= 5000 bp)	165566
Total length (>= 10000 bp)	165566
Total length (>= 25000 bp)	165566
Total length (>= 50000 bp)	165566
# contigs	2
Largest contig	103961
Total length	165566
Reference length	5410
GC (%)	53.14
Reference GC (%)	52.22
N50	103961
NG50	103961
N75	61605
NG75	103961
L50	1
LG50	1
L75	2
LG75	1
# unaligned contigs	2 + 0 part
Unaligned length	165566
# N's per 100 kbp	0.00
NGA50	-
