1: PREPARING DATA
2,3: RUNNING mummer AND CREATING CLUSTERS
# reading input file "/home/mmbbio/Plasmid_Assembly/completegenomes/plasmids/ECO889_plasmids_references/group_1.fasta_comparison_cbar/contigs_reports/nucmer_output/prediction.ntref" of length 212181
# construct suffix tree for sequence of length 212181
# (maximum reference length is 536870908)
# (maximum query length is 4294967295)
# process 2121 characters per dot
#....................................................................................................
# CONSTRUCTIONTIME /home/mmbbio/Plasmid_Assembly/programmes/quast-4.1/libs/MUMmer3.23-linux/mummer /home/mmbbio/Plasmid_Assembly/completegenomes/plasmids/ECO889_plasmids_references/group_1.fasta_comparison_cbar/contigs_reports/nucmer_output/prediction.ntref 0.03
# reading input file "/home/mmbbio/Plasmid_Assembly/completegenomes/plasmids/ECO889_plasmids_references/group_1.fasta_comparison_cbar/quast_corrected_input/prediction.fas" of length 226929
# matching query-file "/home/mmbbio/Plasmid_Assembly/completegenomes/plasmids/ECO889_plasmids_references/group_1.fasta_comparison_cbar/quast_corrected_input/prediction.fas"
# against subject-file "/home/mmbbio/Plasmid_Assembly/completegenomes/plasmids/ECO889_plasmids_references/group_1.fasta_comparison_cbar/contigs_reports/nucmer_output/prediction.ntref"
# COMPLETETIME /home/mmbbio/Plasmid_Assembly/programmes/quast-4.1/libs/MUMmer3.23-linux/mummer /home/mmbbio/Plasmid_Assembly/completegenomes/plasmids/ECO889_plasmids_references/group_1.fasta_comparison_cbar/contigs_reports/nucmer_output/prediction.ntref 0.10
# SPACE /home/mmbbio/Plasmid_Assembly/programmes/quast-4.1/libs/MUMmer3.23-linux/mummer /home/mmbbio/Plasmid_Assembly/completegenomes/plasmids/ECO889_plasmids_references/group_1.fasta_comparison_cbar/contigs_reports/nucmer_output/prediction.ntref 0.43
4: FINISHING DATA
