Assembly	prediction
# misassemblies	0
    # relocations	0
    # translocations	0
    # inversions	0
# misassembled contigs	0
Misassembled contigs length	0
# local misassemblies	0
# mismatches	33
# indels	4
    # short indels	3
    # long indels	1
Indels length	16
