Assembly	prediction
# contigs (>= 0 bp)	58
# contigs (>= 1000 bp)	50
# contigs (>= 5000 bp)	29
# contigs (>= 10000 bp)	23
# contigs (>= 25000 bp)	11
# contigs (>= 50000 bp)	6
Total length (>= 0 bp)	808106
Total length (>= 1000 bp)	802322
Total length (>= 5000 bp)	752390
Total length (>= 10000 bp)	709602
Total length (>= 25000 bp)	516394
Total length (>= 50000 bp)	350743
# contigs	58
Largest contig	79377
Total length	808106
Reference length	227680
GC (%)	51.84
Reference GC (%)	53.83
N50	40287
NG50	58253
N75	17756
NG75	56096
L50	8
LG50	2
L75	16
LG75	3
# misassemblies	0
# misassembled contigs	0
Misassembled contigs length	0
# local misassemblies	0
# unaligned contigs	31 + 1 part
Unaligned length	644418
Genome fraction (%)	82.182
Duplication ratio	1.016
# N's per 100 kbp	0.00
# mismatches per 100 kbp	3.74
# indels per 100 kbp	0.00
Largest alignment	40287
NGA50	13627
LGA50	5
