Assembly	# contigs (>= 0 bp)	# contigs (>= 1000 bp)	# contigs (>= 5000 bp)	# contigs (>= 10000 bp)	# contigs (>= 25000 bp)	# contigs (>= 50000 bp)	Total length (>= 0 bp)	Total length (>= 1000 bp)	Total length (>= 5000 bp)	Total length (>= 10000 bp)	Total length (>= 25000 bp)	Total length (>= 50000 bp)	# contigs	Largest contig	Total length	Reference length	GC (%)	Reference GC (%)	N50	NG50	N75	NG75	L50	LG50	L75	LG75	# misassemblies	# misassembled contigs	Misassembled contigs length	# local misassemblies	# unaligned contigs	Unaligned length	Genome fraction (%)	Duplication ratio	# N's per 100 kbp	# mismatches per 100 kbp	# indels per 100 kbp	Largest alignment	NA50	NGA50	NA75	NGA75	LA50	LGA50	LA75	LGA75
recycler_DRR016448_assembly_graph.cycs	4	4	2	0	0	0	14373	14373	11206	0	0	0	4	5820	14373	4109	40.92	54.42	5386	5820	5386	5820	2	1	2	1	-	-	-	-	4 + 0 part	14373	-	-	0.00	-	-	-	-	-	-	-	-	-	-	-
recycler_SRR1284629_assembly_graph.cycs	1	1	1	0	0	0	5410	5410	5410	0	0	0	1	5410	5410	4109	52.26	54.42	5410	5410	5410	5410	1	1	1	1	-	-	-	-	1 + 0 part	5410	-	-	0.00	-	-	-	-	-	-	-	-	-	-	-
recycler_SRR1427234_assembly_graph.cycs	1	1	0	0	0	0	2146	2146	0	0	0	0	1	2146	2146	4109	40.68	54.42	2146	2146	2146	-	1	1	1	-	-	-	-	-	1 + 0 part	2146	-	-	0.00	-	-	-	-	-	-	-	-	-	-	-
recycler_SRR1427243_assembly_graph.cycs	2	2	1	0	0	0	12719	12719	9453	0	0	0	2	9453	12719	4109	56.47	54.42	9453	9453	3266	9453	1	1	2	1	-	-	-	-	2 + 0 part	12719	-	-	0.00	-	-	-	-	-	-	-	-	-	-	-
recycler_SRR1501122_assembly_graph.cycs	2	2	2	1	0	0	31076	31076	31076	22167	0	0	2	22167	31076	4109	55.65	54.42	22167	22167	8909	22167	1	1	2	1	-	-	-	-	2 + 0 part	31076	-	-	0.00	-	-	-	-	-	-	-	-	-	-	-
recycler_SRR1501128_assembly_graph.cycs	2	2	0	0	0	0	5233	5233	0	0	0	0	2	3087	5233	4109	52.57	54.42	3087	3087	2146	3087	1	1	2	1	-	-	-	-	2 + 0 part	5233	-	-	0.00	-	-	-	-	-	-	-	-	-	-	-
recycler_SRR1505904_assembly_graph.cycs	6	6	2	1	1	0	56073	56073	47542	38089	38089	0	6	38089	56073	4109	56.12	54.42	38089	38089	9453	38089	1	1	2	1	-	-	-	-	6 + 0 part	56073	-	-	0.00	-	-	-	-	-	-	-	-	-	-	-
recycler_SRR1508819_assembly_graph.cycs	7	7	6	3	1	1	176744	176744	172974	152495	111693	111693	7	111693	176744	4109	49.07	54.42	111693	111693	21094	111693	1	1	2	1	-	-	-	-	7 + 0 part	176744	-	-	0.00	-	-	-	-	-	-	-	-	-	-	-
recycler_SRR1510963_assembly_graph.cycs	3	3	2	1	1	1	232610	232610	230464	221011	221011	221011	3	221011	232610	4109	58.59	54.42	221011	221011	221011	221011	1	1	1	1	-	-	-	-	3 + 0 part	232610	-	-	0.00	-	-	-	-	-	-	-	-	-	-	-
recycler_SRR1515967_assembly_graph.cycs	2	2	1	1	1	0	44743	44743	41814	41814	41814	0	2	41814	44743	4109	52.36	54.42	41814	41814	41814	41814	1	1	1	1	-	-	-	-	2 + 0 part	44743	-	-	0.00	-	-	-	-	-	-	-	-	-	-	-
recycler_SRR1558174_assembly_graph.cycs	2	2	1	1	1	0	51717	51717	48874	48874	48874	0	2	48874	51717	4109	42.17	54.42	48874	48874	48874	48874	1	1	1	1	-	-	-	-	2 + 0 part	51717	-	-	0.00	-	-	-	-	-	-	-	-	-	-	-
recycler_SRR1576778_assembly_graph.cycs	6	6	3	2	1	1	91133	91133	83089	73655	56315	56315	6	56315	91133	4109	55.71	54.42	56315	56315	17340	56315	1	1	2	1	-	-	-	-	6 + 0 part	91133	-	-	0.00	-	-	-	-	-	-	-	-	-	-	-
recycler_SRR1576808_assembly_graph.cycs	7	7	3	2	1	1	94558	94558	83089	73655	56315	56315	7	56315	94558	4109	55.49	54.42	56315	56315	17340	56315	1	1	2	1	-	-	-	-	7 + 0 part	94558	-	-	0.00	-	-	-	-	-	-	-	-	-	-	-
recycler_SRR1582868_assembly_graph.cycs	3	3	2	1	1	1	232209	232209	230063	220610	220610	220610	3	220610	232209	4109	58.60	54.42	220610	220610	220610	220610	1	1	1	1	-	-	-	-	3 + 0 part	232209	-	-	0.00	-	-	-	-	-	-	-	-	-	-	-
recycler_SRR1582875_assembly_graph.cycs	5	5	2	1	0	0	39401	39401	27738	18285	0	0	5	18285	39401	4109	52.52	54.42	9453	18285	4835	18285	2	1	3	1	-	-	-	-	5 + 0 part	39401	-	-	0.00	-	-	-	-	-	-	-	-	-	-	-
recycler_SRR1582895_assembly_graph.cycs	7	7	3	2	2	1	284496	284496	273682	264229	264229	220608	7	220608	284496	4109	56.80	54.42	220608	220608	220608	220608	1	1	1	1	-	-	-	-	7 + 0 part	284496	-	-	0.00	-	-	-	-	-	-	-	-	-	-	-
recycler_SRR2965612_assembly_graph.cycs	6	6	4	2	2	0	107224	107224	102240	85134	85134	0	6	43320	107224	4109	51.71	54.42	41814	43320	41814	43320	2	1	2	1	-	-	-	-	6 + 0 part	107224	-	-	0.00	-	-	-	-	-	-	-	-	-	-	-
recycler_SRR2965616_assembly_graph.cycs	7	7	5	2	2	0	112766	112766	107782	85134	85134	0	7	43320	112766	4109	51.91	54.42	41814	43320	41814	43320	2	1	2	1	-	-	-	-	7 + 0 part	112766	-	-	0.00	-	-	-	-	-	-	-	-	-	-	-
recycler_SRR2965639_assembly_graph.cycs	3	3	3	2	2	1	152877	152877	152877	147467	147467	111395	3	111395	152877	4109	48.46	54.42	111395	111395	36072	111395	1	1	2	1	-	-	-	-	3 + 0 part	152877	-	-	0.00	-	-	-	-	-	-	-	-	-	-	-
recycler_SRR2965655_assembly_graph.cycs	2	2	2	1	0	0	30128	30128	30128	22167	0	0	2	22167	30128	4109	55.74	54.42	22167	22167	7961	22167	1	1	2	1	-	-	-	-	2 + 0 part	30128	-	-	0.00	-	-	-	-	-	-	-	-	-	-	-
recycler_SRR2965660_assembly_graph.cycs	3	3	3	2	1	0	61002	61002	61002	55592	36072	0	3	36072	61002	4109	49.32	54.42	36072	36072	19520	36072	1	1	2	1	-	-	-	-	3 + 0 part	61002	-	-	0.00	-	-	-	-	-	-	-	-	-	-	-
recycler_SRR2965672_assembly_graph.cycs	2	2	1	0	0	0	13194	13194	9453	0	0	0	2	9453	13194	4109	52.42	54.42	9453	9453	3741	9453	1	1	2	1	-	-	-	-	2 + 0 part	13194	-	-	0.00	-	-	-	-	-	-	-	-	-	-	-
recycler_SRR2965690_assembly_graph.cycs	2	2	1	1	1	1	180835	180835	179532	179532	179532	179532	2	179532	180835	4109	51.46	54.42	179532	179532	179532	179532	1	1	1	1	-	-	-	-	2 + 0 part	180835	-	-	0.00	-	-	-	-	-	-	-	-	-	-	-
recycler_SRR2965721_assembly_graph.cycs	6	6	3	3	2	0	111000	111000	103216	103216	91301	0	6	49280	111000	4109	47.82	54.42	42021	49280	42021	49280	2	1	2	1	-	-	-	-	6 + 0 part	111000	-	-	0.00	-	-	-	-	-	-	-	-	-	-	-
recycler_SRR2965730_assembly_graph.cycs	2	2	1	0	0	0	9133	9133	7672	0	0	0	2	7672	9133	4109	44.49	54.42	7672	7672	7672	7672	1	1	1	1	-	-	-	-	2 + 0 part	9133	-	-	0.00	-	-	-	-	-	-	-	-	-	-	-
recycler_SRR2965739_assembly_graph.cycs	5	5	2	2	2	2	295662	295662	289220	289220	289220	289220	5	179532	295662	4109	51.13	54.42	179532	179532	109688	179532	1	1	2	1	-	-	-	-	5 + 0 part	295662	-	-	0.00	-	-	-	-	-	-	-	-	-	-	-
recycler_SRR2965748_assembly_graph.cycs	1	1	1	1	0	0	13981	13981	13981	13981	0	0	1	13981	13981	4109	54.71	54.42	13981	13981	13981	13981	1	1	1	1	-	-	-	-	1 + 0 part	13981	-	-	0.00	-	-	-	-	-	-	-	-	-	-	-
recycler_SRR2965752_assembly_graph.cycs	1	1	0	0	0	0	3017	3017	0	0	0	0	1	3017	3017	4109	57.44	54.42	3017	3017	3017	-	1	1	1	-	-	-	-	-	1 + 0 part	3017	-	-	0.00	-	-	-	-	-	-	-	-	-	-	-
recycler_SRR2965815_assembly_graph.cycs	8	8	5	2	1	0	92244	92244	84037	61389	43320	0	8	43320	92244	4109	50.70	54.42	18069	43320	9434	43320	2	1	3	1	-	-	-	-	8 + 0 part	92244	-	-	0.00	-	-	-	-	-	-	-	-	-	-	-
recycler_SRR2965820_assembly_graph.cycs	7	7	5	2	2	0	112766	112766	107782	85134	85134	0	7	43320	112766	4109	51.91	54.42	41814	43320	41814	43320	2	1	2	1	-	-	-	-	7 + 0 part	112766	-	-	0.00	-	-	-	-	-	-	-	-	-	-	-
recycler_SRR3176159_assembly_graph.cycs	3	3	2	1	0	0	20349	20349	17848	12462	0	0	3	12462	20349	4109	34.29	54.42	12462	12462	5386	12462	1	1	2	1	-	-	-	-	3 + 0 part	20349	-	-	0.00	-	-	-	-	-	-	-	-	-	-	-
recycler_SRR3217430_assembly_graph.cycs	4	4	3	2	1	0	63463	63463	60107	54586	36707	0	4	36707	63463	4109	56.28	54.42	36707	36707	17879	36707	1	1	2	1	-	-	-	-	4 + 0 part	63463	-	-	0.00	-	-	-	-	-	-	-	-	-	-	-
recycler_SRR3222156_assembly_graph.cycs	1	1	0	0	0	0	3408	3408	0	0	0	0	1	3408	3408	4109	43.28	54.42	3408	3408	3408	3408	1	1	1	1	-	-	-	-	1 + 0 part	3408	-	-	0.00	-	-	-	-	-	-	-	-	-	-	-
recycler_SRR3228444_assembly_graph.cycs	1	1	0	0	0	0	4167	4167	0	0	0	0	1	4167	4167	4109	41.49	54.42	4167	4167	4167	4167	1	1	1	1	-	-	-	-	1 + 0 part	4167	-	-	0.00	-	-	-	-	-	-	-	-	-	-	-
recycler_SRR3465535_assembly_graph.cycs	2	2	1	0	0	0	8850	8850	7114	0	0	0	2	7114	8850	4109	56.38	54.42	7114	7114	7114	7114	1	1	1	1	-	-	-	-	2 + 0 part	8850	-	-	0.00	-	-	-	-	-	-	-	-	-	-	-
recycler_SRR3465539_assembly_graph.cycs	1	1	0	0	0	0	1213	1213	0	0	0	0	1	1213	1213	4109	39.08	54.42	1213	-	1213	-	1	-	1	-	-	-	-	-	1 + 0 part	1213	-	-	0.00	-	-	-	-	-	-	-	-	-	-	-
recycler_SRR3465557_assembly_graph.cycs	4	4	0	0	0	0	15067	15067	0	0	0	0	4	4167	15067	4109	41.63	54.42	4014	4167	3478	4167	2	1	3	1	-	-	-	-	4 + 0 part	15067	-	-	0.00	-	-	-	-	-	-	-	-	-	-	-
recycler_SRR3465562_assembly_graph.cycs	7	7	2	2	1	1	257779	257779	241173	241173	229765	229765	7	229765	257779	4109	57.16	54.42	229765	229765	229765	229765	1	1	1	1	-	-	-	-	7 + 0 part	257779	-	-	0.00	-	-	-	-	-	-	-	-	-	-	-
recycler_SRR522246_assembly_graph.cycs	2	2	2	1	1	0	34036	34036	34036	28049	28049	0	2	28049	34036	4109	66.10	54.42	28049	28049	28049	28049	1	1	1	1	-	-	-	-	2 + 0 part	34036	-	-	0.00	-	-	-	-	-	-	-	-	-	-	-
recycler_SRR892039_assembly_graph.cycs	1	1	0	0	0	0	4109	4109	0	0	0	0	1	4109	4109	4109	54.42	54.42	4109	4109	4109	4109	1	1	1	1	0	0	0	0	0 + 1 part	334	91.872	1.000	0.00	0.00	0.00	3775	3775	3775	3775	3775	1	1	1	1
recycler_SRR933487_assembly_graph.cycs	9	9	5	2	2	1	125353	125353	117590	98567	98567	55956	9	55956	125353	4109	46.21	54.42	42611	55956	42611	55956	2	1	2	1	-	-	-	-	9 + 0 part	125353	-	-	0.00	-	-	-	-	-	-	-	-	-	-	-
recycler_SRR933489_assembly_graph.cycs	15	15	4	1	1	0	87076	87076	61634	42611	42611	0	15	42611	87076	4109	43.84	54.42	8225	42611	4863	42611	2	1	5	1	-	-	-	-	15 + 0 part	87076	-	-	0.00	-	-	-	-	-	-	-	-	-	-	-
