Assembly	prediction
# contigs (>= 0 bp)	77
# contigs (>= 1000 bp)	62
# contigs (>= 5000 bp)	13
# contigs (>= 10000 bp)	2
# contigs (>= 25000 bp)	1
# contigs (>= 50000 bp)	0
Total length (>= 0 bp)	251833
Total length (>= 1000 bp)	240784
Total length (>= 5000 bp)	136870
Total length (>= 10000 bp)	62434
Total length (>= 25000 bp)	41323
Total length (>= 50000 bp)	0
# contigs	77
Largest contig	41323
Total length	251833
Reference length	113639
GC (%)	52.60
Reference GC (%)	53.93
N50	5859
NG50	21111
N75	2533
NG75	7603
L50	12
LG50	2
L75	29
LG75	5
# misassemblies	0
# misassembled contigs	0
Misassembled contigs length	0
# local misassemblies	1
# unaligned contigs	33 + 6 part
Unaligned length	162811
Genome fraction (%)	68.067
Duplication ratio	1.151
# N's per 100 kbp	0.00
# mismatches per 100 kbp	182.29
# indels per 100 kbp	1.29
Largest alignment	6027
NGA50	1704
NGA75	563
LGA50	18
LGA75	44
