All statistics are based on contigs of size >= 500 bp, unless otherwise noted (e.g., "# contigs (>= 0 bp)" and "Total length (>= 0 bp)" include all contigs).

Assembly    # contigs (>= 0 bp)  # contigs (>= 1000 bp)  # contigs (>= 5000 bp)  # contigs (>= 10000 bp)  # contigs (>= 25000 bp)  # contigs (>= 50000 bp)  Total length (>= 0 bp)  Total length (>= 1000 bp)  Total length (>= 5000 bp)  Total length (>= 10000 bp)  Total length (>= 25000 bp)  Total length (>= 50000 bp)  # contigs  Largest contig  Total length  Reference length  GC (%)  Reference GC (%)  N50   NG50   N75   NG75  L50  LG50  L75  LG75  # misassemblies  # misassembled contigs  Misassembled contigs length  # local misassemblies  # unaligned contigs  Unaligned length  Genome fraction (%)  Duplication ratio  # N's per 100 kbp  # mismatches per 100 kbp  # indels per 100 kbp  Largest alignment  NGA50  NGA75  LGA50  LGA75
prediction  77                   62                      13                      2                        1                        0                        251833                  240784                     136870                     62434                       41323                       0                           77         41323           251833        113639            52.60   53.93             5859  21111  2533  7603  12   2     29   5     0                0                       0                            1                      33 + 6 part          162811            68.067               1.151              0.00               182.29                    1.29                  6027               1704   563    18     44   
