Assembly	prediction
# fully unaligned contigs	3
Fully unaligned length	34227
# partially unaligned contigs	1
    # with misassembly	0
    # both parts are significant	1
Partially unaligned length	19195
# N's	0
