All statistics are based on contigs of size >= 500 bp, unless otherwise noted (e.g., "# contigs (>= 0 bp)" and "Total length (>= 0 bp)" include all contigs).

Assembly    # contigs (>= 0 bp)  # contigs (>= 1000 bp)  # contigs (>= 5000 bp)  # contigs (>= 10000 bp)  # contigs (>= 25000 bp)  # contigs (>= 50000 bp)  Total length (>= 0 bp)  Total length (>= 1000 bp)  Total length (>= 5000 bp)  Total length (>= 10000 bp)  Total length (>= 25000 bp)  Total length (>= 50000 bp)  # contigs  Largest contig  Total length  Reference length  GC (%)  Reference GC (%)  N50     NG50    N75     NG75    L50  LG50  L75  LG75  # unaligned contigs  Unaligned length  # N's per 100 kbp  NGA50
prediction  5                    5                       2                       2                        2                        2                        295662                  295662                     289220                     289220                      289220                      289220                      5          179532          295662        16257             51.13   46.95             179532  179532  109688  179532  1    1     2    1     5 + 0 part           295662            0.00               -    
