S1	E1	S2	E2	Reference	Contig	IDY	Ambiguous
64086	144594	1	80509	gi_764910723_ref_NZ_CP008824.1__Enterobacter_cloacae_ECNIH2_plasmid_pKEC-39c__complete_sequence	NODE_1_length_80509_cov_269.779_component_0	100.0	
CONTIG	NODE_1_length_80509_cov_269.779_component_0	80509	correct
170861	203899	33039	1	gi_764910723_ref_NZ_CP008824.1__Enterobacter_cloacae_ECNIH2_plasmid_pKEC-39c__complete_sequence	NODE_2_length_33039_cov_295.286_component_0	100.0	
CONTIG	NODE_2_length_33039_cov_295.286_component_0	33039	correct
CONTIG	NODE_3_length_27937_cov_153.44_component_0	27937	unaligned
1	23008	23008	1	gi_764910723_ref_NZ_CP008824.1__Enterobacter_cloacae_ECNIH2_plasmid_pKEC-39c__complete_sequence	NODE_4_length_25535_cov_248.252_component_0	100.0	
fake misassembly (linear representation of circular genome)
317450	319976	25535	23009	gi_764910723_ref_NZ_CP008824.1__Enterobacter_cloacae_ECNIH2_plasmid_pKEC-39c__complete_sequence	NODE_4_length_25535_cov_248.252_component_0	100.0	
CONTIG	NODE_4_length_25535_cov_248.252_component_0	25535	correct
276068	296405	1	20338	gi_764910723_ref_NZ_CP008824.1__Enterobacter_cloacae_ECNIH2_plasmid_pKEC-39c__complete_sequence	NODE_5_length_20338_cov_234.621_component_0	100.0	
CONTIG	NODE_5_length_20338_cov_234.621_component_0	20338	correct
149511	167858	18348	1	gi_764910723_ref_NZ_CP008824.1__Enterobacter_cloacae_ECNIH2_plasmid_pKEC-39c__complete_sequence	NODE_6_length_18348_cov_327.871_component_0	100.0	
CONTIG	NODE_6_length_18348_cov_327.871_component_0	18348	correct
33559	47737	14179	1	gi_764910723_ref_NZ_CP008824.1__Enterobacter_cloacae_ECNIH2_plasmid_pKEC-39c__complete_sequence	NODE_7_length_14179_cov_216.947_component_0	100.0	
CONTIG	NODE_7_length_14179_cov_216.947_component_0	14179	correct
CONTIG	NODE_8_length_12296_cov_196.155_component_0	12296	unaligned
301281	311917	1	10637	gi_764910723_ref_NZ_CP008824.1__Enterobacter_cloacae_ECNIH2_plasmid_pKEC-39c__complete_sequence	NODE_9_length_10637_cov_236.715_component_0	100.0	
CONTIG	NODE_9_length_10637_cov_236.715_component_0	10637	correct
230198	239789	9592	1	gi_764910723_ref_NZ_CP008824.1__Enterobacter_cloacae_ECNIH2_plasmid_pKEC-39c__complete_sequence	NODE_10_length_9592_cov_272.476_component_0	99.92	
CONTIG	NODE_10_length_9592_cov_272.476_component_0	9592	correct
23814	32892	9079	1	gi_764910723_ref_NZ_CP008824.1__Enterobacter_cloacae_ECNIH2_plasmid_pKEC-39c__complete_sequence	NODE_11_length_9079_cov_304.012_component_0	99.98	
CONTIG	NODE_11_length_9079_cov_304.012_component_0	9079	correct
250598	258842	8245	1	gi_764910723_ref_NZ_CP008824.1__Enterobacter_cloacae_ECNIH2_plasmid_pKEC-39c__complete_sequence	NODE_12_length_8245_cov_306.431_component_0	99.99	
CONTIG	NODE_12_length_8245_cov_306.431_component_0	8245	correct
259509	267659	8151	1	gi_764910723_ref_NZ_CP008824.1__Enterobacter_cloacae_ECNIH2_plasmid_pKEC-39c__complete_sequence	NODE_13_length_8151_cov_198.364_component_0	100.0	
CONTIG	NODE_13_length_8151_cov_198.364_component_0	8151	correct
311841	317526	5686	1	gi_764910723_ref_NZ_CP008824.1__Enterobacter_cloacae_ECNIH2_plasmid_pKEC-39c__complete_sequence	NODE_14_length_5686_cov_238.027_component_0	100.0	
CONTIG	NODE_14_length_5686_cov_238.027_component_0	5686	correct
296329	301357	1	5029	gi_764910723_ref_NZ_CP008824.1__Enterobacter_cloacae_ECNIH2_plasmid_pKEC-39c__complete_sequence	NODE_15_length_5029_cov_240.339_component_0	100.0	
CONTIG	NODE_15_length_5029_cov_240.339_component_0	5029	correct
241006	245938	4933	1	gi_764910723_ref_NZ_CP008824.1__Enterobacter_cloacae_ECNIH2_plasmid_pKEC-39c__complete_sequence	NODE_16_length_4933_cov_240.423_component_0	100.0	
CONTIG	NODE_16_length_4933_cov_240.423_component_0	4933	correct
56786	61046	1	4261	gi_764910723_ref_NZ_CP008824.1__Enterobacter_cloacae_ECNIH2_plasmid_pKEC-39c__complete_sequence	NODE_17_length_4261_cov_237.723_component_0	100.0	
CONTIG	NODE_17_length_4261_cov_237.723_component_0	4261	correct
CONTIG	NODE_18_length_4254_cov_628.802_component_0	4254	unaligned
216880	220543	3664	1	gi_764910723_ref_NZ_CP008824.1__Enterobacter_cloacae_ECNIH2_plasmid_pKEC-39c__complete_sequence	NODE_19_length_3664_cov_327.187_component_0	100.0	
CONTIG	NODE_19_length_3664_cov_327.187_component_0	3664	correct
169896	170937	3426	2385	gi_764910723_ref_NZ_CP008824.1__Enterobacter_cloacae_ECNIH2_plasmid_pKEC-39c__complete_sequence	NODE_20_length_3426_cov_512.274_component_0	95.97	
CONTIG	NODE_20_length_3426_cov_512.274_component_0	3426	correct
CONTIG	NODE_21_length_3342_cov_212.169_component_0	3342	unaligned
272094	275359	3266	1	gi_764910723_ref_NZ_CP008824.1__Enterobacter_cloacae_ECNIH2_plasmid_pKEC-39c__complete_sequence	NODE_22_length_3266_cov_246.611_component_0	100.0	
CONTIG	NODE_22_length_3266_cov_246.611_component_0	3266	correct
220543	223748	3206	1	gi_764910723_ref_NZ_CP008824.1__Enterobacter_cloacae_ECNIH2_plasmid_pKEC-39c__complete_sequence	NODE_23_length_3206_cov_438.444_component_0	100.0	
CONTIG	NODE_23_length_3206_cov_438.444_component_0	3206	correct
208432	211418	1	2987	gi_764910723_ref_NZ_CP008824.1__Enterobacter_cloacae_ECNIH2_plasmid_pKEC-39c__complete_sequence	NODE_24_length_2987_cov_211.085_component_0	100.0	
CONTIG	NODE_24_length_2987_cov_211.085_component_0	2987	correct
247218	250086	1	2869	gi_764910723_ref_NZ_CP008824.1__Enterobacter_cloacae_ECNIH2_plasmid_pKEC-39c__complete_sequence	NODE_25_length_2869_cov_312.293_component_0	99.97	
CONTIG	NODE_25_length_2869_cov_312.293_component_0	2869	correct
49138	50933	1	1796	gi_764910723_ref_NZ_CP008824.1__Enterobacter_cloacae_ECNIH2_plasmid_pKEC-39c__complete_sequence	NODE_26_length_1796_cov_209.393_component_0	100.0	
CONTIG	NODE_26_length_1796_cov_209.393_component_0	1796	correct
168216	169972	1	1757	gi_764910723_ref_NZ_CP008824.1__Enterobacter_cloacae_ECNIH2_plasmid_pKEC-39c__complete_sequence	NODE_27_length_1757_cov_342.488_component_0	100.0	
CONTIG	NODE_27_length_1757_cov_342.488_component_0	1757	correct
204661	205352	1729	1038	gi_764910723_ref_NZ_CP008824.1__Enterobacter_cloacae_ECNIH2_plasmid_pKEC-39c__complete_sequence	NODE_28_length_1729_cov_244.223_component_0	100.0	
CONTIG	NODE_28_length_1729_cov_244.223_component_0	1729	correct
47661	49214	1	1554	gi_764910723_ref_NZ_CP008824.1__Enterobacter_cloacae_ECNIH2_plasmid_pKEC-39c__complete_sequence	NODE_29_length_1554_cov_267.992_component_0	100.0	
CONTIG	NODE_29_length_1554_cov_267.992_component_0	1554	correct
245862	247294	1	1433	gi_764910723_ref_NZ_CP008824.1__Enterobacter_cloacae_ECNIH2_plasmid_pKEC-39c__complete_sequence	NODE_30_length_1433_cov_366.241_component_0	100.0	
CONTIG	NODE_30_length_1433_cov_366.241_component_0	1433	correct
52198	53587	1390	1	gi_764910723_ref_NZ_CP008824.1__Enterobacter_cloacae_ECNIH2_plasmid_pKEC-39c__complete_sequence	NODE_31_length_1390_cov_199.236_component_0	99.93	
CONTIG	NODE_31_length_1390_cov_199.236_component_0	1390	correct
269546	270927	1382	1	gi_764910723_ref_NZ_CP008824.1__Enterobacter_cloacae_ECNIH2_plasmid_pKEC-39c__complete_sequence	NODE_32_length_1382_cov_283.267_component_0	100.0	
CONTIG	NODE_32_length_1382_cov_283.267_component_0	1382	correct
147690	149059	1	1370	gi_764910723_ref_NZ_CP008824.1__Enterobacter_cloacae_ECNIH2_plasmid_pKEC-39c__complete_sequence	NODE_33_length_1370_cov_503.466_component_0	100.0	True
239713	241082	1	1370	gi_764910723_ref_NZ_CP008824.1__Enterobacter_cloacae_ECNIH2_plasmid_pKEC-39c__complete_sequence	NODE_33_length_1370_cov_503.466_component_0	99.56	True
CONTIG	NODE_33_length_1370_cov_503.466_component_0	1370	correct
54767	55999	1	1233	gi_764910723_ref_NZ_CP008824.1__Enterobacter_cloacae_ECNIH2_plasmid_pKEC-39c__complete_sequence	NODE_34_length_1233_cov_298.811_component_0	100.0	
CONTIG	NODE_34_length_1233_cov_298.811_component_0	1233	correct
22932	23890	1	959	gi_764910723_ref_NZ_CP008824.1__Enterobacter_cloacae_ECNIH2_plasmid_pKEC-39c__complete_sequence	NODE_35_length_959_cov_434.71_component_0	100.0	True
63204	64162	959	1	gi_764910723_ref_NZ_CP008824.1__Enterobacter_cloacae_ECNIH2_plasmid_pKEC-39c__complete_sequence	NODE_35_length_959_cov_434.71_component_0	100.0	True
CONTIG	NODE_35_length_959_cov_434.71_component_0	959	correct
203823	204737	1	915	gi_764910723_ref_NZ_CP008824.1__Enterobacter_cloacae_ECNIH2_plasmid_pKEC-39c__complete_sequence	NODE_36_length_915_cov_975.779_component_0	100.0	True
212162	213076	1	915	gi_764910723_ref_NZ_CP008824.1__Enterobacter_cloacae_ECNIH2_plasmid_pKEC-39c__complete_sequence	NODE_36_length_915_cov_975.779_component_0	100.0	True
268708	269622	1	915	gi_764910723_ref_NZ_CP008824.1__Enterobacter_cloacae_ECNIH2_plasmid_pKEC-39c__complete_sequence	NODE_36_length_915_cov_975.779_component_0	100.0	True
53929	54843	1	915	gi_764910723_ref_NZ_CP008824.1__Enterobacter_cloacae_ECNIH2_plasmid_pKEC-39c__complete_sequence	NODE_36_length_915_cov_975.779_component_0	99.78	True
CONTIG	NODE_36_length_915_cov_975.779_component_0	915	correct
CONTIG	NODE_37_length_911_cov_659.284_component_0	911	unaligned
213075	213936	862	1	gi_764910723_ref_NZ_CP008824.1__Enterobacter_cloacae_ECNIH2_plasmid_pKEC-39c__complete_sequence	NODE_38_length_862_cov_664.603_component_0	100.0	True
271309	272170	862	1	gi_764910723_ref_NZ_CP008824.1__Enterobacter_cloacae_ECNIH2_plasmid_pKEC-39c__complete_sequence	NODE_38_length_862_cov_664.603_component_0	100.0	True
275283	276144	862	1	gi_764910723_ref_NZ_CP008824.1__Enterobacter_cloacae_ECNIH2_plasmid_pKEC-39c__complete_sequence	NODE_38_length_862_cov_664.603_component_0	100.0	True
205799	206660	862	1	gi_764910723_ref_NZ_CP008824.1__Enterobacter_cloacae_ECNIH2_plasmid_pKEC-39c__complete_sequence	NODE_38_length_862_cov_664.603_component_0	99.88	True
CONTIG	NODE_38_length_862_cov_664.603_component_0	862	correct
CONTIG	NODE_39_length_855_cov_68.3188_component_0	855	unaligned
56054	56862	809	1	gi_764910723_ref_NZ_CP008824.1__Enterobacter_cloacae_ECNIH2_plasmid_pKEC-39c__complete_sequence	NODE_40_length_809_cov_489.986_component_0	100.0	True
206880	207688	809	1	gi_764910723_ref_NZ_CP008824.1__Enterobacter_cloacae_ECNIH2_plasmid_pKEC-39c__complete_sequence	NODE_40_length_809_cov_489.986_component_0	100.0	True
CONTIG	NODE_40_length_809_cov_489.986_component_0	809	correct
61790	62594	805	1	gi_764910723_ref_NZ_CP008824.1__Enterobacter_cloacae_ECNIH2_plasmid_pKEC-39c__complete_sequence	NODE_41_length_805_cov_240.234_component_0	100.0	
CONTIG	NODE_41_length_805_cov_240.234_component_0	805	correct
62518	63280	1	763	gi_764910723_ref_NZ_CP008824.1__Enterobacter_cloacae_ECNIH2_plasmid_pKEC-39c__complete_sequence	NODE_42_length_763_cov_215.213_component_0	100.0	
CONTIG	NODE_42_length_763_cov_215.213_component_0	763	correct
32816	33539	1	724	gi_764910723_ref_NZ_CP008824.1__Enterobacter_cloacae_ECNIH2_plasmid_pKEC-39c__complete_sequence	NODE_43_length_724_cov_2359.01_component_0	100.0	True
60970	61693	1	724	gi_764910723_ref_NZ_CP008824.1__Enterobacter_cloacae_ECNIH2_plasmid_pKEC-39c__complete_sequence	NODE_43_length_724_cov_2359.01_component_0	100.0	True
207785	208508	724	1	gi_764910723_ref_NZ_CP008824.1__Enterobacter_cloacae_ECNIH2_plasmid_pKEC-39c__complete_sequence	NODE_43_length_724_cov_2359.01_component_0	100.0	True
211438	212161	724	1	gi_764910723_ref_NZ_CP008824.1__Enterobacter_cloacae_ECNIH2_plasmid_pKEC-39c__complete_sequence	NODE_43_length_724_cov_2359.01_component_0	100.0	True
215333	216056	724	1	gi_764910723_ref_NZ_CP008824.1__Enterobacter_cloacae_ECNIH2_plasmid_pKEC-39c__complete_sequence	NODE_43_length_724_cov_2359.01_component_0	100.0	True
223747	224470	1	724	gi_764910723_ref_NZ_CP008824.1__Enterobacter_cloacae_ECNIH2_plasmid_pKEC-39c__complete_sequence	NODE_43_length_724_cov_2359.01_component_0	100.0	True
258862	259585	724	1	gi_764910723_ref_NZ_CP008824.1__Enterobacter_cloacae_ECNIH2_plasmid_pKEC-39c__complete_sequence	NODE_43_length_724_cov_2359.01_component_0	100.0	True
267679	268402	724	1	gi_764910723_ref_NZ_CP008824.1__Enterobacter_cloacae_ECNIH2_plasmid_pKEC-39c__complete_sequence	NODE_43_length_724_cov_2359.01_component_0	100.0	True
CONTIG	NODE_43_length_724_cov_2359.01_component_0	724	correct
147064	147766	703	1	gi_764910723_ref_NZ_CP008824.1__Enterobacter_cloacae_ECNIH2_plasmid_pKEC-39c__complete_sequence	NODE_44_length_703_cov_383.5_component_0	99.86	
CONTIG	NODE_44_length_703_cov_383.5_component_0	703	correct
146492	147140	1	649	gi_764910723_ref_NZ_CP008824.1__Enterobacter_cloacae_ECNIH2_plasmid_pKEC-39c__complete_sequence	NODE_45_length_649_cov_570.603_component_0	100.0	
CONTIG	NODE_45_length_649_cov_570.603_component_0	649	correct
144518	145151	1	634	gi_764910723_ref_NZ_CP008824.1__Enterobacter_cloacae_ECNIH2_plasmid_pKEC-39c__complete_sequence	NODE_46_length_634_cov_649.706_component_0	100.0	True
229641	230274	1	634	gi_764910723_ref_NZ_CP008824.1__Enterobacter_cloacae_ECNIH2_plasmid_pKEC-39c__complete_sequence	NODE_46_length_634_cov_649.706_component_0	99.53	True
CONTIG	NODE_46_length_634_cov_649.706_component_0	634	correct
169964	170502	77	615	gi_764910723_ref_NZ_CP008824.1__Enterobacter_cloacae_ECNIH2_plasmid_pKEC-39c__complete_sequence	NODE_47_length_615_cov_493.535_component_0	100.0	
CONTIG	NODE_47_length_615_cov_493.535_component_0	615	correct
CONTIG	NODE_48_length_571_cov_993.231_component_0	571	unaligned
149077	149587	511	1	gi_764910723_ref_NZ_CP008824.1__Enterobacter_cloacae_ECNIH2_plasmid_pKEC-39c__complete_sequence	NODE_49_length_511_cov_926.276_component_0	100.0	True
167782	168292	1	511	gi_764910723_ref_NZ_CP008824.1__Enterobacter_cloacae_ECNIH2_plasmid_pKEC-39c__complete_sequence	NODE_49_length_511_cov_926.276_component_0	100.0	True
CONTIG	NODE_49_length_511_cov_926.276_component_0	511	correct
