Assembly	prediction
# contigs (>= 0 bp)	28
# contigs (>= 1000 bp)	25
# contigs (>= 5000 bp)	11
# contigs (>= 10000 bp)	5
# contigs (>= 25000 bp)	3
# contigs (>= 50000 bp)	3
Total length (>= 0 bp)	391101
Total length (>= 1000 bp)	389117
Total length (>= 5000 bp)	354826
Total length (>= 10000 bp)	314907
Total length (>= 25000 bp)	277140
Total length (>= 50000 bp)	277140
# contigs	28
Largest contig	111574
Total length	391101
Reference length	113105
GC (%)	51.70
Reference GC (%)	54.18
N50	103961
NG50	111574
N75	21088
NG75	111574
L50	2
LG50	1
L75	4
LG75	1
# misassemblies	0
# misassembled contigs	0
Misassembled contigs length	0
# local misassemblies	0
# unaligned contigs	25 + 0 part
Unaligned length	280958
Genome fraction (%)	97.313
Duplication ratio	1.001
# N's per 100 kbp	0.00
# mismatches per 100 kbp	0.91
# indels per 100 kbp	0.00
Largest alignment	103961
NGA50	103961
NGA75	103961
LGA50	1
LGA75	1
