Assembly	prediction
# misassemblies	1
    # relocations	1
    # translocations	0
    # inversions	0
# misassembled contigs	1
Misassembled contigs length	16585
# local misassemblies	0
# mismatches	8
# indels	0
    # short indels	0
    # long indels	0
Indels length	0
