Assembly	prediction
# fully unaligned contigs	7
Fully unaligned length	160010
# partially unaligned contigs	2
    # with misassembly	0
    # both parts are significant	2
Partially unaligned length	80293
# N's	0
