Assembly	prediction
# contigs (>= 0 bp)	1
# contigs (>= 1000 bp)	1
# contigs (>= 5000 bp)	0
# contigs (>= 10000 bp)	0
# contigs (>= 25000 bp)	0
# contigs (>= 50000 bp)	0
Total length (>= 0 bp)	3017
Total length (>= 1000 bp)	3017
Total length (>= 5000 bp)	0
Total length (>= 10000 bp)	0
Total length (>= 25000 bp)	0
Total length (>= 50000 bp)	0
# contigs	1
Largest contig	3017
Total length	3017
Reference length	1919
GC (%)	57.44
Reference GC (%)	51.33
N50	3017
NG50	3017
N75	3017
NG75	3017
L50	1
LG50	1
L75	1
LG75	1
# unaligned contigs	1 + 0 part
Unaligned length	3017
# N's per 100 kbp	0.00
NGA50	-
