Assembly	prediction
# contigs (>= 0 bp)	77
# contigs (>= 1000 bp)	46
# contigs (>= 5000 bp)	26
# contigs (>= 10000 bp)	16
# contigs (>= 25000 bp)	7
# contigs (>= 50000 bp)	1
Total length (>= 0 bp)	547389
Total length (>= 1000 bp)	537927
Total length (>= 5000 bp)	488313
Total length (>= 10000 bp)	420766
Total length (>= 25000 bp)	282563
Total length (>= 50000 bp)	62419
# contigs	51
Largest contig	62419
Total length	541738
Reference length	193725
GC (%)	51.95
Reference GC (%)	51.58
N50	32049
NG50	40456
N75	10107
NG75	37518
L50	7
LG50	2
L75	15
LG75	4
# misassemblies	0
# misassembled contigs	0
Misassembled contigs length	0
# local misassemblies	0
# unaligned contigs	34 + 1 part
Unaligned length	355083
Genome fraction (%)	98.389
Duplication ratio	1.007
# N's per 100 kbp	0.00
# mismatches per 100 kbp	8.39
# indels per 100 kbp	9.44
Largest alignment	62419
NGA50	40456
NGA75	10484
LGA50	2
LGA75	4
