S1	E1	S2	E2	Reference	Contig	IDY	Ambiguous
15617	16293	62744	63418	gi_1040187127_ref_NZ_CP014649.1__Klebsiella_pneumoniae_strain_KPNIH36_plasmid_pKPN-fff__complete_sequence	NODE_36_length_65587_cov_21.8059	97.78	
CONTIG	NODE_36_length_65587_cov_21.8059	65587	correct
83566	133484	50046	128	gi_1040187127_ref_NZ_CP014649.1__Klebsiella_pneumoniae_strain_KPNIH36_plasmid_pKPN-fff__complete_sequence	NODE_39_length_50046_cov_16.056	100.0	
CONTIG	NODE_39_length_50046_cov_16.056	50046	correct
15830	16993	1	1164	gi_1040187127_ref_NZ_CP014649.1__Klebsiella_pneumoniae_strain_KPNIH36_plasmid_pKPN-fff__complete_sequence	NODE_41_length_34935_cov_22.2843	99.31	
83863	84554	22106	22797	gi_1040187127_ref_NZ_CP014649.1__Klebsiella_pneumoniae_strain_KPNIH36_plasmid_pKPN-fff__complete_sequence	NODE_41_length_34935_cov_22.2843	98.7	
CONTIG	NODE_54_length_16132_cov_66.9039	16132	unaligned
48629	63745	15117	1	gi_1040187127_ref_NZ_CP014649.1__Klebsiella_pneumoniae_strain_KPNIH36_plasmid_pKPN-fff__complete_sequence	NODE_55_length_15117_cov_29.338	100.0	
CONTIG	NODE_55_length_15117_cov_29.338	15117	correct
63619	73411	1	9793	gi_1040187127_ref_NZ_CP014649.1__Klebsiella_pneumoniae_strain_KPNIH36_plasmid_pKPN-fff__complete_sequence	NODE_61_length_9793_cov_17.4302	100.0	
CONTIG	NODE_61_length_9793_cov_17.4302	9793	correct
73649	81458	1	7810	gi_1040187127_ref_NZ_CP014649.1__Klebsiella_pneumoniae_strain_KPNIH36_plasmid_pKPN-fff__complete_sequence	NODE_62_length_7810_cov_19.1863	100.0	
CONTIG	NODE_62_length_7810_cov_19.1863	7810	correct
CONTIG	NODE_65_length_6095_cov_21.6553	6095	unaligned
6993	12906	1	5914	gi_1040187127_ref_NZ_CP014649.1__Klebsiella_pneumoniae_strain_KPNIH36_plasmid_pKPN-fff__complete_sequence	NODE_66_length_5948_cov_14.5233	99.9	
CONTIG	NODE_66_length_5948_cov_14.5233	5948	correct
CONTIG	NODE_70_length_4288_cov_75.9877	4288	unaligned
23974	28122	1	4149	gi_1040187127_ref_NZ_CP014649.1__Klebsiella_pneumoniae_strain_KPNIH36_plasmid_pKPN-fff__complete_sequence	NODE_71_length_4149_cov_28.9901	100.0	
CONTIG	NODE_71_length_4149_cov_28.9901	4149	correct
CONTIG	NODE_73_length_3486_cov_110.059	3486	unaligned
CONTIG	NODE_74_length_3466_cov_100.86	3466	unaligned
1070	4111	1	3042	gi_1040187127_ref_NZ_CP014649.1__Klebsiella_pneumoniae_strain_KPNIH36_plasmid_pKPN-fff__complete_sequence	NODE_76_length_3042_cov_16.9245	100.0	
CONTIG	NODE_76_length_3042_cov_16.9245	3042	correct
12724	15755	1	3032	gi_1040187127_ref_NZ_CP014649.1__Klebsiella_pneumoniae_strain_KPNIH36_plasmid_pKPN-fff__complete_sequence	NODE_77_length_3032_cov_29.233	99.34	
CONTIG	NODE_77_length_3032_cov_29.233	3032	correct
16650	18707	1	2058	gi_1040187127_ref_NZ_CP014649.1__Klebsiella_pneumoniae_strain_KPNIH36_plasmid_pKPN-fff__complete_sequence	NODE_79_length_2058_cov_15.7136	100.0	
CONTIG	NODE_79_length_2058_cov_15.7136	2058	correct
81663	83361	1699	1	gi_1040187127_ref_NZ_CP014649.1__Klebsiella_pneumoniae_strain_KPNIH36_plasmid_pKPN-fff__complete_sequence	NODE_81_length_1699_cov_16.1287	100.0	
CONTIG	NODE_81_length_1699_cov_16.1287	1699	correct
18581	20494	1	1914	gi_1040187127_ref_NZ_CP014649.1__Klebsiella_pneumoniae_strain_KPNIH36_plasmid_pKPN-fff__complete_sequence	NODE_82_length_1914_cov_79.4555	100.0	
CONTIG	NODE_82_length_1914_cov_79.4555	1914	correct
4308	6149	1842	1	gi_1040187127_ref_NZ_CP014649.1__Klebsiella_pneumoniae_strain_KPNIH36_plasmid_pKPN-fff__complete_sequence	NODE_83_length_1842_cov_14.4507	100.0	
CONTIG	NODE_83_length_1842_cov_14.4507	1842	correct
CONTIG	NODE_85_length_1609_cov_85.3441	1609	unaligned
1	1196	1196	1	gi_1040187127_ref_NZ_CP014649.1__Klebsiella_pneumoniae_strain_KPNIH36_plasmid_pKPN-fff__complete_sequence	NODE_94_length_1196_cov_212.62	100.0	
CONTIG	NODE_94_length_1196_cov_212.62	1196	correct
12926	13715	1	790	gi_1040187127_ref_NZ_CP014649.1__Klebsiella_pneumoniae_strain_KPNIH36_plasmid_pKPN-fff__complete_sequence	NODE_102_length_790_cov_17.7979	100.0	
CONTIG	NODE_102_length_790_cov_17.7979	790	correct
