Aligning contigs to reference...
	Running Nucmer
Parsing coords...
Loading reference...
	Loaded [gi_828939407_gb_CP011608.1__Citrobacter_freundii_strain_CAV1321_plasmid_pKPC_CAV1321-45__complete_sequence]
Loading SNPs...
Loading regions...
	No regions given, using whole reference.
	Total Regions: 1
	Total Region Length: 44846
Analyzing contigs...
CONTIG: NODE_16_length_144675_cov_39.328 (144675bp)
		This contig is unaligned. (144675 bp)
		Unaligned bases: 144675  total: 144675

CONTIG: NODE_24_length_75582_cov_51.3513 (75582bp)
		This contig is unaligned. (75582 bp)
		Unaligned bases: 75582  total: 220257

CONTIG: NODE_25_length_56128_cov_83.0426 (56128bp)
		This contig is unaligned. (56128 bp)
		Unaligned bases: 56128  total: 276385

CONTIG: NODE_31_length_34586_cov_41.5991 (34586bp)
		This contig is unaligned. (34586 bp)
		Unaligned bases: 34586  total: 310971

CONTIG: NODE_35_length_22371_cov_78.9859 (22371bp)
Top Length: 20969  Top ID: 100.0
		This contig is misassembled. 2 total aligns.
			Real Alignment 1: 43445 44846 | 1 1402 | 1402 1402 | 100.0 | gi_828939407_gb_CP011608.1__Citrobacter_freundii_strain_CAV1321_plasmid_pKPC_CAV1321-45__complete_sequence NODE_35_length_22371_cov_78.9859
			  Fake misassembly (caused by linear representation of circular genome) between these two alignments
			Real Alignment 2: 1 20969 | 1403 22371 | 20969 20969 | 100.0 | gi_828939407_gb_CP011608.1__Citrobacter_freundii_strain_CAV1321_plasmid_pKPC_CAV1321-45__complete_sequence NODE_35_length_22371_cov_78.9859

CONTIG: NODE_38_length_13117_cov_99.8133 (13117bp)
Top Length: 13117  Top ID: 100.0
		One align captures most of this contig: 28689 41805 | 1 13117 | 13117 13117 | 100.0 | gi_828939407_gb_CP011608.1__Citrobacter_freundii_strain_CAV1321_plasmid_pKPC_CAV1321-45__complete_sequence NODE_38_length_13117_cov_99.8133

CONTIG: NODE_38_length_13117_cov_99.8133 (13117bp)
Top Length: 13117  Top ID: 100.0
		One align captures most of this contig: 28689 41805 | 1 13117 | 13117 13117 | 100.0 | gi_828939407_gb_CP011608.1__Citrobacter_freundii_strain_CAV1321_plasmid_pKPC_CAV1321-45__complete_sequence NODE_38_length_13117_cov_99.8133

CONTIG: NODE_39_length_11686_cov_55.8339 (11686bp)
		This contig is unaligned. (11686 bp)
		Unaligned bases: 11686  total: 322657

CONTIG: NODE_40_length_11288_cov_49.4343 (11288bp)
		This contig is unaligned. (11288 bp)
		Unaligned bases: 11288  total: 333945

CONTIG: NODE_41_length_9516_cov_38.6634 (9516bp)
		This contig is unaligned. (9516 bp)
		Unaligned bases: 9516  total: 343461

CONTIG: NODE_44_length_8403_cov_49.0904 (8403bp)
		This contig is unaligned. (8403 bp)
		Unaligned bases: 8403  total: 351864

CONTIG: NODE_47_length_6729_cov_73.6502 (6729bp)
Top Length: 6729  Top ID: 100.0
		One align captures most of this contig: 22037 28765 | 6729 1 | 6729 6729 | 100.0 | gi_828939407_gb_CP011608.1__Citrobacter_freundii_strain_CAV1321_plasmid_pKPC_CAV1321-45__complete_sequence NODE_47_length_6729_cov_73.6502

CONTIG: NODE_48_length_5817_cov_83.9197 (5817bp)
		This contig is unaligned. (5817 bp)
		Unaligned bases: 5817  total: 357681

CONTIG: NODE_50_length_5014_cov_471.6 (5014bp)
		This contig is unaligned. (5014 bp)
		Unaligned bases: 5014  total: 362695

CONTIG: NODE_52_length_4403_cov_40.1706 (4403bp)
		This contig is unaligned. (4403 bp)
		Unaligned bases: 4403  total: 367098

CONTIG: NODE_54_length_3856_cov_345.885 (3856bp)
		This contig is unaligned. (3856 bp)
		Unaligned bases: 3856  total: 370954

CONTIG: NODE_55_length_3694_cov_57.1844 (3694bp)
		This contig is unaligned. (3694 bp)
		Unaligned bases: 3694  total: 374648

CONTIG: NODE_56_length_3664_cov_136.322 (3664bp)
		This contig is unaligned. (3664 bp)
		Unaligned bases: 3664  total: 378312

CONTIG: NODE_56_length_3664_cov_136.322 (3664bp)
		This contig is unaligned. (3664 bp)
		Unaligned bases: 3664  total: 381976

CONTIG: NODE_57_length_3356_cov_40.3422 (3356bp)
		This contig is unaligned. (3356 bp)
		Unaligned bases: 3356  total: 385332

CONTIG: NODE_58_length_3312_cov_678.651 (3312bp)
		This contig is unaligned. (3312 bp)
		Unaligned bases: 3312  total: 388644

CONTIG: NODE_59_length_3256_cov_334.045 (3256bp)
		This contig is unaligned. (3256 bp)
		Unaligned bases: 3256  total: 391900

CONTIG: NODE_62_length_2754_cov_33.2316 (2754bp)
		This contig is unaligned. (2754 bp)
		Unaligned bases: 2754  total: 394654

CONTIG: NODE_63_length_2471_cov_41.0911 (2471bp)
		This contig is unaligned. (2471 bp)
		Unaligned bases: 2471  total: 397125

CONTIG: NODE_65_length_2120_cov_33.8008 (2120bp)
		This contig is unaligned. (2120 bp)
		Unaligned bases: 2120  total: 399245

CONTIG: NODE_66_length_1875_cov_72.7542 (1875bp)
		This contig is unaligned. (1875 bp)
		Unaligned bases: 1875  total: 401120

CONTIG: NODE_66_length_1875_cov_72.7542 (1875bp)
		This contig is unaligned. (1875 bp)
		Unaligned bases: 1875  total: 402995

CONTIG: NODE_67_length_1814_cov_740.69 (1814bp)
		This contig is unaligned. (1814 bp)
		Unaligned bases: 1814  total: 404809

CONTIG: NODE_72_length_1360_cov_108.01 (1360bp)
		This contig is unaligned. (1360 bp)
		Unaligned bases: 1360  total: 406169

CONTIG: NODE_72_length_1360_cov_108.01 (1360bp)
		This contig is unaligned. (1360 bp)
		Unaligned bases: 1360  total: 407529

CONTIG: NODE_73_length_1331_cov_102.843 (1331bp)
		This contig is unaligned. (1331 bp)
		Unaligned bases: 1331  total: 408860

CONTIG: NODE_74_length_1316_cov_102.182 (1316bp)
		This contig is unaligned. (1316 bp)
		Unaligned bases: 1316  total: 410176

CONTIG: NODE_74_length_1316_cov_102.182 (1316bp)
		This contig is unaligned. (1316 bp)
		Unaligned bases: 1316  total: 411492

CONTIG: NODE_77_length_1222_cov_97.8323 (1222bp)
		This contig is unaligned. (1222 bp)
		Unaligned bases: 1222  total: 412714

CONTIG: NODE_78_length_1221_cov_226.173 (1221bp)
Top Length: 1221  Top ID: 100.0
		One align captures most of this contig: 20893 22113 | 1221 1 | 1221 1221 | 100.0 | gi_828939407_gb_CP011608.1__Citrobacter_freundii_strain_CAV1321_plasmid_pKPC_CAV1321-45__complete_sequence NODE_78_length_1221_cov_226.173

CONTIG: NODE_79_length_1160_cov_121.543 (1160bp)
		This contig is unaligned. (1160 bp)
		Unaligned bases: 1160  total: 413874

CONTIG: NODE_80_length_1095_cov_93.1739 (1095bp)
		This contig is unaligned. (1095 bp)
		Unaligned bases: 1095  total: 414969

CONTIG: NODE_83_length_959_cov_187.714 (959bp)
		This contig is unaligned. (959 bp)
		Unaligned bases: 959  total: 415928

CONTIG: NODE_85_length_780_cov_99.1863 (780bp)
		This contig is unaligned. (780 bp)
		Unaligned bases: 780  total: 416708

CONTIG: NODE_86_length_654_cov_193.087 (654bp)
		This contig is unaligned. (654 bp)
		Unaligned bases: 654  total: 417362

CONTIG: NODE_86_length_654_cov_193.087 (654bp)
		This contig is unaligned. (654 bp)
		Unaligned bases: 654  total: 418016

CONTIG: NODE_87_length_650_cov_122.614 (650bp)
		This contig is unaligned. (650 bp)
		Unaligned bases: 650  total: 418666

CONTIG: NODE_87_length_650_cov_122.614 (650bp)
		This contig is unaligned. (650 bp)
		Unaligned bases: 650  total: 419316

CONTIG: NODE_88_length_649_cov_134.163 (649bp)
		This contig is unaligned. (649 bp)
		Unaligned bases: 649  total: 419965

CONTIG: NODE_88_length_649_cov_134.163 (649bp)
		This contig is unaligned. (649 bp)
		Unaligned bases: 649  total: 420614

CONTIG: NODE_91_length_501_cov_290.762 (501bp)
		This contig is unaligned. (501 bp)
		Unaligned bases: 501  total: 421115

Analyzing coverage...
Writing SNPs into /home/mmbbio/Plasmid_Assembly/completegenomes/plasmids/CAV1321_plasmids_references/group_6.fasta_comparison_cbar/contigs_reports/nucmer_output/prediction.used_snps
	Reference gi_828939407_gb_CP011608.1__Citrobacter_freundii_strain_CAV1321_plasmid_pKPC_CAV1321-45__complete_sequence: 6 total alignments. 1 total regions.
		Region: 1 to 44846 (44846 bp)
			Align 1: 1 20969 NODE_35_length_22371_cov_78.9859 1403 22371
				Negative gap (overlap) between this and next alignment: 20969 to 20893 (-76 bp)
				Next Alignment: 20893 22113 NODE_78_length_1221_cov_226.173 1221 1

			Previous gap was negative, modifying coordinates to ignore overlap
				Moving contig start from 1221 to 1144.
			Align 2: 20970 22113 NODE_78_length_1221_cov_226.173 1144 1
				Negative gap (overlap) between this and next alignment: 22113 to 22037 (-76 bp)
				Next Alignment: 22037 28765 NODE_47_length_6729_cov_73.6502 6729 1

			Previous gap was negative, modifying coordinates to ignore overlap
				Moving contig start from 6729 to 6652.
			Align 3: 22114 28765 NODE_47_length_6729_cov_73.6502 6652 1
				Negative gap (overlap) between this and next alignment: 28765 to 28689 (-76 bp)
				Next Alignment: 28689 41805 NODE_38_length_13117_cov_99.8133 1 13117

			Previous gap was negative, modifying coordinates to ignore overlap
				Moving contig start from 1 to 78.
			Align 4: 28766 41805 NODE_38_length_13117_cov_99.8133 78 13117
				The next alignment (28766 41805 NODE_38_length_13117_cov_99.8133 78 13117) is redundant. Skipping.
				Gap between this and next alignment: 41805 to 43445 (1639 bp)
				Next Alignment: 43445 44846 NODE_35_length_22371_cov_78.9859 1 1402

			Align 6: 43445 44846 NODE_35_length_22371_cov_78.9859 1 1402
			END in current alignment.  Modifying 44846 to 44846.

Analysis is finished!
Founded SNPs were written into /home/mmbbio/Plasmid_Assembly/completegenomes/plasmids/CAV1321_plasmids_references/group_6.fasta_comparison_cbar/contigs_reports/nucmer_output/prediction.used_snps

Results:
	Local Misassemblies: 0
	Misassemblies: 0
		Relocations: 0
		Translocations: 0
		Inversions: 0
	Misassembled Contigs: 0
	Misassembled Contig Bases: 0
	Misassemblies Inter-Contig Overlap: 0
Uncovered Regions: 0 (0)
Unaligned Contigs: 41 + 0 part
Partially Unaligned Contigs with Misassemblies: 0
Unaligned Contig Bases: 421115

Ambiguously Mapped Contigs: 0
Extra Bases in Ambiguously Mapped Contigs: 0
Note that --allow-ambiguity option was set to "all" and each of these contigs was used several times.

	Covered Bases: 43207

	SNPs: 0
	Insertions: 0
	Deletions: 0

	Positive Gaps: 1
		Internal Gaps:  0
		External Gaps:  1
		External Gap Total:  1639
		External Gap Average: 1639
	Negative Gaps: 3
		Internal Overlaps:  0
		External Overlaps:  3
		External Overlaps Total: -228
		External Overlaps Average: -76
	Contigs with Redundant Alignments: 1 (13040)
