Aligning contigs to reference...
	Running Nucmer
Parsing coords...
Loading reference...
	Loaded [gi_959190081_gb_CP013321.1__Klebsiella_pneumoniae_strain_CAV1193_plasmid_pCAV1193-3741__complete_sequence]
Loading SNPs...
Loading regions...
	No regions given, using whole reference.
	Total Regions: 1
	Total Region Length: 3741
Analyzing contigs...
CONTIG: RNODE_1_length_3763_cov_656.27400 (3741bp)
Top Length: 2902  Top ID: 100.0
		This contig is misassembled. 2 total aligns.
			Real Alignment 1: 840 3741 | 1 2902 | 2902 2902 | 100.0 | gi_959190081_gb_CP013321.1__Klebsiella_pneumoniae_strain_CAV1193_plasmid_pCAV1193-3741__complete_sequence RNODE_1_length_3763_cov_656.27400
			  Fake misassembly (caused by linear representation of circular genome) between these two alignments
			Real Alignment 2: 1 839 | 2903 3741 | 839 839 | 100.0 | gi_959190081_gb_CP013321.1__Klebsiella_pneumoniae_strain_CAV1193_plasmid_pCAV1193-3741__complete_sequence RNODE_1_length_3763_cov_656.27400

CONTIG: RNODE_2_length_9519_cov_24.73583 (9453bp)
		This contig is unaligned. (9453 bp)
		Unaligned bases: 9453  total: 9453

Analyzing coverage...
Writing SNPs into /home/mmbbio/Plasmid_Assembly/completegenomes/plasmids/CAV1193_plasmids_references/group_1.fasta_comparison_recycler/contigs_reports/nucmer_output/prediction.used_snps
	Reference gi_959190081_gb_CP013321.1__Klebsiella_pneumoniae_strain_CAV1193_plasmid_pCAV1193-3741__complete_sequence: 2 total alignments. 1 total regions.
		Region: 1 to 3741 (3741 bp)
			Align 1: 1 839 RNODE_1_length_3763_cov_656.27400 2903 3741
				Next Alignment: 840 3741 RNODE_1_length_3763_cov_656.27400 1 2902

			Align 2: 840 3741 RNODE_1_length_3763_cov_656.27400 1 2902
			END in current alignment.  Modifying 3741 to 3741.

Analysis is finished!
Founded SNPs were written into /home/mmbbio/Plasmid_Assembly/completegenomes/plasmids/CAV1193_plasmids_references/group_1.fasta_comparison_recycler/contigs_reports/nucmer_output/prediction.used_snps

Results:
	Local Misassemblies: 0
	Misassemblies: 0
		Relocations: 0
		Translocations: 0
		Inversions: 0
	Misassembled Contigs: 0
	Misassembled Contig Bases: 0
	Misassemblies Inter-Contig Overlap: 0
Uncovered Regions: 0 (0)
Unaligned Contigs: 1 + 0 part
Partially Unaligned Contigs with Misassemblies: 0
Unaligned Contig Bases: 9453

Ambiguously Mapped Contigs: 0
Extra Bases in Ambiguously Mapped Contigs: 0
Note that --allow-ambiguity option was set to "all" and each of these contigs was used several times.

	Covered Bases: 3741

	SNPs: 0
	Insertions: 0
	Deletions: 0

	Positive Gaps: 0
		Internal Gaps:  0
		External Gaps:  0
		External Gap Total:  0
		External Gap Average: 0
	Negative Gaps: 0
		Internal Overlaps:  0
		External Overlaps:  0
		External Overlaps Total:  0
		External Overlaps Average: 0
	Contigs with Redundant Alignments: 0 (0)
