Aligning contigs to reference...
	Running Nucmer
Parsing coords...
Loading reference...
	Loaded [gi_828895818_gb_CP011569.1__Enterobacter_cloacae_strain_CAV1311_plasmid_pCAV1311-3223__complete_sequence]
Loading SNPs...
Loading regions...
	No regions given, using whole reference.
	Total Regions: 1
	Total Region Length: 3223
Analyzing contigs...
CONTIG: RNODE_7_length_9500_cov_47.16989 (9434bp)
		This contig is unaligned. (9434 bp)
		Unaligned bases: 9434  total: 9434

CONTIG: RNODE_1_length_3245_cov_1206.26000 (3223bp)
Top Length: 2997  Top ID: 100.0
		This contig is partially unaligned. (Aligned 2997 out of 3223 bases)
		Alignment: 227 3223 | 1 2997 | 2997 2997 | 100.0 | gi_828895818_gb_CP011569.1__Enterobacter_cloacae_strain_CAV1311_plasmid_pCAV1311-3223__complete_sequence RNODE_1_length_3245_cov_1206.26000
		Unaligned bases: 2998 to 3223 (226)

CONTIG: RNODE_3_length_5586_cov_40.10656 (5542bp)
		This contig is unaligned. (5542 bp)
		Unaligned bases: 5542  total: 14976

CONTIG: RNODE_5_length_2973_cov_34.10877 (2929bp)
		This contig is unaligned. (2929 bp)
		Unaligned bases: 2929  total: 17905

CONTIG: RNODE_4_length_2099_cov_51.41513 (2055bp)
		This contig is unaligned. (2055 bp)
		Unaligned bases: 2055  total: 19960

CONTIG: RNODE_6_length_43408_cov_77.64933 (43320bp)
		This contig is unaligned. (43320 bp)
		Unaligned bases: 43320  total: 63280

CONTIG: RNODE_8_length_18113_cov_55.68998 (18069bp)
		This contig is unaligned. (18069 bp)
		Unaligned bases: 18069  total: 81349

CONTIG: RNODE_2_length_7716_cov_320.99421 (7672bp)
		This contig is unaligned. (7672 bp)
		Unaligned bases: 7672  total: 89021

Analyzing coverage...
Writing SNPs into /home/mmbbio/Plasmid_Assembly/completegenomes/plasmids/CAV1311_plasmids_references/group_1.fasta_comparison_recycler/contigs_reports/nucmer_output/prediction.used_snps
	Reference gi_828895818_gb_CP011569.1__Enterobacter_cloacae_strain_CAV1311_plasmid_pCAV1311-3223__complete_sequence: 1 total alignments. 1 total regions.
		Region: 1 to 3223 (3223 bp)
			START in gap: 1 to 227 (226 bp)
			Align 1: 227 3223 RNODE_1_length_3245_cov_1206.26000 1 2997
			END in current alignment.  Modifying 3223 to 3223.

Analysis is finished!
Founded SNPs were written into /home/mmbbio/Plasmid_Assembly/completegenomes/plasmids/CAV1311_plasmids_references/group_1.fasta_comparison_recycler/contigs_reports/nucmer_output/prediction.used_snps

Results:
	Local Misassemblies: 0
	Misassemblies: 0
		Relocations: 0
		Translocations: 0
		Inversions: 0
	Misassembled Contigs: 0
	Misassembled Contig Bases: 0
	Misassemblies Inter-Contig Overlap: 0
Uncovered Regions: 0 (0)
Unaligned Contigs: 7 + 1 part
Partially Unaligned Contigs with Misassemblies: 0
Unaligned Contig Bases: 89247

Ambiguously Mapped Contigs: 0
Extra Bases in Ambiguously Mapped Contigs: 0
Note that --allow-ambiguity option was set to "all" and each of these contigs was used several times.

	Covered Bases: 2997

	SNPs: 0
	Insertions: 0
	Deletions: 0

	Positive Gaps: 1
		Internal Gaps:  0
		External Gaps:  1
		External Gap Total:  226
		External Gap Average: 226
	Negative Gaps: 0
		Internal Overlaps:  0
		External Overlaps:  0
		External Overlaps Total:  0
		External Overlaps Average: 0
	Contigs with Redundant Alignments: 0 (0)
