gi_1039435159_ref_NZ_CP014763.1__Klebsiella_pneumoniae_strain_KPNIH39_plasmid_pKPN-332__complete_sequence
1 23686
31297 38884
47953 48466
93543 95449
110325 111014
157304 157946
163843 164485
195250 208099
212410 226470
234791 243178
274119 275463
282721 284894
