All statistics are based on contigs of size >= 500 bp, unless otherwise noted (e.g., "# contigs (>= 0 bp)" and "Total length (>= 0 bp)" include all contigs).

Assembly    # contigs (>= 0 bp)  # contigs (>= 1000 bp)  # contigs (>= 5000 bp)  # contigs (>= 10000 bp)  # contigs (>= 25000 bp)  # contigs (>= 50000 bp)  Total length (>= 0 bp)  Total length (>= 1000 bp)  Total length (>= 5000 bp)  Total length (>= 10000 bp)  Total length (>= 25000 bp)  Total length (>= 50000 bp)  # contigs  Largest contig  Total length  Reference length  GC (%)  Reference GC (%)  N50    NG50   N75   NG75   L50  LG50  L75  LG75  # misassemblies  # misassembled contigs  Misassembled contigs length  # local misassemblies  # unaligned contigs  Unaligned length  Genome fraction (%)  Duplication ratio  # N's per 100 kbp  # mismatches per 100 kbp  # indels per 100 kbp  Largest alignment  NGA50  NGA75  LGA50  LGA75
prediction  56                   50                      17                      11                       7                        2                        471902                  467312                     377746                     338972                      283588                      114983                      56         58861           471902        43621             50.21   48.27             30499  58861  7748  58861  6    1     13   1     0                0                       0                            0                      51 + 0 part          428200            99.480               1.007              0.00               0.00                      0.00                  28815              28815  10157  1      2    
