Assembly	prediction
# contigs (>= 0 bp)	5
# contigs (>= 1000 bp)	5
# contigs (>= 5000 bp)	5
# contigs (>= 10000 bp)	5
# contigs (>= 25000 bp)	3
# contigs (>= 50000 bp)	1
Total length (>= 0 bp)	229640
Total length (>= 1000 bp)	229640
Total length (>= 5000 bp)	229640
Total length (>= 10000 bp)	229640
Total length (>= 25000 bp)	191349
Total length (>= 50000 bp)	125842
# contigs	5
Largest contig	125842
Total length	229640
Reference length	257944
GC (%)	51.19
Reference GC (%)	52.72
N50	125842
NG50	34676
N75	30831
NG75	24524
L50	1
LG50	2
L75	3
LG75	4
# misassemblies	0
# misassembled contigs	0
Misassembled contigs length	0
# local misassemblies	0
# unaligned contigs	3 + 0 part
Unaligned length	191349
Genome fraction (%)	14.845
Duplication ratio	1.000
# N's per 100 kbp	0.00
# mismatches per 100 kbp	54.84
# indels per 100 kbp	0.00
Largest alignment	24524
NGA50	-
