S1	E1	S2	E2	Reference	Contig	IDY	Ambiguous
CONTIG	NODE_17_length_85610_cov_41.7964	85610	unaligned
CONTIG	NODE_36_length_53513_cov_55.6771	53513	unaligned
CONTIG	NODE_39_length_45295_cov_43.4136	45295	unaligned
38264	63788	1	25525	gi_828965798_gb_CP011640.1__Serratia_marcescens_strain_CAV1492_plasmid_pCAV1492-73__complete_sequence	NODE_42_length_44227_cov_65.4766	99.98	
fake misassembly (gap in the contig is small or filled with Ns)
63568	73100	25260	34792	gi_828965798_gb_CP011640.1__Serratia_marcescens_strain_CAV1492_plasmid_pCAV1492-73__complete_sequence	NODE_42_length_44227_cov_65.4766	99.94	
fake misassembly (linear representation of circular genome)
1	9435	34793	44227	gi_828965798_gb_CP011640.1__Serratia_marcescens_strain_CAV1492_plasmid_pCAV1492-73__complete_sequence	NODE_42_length_44227_cov_65.4766	100.0	
CONTIG	NODE_42_length_44227_cov_65.4766	44227	correct
CONTIG	NODE_56_length_22952_cov_45.2028	22952	unaligned
26413	35651	9239	1	gi_828965798_gb_CP011640.1__Serratia_marcescens_strain_CAV1492_plasmid_pCAV1492-73__complete_sequence	NODE_74_length_9239_cov_65.9114	100.0	
CONTIG	NODE_74_length_9239_cov_65.9114	9239	correct
CONTIG	NODE_78_length_7812_cov_59.7807	7812	unaligned
CONTIG	NODE_82_length_7523_cov_44.4805	7523	unaligned
14363	18666	4304	1	gi_828965798_gb_CP011640.1__Serratia_marcescens_strain_CAV1492_plasmid_pCAV1492-73__complete_sequence	NODE_84_length_4304_cov_102.448	100.0	
CONTIG	NODE_84_length_4304_cov_102.448	4304	correct
CONTIG	NODE_87_length_3790_cov_42.585	3790	unaligned
10652	14439	3788	1	gi_828965798_gb_CP011640.1__Serratia_marcescens_strain_CAV1492_plasmid_pCAV1492-73__complete_sequence	NODE_88_length_3788_cov_65.4508	100.0	
CONTIG	NODE_88_length_3788_cov_65.4508	3788	correct
22826	26489	3664	1	gi_828965798_gb_CP011640.1__Serratia_marcescens_strain_CAV1492_plasmid_pCAV1492-73__complete_sequence	NODE_89_length_3664_cov_552.992	100.0	
CONTIG	NODE_89_length_3664_cov_552.992	3664	correct
CONTIG	NODE_92_length_3258_cov_554.317	3258	unaligned
CONTIG	NODE_96_length_2883_cov_397.245	2883	unaligned
35575	38340	2766	1	gi_828965798_gb_CP011640.1__Serratia_marcescens_strain_CAV1492_plasmid_pCAV1492-73__complete_sequence	NODE_97_length_2766_cov_97.9472	99.96	
CONTIG	NODE_97_length_2766_cov_97.9472	2766	correct
CONTIG	NODE_104_length_1984_cov_67.1851	1984	unaligned
20944	22902	1959	1	gi_828965798_gb_CP011640.1__Serratia_marcescens_strain_CAV1492_plasmid_pCAV1492-73__complete_sequence	NODE_105_length_1959_cov_65.6482	100.0	
CONTIG	NODE_105_length_1959_cov_65.6482	1959	correct
18590	20040	1451	1	gi_828965798_gb_CP011640.1__Serratia_marcescens_strain_CAV1492_plasmid_pCAV1492-73__complete_sequence	NODE_112_length_1451_cov_66.7009	100.0	
CONTIG	NODE_112_length_1451_cov_66.7009	1451	correct
9359	10728	1	1370	gi_828965798_gb_CP011640.1__Serratia_marcescens_strain_CAV1492_plasmid_pCAV1492-73__complete_sequence	NODE_113_length_1370_cov_104.36	100.0	
CONTIG	NODE_113_length_1370_cov_104.36	1370	correct
CONTIG	NODE_116_length_1261_cov_86.0321	1261	unaligned
CONTIG	NODE_118_length_1198_cov_97.8243	1198	unaligned
CONTIG	NODE_119_length_1120_cov_41.5628	1120	unaligned
