S1	E1	S2	E2	Reference	Contig	IDY	Ambiguous
CONTIG	NODE_1_length_125842_cov_45.2938_component_0	125842	unaligned
CONTIG	NODE_2_length_115362_cov_14.865_component_0	115362	unaligned
CONTIG	NODE_3_length_68935_cov_30.4645_component_0	68935	unaligned
CONTIG	NODE_4_length_62136_cov_15.4356_component_0	62136	unaligned
CONTIG	NODE_5_length_53283_cov_14.5515_component_0	53283	unaligned
CONTIG	NODE_6_length_43394_cov_30.748_component_1	43394	unaligned
CONTIG	NODE_7_length_40078_cov_34.2518_component_0	40078	unaligned
CONTIG	NODE_8_length_35762_cov_30.9433_component_0	35762	unaligned
CONTIG	NODE_9_length_34676_cov_57.4585_component_0	34676	unaligned
CONTIG	NODE_10_length_30893_cov_82.434_component_0	30893	unaligned
1	12902	12902	1	gi_959190086_gb_CP013323.1__Klebsiella_pneumoniae_strain_CAV1193_plasmid_pCAV1193-258__complete_sequence	NODE_11_length_27828_cov_40.352_component_0	100.0	
fake misassembly (linear representation of circular genome)
243019	257944	27828	12903	gi_959190086_gb_CP013323.1__Klebsiella_pneumoniae_strain_CAV1193_plasmid_pCAV1193-258__complete_sequence	NODE_11_length_27828_cov_40.352_component_0	100.0	
CONTIG	NODE_11_length_27828_cov_40.352_component_0	27828	correct
CONTIG	NODE_12_length_27824_cov_32.6197_component_0	27824	unaligned
CONTIG	NODE_13_length_25306_cov_15.5473_component_0	25306	unaligned
38236	51624	13346	1	gi_959190086_gb_CP013323.1__Klebsiella_pneumoniae_strain_CAV1193_plasmid_pCAV1193-258__complete_sequence	NODE_14_length_25069_cov_55.1396_component_0	99.68	
fake misassembly (gap in the contig is small or filled with Ns)
26513	48565	25069	2974	gi_959190086_gb_CP013323.1__Klebsiella_pneumoniae_strain_CAV1193_plasmid_pCAV1193-258__complete_sequence	NODE_14_length_25069_cov_55.1396_component_0	99.62	
CONTIG	NODE_14_length_25069_cov_55.1396_component_0	25069	correct
132084	156607	24524	1	gi_959190086_gb_CP013323.1__Klebsiella_pneumoniae_strain_CAV1193_plasmid_pCAV1193-258__complete_sequence	NODE_15_length_24524_cov_37.3819_component_0	99.91	
CONTIG	NODE_15_length_24524_cov_37.3819_component_0	24524	correct
188372	211379	23008	1	gi_959190086_gb_CP013323.1__Klebsiella_pneumoniae_strain_CAV1193_plasmid_pCAV1193-258__complete_sequence	NODE_16_length_23008_cov_36.749_component_0	100.0	
CONTIG	NODE_16_length_23008_cov_36.749_component_0	23008	correct
242035	243095	19338	20398	gi_959190086_gb_CP013323.1__Klebsiella_pneumoniae_strain_CAV1193_plasmid_pCAV1193-258__complete_sequence	NODE_17_length_22405_cov_47.5228_component_0	98.02	
CONTIG	NODE_17_length_22405_cov_47.5228_component_0	22405	correct
165284	186231	20948	1	gi_959190086_gb_CP013323.1__Klebsiella_pneumoniae_strain_CAV1193_plasmid_pCAV1193-258__complete_sequence	NODE_18_length_20948_cov_29.6246_component_0	100.0	
CONTIG	NODE_18_length_20948_cov_29.6246_component_0	20948	correct
CONTIG	NODE_19_length_17311_cov_29.9333_component_0	17311	unaligned
118179	131206	13028	1	gi_959190086_gb_CP013323.1__Klebsiella_pneumoniae_strain_CAV1193_plasmid_pCAV1193-258__complete_sequence	NODE_20_length_13028_cov_37.7074_component_0	99.97	
CONTIG	NODE_20_length_13028_cov_37.7074_component_0	13028	correct
76544	89555	1	13012	gi_959190086_gb_CP013323.1__Klebsiella_pneumoniae_strain_CAV1193_plasmid_pCAV1193-258__complete_sequence	NODE_21_length_13012_cov_38.3512_component_0	100.0	
CONTIG	NODE_21_length_13012_cov_38.3512_component_0	13012	correct
CONTIG	NODE_22_length_12308_cov_59.403_component_0	12308	unaligned
53387	64236	10850	1	gi_959190086_gb_CP013323.1__Klebsiella_pneumoniae_strain_CAV1193_plasmid_pCAV1193-258__complete_sequence	NODE_23_length_10850_cov_34.2518_component_0	100.0	
CONTIG	NODE_23_length_10850_cov_34.2518_component_0	10850	correct
64786	75595	10810	1	gi_959190086_gb_CP013323.1__Klebsiella_pneumoniae_strain_CAV1193_plasmid_pCAV1193-258__complete_sequence	NODE_24_length_10810_cov_38.7619_component_0	100.0	
CONTIG	NODE_24_length_10810_cov_38.7619_component_0	10810	correct
230943	231619	677	1	gi_959190086_gb_CP013323.1__Klebsiella_pneumoniae_strain_CAV1193_plasmid_pCAV1193-258__complete_sequence	NODE_25_length_10551_cov_46.2922_component_0	96.45	
CONTIG	NODE_25_length_10551_cov_46.2922_component_0	10551	correct
232220	242755	10536	1	gi_959190086_gb_CP013323.1__Klebsiella_pneumoniae_strain_CAV1193_plasmid_pCAV1193-258__complete_sequence	NODE_26_length_10536_cov_56.9467_component_0	100.0	
CONTIG	NODE_26_length_10536_cov_56.9467_component_0	10536	correct
CONTIG	NODE_27_length_10157_cov_51.0077_component_0	10157	unaligned
13514	23243	9730	1	gi_959190086_gb_CP013323.1__Klebsiella_pneumoniae_strain_CAV1193_plasmid_pCAV1193-258__complete_sequence	NODE_28_length_9730_cov_55.9839_component_0	100.0	
CONTIG	NODE_28_length_9730_cov_55.9839_component_0	9730	correct
CONTIG	NODE_29_length_9462_cov_30.9258_component_0	9462	unaligned
CONTIG	NODE_30_length_8365_cov_40.7043_component_0	8365	unaligned
157436	164790	1	7355	gi_959190086_gb_CP013323.1__Klebsiella_pneumoniae_strain_CAV1193_plasmid_pCAV1193-258__complete_sequence	NODE_31_length_7355_cov_41.503_component_0	100.0	
CONTIG	NODE_31_length_7355_cov_41.503_component_0	7355	correct
CONTIG	NODE_32_length_7130_cov_16.8646_component_0	7130	unaligned
90504	96646	1	6143	gi_959190086_gb_CP013323.1__Klebsiella_pneumoniae_strain_CAV1193_plasmid_pCAV1193-258__complete_sequence	NODE_33_length_6143_cov_43.1691_component_0	100.0	
CONTIG	NODE_33_length_6143_cov_43.1691_component_0	6143	correct
218878	224920	6043	1	gi_959190086_gb_CP013323.1__Klebsiella_pneumoniae_strain_CAV1193_plasmid_pCAV1193-258__complete_sequence	NODE_34_length_6043_cov_42.8599_component_0	99.98	
CONTIG	NODE_34_length_6043_cov_42.8599_component_0	6043	correct
212210	218047	1	5838	gi_959190086_gb_CP013323.1__Klebsiella_pneumoniae_strain_CAV1193_plasmid_pCAV1193-258__complete_sequence	NODE_35_length_5838_cov_52.8827_component_0	100.0	
CONTIG	NODE_35_length_5838_cov_52.8827_component_0	5838	correct
106053	107057	2765	1761	gi_959190086_gb_CP013323.1__Klebsiella_pneumoniae_strain_CAV1193_plasmid_pCAV1193-258__complete_sequence	NODE_36_length_4849_cov_77.456_component_0	95.72	
CONTIG	NODE_36_length_4849_cov_77.456_component_0	4849	correct
111484	116298	4815	1	gi_959190086_gb_CP013323.1__Klebsiella_pneumoniae_strain_CAV1193_plasmid_pCAV1193-258__complete_sequence	NODE_37_length_4815_cov_45.7491_component_0	99.83	
CONTIG	NODE_37_length_4815_cov_45.7491_component_0	4815	correct
97197	101759	4563	1	gi_959190086_gb_CP013323.1__Klebsiella_pneumoniae_strain_CAV1193_plasmid_pCAV1193-258__complete_sequence	NODE_38_length_4563_cov_50.2624_component_0	100.0	
CONTIG	NODE_38_length_4563_cov_50.2624_component_0	4563	correct
CONTIG	NODE_39_length_4447_cov_59.513_component_0	4447	unaligned
133015	133562	1	548	gi_959190086_gb_CP013323.1__Klebsiella_pneumoniae_strain_CAV1193_plasmid_pCAV1193-258__complete_sequence	NODE_40_length_4075_cov_64.5768_component_0	96.53	
133642	135065	713	2136	gi_959190086_gb_CP013323.1__Klebsiella_pneumoniae_strain_CAV1193_plasmid_pCAV1193-258__complete_sequence	NODE_40_length_4075_cov_64.5768_component_0	96.77	
CONTIG	NODE_41_length_3818_cov_656.274_component_2	3818	unaligned
CONTIG	NODE_42_length_3815_cov_35.1683_component_0	3815	unaligned
104659	108051	3393	1	gi_959190086_gb_CP013323.1__Klebsiella_pneumoniae_strain_CAV1193_plasmid_pCAV1193-258__complete_sequence	NODE_43_length_3393_cov_55.437_component_0	99.82	
CONTIG	NODE_43_length_3393_cov_55.437_component_0	3393	correct
CONTIG	NODE_44_length_3232_cov_242.043_component_0	3232	unaligned
CONTIG	NODE_45_length_3098_cov_83.7448_component_0	3098	unaligned
CONTIG	NODE_46_length_3027_cov_65.2095_component_0	3027	unaligned
108824	111560	2737	1	gi_959190086_gb_CP013323.1__Klebsiella_pneumoniae_strain_CAV1193_plasmid_pCAV1193-258__complete_sequence	NODE_47_length_2737_cov_87.9474_component_0	99.27	
CONTIG	NODE_47_length_2737_cov_87.9474_component_0	2737	correct
CONTIG	NODE_48_length_2727_cov_40.6253_component_0	2727	unaligned
CONTIG	NODE_49_length_2681_cov_104.174_component_0	2681	unaligned
CONTIG	NODE_50_length_2565_cov_32.6403_component_0	2565	unaligned
186155	188448	2294	1	gi_959190086_gb_CP013323.1__Klebsiella_pneumoniae_strain_CAV1193_plasmid_pCAV1193-258__complete_sequence	NODE_51_length_2294_cov_62.7334_component_0	100.0	
CONTIG	NODE_51_length_2294_cov_62.7334_component_0	2294	correct
CONTIG	NODE_52_length_2146_cov_165.735_component_0	2146	unaligned
CONTIG	NODE_53_length_2132_cov_65.419_component_0	2132	unaligned
51548	53463	1916	1	gi_959190086_gb_CP013323.1__Klebsiella_pneumoniae_strain_CAV1193_plasmid_pCAV1193-258__complete_sequence	NODE_54_length_1916_cov_186.744_component_0	99.9	
CONTIG	NODE_54_length_1916_cov_186.744_component_0	1916	correct
225824	227735	1	1912	gi_959190086_gb_CP013323.1__Klebsiella_pneumoniae_strain_CAV1193_plasmid_pCAV1193-258__complete_sequence	NODE_55_length_1912_cov_38.3793_component_0	100.0	
CONTIG	NODE_55_length_1912_cov_38.3793_component_0	1912	correct
CONTIG	NODE_56_length_1496_cov_18.0176_component_0	1496	unaligned
CONTIG	NODE_57_length_1487_cov_52.2695_component_0	1487	unaligned
CONTIG	NODE_58_length_1486_cov_42.1057_component_0	1486	unaligned
CONTIG	NODE_59_length_1380_cov_174.229_component_0	1380	unaligned
102534	103852	1319	1	gi_959190086_gb_CP013323.1__Klebsiella_pneumoniae_strain_CAV1193_plasmid_pCAV1193-258__complete_sequence	NODE_60_length_1319_cov_51.7319_component_0	96.74	
CONTIG	NODE_60_length_1319_cov_51.7319_component_0	1319	correct
75519	76620	1	1102	gi_959190086_gb_CP013323.1__Klebsiella_pneumoniae_strain_CAV1193_plasmid_pCAV1193-258__complete_sequence	NODE_61_length_1102_cov_164.423_component_0	100.0	True
89479	90580	1	1102	gi_959190086_gb_CP013323.1__Klebsiella_pneumoniae_strain_CAV1193_plasmid_pCAV1193-258__complete_sequence	NODE_61_length_1102_cov_164.423_component_0	99.91	True
CONTIG	NODE_61_length_1102_cov_164.423_component_0	1102	correct
CONTIG	NODE_62_length_1066_cov_192.278_component_0	1066	unaligned
CONTIG	NODE_63_length_909_cov_34.8357_component_0	909	unaligned
25550	26589	1	1040	gi_959190086_gb_CP013323.1__Klebsiella_pneumoniae_strain_CAV1193_plasmid_pCAV1193-258__complete_sequence	NODE_64_length_1040_cov_274.175_component_0	100.0	
CONTIG	NODE_64_length_1040_cov_274.175_component_0	1040	correct
131130	132160	1031	1	gi_959190086_gb_CP013323.1__Klebsiella_pneumoniae_strain_CAV1193_plasmid_pCAV1193-258__complete_sequence	NODE_65_length_1031_cov_70.7788_component_0	99.22	
CONTIG	NODE_65_length_1031_cov_70.7788_component_0	1031	correct
116222	117245	1	1024	gi_959190086_gb_CP013323.1__Klebsiella_pneumoniae_strain_CAV1193_plasmid_pCAV1193-258__complete_sequence	NODE_66_length_1024_cov_89.0676_component_0	98.24	
CONTIG	NODE_66_length_1024_cov_89.0676_component_0	1024	correct
CONTIG	NODE_67_length_1020_cov_73.772_component_0	1020	unaligned
CONTIG	NODE_68_length_976_cov_61.931_component_0	976	unaligned
CONTIG	NODE_69_length_974_cov_32.4861_component_0	974	unaligned
CONTIG	NODE_70_length_973_cov_52.7891_component_0	973	unaligned
CONTIG	NODE_71_length_960_cov_39.5651_component_0	960	unaligned
103776	104735	960	1	gi_959190086_gb_CP013323.1__Klebsiella_pneumoniae_strain_CAV1193_plasmid_pCAV1193-258__complete_sequence	NODE_72_length_960_cov_85.3635_component_0	99.27	
CONTIG	NODE_72_length_960_cov_85.3635_component_0	960	correct
101683	102610	1	924	gi_959190086_gb_CP013323.1__Klebsiella_pneumoniae_strain_CAV1193_plasmid_pCAV1193-258__complete_sequence	NODE_73_length_924_cov_103.678_component_0	97.74	
CONTIG	NODE_73_length_924_cov_103.678_component_0	924	correct
CONTIG	NODE_74_length_914_cov_43.5986_component_0	914	unaligned
CONTIG	NODE_75_length_879_cov_177.498_component_0	879	unaligned
CONTIG	NODE_76_length_753_cov_23.1849_component_0	753	unaligned
CONTIG	NODE_77_length_745_cov_29.6841_component_0	745	unaligned
102534	103245	712	1	gi_959190086_gb_CP013323.1__Klebsiella_pneumoniae_strain_CAV1193_plasmid_pCAV1193-258__complete_sequence	NODE_78_length_712_cov_33.7591_component_0	100.0	
CONTIG	NODE_78_length_712_cov_33.7591_component_0	712	correct
24873	25549	677	1	gi_959190086_gb_CP013323.1__Klebsiella_pneumoniae_strain_CAV1193_plasmid_pCAV1193-258__complete_sequence	NODE_79_length_677_cov_212.603_component_0	99.85	
CONTIG	NODE_79_length_677_cov_212.603_component_0	677	correct
24198	24873	1	676	gi_959190086_gb_CP013323.1__Klebsiella_pneumoniae_strain_CAV1193_plasmid_pCAV1193-258__complete_sequence	NODE_80_length_676_cov_246.958_component_0	100.0	
CONTIG	NODE_80_length_676_cov_246.958_component_0	676	correct
CONTIG	NODE_81_length_660_cov_225.532_component_0	660	unaligned
CONTIG	NODE_82_length_650_cov_243.234_component_0	650	unaligned
164714	165360	647	1	gi_959190086_gb_CP013323.1__Klebsiella_pneumoniae_strain_CAV1193_plasmid_pCAV1193-258__complete_sequence	NODE_83_length_647_cov_277.607_component_0	98.3	True
231543	232189	647	1	gi_959190086_gb_CP013323.1__Klebsiella_pneumoniae_strain_CAV1193_plasmid_pCAV1193-258__complete_sequence	NODE_83_length_647_cov_277.607_component_0	98.3	True
CONTIG	NODE_83_length_647_cov_277.607_component_0	647	correct
117624	118255	633	1	gi_959190086_gb_CP013323.1__Klebsiella_pneumoniae_strain_CAV1193_plasmid_pCAV1193-258__complete_sequence	NODE_84_length_633_cov_101.214_component_0	96.85	
CONTIG	NODE_84_length_633_cov_101.214_component_0	633	correct
CONTIG	NODE_85_length_614_cov_27.2775_component_0	614	unaligned
CONTIG	NODE_86_length_612_cov_24.772_component_0	612	unaligned
103305	103852	1	548	gi_959190086_gb_CP013323.1__Klebsiella_pneumoniae_strain_CAV1193_plasmid_pCAV1193-258__complete_sequence	NODE_87_length_548_cov_24.9469_component_0	100.0	
CONTIG	NODE_87_length_548_cov_24.9469_component_0	548	correct
117169	117700	1	532	gi_959190086_gb_CP013323.1__Klebsiella_pneumoniae_strain_CAV1193_plasmid_pCAV1193-258__complete_sequence	NODE_88_length_532_cov_38.4593_component_0	100.0	
CONTIG	NODE_88_length_532_cov_38.4593_component_0	532	correct
CONTIG	NODE_89_length_520_cov_315.343_component_0	520	unaligned
