Assembly	prediction
# fully unaligned contigs	42
Fully unaligned length	319226
# partially unaligned contigs	2
    # with misassembly	1
    # both parts are significant	2
Partially unaligned length	66659
# N's	0
