Assembly	prediction
# contigs (>= 0 bp)	6
# contigs (>= 1000 bp)	6
# contigs (>= 5000 bp)	2
# contigs (>= 10000 bp)	1
# contigs (>= 25000 bp)	1
# contigs (>= 50000 bp)	0
Total length (>= 0 bp)	56073
Total length (>= 1000 bp)	56073
Total length (>= 5000 bp)	47542
Total length (>= 10000 bp)	38089
Total length (>= 25000 bp)	38089
Total length (>= 50000 bp)	0
# contigs	6
Largest contig	38089
Total length	56073
Reference length	243824
GC (%)	56.12
Reference GC (%)	53.22
N50	38089
N75	9453
L50	1
L75	2
# unaligned contigs	6 + 0 part
Unaligned length	56073
# N's per 100 kbp	0.00
NGA50	-
