S1	E1	S2	E2	Reference	Contig	IDY	Ambiguous
12985	21184	8276	78	gi_749295313_ref_NZ_CP008899.1__Enterobacter_cloacae_ECNIH3_plasmid_pENT-8a4__complete_sequence	NODE_34_length_49338_cov_66.1672	99.89	
local misassembly
1	13300	21012	7715	gi_749295313_ref_NZ_CP008899.1__Enterobacter_cloacae_ECNIH3_plasmid_pENT-8a4__complete_sequence	NODE_34_length_49338_cov_66.1672	99.7	
fake misassembly (linear representation of circular genome)
226688	255013	49338	21013	gi_749295313_ref_NZ_CP008899.1__Enterobacter_cloacae_ECNIH3_plasmid_pENT-8a4__complete_sequence	NODE_34_length_49338_cov_66.1672	100.0	
CONTIG	NODE_34_length_49338_cov_66.1672	49338	correct
91442	136621	1	45180	gi_749295313_ref_NZ_CP008899.1__Enterobacter_cloacae_ECNIH3_plasmid_pENT-8a4__complete_sequence	NODE_36_length_45180_cov_65.9048	100.0	
CONTIG	NODE_36_length_45180_cov_65.9048	45180	correct
CONTIG	NODE_37_length_39781_cov_100.513	39781	unaligned
200976	201587	22166	22777	gi_749295313_ref_NZ_CP008899.1__Enterobacter_cloacae_ECNIH3_plasmid_pENT-8a4__complete_sequence	NODE_44_length_28276_cov_161.526	100.0	
CONTIG	NODE_44_length_28276_cov_161.526	28276	correct
173533	201054	27522	1	gi_749295313_ref_NZ_CP008899.1__Enterobacter_cloacae_ECNIH3_plasmid_pENT-8a4__complete_sequence	NODE_45_length_27522_cov_57.2553	99.99	
CONTIG	NODE_45_length_27522_cov_57.2553	27522	correct
CONTIG	NODE_51_length_21637_cov_104.486	21637	unaligned
CONTIG	NODE_52_length_21176_cov_104.95	21176	unaligned
148517	169400	1	20884	gi_749295313_ref_NZ_CP008899.1__Enterobacter_cloacae_ECNIH3_plasmid_pENT-8a4__complete_sequence	NODE_53_length_20884_cov_61.8582	100.0	
CONTIG	NODE_53_length_20884_cov_61.8582	20884	correct
CONTIG	NODE_56_length_16585_cov_91.6079	16585	unaligned
CONTIG	NODE_57_length_16454_cov_93.1849	16454	unaligned
CONTIG	NODE_60_length_10692_cov_146.185	10692	unaligned
201721	211301	1	9581	gi_749295313_ref_NZ_CP008899.1__Enterobacter_cloacae_ECNIH3_plasmid_pENT-8a4__complete_sequence	NODE_61_length_9581_cov_48.6332	100.0	
CONTIG	NODE_61_length_9581_cov_48.6332	9581	correct
CONTIG	NODE_63_length_8569_cov_157.771	8569	unaligned
211968	216582	4615	1	gi_749295313_ref_NZ_CP008899.1__Enterobacter_cloacae_ECNIH3_plasmid_pENT-8a4__complete_sequence	NODE_67_length_4615_cov_41.6569	100.0	
CONTIG	NODE_67_length_4615_cov_41.6569	4615	correct
219468	223083	1	3616	gi_749295313_ref_NZ_CP008899.1__Enterobacter_cloacae_ECNIH3_plasmid_pENT-8a4__complete_sequence	NODE_70_length_3616_cov_70.1012	99.97	
CONTIG	NODE_70_length_3616_cov_70.1012	3616	correct
140708	143589	1	2882	gi_749295313_ref_NZ_CP008899.1__Enterobacter_cloacae_ECNIH3_plasmid_pENT-8a4__complete_sequence	NODE_73_length_2882_cov_70.077	100.0	
CONTIG	NODE_73_length_2882_cov_70.077	2882	correct
223936	226764	2829	1	gi_749295313_ref_NZ_CP008899.1__Enterobacter_cloacae_ECNIH3_plasmid_pENT-8a4__complete_sequence	NODE_75_length_2829_cov_81.6166	100.0	
CONTIG	NODE_75_length_2829_cov_81.6166	2829	correct
137376	138759	1	1384	gi_749295313_ref_NZ_CP008899.1__Enterobacter_cloacae_ECNIH3_plasmid_pENT-8a4__complete_sequence	NODE_81_length_1384_cov_59.7399	100.0	
CONTIG	NODE_81_length_1384_cov_59.7399	1384	correct
136545	137452	1	908	gi_749295313_ref_NZ_CP008899.1__Enterobacter_cloacae_ECNIH3_plasmid_pENT-8a4__complete_sequence	NODE_88_length_908_cov_194.045	99.67	
CONTIG	NODE_88_length_908_cov_194.045	908	correct
138683	139450	768	1	gi_749295313_ref_NZ_CP008899.1__Enterobacter_cloacae_ECNIH3_plasmid_pENT-8a4__complete_sequence	NODE_90_length_768_cov_208.92	99.87	
CONTIG	NODE_90_length_768_cov_208.92	768	correct
