/home/mmbbio/Plasmid_Assembly/programmes/quast-4.1/quast.py -R /home/mmbbio/Plasmid_Assembly/completegenomes/plasmids/CAV1741_plasmids_references/group_2.fasta -o /home/mmbbio/Plasmid_Assembly/completegenomes/plasmids/CAV1741_plasmids_references/group_2.fasta_comparison_plasmidfinder --min-alignment 500 --ambiguity-usage all CAV1741/prediction.fas

Version: 4.1, build 26.05.2016 14:25

System information:
  OS: Linux-3.13.0-95-generic-x86_64-with-debian-jessie-sid (linux_64)
  Python version: 2.7.12
  CPUs number: 3

Started: 2016-09-15 08:59:59

Logging to /home/mmbbio/Plasmid_Assembly/completegenomes/plasmids/CAV1741_plasmids_references/group_2.fasta_comparison_plasmidfinder/quast.log

NOTICE: Maximum number of threads is set to 1 (use --threads option to set it manually)

Main parameters: 
  Threads: 1, minimum alignment length (Nucmer): 500, minimum contig length: 500, ambiguity: all, \
  threshold for extensive misassembly size: 1000

WARNING: Can't draw plots: please install python-matplotlib.

Reference:
  /home/mmbbio/Plasmid_Assembly/completegenomes/plasmids/CAV1741_plasmids_references/group_2.fasta ==> group_2

Contigs:
  CAV1741/prediction.fas ==> prediction

2016-09-15 08:59:59
Running Basic statistics processor...
  Reference genome:
    group_2.fasta, Reference length = 3223, Reference GC % = 56.35
  Contig files: 
    prediction
  Calculating N50 and L50...
    prediction, N50 = 109765, L50 = 1, Total length = 210250, GC % = 50.30, # N's per 100 kbp =  0.00
Done.

2016-09-15 08:59:59
Running Contig analyzer...
WARNING: Previous try of E-MEM compilation was unsuccessful! For forced retrying, please remove /home/mmbbio/Plasmid_Assembly/programmes/quast-4.1/libs/E-MEM-linux/make.failed and restart QUAST.
  prediction
  Logging to files /home/mmbbio/Plasmid_Assembly/completegenomes/plasmids/CAV1741_plasmids_references/group_2.fasta_comparison_plasmidfinder/contigs_reports/contigs_report_prediction.stdout and contigs_report_prediction.stderr...
  Running Nucmer
  /home/mmbbio/Plasmid_Assembly/programmes/quast-4.1/libs/MUMmer3.23-linux/nucmer \
  -c 65 -l 65 --maxmatch -p /home/mmbbio/Plasmid_Assembly/completegenomes/plasmids/CAV1741_plasmids_references/group_2.fasta_comparison_plasmidfinder/contigs_reports/nucmer_output/prediction \
  /home/mmbbio/Plasmid_Assembly/completegenomes/plasmids/CAV1741_plasmids_references/group_2.fasta_comparison_plasmidfinder/quast_corrected_input/group_2.fasta \
  /home/mmbbio/Plasmid_Assembly/completegenomes/plasmids/CAV1741_plasmids_references/group_2.fasta_comparison_plasmidfinder/quast_corrected_input/prediction.fas \
  >> /home/mmbbio/Plasmid_Assembly/completegenomes/plasmids/CAV1741_plasmids_references/group_2.fasta_comparison_plasmidfinder/contigs_reports/contigs_report_prediction.stdout \
  2>> /home/mmbbio/Plasmid_Assembly/completegenomes/plasmids/CAV1741_plasmids_references/group_2.fasta_comparison_plasmidfinder/contigs_reports/contigs_report_prediction.stderr
  /home/mmbbio/Plasmid_Assembly/programmes/quast-4.1/libs/MUMmer3.23-linux/delta-filter \
  -i 95 -l 500 /home/mmbbio/Plasmid_Assembly/completegenomes/plasmids/CAV1741_plasmids_references/group_2.fasta_comparison_plasmidfinder/contigs_reports/nucmer_output/prediction.delta \
  > /home/mmbbio/Plasmid_Assembly/completegenomes/plasmids/CAV1741_plasmids_references/group_2.fasta_comparison_plasmidfinder/contigs_reports/nucmer_output/prediction.fdelta \
  2> /home/mmbbio/Plasmid_Assembly/completegenomes/plasmids/CAV1741_plasmids_references/group_2.fasta_comparison_plasmidfinder/contigs_reports/contigs_report_prediction.stderr
  /home/mmbbio/Plasmid_Assembly/programmes/quast-4.1/libs/MUMmer3.23-linux/show-coords \
  /home/mmbbio/Plasmid_Assembly/completegenomes/plasmids/CAV1741_plasmids_references/group_2.fasta_comparison_plasmidfinder/contigs_reports/nucmer_output/prediction.delta \
  > /home/mmbbio/Plasmid_Assembly/completegenomes/plasmids/CAV1741_plasmids_references/group_2.fasta_comparison_plasmidfinder/contigs_reports/nucmer_output/prediction.coords_tmp \
  2> /home/mmbbio/Plasmid_Assembly/completegenomes/plasmids/CAV1741_plasmids_references/group_2.fasta_comparison_plasmidfinder/contigs_reports/contigs_report_prediction.stderr
  Nucmer: nothing aligned for 'prediction'.
Failed aligning the contigs for all the assemblies. Only basic stats are going to be evaluated.

NOTICE: Genes are not predicted by default. Use --gene-finding option to enable it.

2016-09-15 08:59:59
Creating large visual summaries...
This may take a while: press Ctrl-C to skip this step..
  1 of 1: Creating Icarus viewers...
Done

2016-09-15 08:59:59
RESULTS:
  Text versions of total report are saved to /home/mmbbio/Plasmid_Assembly/completegenomes/plasmids/CAV1741_plasmids_references/group_2.fasta_comparison_plasmidfinder/report.txt, report.tsv, and report.tex
  Text versions of transposed total report are saved to /home/mmbbio/Plasmid_Assembly/completegenomes/plasmids/CAV1741_plasmids_references/group_2.fasta_comparison_plasmidfinder/transposed_report.txt, transposed_report.tsv, and transposed_report.tex
  HTML version (interactive tables and plots) saved to /home/mmbbio/Plasmid_Assembly/completegenomes/plasmids/CAV1741_plasmids_references/group_2.fasta_comparison_plasmidfinder/report.html
  Icarus (contig browser) is saved to /home/mmbbio/Plasmid_Assembly/completegenomes/plasmids/CAV1741_plasmids_references/group_2.fasta_comparison_plasmidfinder/icarus.html
  Log saved to /home/mmbbio/Plasmid_Assembly/completegenomes/plasmids/CAV1741_plasmids_references/group_2.fasta_comparison_plasmidfinder/quast.log

Finished: 2016-09-15 08:59:59
Elapsed time: 0:00:00.403263
NOTICEs: 2; WARNINGs: 2; non-fatal ERRORs: 0

Thank you for using QUAST!
