Assembly	PMK1_plasmidfinder_recall
# fully unaligned contigs	3
Fully unaligned length	136296
# partially unaligned contigs	0
    # with misassembly	0
    # both parts are significant	0
Partially unaligned length	0
# N's	0
