RNODE_1_length_2973_cov_35.66203
("EDGE_100_length_2983_cov_34.3575'", 'EDGE_98_length_100_cov_35.3478')
[34.3575, 35.3478]
[100, 98]
RNODE_2_length_2099_cov_40.55472
('EDGE_215_length_2127_cov_37.9776', "EDGE_217_length_82_cov_53'")
[37.9776, 53.0]
[215, 217]
RNODE_3_length_43408_cov_65.45072
('EDGE_27_length_27707_cov_64.438', "EDGE_59_length_231_cov_71.4026'", 'EDGE_62_length_15544_cov_66.5584', "EDGE_25_length_146_cov_31.6667'")
[64.438, 71.4026, 66.5584, 31.6667]
[27, 59, 62, 25]
RNODE_4_length_7716_cov_84.64039
('EDGE_250_length_7685_cov_84.0309', "EDGE_251_length_141_cov_51.8281'")
[84.0309, 51.8281]
[250, 251]
RNODE_5_length_9500_cov_46.02822
('EDGE_467_length_81_cov_117.25', "EDGE_423_length_83_cov_78.5'", 'EDGE_422_length_9501_cov_44.338')
[117.25, 78.5, 44.338]
[467, 423, 422]
RNODE_6_length_41902_cov_38.52957
('EDGE_163_length_101_cov_69.5417', "EDGE_240_length_9717_cov_40.8436'", 'EDGE_239_length_133_cov_74.7143', "EDGE_164_length_32171_cov_37.3202'")
[69.5417, 40.8436, 74.7143, 37.3202]
[163, 240, 239, 164]
RNODE_7_length_5586_cov_38.99050
("EDGE_411_length_97_cov_83.1'", 'EDGE_412_length_5599_cov_37.4603')
[83.1, 37.4603]
[411, 412]
