Assembly	prediction
# contigs (>= 0 bp)	50
# contigs (>= 1000 bp)	41
# contigs (>= 5000 bp)	20
# contigs (>= 10000 bp)	14
# contigs (>= 25000 bp)	4
# contigs (>= 50000 bp)	1
Total length (>= 0 bp)	455927
Total length (>= 1000 bp)	449585
Total length (>= 5000 bp)	396856
Total length (>= 10000 bp)	354124
Total length (>= 25000 bp)	219097
Total length (>= 50000 bp)	125630
# contigs	50
Largest contig	125630
Total length	455927
Reference length	176497
GC (%)	51.71
Reference GC (%)	52.96
N50	23005
NG50	125630
N75	10536
NG75	34676
L50	5
LG50	1
L75	13
LG75	2
# misassemblies	0
# misassembled contigs	0
Misassembled contigs length	0
# local misassemblies	0
# unaligned contigs	33 + 2 part
Unaligned length	285746
Genome fraction (%)	96.414
Duplication ratio	1.037
# N's per 100 kbp	0.00
# mismatches per 100 kbp	45.25
# indels per 100 kbp	0.00
Largest alignment	125630
NGA50	125630
NGA75	10157
LGA50	1
LGA75	2
