Nucmer: nothing aligned for /home/mmbbio/Plasmid_Assembly/completegenomes/plasmids/CAV1344_plasmids_references/group_1.fasta_comparison_plasmidfinder/quast_corrected_input/prediction.fas
on_plasmidfinder/contigs_reports/nucmer_output/prediction.ntref" of length 3742
# construct suffix tree for sequence of length 3742
# (maximum reference length is 536870908)
# (maximum query length is 4294967295)
# CONSTRUCTIONTIME /home/mmbbio/Plasmid_Assembly/programmes/quast-4.1/libs/MUMmer3.23-linux/mummer /home/mmbbio/Plasmid_Assembly/completegenomes/plasmids/CAV1344_plasmids_references/group_1.fasta_comparison_plasmidfinder/contigs_reports/nucmer_output/prediction.ntref 0.00
# reading input file "/home/mmbbio/Plasmid_Assembly/completegenomes/plasmids/CAV1344_plasmids_references/group_1.fasta_comparison_plasmidfinder/quast_corrected_input/prediction.fas" of length 232494
# matching query-file "/home/mmbbio/Plasmid_Assembly/completegenomes/plasmids/CAV1344_plasmids_references/group_1.fasta_comparison_plasmidfinder/quast_corrected_input/prediction.fas"
# against subject-file "/home/mmbbio/Plasmid_Assembly/completegenomes/plasmids/CAV1344_plasmids_references/group_1.fasta_comparison_plasmidfinder/contigs_reports/nucmer_output/prediction.ntref"
# COMPLETETIME /home/mmbbio/Plasmid_Assembly/programmes/quast-4.1/libs/MUMmer3.23-linux/mummer /home/mmbbio/Plasmid_Assembly/completegenomes/plasmids/CAV1344_plasmids_references/group_1.fasta_comparison_plasmidfinder/contigs_reports/nucmer_output/prediction.ntref 0.04
# SPACE /home/mmbbio/Plasmid_Assembly/programmes/quast-4.1/libs/MUMmer3.23-linux/mummer /home/mmbbio/Plasmid_Assembly/completegenomes/plasmids/CAV1344_plasmids_references/group_1.fasta_comparison_plasmidfinder/contigs_reports/nucmer_output/prediction.ntref 0.23
4: FINISHING DATA
