S1	E1	S2	E2	Reference	Contig	IDY	Ambiguous
CONTIG	NODE_25_length_56011_cov_20.8724	56011	unaligned
CONTIG	NODE_39_length_20984_cov_26.0119	20984	unaligned
CONTIG	NODE_44_length_12982_cov_25.9024	12982	unaligned
CONTIG	NODE_49_length_10233_cov_28.5281	10233	unaligned
CONTIG	NODE_52_length_9055_cov_23.8241	9055	unaligned
CONTIG	NODE_56_length_8057_cov_29.4494	8057	unaligned
CONTIG	NODE_67_length_5680_cov_234.977	5680	unaligned
CONTIG	NODE_71_length_5440_cov_27.2327	5440	unaligned
CONTIG	NODE_76_length_5222_cov_267.312	5222	unaligned
CONTIG	NODE_79_length_4938_cov_27.3099	4938	unaligned
CONTIG	NODE_203_length_2532_cov_187.064	2532	unaligned
CONTIG	NODE_253_length_2296_cov_29.0549	2296	unaligned
200	1552	1	1353	gi_556579581_ref_NC_022661.1__Escherichia_coli_JJ1886_plasmid_pJJ1886_1__complete_sequence	NODE_505_length_1601_cov_120.274	100.0	
CONTIG	NODE_505_length_1601_cov_120.274	1601	correct
CONTIG	NODE_1306_length_768_cov_75.5933	768	unaligned
CONTIG	NODE_1577_length_619_cov_29.1986	619	unaligned
