Assembly	prediction
# fully unaligned contigs	14
Fully unaligned length	144817
# partially unaligned contigs	1
    # with misassembly	0
    # both parts are significant	0
Partially unaligned length	248
# N's	0
