Aligning contigs to reference...
	Running Nucmer
Parsing coords...
Loading reference...
	Loaded [gi_757691820_ref_NZ_CP007732.1__Klebsiella_pneumoniae_subsp._pneumoniae_KPNIH27_plasmid_pKEC-dc3__complete_sequence]
Loading SNPs...
Loading regions...
	No regions given, using whole reference.
	Total Regions: 1
	Total Region Length: 268334
Analyzing contigs...
CONTIG: NODE_20_length_92135_cov_125.157 (92135bp)
Top Length: 92135  Top ID: 100.0
		One align captures most of this contig: 64097 156231 | 92135 1 | 92135 92135 | 100.0 | gi_757691820_ref_NZ_CP007732.1__Klebsiella_pneumoniae_subsp._pneumoniae_KPNIH27_plasmid_pKEC-dc3__complete_sequence NODE_20_length_92135_cov_125.157

CONTIG: NODE_29_length_66828_cov_123.257 (66828bp)
Top Length: 43820  Top ID: 100.0
			Skipping redundant alignments after choosing the best set of alignments
		Skipping redundant alignment 166281 166980 | 66828 66129 | 700 700 | 100.0 | gi_757691820_ref_NZ_CP007732.1__Klebsiella_pneumoniae_subsp._pneumoniae_KPNIH27_plasmid_pKEC-dc3__complete_sequence NODE_29_length_66828_cov_123.257
		This contig is misassembled. 3 total aligns.
			Real Alignment 1: 1 23008 | 23008 1 | 23008 23008 | 100.0 | gi_757691820_ref_NZ_CP007732.1__Klebsiella_pneumoniae_subsp._pneumoniae_KPNIH27_plasmid_pKEC-dc3__complete_sequence NODE_29_length_66828_cov_123.257
			  Fake misassembly (caused by linear representation of circular genome) between these two alignments
			Real Alignment 2: 224515 268334 | 66828 23009 | 43820 43820 | 100.0 | gi_757691820_ref_NZ_CP007732.1__Klebsiella_pneumoniae_subsp._pneumoniae_KPNIH27_plasmid_pKEC-dc3__complete_sequence NODE_29_length_66828_cov_123.257

CONTIG: NODE_32_length_57003_cov_75.9163 (57003bp)
		This contig is unaligned. (57003 bp)
		Unaligned bases: 57003  total: 57003

CONTIG: NODE_34_length_50368_cov_69.8803 (50368bp)
		This contig is unaligned. (50368 bp)
		Unaligned bases: 50368  total: 107371

CONTIG: NODE_50_length_27875_cov_101.575 (27875bp)
		This contig is unaligned. (27875 bp)
		Unaligned bases: 27875  total: 135246

CONTIG: NODE_51_length_27779_cov_126.061 (27779bp)
Top Length: 27779  Top ID: 99.99
		One align captures most of this contig: 176822 204600 | 27779 1 | 27779 27779 | 99.99 | gi_757691820_ref_NZ_CP007732.1__Klebsiella_pneumoniae_subsp._pneumoniae_KPNIH27_plasmid_pKEC-dc3__complete_sequence NODE_51_length_27779_cov_126.061

CONTIG: NODE_52_length_27725_cov_73.6199 (27725bp)
		This contig is unaligned. (27725 bp)
		Unaligned bases: 27725  total: 162971

CONTIG: NODE_54_length_26762_cov_124.95 (26762bp)
		This contig is unaligned. (26762 bp)
		Unaligned bases: 26762  total: 189733

CONTIG: NODE_57_length_21680_cov_132.807 (21680bp)
Top Length: 900  Top ID: 100.0
		This contig is partially unaligned. (Aligned 900 out of 21680 bases)
		Alignment: 168389 169288 | 900 1 | 900 900 | 100.0 | gi_757691820_ref_NZ_CP007732.1__Klebsiella_pneumoniae_subsp._pneumoniae_KPNIH27_plasmid_pKEC-dc3__complete_sequence NODE_57_length_21680_cov_132.807
		Unaligned bases: 901 to 21680 (20780)
		This contig has both significant aligned and unaligned parts (of length >= 500)!

CONTIG: NODE_60_length_18034_cov_61.0516 (18034bp)
		This contig is unaligned. (18034 bp)
		Unaligned bases: 18034  total: 207767

CONTIG: NODE_63_length_13736_cov_80.5581 (13736bp)
		This contig is unaligned. (13736 bp)
		Unaligned bases: 13736  total: 221503

CONTIG: NODE_65_length_13224_cov_76.3183 (13224bp)
		This contig is unaligned. (13224 bp)
		Unaligned bases: 13224  total: 234727

CONTIG: NODE_68_length_12608_cov_72.7815 (12608bp)
		This contig is unaligned. (12608 bp)
		Unaligned bases: 12608  total: 247335

CONTIG: NODE_69_length_12600_cov_83.3016 (12600bp)
		This contig is unaligned. (12600 bp)
		Unaligned bases: 12600  total: 259935

CONTIG: NODE_72_length_11778_cov_116.867 (11778bp)
Top Length: 11778  Top ID: 99.91
		One align captures most of this contig: 38842 50630 | 1 11778 | 11789 11778 | 99.91 | gi_757691820_ref_NZ_CP007732.1__Klebsiella_pneumoniae_subsp._pneumoniae_KPNIH27_plasmid_pKEC-dc3__complete_sequence NODE_72_length_11778_cov_116.867

CONTIG: NODE_75_length_10793_cov_68.4271 (10793bp)
		This contig is unaligned. (10793 bp)
		Unaligned bases: 10793  total: 270728

CONTIG: NODE_76_length_9226_cov_146.236 (9226bp)
Top Length: 9226  Top ID: 99.98
		One align captures most of this contig: 23814 33039 | 9226 1 | 9226 9226 | 99.98 | gi_757691820_ref_NZ_CP007732.1__Klebsiella_pneumoniae_subsp._pneumoniae_KPNIH27_plasmid_pKEC-dc3__complete_sequence NODE_76_length_9226_cov_146.236

CONTIG: NODE_78_length_8747_cov_78.5682 (8747bp)
		This contig is unaligned. (8747 bp)
		Unaligned bases: 8747  total: 279475

CONTIG: NODE_81_length_7303_cov_69.6777 (7303bp)
		This contig is unaligned. (7303 bp)
		Unaligned bases: 7303  total: 286778

CONTIG: NODE_82_length_6578_cov_64.5702 (6578bp)
		This contig is unaligned. (6578 bp)
		Unaligned bases: 6578  total: 293356

CONTIG: NODE_83_length_6287_cov_86.5853 (6287bp)
		This contig is unaligned. (6287 bp)
		Unaligned bases: 6287  total: 299643

CONTIG: NODE_86_length_5662_cov_110.901 (5662bp)
		This contig is unaligned. (5662 bp)
		Unaligned bases: 5662  total: 305305

CONTIG: NODE_87_length_5657_cov_81.4048 (5657bp)
		This contig is unaligned. (5657 bp)
		Unaligned bases: 5657  total: 310962

CONTIG: NODE_88_length_5595_cov_71.346 (5595bp)
		This contig is unaligned. (5595 bp)
		Unaligned bases: 5595  total: 316557

CONTIG: NODE_90_length_5444_cov_84.1412 (5444bp)
		This contig is unaligned. (5444 bp)
		Unaligned bases: 5444  total: 322001

CONTIG: NODE_92_length_4949_cov_132.613 (4949bp)
		This contig is unaligned. (4949 bp)
		Unaligned bases: 4949  total: 326950

CONTIG: NODE_93_length_4854_cov_121.922 (4854bp)
		This contig is unaligned. (4854 bp)
		Unaligned bases: 4854  total: 331804

CONTIG: NODE_94_length_4726_cov_79.2433 (4726bp)
		This contig is unaligned. (4726 bp)
		Unaligned bases: 4726  total: 336530

CONTIG: NODE_95_length_4557_cov_78.5859 (4557bp)
		This contig is unaligned. (4557 bp)
		Unaligned bases: 4557  total: 341087

CONTIG: NODE_96_length_4463_cov_108.863 (4463bp)
Top Length: 4463  Top ID: 100.0
		One align captures most of this contig: 33559 38021 | 4463 1 | 4463 4463 | 100.0 | gi_757691820_ref_NZ_CP007732.1__Klebsiella_pneumoniae_subsp._pneumoniae_KPNIH27_plasmid_pKEC-dc3__complete_sequence NODE_96_length_4463_cov_108.863

CONTIG: NODE_99_length_4251_cov_75.9368 (4251bp)
		This contig is unaligned. (4251 bp)
		Unaligned bases: 4251  total: 345338

CONTIG: NODE_102_length_4014_cov_110.954 (4014bp)
		This contig is unaligned. (4014 bp)
		Unaligned bases: 4014  total: 349352

CONTIG: NODE_105_length_3842_cov_77.3097 (3842bp)
		This contig is unaligned. (3842 bp)
		Unaligned bases: 3842  total: 353194

CONTIG: NODE_107_length_3664_cov_375.094 (3664bp)
Top Length: 3664  Top ID: 100.0
		One align captures most of this contig: 169212 172875 | 1 3664 | 3664 3664 | 100.0 | gi_757691820_ref_NZ_CP007732.1__Klebsiella_pneumoniae_subsp._pneumoniae_KPNIH27_plasmid_pKEC-dc3__complete_sequence NODE_107_length_3664_cov_375.094

CONTIG: NODE_108_length_3637_cov_85.2916 (3637bp)
		This contig is unaligned. (3637 bp)
		Unaligned bases: 3637  total: 356831

CONTIG: NODE_111_length_3577_cov_138.044 (3577bp)
Top Length: 3577  Top ID: 100.0
		One align captures most of this contig: 207598 211174 | 3577 1 | 3577 3577 | 100.0 | gi_757691820_ref_NZ_CP007732.1__Klebsiella_pneumoniae_subsp._pneumoniae_KPNIH27_plasmid_pKEC-dc3__complete_sequence NODE_111_length_3577_cov_138.044

CONTIG: NODE_116_length_3403_cov_90.8334 (3403bp)
		This contig is unaligned. (3403 bp)
		Unaligned bases: 3403  total: 360234

CONTIG: NODE_117_length_3395_cov_68.4364 (3395bp)
		This contig is unaligned. (3395 bp)
		Unaligned bases: 3395  total: 363629

CONTIG: NODE_120_length_3134_cov_226.171 (3134bp)
Top Length: 3134  Top ID: 100.0
		One align captures most of this contig: 160617 163750 | 3134 1 | 3134 3134 | 100.0 | gi_757691820_ref_NZ_CP007732.1__Klebsiella_pneumoniae_subsp._pneumoniae_KPNIH27_plasmid_pKEC-dc3__complete_sequence NODE_120_length_3134_cov_226.171

CONTIG: NODE_123_length_2954_cov_62.8036 (2954bp)
		This contig is unaligned. (2954 bp)
		Unaligned bases: 2954  total: 366583

CONTIG: NODE_127_length_2553_cov_141.924 (2553bp)
Top Length: 768  Top ID: 96.74
		This contig is partially unaligned. (Aligned 768 out of 2553 bases)
		Alignment: 202258 203025 | 1112 1879 | 768 768 | 96.74 | gi_757691820_ref_NZ_CP007732.1__Klebsiella_pneumoniae_subsp._pneumoniae_KPNIH27_plasmid_pKEC-dc3__complete_sequence NODE_127_length_2553_cov_141.924
		Unaligned bases: 1 to 1111 (1111)
		Unaligned bases: 1880 to 2553 (674)
		This contig has both significant aligned and unaligned parts (of length >= 500)!

CONTIG: NODE_128_length_2495_cov_223.397 (2495bp)
		This contig is unaligned. (2495 bp)
		Unaligned bases: 2495  total: 369078

CONTIG: NODE_129_length_2411_cov_54.5651 (2411bp)
		This contig is unaligned. (2411 bp)
		Unaligned bases: 2411  total: 371489

CONTIG: NODE_131_length_2356_cov_516.268 (2356bp)
		This contig is unaligned. (2356 bp)
		Unaligned bases: 2356  total: 373845

CONTIG: NODE_132_length_2255_cov_221.077 (2255bp)
		This contig is unaligned. (2255 bp)
		Unaligned bases: 2255  total: 376100

CONTIG: NODE_135_length_2045_cov_64.5315 (2045bp)
		This contig is unaligned. (2045 bp)
		Unaligned bases: 2045  total: 378145

CONTIG: NODE_138_length_1982_cov_95.4031 (1982bp)
		This contig is unaligned. (1982 bp)
		Unaligned bases: 1982  total: 380127

CONTIG: NODE_140_length_1897_cov_220.153 (1897bp)
		This contig is unaligned. (1897 bp)
		Unaligned bases: 1897  total: 382024

CONTIG: NODE_141_length_1860_cov_127.958 (1860bp)
		This contig is unaligned. (1860 bp)
		Unaligned bases: 1860  total: 383884

CONTIG: NODE_142_length_1848_cov_99.0536 (1848bp)
		This contig is unaligned. (1848 bp)
		Unaligned bases: 1848  total: 385732

CONTIG: NODE_143_length_1840_cov_157.909 (1840bp)
Top Length: 1840  Top ID: 100.0
		Marking as insignificant: 157664 158207 | 544 1 | 544 544 | 99.82 | gi_757691820_ref_NZ_CP007732.1__Klebsiella_pneumoniae_subsp._pneumoniae_KPNIH27_plasmid_pKEC-dc3__complete_sequence NODE_143_length_1840_cov_157.909
		One align captures most of this contig: 221878 223717 | 1840 1 | 1840 1840 | 100.0 | gi_757691820_ref_NZ_CP007732.1__Klebsiella_pneumoniae_subsp._pneumoniae_KPNIH27_plasmid_pKEC-dc3__complete_sequence NODE_143_length_1840_cov_157.909

CONTIG: NODE_144_length_1762_cov_163.075 (1762bp)
Top Length: 1762  Top ID: 99.89
		One align captures most of this contig: 215534 217295 | 1762 1 | 1762 1762 | 99.89 | gi_757691820_ref_NZ_CP007732.1__Klebsiella_pneumoniae_subsp._pneumoniae_KPNIH27_plasmid_pKEC-dc3__complete_sequence NODE_144_length_1762_cov_163.075

CONTIG: NODE_147_length_1599_cov_153.135 (1599bp)
		This contig is unaligned. (1599 bp)
		Unaligned bases: 1599  total: 387331

CONTIG: NODE_148_length_1579_cov_73.2017 (1579bp)
		This contig is unaligned. (1579 bp)
		Unaligned bases: 1579  total: 388910

CONTIG: NODE_150_length_1568_cov_82.2871 (1568bp)
Top Length: 1568  Top ID: 100.0
		One align captures most of this contig: 61724 63291 | 1568 1 | 1568 1568 | 100.0 | gi_757691820_ref_NZ_CP007732.1__Klebsiella_pneumoniae_subsp._pneumoniae_KPNIH27_plasmid_pKEC-dc3__complete_sequence NODE_150_length_1568_cov_82.2871

CONTIG: NODE_152_length_1482_cov_106.895 (1482bp)
		This contig is unaligned. (1482 bp)
		Unaligned bases: 1482  total: 390392

CONTIG: NODE_155_length_1381_cov_153.456 (1381bp)
Top Length: 1381  Top ID: 100.0
		One align captures most of this contig: 205409 206789 | 1381 1 | 1381 1381 | 100.0 | gi_757691820_ref_NZ_CP007732.1__Klebsiella_pneumoniae_subsp._pneumoniae_KPNIH27_plasmid_pKEC-dc3__complete_sequence NODE_155_length_1381_cov_153.456

CONTIG: NODE_156_length_1343_cov_229.751 (1343bp)
		This contig is unaligned. (1343 bp)
		Unaligned bases: 1343  total: 391735

CONTIG: NODE_158_length_1336_cov_123.626 (1336bp)
		This contig is unaligned. (1336 bp)
		Unaligned bases: 1336  total: 393071

CONTIG: NODE_160_length_1241_cov_70.9141 (1241bp)
		This contig is unaligned. (1241 bp)
		Unaligned bases: 1241  total: 394312

CONTIG: NODE_161_length_1233_cov_148.143 (1233bp)
Top Length: 1233  Top ID: 100.0
		One align captures most of this contig: 54778 56010 | 1 1233 | 1233 1233 | 100.0 | gi_757691820_ref_NZ_CP007732.1__Klebsiella_pneumoniae_subsp._pneumoniae_KPNIH27_plasmid_pKEC-dc3__complete_sequence NODE_161_length_1233_cov_148.143

CONTIG: NODE_162_length_1229_cov_149.004 (1229bp)
		This contig is unaligned. (1229 bp)
		Unaligned bases: 1229  total: 395541

CONTIG: NODE_163_length_1208_cov_317.883 (1208bp)
		This contig is unaligned. (1208 bp)
		Unaligned bases: 1208  total: 396749

CONTIG: NODE_164_length_1194_cov_99.615 (1194bp)
		This contig is unaligned. (1194 bp)
		Unaligned bases: 1194  total: 397943

CONTIG: NODE_165_length_1079_cov_90.5798 (1079bp)
		This contig is unaligned. (1079 bp)
		Unaligned bases: 1079  total: 399022

CONTIG: NODE_167_length_1058_cov_158.947 (1058bp)
		This contig is unaligned. (1058 bp)
		Unaligned bases: 1058  total: 400080

CONTIG: NODE_172_length_951_cov_153.077 (951bp)
Top Length: 951  Top ID: 100.0
		This contig has 3 significant alignments. [An ambiguously mapped contig]
		Using all these alignments (option --ambiguity-usage is set to "all"):
		Alignment: 165407 166357 | 951 1 | 951 951 | 100.0 | gi_757691820_ref_NZ_CP007732.1__Klebsiella_pneumoniae_subsp._pneumoniae_KPNIH27_plasmid_pKEC-dc3__complete_sequence NODE_172_length_951_cov_153.077
		Alignment: 223641 224591 | 951 1 | 951 951 | 100.0 | gi_757691820_ref_NZ_CP007732.1__Klebsiella_pneumoniae_subsp._pneumoniae_KPNIH27_plasmid_pKEC-dc3__complete_sequence NODE_172_length_951_cov_153.077
		Alignment: 158131 159081 | 951 1 | 951 951 | 99.89 | gi_757691820_ref_NZ_CP007732.1__Klebsiella_pneumoniae_subsp._pneumoniae_KPNIH27_plasmid_pKEC-dc3__complete_sequence NODE_172_length_951_cov_153.077

CONTIG: NODE_173_length_949_cov_129.368 (949bp)
		This contig is unaligned. (949 bp)
		Unaligned bases: 949  total: 401029

CONTIG: NODE_176_length_888_cov_432.541 (888bp)
		This contig is unaligned. (888 bp)
		Unaligned bases: 888  total: 401917

CONTIG: NODE_177_length_884_cov_306.269 (884bp)
		This contig is unaligned. (884 bp)
		Unaligned bases: 884  total: 402801

CONTIG: NODE_178_length_846_cov_155.326 (846bp)
		This contig is unaligned. (846 bp)
		Unaligned bases: 846  total: 403647

CONTIG: NODE_179_length_841_cov_274.466 (841bp)
		This contig is unaligned. (841 bp)
		Unaligned bases: 841  total: 404488

CONTIG: NODE_180_length_781_cov_61.2188 (781bp)
		This contig is unaligned. (781 bp)
		Unaligned bases: 781  total: 405269

CONTIG: NODE_181_length_774_cov_76.3501 (774bp)
		This contig is unaligned. (774 bp)
		Unaligned bases: 774  total: 406043

CONTIG: NODE_182_length_769_cov_346.445 (769bp)
Top Length: 768  Top ID: 97.66
		One align captures most of this contig: 202258 203025 | 1 768 | 768 768 | 97.66 | gi_757691820_ref_NZ_CP007732.1__Klebsiella_pneumoniae_subsp._pneumoniae_KPNIH27_plasmid_pKEC-dc3__complete_sequence NODE_182_length_769_cov_346.445

CONTIG: NODE_183_length_746_cov_269.502 (746bp)
Top Length: 746  Top ID: 100.0
		One align captures most of this contig: 156993 157738 | 1 746 | 746 746 | 100.0 | gi_757691820_ref_NZ_CP007732.1__Klebsiella_pneumoniae_subsp._pneumoniae_KPNIH27_plasmid_pKEC-dc3__complete_sequence NODE_183_length_746_cov_269.502

CONTIG: NODE_185_length_728_cov_146.134 (728bp)
		This contig is unaligned. (728 bp)
		Unaligned bases: 728  total: 406771

CONTIG: NODE_188_length_713_cov_130.626 (713bp)
		This contig is unaligned. (713 bp)
		Unaligned bases: 713  total: 407484

CONTIG: NODE_191_length_684_cov_81.0725 (684bp)
		This contig is unaligned. (684 bp)
		Unaligned bases: 684  total: 408168

CONTIG: NODE_192_length_682_cov_323.288 (682bp)
		This contig is unaligned. (682 bp)
		Unaligned bases: 682  total: 408850

CONTIG: NODE_197_length_669_cov_159.15 (669bp)
		This contig is unaligned. (669 bp)
		Unaligned bases: 669  total: 409519

CONTIG: NODE_198_length_653_cov_86.1476 (653bp)
		This contig is unaligned. (653 bp)
		Unaligned bases: 653  total: 410172

CONTIG: NODE_199_length_643_cov_100.968 (643bp)
		This contig is unaligned. (643 bp)
		Unaligned bases: 643  total: 410815

CONTIG: NODE_206_length_593_cov_139.064 (593bp)
		This contig is unaligned. (593 bp)
		Unaligned bases: 593  total: 411408

CONTIG: NODE_209_length_563_cov_243.971 (563bp)
Top Length: 563  Top ID: 99.47
		One align captures most of this contig: 38356 38918 | 563 1 | 563 563 | 99.47 | gi_757691820_ref_NZ_CP007732.1__Klebsiella_pneumoniae_subsp._pneumoniae_KPNIH27_plasmid_pKEC-dc3__complete_sequence NODE_209_length_563_cov_243.971

CONTIG: NODE_211_length_505_cov_34.5514 (505bp)
		This contig is unaligned. (505 bp)
		Unaligned bases: 505  total: 411913

Analyzing coverage...
Writing SNPs into /home/mmbbio/Plasmid_Assembly/completegenomes/plasmids/KPNIH27_plasmids_references/group_1.fasta_comparison_cbar/contigs_reports/nucmer_output/prediction.used_snps
	Reference gi_757691820_ref_NZ_CP007732.1__Klebsiella_pneumoniae_subsp._pneumoniae_KPNIH27_plasmid_pKEC-dc3__complete_sequence: 23 total alignments. 1 total regions.
		Region: 1 to 268334 (268334 bp)
			Align 1: 1 23008 NODE_29_length_66828_cov_123.257 23008 1
				Gap between this and next alignment: 23008 to 23814 (805 bp)
				Next Alignment: 23814 33039 NODE_76_length_9226_cov_146.236 9226 1

			Align 2: 23814 33039 NODE_76_length_9226_cov_146.236 9226 1
				Gap between this and next alignment: 33039 to 33559 (519 bp)
				Next Alignment: 33559 38021 NODE_96_length_4463_cov_108.863 4463 1

			Align 3: 33559 38021 NODE_96_length_4463_cov_108.863 4463 1
				Gap between this and next alignment: 38021 to 38356 (334 bp)
				Next Alignment: 38356 38918 NODE_209_length_563_cov_243.971 563 1

			Align 4: 38356 38918 NODE_209_length_563_cov_243.971 563 1
				Negative gap (overlap) between this and next alignment: 38918 to 38842 (-76 bp)
				Next Alignment: 38842 50630 NODE_72_length_11778_cov_116.867 1 11778

			Previous gap was negative, modifying coordinates to ignore overlap
				Moving contig start from 1 to 78.
			Align 5: 38919 50630 NODE_72_length_11778_cov_116.867 78 11778
				Gap between this and next alignment: 50630 to 54778 (4147 bp)
				Next Alignment: 54778 56010 NODE_161_length_1233_cov_148.143 1 1233

			Align 6: 54778 56010 NODE_161_length_1233_cov_148.143 1 1233
				Gap between this and next alignment: 56010 to 61724 (5713 bp)
				Next Alignment: 61724 63291 NODE_150_length_1568_cov_82.2871 1568 1

			Align 7: 61724 63291 NODE_150_length_1568_cov_82.2871 1568 1
				Gap between this and next alignment: 63291 to 64097 (805 bp)
				Next Alignment: 64097 156231 NODE_20_length_92135_cov_125.157 92135 1

			Align 8: 64097 156231 NODE_20_length_92135_cov_125.157 92135 1
				Gap between this and next alignment: 156231 to 156993 (761 bp)
				Next Alignment: 156993 157738 NODE_183_length_746_cov_269.502 1 746

			Align 9: 156993 157738 NODE_183_length_746_cov_269.502 1 746
				Gap between this and next alignment: 157738 to 158131 (392 bp)
				Next Alignment: 158131 159081 NODE_172_length_951_cov_153.077 951 1

			Align 10: 158131 159081 NODE_172_length_951_cov_153.077 951 1
				Gap between this and next alignment: 159081 to 160617 (1535 bp)
				Next Alignment: 160617 163750 NODE_120_length_3134_cov_226.171 3134 1

			Align 11: 160617 163750 NODE_120_length_3134_cov_226.171 3134 1
				Gap between this and next alignment: 163750 to 165407 (1656 bp)
				Next Alignment: 165407 166357 NODE_172_length_951_cov_153.077 951 1

			Align 12: 165407 166357 NODE_172_length_951_cov_153.077 951 1
				Gap between this and next alignment: 166357 to 168389 (2031 bp)
				Next Alignment: 168389 169288 NODE_57_length_21680_cov_132.807 900 1

			Align 13: 168389 169288 NODE_57_length_21680_cov_132.807 900 1
				Negative gap (overlap) between this and next alignment: 169288 to 169212 (-76 bp)
				Next Alignment: 169212 172875 NODE_107_length_3664_cov_375.094 1 3664

			Previous gap was negative, modifying coordinates to ignore overlap
				Moving contig start from 1 to 78.
			Align 14: 169289 172875 NODE_107_length_3664_cov_375.094 78 3664
				Gap between this and next alignment: 172875 to 176822 (3946 bp)
				Next Alignment: 176822 204600 NODE_51_length_27779_cov_126.061 27779 1

			Align 15: 176822 204600 NODE_51_length_27779_cov_126.061 27779 1
				The next alignment (202258 203025 NODE_127_length_2553_cov_141.924 1112 1879) is redundant. Skipping.
				The next alignment (202258 203025 NODE_182_length_769_cov_346.445 1 768) is redundant. Skipping.
				Gap between this and next alignment: 204600 to 205409 (808 bp)
				Next Alignment: 205409 206789 NODE_155_length_1381_cov_153.456 1381 1

			Align 18: 205409 206789 NODE_155_length_1381_cov_153.456 1381 1
				Gap between this and next alignment: 206789 to 207598 (808 bp)
				Next Alignment: 207598 211174 NODE_111_length_3577_cov_138.044 3577 1

			Align 19: 207598 211174 NODE_111_length_3577_cov_138.044 3577 1
				Gap between this and next alignment: 211174 to 215534 (4359 bp)
				Next Alignment: 215534 217295 NODE_144_length_1762_cov_163.075 1762 1

			Align 20: 215534 217295 NODE_144_length_1762_cov_163.075 1762 1
				Gap between this and next alignment: 217295 to 221878 (4582 bp)
				Next Alignment: 221878 223717 NODE_143_length_1840_cov_157.909 1840 1

			Align 21: 221878 223717 NODE_143_length_1840_cov_157.909 1840 1
				Negative gap (overlap) between this and next alignment: 223717 to 223641 (-76 bp)
				Next Alignment: 223641 224591 NODE_172_length_951_cov_153.077 951 1

			Previous gap was negative, modifying coordinates to ignore overlap
				Moving contig start from 951 to 874.
			Align 22: 223718 224591 NODE_172_length_951_cov_153.077 874 1
				Negative gap (overlap) between this and next alignment: 224591 to 224515 (-76 bp)
				Next Alignment: 224515 268334 NODE_29_length_66828_cov_123.257 66828 23009

			Previous gap was negative, modifying coordinates to ignore overlap
				Moving contig start from 66828 to 66751.
			Align 23: 224592 268334 NODE_29_length_66828_cov_123.257 66751 23009
			END in current alignment.  Modifying 268334 to 268334.

Analysis is finished!
Founded SNPs were written into /home/mmbbio/Plasmid_Assembly/completegenomes/plasmids/KPNIH27_plasmids_references/group_1.fasta_comparison_cbar/contigs_reports/nucmer_output/prediction.used_snps

Results:
	Local Misassemblies: 0
	Misassemblies: 0
		Relocations: 0
		Translocations: 0
		Inversions: 0
	Misassembled Contigs: 0
	Misassembled Contig Bases: 0
	Misassemblies Inter-Contig Overlap: 0
Uncovered Regions: 0 (0)
Unaligned Contigs: 66 + 2 part
Partially Unaligned Contigs with Misassemblies: 0
Unaligned Contig Bases: 434478

Ambiguously Mapped Contigs: 1
Extra Bases in Ambiguously Mapped Contigs: 1902
Note that --allow-ambiguity option was set to "all" and each of these contigs was used several times.

	Covered Bases: 235133

	SNPs: 11
	Insertions: 0
	Deletions: 11

	Positive Gaps: 16
		Internal Gaps:  0
		External Gaps:  16
		External Gap Total:  33201
		External Gap Average: 2075
	Negative Gaps: 4
		Internal Overlaps:  0
		External Overlaps:  4
		External Overlaps Total: -304
		External Overlaps Average: -76
	Contigs with Redundant Alignments: 1 (1536)
