Assembly	prediction
# fully unaligned contigs	66
Fully unaligned length	411913
# partially unaligned contigs	2
    # with misassembly	0
    # both parts are significant	2
Partially unaligned length	22565
# N's	0
