Assembly	PMK1_cbar_recall
# contigs (>= 0 bp)	47
# contigs (>= 1000 bp)	40
# contigs (>= 5000 bp)	19
# contigs (>= 10000 bp)	12
# contigs (>= 25000 bp)	5
# contigs (>= 50000 bp)	2
Total length (>= 0 bp)	511316
Total length (>= 1000 bp)	506088
Total length (>= 5000 bp)	460101
Total length (>= 10000 bp)	411088
Total length (>= 25000 bp)	277945
Total length (>= 50000 bp)	162481
# contigs	47
Largest contig	111748
Total length	511316
Reference length	69947
GC (%)	49.38
Reference GC (%)	53.97
N50	31494
NG50	111748
N75	16754
NG75	111748
L50	5
LG50	1
L75	11
LG75	1
# misassemblies	0
# misassembled contigs	0
Misassembled contigs length	0
# local misassemblies	0
# unaligned contigs	32 + 1 part
Unaligned length	451224
Genome fraction (%)	85.513
Duplication ratio	1.028
# N's per 100 kbp	0.00
# mismatches per 100 kbp	117.03
# indels per 100 kbp	11.70
Largest alignment	20973
NGA50	16754
NGA75	2197
LGA50	2
LGA75	6
