Aligning contigs to reference...
	Running Nucmer
Parsing coords...
Loading reference...
	Loaded [gi_556555179_ref_NC_022651.1__Escherichia_coli_JJ1886_plasmid_pJJ1886_5__complete_sequence]
Loading SNPs...
Loading regions...
	No regions given, using whole reference.
	Total Regions: 1
	Total Region Length: 110040
Analyzing contigs...
CONTIG: NODE_1_length_56011_cov_20.8724_component_1 (56011bp)
		This contig is unaligned. (56011 bp)
		Unaligned bases: 56011  total: 56011

CONTIG: NODE_2_length_39778_cov_3.84795_component_2 (39778bp)
		This contig is unaligned. (39778 bp)
		Unaligned bases: 39778  total: 95789

CONTIG: NODE_3_length_17914_cov_64.8522_component_0 (17914bp)
Top Length: 2533  Top ID: 100.0
			Skipping redundant alignments after choosing the best set of alignments
		Skipping redundant alignment 1 2532 | 7337 4806 | 2532 2532 | 100.0 | gi_556555179_ref_NC_022651.1__Escherichia_coli_JJ1886_plasmid_pJJ1886_5__complete_sequence NODE_3_length_17914_cov_64.8522_component_0
		This contig is partially unaligned. (Aligned 2533 out of 17914 bases)
		Alignment: 107508 110040 | 7338 4806 | 2533 2533 | 100.0 | gi_556555179_ref_NC_022651.1__Escherichia_coli_JJ1886_plasmid_pJJ1886_5__complete_sequence NODE_3_length_17914_cov_64.8522_component_0
		Unaligned bases: 1 to 4805 (4805)
		Unaligned bases: 7339 to 17914 (10576)
		This contig has both significant aligned and unaligned parts (of length >= 500)!

CONTIG: NODE_4_length_10729_cov_42.6922_component_0 (10729bp)
		This contig is unaligned. (10729 bp)
		Unaligned bases: 10729  total: 106518

CONTIG: NODE_5_length_8828_cov_8.20027_component_3 (8828bp)
		This contig is unaligned. (8828 bp)
		Unaligned bases: 8828  total: 115346

CONTIG: NODE_6_length_8087_cov_29.7266_component_0 (8087bp)
Top Length: 8087  Top ID: 100.0
		One align captures most of this contig: 2478 10564 | 1 8087 | 8087 8087 | 100.0 | gi_556555179_ref_NC_022651.1__Escherichia_coli_JJ1886_plasmid_pJJ1886_5__complete_sequence NODE_6_length_8087_cov_29.7266_component_0

CONTIG: NODE_7_length_6622_cov_39.1278_component_0 (6622bp)
		This contig is unaligned. (6622 bp)
		Unaligned bases: 6622  total: 121968

CONTIG: NODE_8_length_6468_cov_46.7237_component_0 (6468bp)
		This contig is unaligned. (6468 bp)
		Unaligned bases: 6468  total: 128436

CONTIG: NODE_9_length_6241_cov_34.1544_component_4 (6241bp)
		This contig is unaligned. (6241 bp)
		Unaligned bases: 6241  total: 134677

CONTIG: NODE_10_length_5276_cov_140.664_component_3 (5276bp)
		This contig is unaligned. (5276 bp)
		Unaligned bases: 5276  total: 139953

CONTIG: NODE_11_length_5222_cov_267.312_component_6 (5222bp)
		This contig is unaligned. (5222 bp)
		Unaligned bases: 5222  total: 145175

CONTIG: NODE_12_length_3728_cov_32.278_component_4 (3728bp)
		This contig is unaligned. (3728 bp)
		Unaligned bases: 3728  total: 148903

CONTIG: NODE_13_length_3487_cov_2.08625_component_2 (3487bp)
		This contig is unaligned. (3487 bp)
		Unaligned bases: 3487  total: 152390

CONTIG: NODE_14_length_3391_cov_2.05695_component_3 (3391bp)
		This contig is unaligned. (3391 bp)
		Unaligned bases: 3391  total: 155781

CONTIG: NODE_15_length_3248_cov_2.21265_component_3 (3248bp)
		This contig is unaligned. (3248 bp)
		Unaligned bases: 3248  total: 159029

CONTIG: NODE_16_length_3241_cov_2.33019_component_4 (3241bp)
		This contig is unaligned. (3241 bp)
		Unaligned bases: 3241  total: 162270

CONTIG: NODE_17_length_2639_cov_2.2798_component_4 (2639bp)
		This contig is unaligned. (2639 bp)
		Unaligned bases: 2639  total: 164909

CONTIG: NODE_18_length_2464_cov_37.2989_component_0 (2464bp)
		This contig is unaligned. (2464 bp)
		Unaligned bases: 2464  total: 167373

CONTIG: NODE_19_length_2186_cov_29.0549_component_0 (2186bp)
Top Length: 2186  Top ID: 100.0
		One align captures most of this contig: 32007 34192 | 2186 1 | 2186 2186 | 100.0 | gi_556555179_ref_NC_022651.1__Escherichia_coli_JJ1886_plasmid_pJJ1886_5__complete_sequence NODE_19_length_2186_cov_29.0549_component_0

CONTIG: NODE_20_length_2190_cov_30.1405_component_0 (2190bp)
Top Length: 2190  Top ID: 100.0
		One align captures most of this contig: 34915 37104 | 2190 1 | 2190 2190 | 100.0 | gi_556555179_ref_NC_022651.1__Escherichia_coli_JJ1886_plasmid_pJJ1886_5__complete_sequence NODE_20_length_2190_cov_30.1405_component_0

CONTIG: NODE_21_length_2131_cov_28.1594_component_4 (2131bp)
		This contig is unaligned. (2131 bp)
		Unaligned bases: 2131  total: 169504

CONTIG: NODE_22_length_1689_cov_3.26377_component_7 (1689bp)
		This contig is unaligned. (1689 bp)
		Unaligned bases: 1689  total: 171193

CONTIG: NODE_23_length_1496_cov_76.8744_component_4 (1496bp)
		This contig is unaligned. (1496 bp)
		Unaligned bases: 1496  total: 172689

CONTIG: NODE_24_length_1330_cov_28.1522_component_0 (1330bp)
		This contig is unaligned. (1330 bp)
		Unaligned bases: 1330  total: 174019

CONTIG: NODE_25_length_1323_cov_4.12855_component_2 (1323bp)
		This contig is unaligned. (1323 bp)
		Unaligned bases: 1323  total: 175342

CONTIG: NODE_26_length_1294_cov_35.2873_component_0 (1294bp)
Top Length: 1294  Top ID: 99.15
		One align captures most of this contig: 81661 82954 | 1 1294 | 1294 1294 | 99.15 | gi_556555179_ref_NC_022651.1__Escherichia_coli_JJ1886_plasmid_pJJ1886_5__complete_sequence NODE_26_length_1294_cov_35.2873_component_0

CONTIG: NODE_27_length_1184_cov_2.58813_component_3 (1184bp)
		This contig is unaligned. (1184 bp)
		Unaligned bases: 1184  total: 176526

CONTIG: NODE_28_length_899_cov_43.4846_component_0 (899bp)
		This contig is unaligned. (899 bp)
		Unaligned bases: 899  total: 177425

CONTIG: NODE_29_length_894_cov_73.8892_component_0 (894bp)
		This contig is unaligned. (894 bp)
		Unaligned bases: 894  total: 178319

CONTIG: NODE_30_length_854_cov_25.4756_component_0 (854bp)
		This contig is unaligned. (854 bp)
		Unaligned bases: 854  total: 179173

CONTIG: NODE_31_length_779_cov_27.3467_component_0 (779bp)
		This contig is unaligned. (779 bp)
		Unaligned bases: 779  total: 179952

CONTIG: NODE_32_length_777_cov_160.792_component_0 (777bp)
Top Length: 777  Top ID: 100.0
		This contig has 6 significant alignments. [An ambiguously mapped contig]
		Using all these alignments (option --ambiguity-usage is set to "all"):
		Alignment: 25123 25899 | 777 1 | 777 777 | 100.0 | gi_556555179_ref_NC_022651.1__Escherichia_coli_JJ1886_plasmid_pJJ1886_5__complete_sequence NODE_32_length_777_cov_160.792_component_0
		Alignment: 31230 32006 | 777 1 | 777 777 | 100.0 | gi_556555179_ref_NC_022651.1__Escherichia_coli_JJ1886_plasmid_pJJ1886_5__complete_sequence NODE_32_length_777_cov_160.792_component_0
		Alignment: 34193 34969 | 1 777 | 777 777 | 100.0 | gi_556555179_ref_NC_022651.1__Escherichia_coli_JJ1886_plasmid_pJJ1886_5__complete_sequence NODE_32_length_777_cov_160.792_component_0
		Alignment: 47842 48618 | 1 777 | 777 777 | 100.0 | gi_556555179_ref_NC_022651.1__Escherichia_coli_JJ1886_plasmid_pJJ1886_5__complete_sequence NODE_32_length_777_cov_160.792_component_0
		Alignment: 70112 70888 | 1 777 | 777 777 | 100.0 | gi_556555179_ref_NC_022651.1__Escherichia_coli_JJ1886_plasmid_pJJ1886_5__complete_sequence NODE_32_length_777_cov_160.792_component_0
		Alignment: 80939 81715 | 1 777 | 777 777 | 100.0 | gi_556555179_ref_NC_022651.1__Escherichia_coli_JJ1886_plasmid_pJJ1886_5__complete_sequence NODE_32_length_777_cov_160.792_component_0

CONTIG: NODE_33_length_712_cov_68.4323_component_0 (712bp)
		This contig is unaligned. (712 bp)
		Unaligned bases: 712  total: 180664

CONTIG: NODE_34_length_680_cov_49.6864_component_0 (680bp)
		This contig is unaligned. (680 bp)
		Unaligned bases: 680  total: 181344

CONTIG: NODE_35_length_666_cov_37.5286_component_0 (666bp)
		This contig is unaligned. (666 bp)
		Unaligned bases: 666  total: 182010

CONTIG: NODE_36_length_659_cov_14.4139_component_0 (659bp)
		This contig is unaligned. (659 bp)
		Unaligned bases: 659  total: 182669

CONTIG: NODE_37_length_659_cov_42.293_component_0 (659bp)
		This contig is unaligned. (659 bp)
		Unaligned bases: 659  total: 183328

CONTIG: NODE_38_length_658_cov_38.7347_component_0 (658bp)
		This contig is unaligned. (658 bp)
		Unaligned bases: 658  total: 183986

CONTIG: NODE_39_length_620_cov_20.5186_component_0 (620bp)
		This contig is unaligned. (620 bp)
		Unaligned bases: 620  total: 184606

Analyzing coverage...
Writing SNPs into /home/mmbbio/Plasmid_Assembly/completegenomes/plasmids/JJ1886_plasmids_references/group_3.fasta_comparison_spades/contigs_reports/nucmer_output/prediction.used_snps
	Reference gi_556555179_ref_NC_022651.1__Escherichia_coli_JJ1886_plasmid_pJJ1886_5__complete_sequence: 11 total alignments. 1 total regions.
		Region: 1 to 110040 (110040 bp)
			START in gap: 1 to 2478 (2477 bp)
			Align 1: 2478 10564 NODE_6_length_8087_cov_29.7266_component_0 1 8087
				Gap between this and next alignment: 10564 to 25123 (14558 bp)
				Next Alignment: 25123 25899 NODE_32_length_777_cov_160.792_component_0 777 1

			Align 2: 25123 25899 NODE_32_length_777_cov_160.792_component_0 777 1
				Gap between this and next alignment: 25899 to 31230 (5330 bp)
				Next Alignment: 31230 32006 NODE_32_length_777_cov_160.792_component_0 777 1

			Align 3: 31230 32006 NODE_32_length_777_cov_160.792_component_0 777 1
				Next Alignment: 32007 34192 NODE_19_length_2186_cov_29.0549_component_0 2186 1

			Align 4: 32007 34192 NODE_19_length_2186_cov_29.0549_component_0 2186 1
				Next Alignment: 34193 34969 NODE_32_length_777_cov_160.792_component_0 1 777

			Align 5: 34193 34969 NODE_32_length_777_cov_160.792_component_0 1 777
				Negative gap (overlap) between this and next alignment: 34969 to 34915 (-54 bp)
				Next Alignment: 34915 37104 NODE_20_length_2190_cov_30.1405_component_0 2190 1

			Previous gap was negative, modifying coordinates to ignore overlap
				Moving contig start from 2190 to 2135.
			Align 6: 34970 37104 NODE_20_length_2190_cov_30.1405_component_0 2135 1
				Gap between this and next alignment: 37104 to 47842 (10737 bp)
				Next Alignment: 47842 48618 NODE_32_length_777_cov_160.792_component_0 1 777

			Align 7: 47842 48618 NODE_32_length_777_cov_160.792_component_0 1 777
				Gap between this and next alignment: 48618 to 70112 (21493 bp)
				Next Alignment: 70112 70888 NODE_32_length_777_cov_160.792_component_0 1 777

			Align 8: 70112 70888 NODE_32_length_777_cov_160.792_component_0 1 777
				Gap between this and next alignment: 70888 to 80939 (10050 bp)
				Next Alignment: 80939 81715 NODE_32_length_777_cov_160.792_component_0 1 777

			Align 9: 80939 81715 NODE_32_length_777_cov_160.792_component_0 1 777
				Negative gap (overlap) between this and next alignment: 81715 to 81661 (-54 bp)
				Next Alignment: 81661 82954 NODE_26_length_1294_cov_35.2873_component_0 1 1294

			Previous gap was negative, modifying coordinates to ignore overlap
				Moving contig start from 1 to 56.
			Align 10: 81716 82954 NODE_26_length_1294_cov_35.2873_component_0 56 1294
				Gap between this and next alignment: 82954 to 107508 (24553 bp)
				Next Alignment: 107508 110040 NODE_3_length_17914_cov_64.8522_component_0 7338 4806

			Align 11: 107508 110040 NODE_3_length_17914_cov_64.8522_component_0 7338 4806
			END in current alignment.  Modifying 110040 to 110040.

Analysis is finished!
Founded SNPs were written into /home/mmbbio/Plasmid_Assembly/completegenomes/plasmids/JJ1886_plasmids_references/group_3.fasta_comparison_spades/contigs_reports/nucmer_output/prediction.used_snps

Results:
	Local Misassemblies: 0
	Misassemblies: 0
		Relocations: 0
		Translocations: 0
		Inversions: 0
	Misassembled Contigs: 0
	Misassembled Contig Bases: 0
	Misassemblies Inter-Contig Overlap: 0
Uncovered Regions: 0 (0)
Unaligned Contigs: 33 + 1 part
Partially Unaligned Contigs with Misassemblies: 0
Unaligned Contig Bases: 199987

Ambiguously Mapped Contigs: 1
Extra Bases in Ambiguously Mapped Contigs: 3885
Note that --allow-ambiguity option was set to "all" and each of these contigs was used several times.

	Covered Bases: 20842

	SNPs: 11
	Insertions: 0
	Deletions: 0

	Positive Gaps: 7
		Internal Gaps:  3
		External Gaps:  4
		External Gap Total:  52325
		External Gap Average: 13081
	Negative Gaps: 2
		Internal Overlaps:  0
		External Overlaps:  2
		External Overlaps Total: -108
		External Overlaps Average: -54
	Contigs with Redundant Alignments: 0 (0)
