Aligning contigs to reference...
	Running Nucmer
Parsing coords...
Loading reference...
	Loaded [gi_828971490_gb_CP011643.1__Klebsiella_pneumoniae_strain_CAV1596_plasmid_pCAV1596-2927__complete_sequence]
Loading SNPs...
Loading regions...
	No regions given, using whole reference.
	Total Regions: 1
	Total Region Length: 2927
Analyzing contigs...
CONTIG: NODE_42_length_34148_cov_135.093 (34148bp)
		This contig is unaligned. (34148 bp)
		Unaligned bases: 34148  total: 34148

CONTIG: NODE_44_length_28516_cov_135.386 (28516bp)
		This contig is unaligned. (28516 bp)
		Unaligned bases: 28516  total: 62664

CONTIG: NODE_49_length_23370_cov_121.004 (23370bp)
		This contig is unaligned. (23370 bp)
		Unaligned bases: 23370  total: 86034

CONTIG: NODE_55_length_11936_cov_139.524 (11936bp)
		This contig is unaligned. (11936 bp)
		Unaligned bases: 11936  total: 97970

CONTIG: NODE_58_length_10908_cov_74.1271 (10908bp)
		This contig is unaligned. (10908 bp)
		Unaligned bases: 10908  total: 108878

CONTIG: NODE_62_length_9348_cov_80.6127 (9348bp)
		This contig is unaligned. (9348 bp)
		Unaligned bases: 9348  total: 118226

CONTIG: NODE_63_length_8423_cov_96.1976 (8423bp)
		This contig is unaligned. (8423 bp)
		Unaligned bases: 8423  total: 126649

CONTIG: NODE_65_length_6983_cov_136.44 (6983bp)
		This contig is unaligned. (6983 bp)
		Unaligned bases: 6983  total: 133632

CONTIG: NODE_67_length_5015_cov_115.942 (5015bp)
		This contig is unaligned. (5015 bp)
		Unaligned bases: 5015  total: 138647

CONTIG: NODE_69_length_4245_cov_112.205 (4245bp)
		This contig is unaligned. (4245 bp)
		Unaligned bases: 4245  total: 142892

CONTIG: NODE_71_length_3042_cov_113.261 (3042bp)
		This contig is unaligned. (3042 bp)
		Unaligned bases: 3042  total: 145934

CONTIG: NODE_72_length_3004_cov_2007.02 (3004bp)
Top Length: 1766  Top ID: 100.0
		This contig is misassembled. 2 total aligns.
			Real Alignment 1: 1690 2927 | 1 1238 | 1238 1238 | 100.0 | gi_828971490_gb_CP011643.1__Klebsiella_pneumoniae_strain_CAV1596_plasmid_pCAV1596-2927__complete_sequence NODE_72_length_3004_cov_2007.02
			  Fake misassembly (caused by linear representation of circular genome) between these two alignments
			Real Alignment 2: 1 1766 | 1239 3004 | 1766 1766 | 100.0 | gi_828971490_gb_CP011643.1__Klebsiella_pneumoniae_strain_CAV1596_plasmid_pCAV1596-2927__complete_sequence NODE_72_length_3004_cov_2007.02

CONTIG: NODE_74_length_2620_cov_135.692 (2620bp)
		This contig is unaligned. (2620 bp)
		Unaligned bases: 2620  total: 148554

CONTIG: NODE_76_length_1892_cov_233.734 (1892bp)
		This contig is unaligned. (1892 bp)
		Unaligned bases: 1892  total: 150446

CONTIG: NODE_79_length_1428_cov_258.599 (1428bp)
		This contig is unaligned. (1428 bp)
		Unaligned bases: 1428  total: 151874

CONTIG: NODE_82_length_1337_cov_193.033 (1337bp)
		This contig is unaligned. (1337 bp)
		Unaligned bases: 1337  total: 153211

CONTIG: NODE_90_length_956_cov_167.618 (956bp)
		This contig is unaligned. (956 bp)
		Unaligned bases: 956  total: 154167

CONTIG: NODE_91_length_872_cov_90.0101 (872bp)
		This contig is unaligned. (872 bp)
		Unaligned bases: 872  total: 155039

CONTIG: NODE_95_length_713_cov_342.814 (713bp)
		This contig is unaligned. (713 bp)
		Unaligned bases: 713  total: 155752

Analyzing coverage...
Writing SNPs into /home/mmbbio/Plasmid_Assembly/completegenomes/plasmids/CAV1596_plasmids_references/group_1.fasta_comparison_cbar/contigs_reports/nucmer_output/prediction.used_snps
	Reference gi_828971490_gb_CP011643.1__Klebsiella_pneumoniae_strain_CAV1596_plasmid_pCAV1596-2927__complete_sequence: 2 total alignments. 1 total regions.
		Region: 1 to 2927 (2927 bp)
			Align 1: 1 1766 NODE_72_length_3004_cov_2007.02 1239 3004
				Negative gap (overlap) between this and next alignment: 1766 to 1690 (-76 bp)
				Next Alignment: 1690 2927 NODE_72_length_3004_cov_2007.02 1 1238

			Previous gap was negative, modifying coordinates to ignore overlap
				Moving contig start from 1 to 78.
			Align 2: 1767 2927 NODE_72_length_3004_cov_2007.02 78 1238
			END in current alignment.  Modifying 2927 to 2927.

Analysis is finished!
Founded SNPs were written into /home/mmbbio/Plasmid_Assembly/completegenomes/plasmids/CAV1596_plasmids_references/group_1.fasta_comparison_cbar/contigs_reports/nucmer_output/prediction.used_snps

Results:
	Local Misassemblies: 0
	Misassemblies: 0
		Relocations: 0
		Translocations: 0
		Inversions: 0
	Misassembled Contigs: 0
	Misassembled Contig Bases: 0
	Misassemblies Inter-Contig Overlap: 0
Uncovered Regions: 0 (0)
Unaligned Contigs: 18 + 0 part
Partially Unaligned Contigs with Misassemblies: 0
Unaligned Contig Bases: 155752

Ambiguously Mapped Contigs: 0
Extra Bases in Ambiguously Mapped Contigs: 0
Note that --allow-ambiguity option was set to "all" and each of these contigs was used several times.

	Covered Bases: 2927

	SNPs: 0
	Insertions: 0
	Deletions: 0

	Positive Gaps: 0
		Internal Gaps:  0
		External Gaps:  0
		External Gap Total:  0
		External Gap Average: 0
	Negative Gaps: 1
		Internal Overlaps:  1
		External Overlaps:  0
		External Overlaps Total:  0
		External Overlaps Average: 0
	Contigs with Redundant Alignments: 0 (0)
