Aligning contigs to reference...
	Running Nucmer
Parsing coords...
Loading reference...
	Loaded [gi_828952157_gb_CP011619.1__Klebsiella_pneumoniae_strain_CAV1344_plasmid_pCAV1344-3741__complete_sequence]
Loading SNPs...
Loading regions...
	No regions given, using whole reference.
	Total Regions: 1
	Total Region Length: 3741
Analyzing contigs...
CONTIG: NODE_12_length_125630_cov_33.7463 (125630bp)
		This contig is unaligned. (125630 bp)
		Unaligned bases: 125630  total: 125630

CONTIG: NODE_50_length_34676_cov_36.9824 (34676bp)
		This contig is unaligned. (34676 bp)
		Unaligned bases: 34676  total: 160306

CONTIG: NODE_53_length_30893_cov_46.076 (30893bp)
		This contig is unaligned. (30893 bp)
		Unaligned bases: 30893  total: 191199

CONTIG: NODE_56_length_27898_cov_23.4128 (27898bp)
		This contig is unaligned. (27898 bp)
		Unaligned bases: 27898  total: 219097

CONTIG: NODE_66_length_23005_cov_20.0815 (23005bp)
		This contig is unaligned. (23005 bp)
		Unaligned bases: 23005  total: 242102

CONTIG: NODE_76_length_17698_cov_25.2508 (17698bp)
		This contig is unaligned. (17698 bp)
		Unaligned bases: 17698  total: 259800

CONTIG: NODE_79_length_13763_cov_38.164 (13763bp)
		This contig is unaligned. (13763 bp)
		Unaligned bases: 13763  total: 273563

CONTIG: NODE_81_length_13028_cov_20.2259 (13028bp)
		This contig is unaligned. (13028 bp)
		Unaligned bases: 13028  total: 286591

CONTIG: NODE_82_length_13018_cov_20.9612 (13018bp)
		This contig is unaligned. (13018 bp)
		Unaligned bases: 13018  total: 299609

CONTIG: NODE_86_length_12155_cov_39.9971 (12155bp)
		This contig is unaligned. (12155 bp)
		Unaligned bases: 12155  total: 311764

CONTIG: NODE_87_length_10851_cov_17.9779 (10851bp)
		This contig is unaligned. (10851 bp)
		Unaligned bases: 10851  total: 322615

CONTIG: NODE_88_length_10816_cov_21.8411 (10816bp)
		This contig is unaligned. (10816 bp)
		Unaligned bases: 10816  total: 333431

CONTIG: NODE_89_length_10536_cov_31.326 (10536bp)
		This contig is unaligned. (10536 bp)
		Unaligned bases: 10536  total: 343967

CONTIG: NODE_90_length_10157_cov_22.604 (10157bp)
		This contig is unaligned. (10157 bp)
		Unaligned bases: 10157  total: 354124

CONTIG: NODE_92_length_9730_cov_32.2321 (9730bp)
		This contig is unaligned. (9730 bp)
		Unaligned bases: 9730  total: 363854

CONTIG: NODE_94_length_9406_cov_21.3031 (9406bp)
		This contig is unaligned. (9406 bp)
		Unaligned bases: 9406  total: 373260

CONTIG: NODE_95_length_6759_cov_21.0783 (6759bp)
		This contig is unaligned. (6759 bp)
		Unaligned bases: 6759  total: 380019

CONTIG: NODE_97_length_6038_cov_24.5568 (6038bp)
		This contig is unaligned. (6038 bp)
		Unaligned bases: 6038  total: 386057

CONTIG: NODE_98_length_5794_cov_25.7976 (5794bp)
		This contig is unaligned. (5794 bp)
		Unaligned bases: 5794  total: 391851

CONTIG: NODE_100_length_5005_cov_39.4515 (5005bp)
		This contig is unaligned. (5005 bp)
		Unaligned bases: 5005  total: 396856

CONTIG: NODE_101_length_4849_cov_49.5859 (4849bp)
		This contig is unaligned. (4849 bp)
		Unaligned bases: 4849  total: 401705

CONTIG: NODE_102_length_4815_cov_24.2921 (4815bp)
		This contig is unaligned. (4815 bp)
		Unaligned bases: 4815  total: 406520

CONTIG: NODE_103_length_4767_cov_18.6761 (4767bp)
		This contig is unaligned. (4767 bp)
		Unaligned bases: 4767  total: 411287

CONTIG: NODE_104_length_4606_cov_21.062 (4606bp)
		This contig is unaligned. (4606 bp)
		Unaligned bases: 4606  total: 415893

CONTIG: NODE_106_length_4447_cov_37.1973 (4447bp)
		This contig is unaligned. (4447 bp)
		Unaligned bases: 4447  total: 420340

CONTIG: NODE_109_length_3818_cov_356.647 (3818bp)
Top Length: 2950  Top ID: 100.0
		This contig is misassembled. 2 total aligns.
			Real Alignment 1: 792 3741 | 1 2950 | 2950 2950 | 100.0 | gi_828952157_gb_CP011619.1__Klebsiella_pneumoniae_strain_CAV1344_plasmid_pCAV1344-3741__complete_sequence NODE_109_length_3818_cov_356.647
			  Fake misassembly (caused by linear representation of circular genome) between these two alignments
			Real Alignment 2: 1 868 | 2951 3818 | 868 868 | 100.0 | gi_828952157_gb_CP011619.1__Klebsiella_pneumoniae_strain_CAV1344_plasmid_pCAV1344-3741__complete_sequence NODE_109_length_3818_cov_356.647

CONTIG: NODE_110_length_3393_cov_32.9789 (3393bp)
		This contig is unaligned. (3393 bp)
		Unaligned bases: 3393  total: 423733

CONTIG: NODE_112_length_3076_cov_44.125 (3076bp)
		This contig is unaligned. (3076 bp)
		Unaligned bases: 3076  total: 426809

CONTIG: NODE_117_length_2294_cov_38.2652 (2294bp)
		This contig is unaligned. (2294 bp)
		Unaligned bases: 2294  total: 429103

CONTIG: NODE_119_length_2146_cov_98.2156 (2146bp)
		This contig is unaligned. (2146 bp)
		Unaligned bases: 2146  total: 431249

CONTIG: NODE_121_length_1910_cov_94.138 (1910bp)
		This contig is unaligned. (1910 bp)
		Unaligned bases: 1910  total: 433159

CONTIG: NODE_122_length_1786_cov_31.7911 (1786bp)
		This contig is unaligned. (1786 bp)
		Unaligned bases: 1786  total: 434945

CONTIG: NODE_125_length_1380_cov_106.852 (1380bp)
		This contig is unaligned. (1380 bp)
		Unaligned bases: 1380  total: 436325

CONTIG: NODE_127_length_1345_cov_32.2429 (1345bp)
		This contig is unaligned. (1345 bp)
		Unaligned bases: 1345  total: 437670

CONTIG: NODE_128_length_1319_cov_20.9461 (1319bp)
		This contig is unaligned. (1319 bp)
		Unaligned bases: 1319  total: 438989

CONTIG: NODE_129_length_1293_cov_96.2031 (1293bp)
		This contig is unaligned. (1293 bp)
		Unaligned bases: 1293  total: 440282

CONTIG: NODE_130_length_1292_cov_129.902 (1292bp)
		This contig is unaligned. (1292 bp)
		Unaligned bases: 1292  total: 441574

CONTIG: NODE_135_length_1066_cov_132.674 (1066bp)
		This contig is unaligned. (1066 bp)
		Unaligned bases: 1066  total: 442640

CONTIG: NODE_136_length_1063_cov_37.8266 (1063bp)
		This contig is unaligned. (1063 bp)
		Unaligned bases: 1063  total: 443703

CONTIG: NODE_137_length_1040_cov_145.71 (1040bp)
		This contig is unaligned. (1040 bp)
		Unaligned bases: 1040  total: 444743

CONTIG: NODE_140_length_1024_cov_48.9905 (1024bp)
		This contig is unaligned. (1024 bp)
		Unaligned bases: 1024  total: 445767

CONTIG: NODE_144_length_957_cov_34.3602 (957bp)
		This contig is unaligned. (957 bp)
		Unaligned bases: 957  total: 446724

CONTIG: NODE_145_length_924_cov_62.9799 (924bp)
		This contig is unaligned. (924 bp)
		Unaligned bases: 924  total: 447648

CONTIG: NODE_147_length_805_cov_23.864 (805bp)
		This contig is unaligned. (805 bp)
		Unaligned bases: 805  total: 448453

CONTIG: NODE_149_length_712_cov_26.9323 (712bp)
		This contig is unaligned. (712 bp)
		Unaligned bases: 712  total: 449165

CONTIG: NODE_150_length_704_cov_38.4402 (704bp)
		This contig is unaligned. (704 bp)
		Unaligned bases: 704  total: 449869

CONTIG: NODE_152_length_612_cov_252.901 (612bp)
		This contig is unaligned. (612 bp)
		Unaligned bases: 612  total: 450481

CONTIG: NODE_155_length_548_cov_25.1401 (548bp)
		This contig is unaligned. (548 bp)
		Unaligned bases: 548  total: 451029

CONTIG: NODE_156_length_548_cov_129.155 (548bp)
		This contig is unaligned. (548 bp)
		Unaligned bases: 548  total: 451577

CONTIG: NODE_157_length_532_cov_18.8989 (532bp)
		This contig is unaligned. (532 bp)
		Unaligned bases: 532  total: 452109

Analyzing coverage...
Writing SNPs into /home/mmbbio/Plasmid_Assembly/completegenomes/plasmids/CAV1344_plasmids_references/group_1.fasta_comparison_cbar/contigs_reports/nucmer_output/prediction.used_snps
	Reference gi_828952157_gb_CP011619.1__Klebsiella_pneumoniae_strain_CAV1344_plasmid_pCAV1344-3741__complete_sequence: 2 total alignments. 1 total regions.
		Region: 1 to 3741 (3741 bp)
			Align 1: 1 868 NODE_109_length_3818_cov_356.647 2951 3818
				Negative gap (overlap) between this and next alignment: 868 to 792 (-76 bp)
				Next Alignment: 792 3741 NODE_109_length_3818_cov_356.647 1 2950

			Previous gap was negative, modifying coordinates to ignore overlap
				Moving contig start from 1 to 78.
			Align 2: 869 3741 NODE_109_length_3818_cov_356.647 78 2950
			END in current alignment.  Modifying 3741 to 3741.

Analysis is finished!
Founded SNPs were written into /home/mmbbio/Plasmid_Assembly/completegenomes/plasmids/CAV1344_plasmids_references/group_1.fasta_comparison_cbar/contigs_reports/nucmer_output/prediction.used_snps

Results:
	Local Misassemblies: 0
	Misassemblies: 0
		Relocations: 0
		Translocations: 0
		Inversions: 0
	Misassembled Contigs: 0
	Misassembled Contig Bases: 0
	Misassemblies Inter-Contig Overlap: 0
Uncovered Regions: 0 (0)
Unaligned Contigs: 49 + 0 part
Partially Unaligned Contigs with Misassemblies: 0
Unaligned Contig Bases: 452109

Ambiguously Mapped Contigs: 0
Extra Bases in Ambiguously Mapped Contigs: 0
Note that --allow-ambiguity option was set to "all" and each of these contigs was used several times.

	Covered Bases: 3741

	SNPs: 0
	Insertions: 0
	Deletions: 0

	Positive Gaps: 0
		Internal Gaps:  0
		External Gaps:  0
		External Gap Total:  0
		External Gap Average: 0
	Negative Gaps: 1
		Internal Overlaps:  1
		External Overlaps:  0
		External Overlaps Total:  0
		External Overlaps Average: 0
	Contigs with Redundant Alignments: 0 (0)
