Assembly	prediction
# fully unaligned contigs	49
Fully unaligned length	452109
# partially unaligned contigs	0
    # with misassembly	0
    # both parts are significant	0
Partially unaligned length	0
# N's	0
