Assembly	prediction
# contigs (>= 0 bp)	47
# contigs (>= 1000 bp)	20
# contigs (>= 5000 bp)	10
# contigs (>= 10000 bp)	7
# contigs (>= 25000 bp)	7
# contigs (>= 50000 bp)	3
Total length (>= 0 bp)	449182
Total length (>= 1000 bp)	442827
Total length (>= 5000 bp)	411792
Total length (>= 10000 bp)	392631
Total length (>= 25000 bp)	392631
Total length (>= 50000 bp)	230231
# contigs	23
Largest contig	96774
Total length	445158
Reference length	130719
GC (%)	52.13
Reference GC (%)	51.65
N50	52614
NG50	96774
N75	42287
NG75	80843
L50	3
LG50	1
L75	6
LG75	2
# misassemblies	1
# misassembled contigs	1
Misassembled contigs length	52614
# local misassemblies	0
# unaligned contigs	18 + 1 part
Unaligned length	345185
Genome fraction (%)	76.749
Duplication ratio	1.002
# N's per 100 kbp	0.00
# mismatches per 100 kbp	26.91
# indels per 100 kbp	0.00
Largest alignment	49348
NGA50	42284
NGA75	1929
LGA50	2
LGA75	5
