Assembly	prediction
# contigs (>= 0 bp)	2
# contigs (>= 1000 bp)	2
# contigs (>= 5000 bp)	2
# contigs (>= 10000 bp)	1
# contigs (>= 25000 bp)	1
# contigs (>= 50000 bp)	0
Total length (>= 0 bp)	34036
Total length (>= 1000 bp)	34036
Total length (>= 5000 bp)	34036
Total length (>= 10000 bp)	28049
Total length (>= 25000 bp)	28049
Total length (>= 50000 bp)	0
# contigs	2
Largest contig	28049
Total length	34036
Reference length	52135
GC (%)	66.10
Reference GC (%)	63.93
N50	28049
NG50	28049
N75	28049
L50	1
LG50	1
L75	1
# unaligned contigs	2 + 0 part
Unaligned length	34036
# N's per 100 kbp	0.00
NGA50	-
