All statistics are based on contigs of size >= 500 bp, unless otherwise noted (e.g., "# contigs (>= 0 bp)" and "Total length (>= 0 bp)" include all contigs).

Assembly    # contigs (>= 0 bp)  # contigs (>= 1000 bp)  # contigs (>= 5000 bp)  # contigs (>= 10000 bp)  # contigs (>= 25000 bp)  # contigs (>= 50000 bp)  Total length (>= 0 bp)  Total length (>= 1000 bp)  Total length (>= 5000 bp)  Total length (>= 10000 bp)  Total length (>= 25000 bp)  Total length (>= 50000 bp)  # contigs  Largest contig  Total length  Reference length  GC (%)  Reference GC (%)  N50   N75   L50  L75  # unaligned contigs  Unaligned length  # N's per 100 kbp  NGA50
prediction  2                    2                       1                       0                        0                        0                        8850                    8850                       7114                       0                           0                           0                           2          7114            8850          198307            56.38   53.07             7114  7114  1    1    2 + 0 part           8850              0.00               -    
