1: PREPARING DATA
2,3: RUNNING mummer AND CREATING CLUSTERS
# reading input file "/home/mmbbio/Plasmid_Assembly/completegenomes/plasmids/CAV1374_plasmids_references/group_10.fasta_comparison_spades/contigs_reports/nucmer_output/prediction.ntref" of length 227681
# construct suffix tree for sequence of length 227681
# (maximum reference length is 536870908)
# (maximum query length is 4294967295)
# process 2276 characters per dot
#....................................................................................................
# CONSTRUCTIONTIME /home/mmbbio/Plasmid_Assembly/programmes/quast-4.1/libs/MUMmer3.23-linux/mummer /home/mmbbio/Plasmid_Assembly/completegenomes/plasmids/CAV1374_plasmids_references/group_10.fasta_comparison_spades/contigs_reports/nucmer_output/prediction.ntref 0.03
# reading input file "/home/mmbbio/Plasmid_Assembly/completegenomes/plasmids/CAV1374_plasmids_references/group_10.fasta_comparison_spades/quast_corrected_input/prediction.fas" of length 867559
# matching query-file "/home/mmbbio/Plasmid_Assembly/completegenomes/plasmids/CAV1374_plasmids_references/group_10.fasta_comparison_spades/quast_corrected_input/prediction.fas"
# against subject-file "/home/mmbbio/Plasmid_Assembly/completegenomes/plasmids/CAV1374_plasmids_references/group_10.fasta_comparison_spades/contigs_reports/nucmer_output/prediction.ntref"
# COMPLETETIME /home/mmbbio/Plasmid_Assembly/programmes/quast-4.1/libs/MUMmer3.23-linux/mummer /home/mmbbio/Plasmid_Assembly/completegenomes/plasmids/CAV1374_plasmids_references/group_10.fasta_comparison_spades/contigs_reports/nucmer_output/prediction.ntref 0.30
# SPACE /home/mmbbio/Plasmid_Assembly/programmes/quast-4.1/libs/MUMmer3.23-linux/mummer /home/mmbbio/Plasmid_Assembly/completegenomes/plasmids/CAV1374_plasmids_references/group_10.fasta_comparison_spades/contigs_reports/nucmer_output/prediction.ntref 1.07
4: FINISHING DATA
