1: PREPARING DATA
2,3: RUNNING mummer AND CREATING CLUSTERS
# reading input file "/home/mmbbio/Plasmid_Assembly/completegenomes/plasmids/KONIH1_plasmids_references/group_2.fasta_comparison_cbar/contigs_reports/nucmer_output/prediction.ntref" of length 193726
# construct suffix tree for sequence of length 193726
# (maximum reference length is 536870908)
# (maximum query length is 4294967295)
# process 1937 characters per dot
#....................................................................................................
# CONSTRUCTIONTIME /home/mmbbio/Plasmid_Assembly/programmes/quast-4.1/libs/MUMmer3.23-linux/mummer /home/mmbbio/Plasmid_Assembly/completegenomes/plasmids/KONIH1_plasmids_references/group_2.fasta_comparison_cbar/contigs_reports/nucmer_output/prediction.ntref 0.03
# reading input file "/home/mmbbio/Plasmid_Assembly/completegenomes/plasmids/KONIH1_plasmids_references/group_2.fasta_comparison_cbar/quast_corrected_input/prediction.fas" of length 450794
# matching query-file "/home/mmbbio/Plasmid_Assembly/completegenomes/plasmids/KONIH1_plasmids_references/group_2.fasta_comparison_cbar/quast_corrected_input/prediction.fas"
# against subject-file "/home/mmbbio/Plasmid_Assembly/completegenomes/plasmids/KONIH1_plasmids_references/group_2.fasta_comparison_cbar/contigs_reports/nucmer_output/prediction.ntref"
# COMPLETETIME /home/mmbbio/Plasmid_Assembly/programmes/quast-4.1/libs/MUMmer3.23-linux/mummer /home/mmbbio/Plasmid_Assembly/completegenomes/plasmids/KONIH1_plasmids_references/group_2.fasta_comparison_cbar/contigs_reports/nucmer_output/prediction.ntref 0.16
# SPACE /home/mmbbio/Plasmid_Assembly/programmes/quast-4.1/libs/MUMmer3.23-linux/mummer /home/mmbbio/Plasmid_Assembly/completegenomes/plasmids/KONIH1_plasmids_references/group_2.fasta_comparison_cbar/contigs_reports/nucmer_output/prediction.ntref 0.63
4: FINISHING DATA
