Aligning contigs to reference...
	Running Nucmer
Parsing coords...
Loading reference...
	Loaded [gi_749295354_ref_NZ_CP008906.1__Enterobacter_cloacae_ECR091_plasmid_pENT-08e__complete_sequence]
Loading SNPs...
Loading regions...
	No regions given, using whole reference.
	Total Regions: 1
	Total Region Length: 176943
Analyzing contigs...
CONTIG: NODE_13_length_119231_cov_42.0959 (119231bp)
Top Length: 59420  Top ID: 99.99
			Skipping redundant alignments after choosing the best set of alignments
		Skipping redundant alignment 22521 23580 | 58754 59813 | 1060 1060 | 96.98 | gi_749295354_ref_NZ_CP008906.1__Enterobacter_cloacae_ECR091_plasmid_pENT-08e__complete_sequence NODE_13_length_119231_cov_42.0959
		This contig is misassembled. 5 total aligns.
			Real Alignment 1: 140711 147179 | 1 6469 | 6469 6469 | 99.49 | gi_749295354_ref_NZ_CP008906.1__Enterobacter_cloacae_ECR091_plasmid_pENT-08e__complete_sequence NODE_13_length_119231_cov_42.0959
			  Extensive misassembly ( relocation, inconsistency = -146119 ) between these two alignments
			Real Alignment 2: 1 23580 | 28989 5410 | 23580 23580 | 99.99 | gi_749295354_ref_NZ_CP008906.1__Enterobacter_cloacae_ECR091_plasmid_pENT-08e__complete_sequence NODE_13_length_119231_cov_42.0959
			  Fake misassembly (caused by linear representation of circular genome) between these two alignments
			Real Alignment 3: 145717 176943 | 60216 28990 | 31227 31227 | 99.99 | gi_749295354_ref_NZ_CP008906.1__Enterobacter_cloacae_ECR091_plasmid_pENT-08e__complete_sequence NODE_13_length_119231_cov_42.0959
			  Extensive misassembly ( relocation, inconsistency = -153363 ) between these two alignments
			Real Alignment 4: 23176 82595 | 59812 119231 | 59420 59420 | 99.99 | gi_749295354_ref_NZ_CP008906.1__Enterobacter_cloacae_ECR091_plasmid_pENT-08e__complete_sequence NODE_13_length_119231_cov_42.0959

CONTIG: NODE_56_length_8573_cov_148.603 (8573bp)
		This contig is unaligned. (8573 bp)
		Unaligned bases: 8573  total: 8573

CONTIG: NODE_28_length_68857_cov_55.093 (68857bp)
		This contig is unaligned. (68857 bp)
		Unaligned bases: 68857  total: 77430

Analyzing coverage...
Writing SNPs into /home/mmbbio/Plasmid_Assembly/completegenomes/plasmids/ECR091_plasmids_references/group_1.fasta_comparison_plasmidfinder/contigs_reports/nucmer_output/prediction.used_snps
	Reference gi_749295354_ref_NZ_CP008906.1__Enterobacter_cloacae_ECR091_plasmid_pENT-08e__complete_sequence: 4 total alignments. 1 total regions.
		Region: 1 to 176943 (176943 bp)
			Align 1: 1 23580 NODE_13_length_119231_cov_42.0959 28989 5410
				Negative gap (overlap) between this and next alignment: 23580 to 23176 (-404 bp)
				Next Alignment: 23176 82595 NODE_13_length_119231_cov_42.0959 59812 119231

			Previous gap was negative, modifying coordinates to ignore overlap
				Moving contig start from 59812 to 60217.
			Align 2: 23581 82595 NODE_13_length_119231_cov_42.0959 60217 119231
				Gap between this and next alignment: 82595 to 140711 (58115 bp)
				Next Alignment: 140711 147179 NODE_13_length_119231_cov_42.0959 1 6469

			Align 3: 140711 147179 NODE_13_length_119231_cov_42.0959 1 6469
				Negative gap (overlap) between this and next alignment: 147179 to 145717 (-1462 bp)
				Next Alignment: 145717 176943 NODE_13_length_119231_cov_42.0959 60216 28990

			Previous gap was negative, modifying coordinates to ignore overlap
				Moving contig start from 60216 to 58753.
			Align 4: 147180 176943 NODE_13_length_119231_cov_42.0959 58753 28990
			END in current alignment.  Modifying 176943 to 176943.

Analysis is finished!
Founded SNPs were written into /home/mmbbio/Plasmid_Assembly/completegenomes/plasmids/ECR091_plasmids_references/group_1.fasta_comparison_plasmidfinder/contigs_reports/nucmer_output/prediction.used_snps

Results:
	Local Misassemblies: 0
	Misassemblies: 2
		Relocations: 2
		Translocations: 0
		Inversions: 0
	Misassembled Contigs: 1
	Misassembled Contig Bases: 119231
	Misassemblies Inter-Contig Overlap: 0
Uncovered Regions: 0 (0)
Unaligned Contigs: 2 + 0 part
Partially Unaligned Contigs with Misassemblies: 0
Unaligned Contig Bases: 77430

Ambiguously Mapped Contigs: 0
Extra Bases in Ambiguously Mapped Contigs: 0
Note that --allow-ambiguity option was set to "all" and each of these contigs was used several times.

	Covered Bases: 118828

	SNPs: 34
	Insertions: 1
	Deletions: 1

	Positive Gaps: 1
		Internal Gaps:  1
		External Gaps:  0
		External Gap Total:  0
		External Gap Average: 0
	Negative Gaps: 2
		Internal Overlaps:  2
		External Overlaps:  0
		External Overlaps Total:  0
		External Overlaps Average: 0
	Contigs with Redundant Alignments: 0 (0)
