Assembly	prediction
# fully unaligned contigs	18
Fully unaligned length	255874
# partially unaligned contigs	1
    # with misassembly	0
    # both parts are significant	1
Partially unaligned length	3844
# N's	0
