Aligning contigs to reference...
	Running Nucmer
Parsing coords...
Loading reference...
	Loaded [gi_828939395_gb_CP011606.1__Citrobacter_freundii_strain_CAV1321_plasmid_pCAV1321-4310__complete_sequence]
Loading SNPs...
Loading regions...
	No regions given, using whole reference.
	Total Regions: 1
	Total Region Length: 4310
Analyzing contigs...
CONTIG: NODE_16_length_144675_cov_39.328 (144675bp)
		This contig is unaligned. (144675 bp)
		Unaligned bases: 144675  total: 144675

CONTIG: NODE_24_length_75582_cov_51.3513 (75582bp)
		This contig is unaligned. (75582 bp)
		Unaligned bases: 75582  total: 220257

CONTIG: NODE_25_length_56128_cov_83.0426 (56128bp)
		This contig is unaligned. (56128 bp)
		Unaligned bases: 56128  total: 276385

CONTIG: NODE_31_length_34586_cov_41.5991 (34586bp)
		This contig is unaligned. (34586 bp)
		Unaligned bases: 34586  total: 310971

CONTIG: NODE_35_length_22371_cov_78.9859 (22371bp)
		This contig is unaligned. (22371 bp)
		Unaligned bases: 22371  total: 333342

CONTIG: NODE_38_length_13117_cov_99.8133 (13117bp)
		This contig is unaligned. (13117 bp)
		Unaligned bases: 13117  total: 346459

CONTIG: NODE_38_length_13117_cov_99.8133 (13117bp)
		This contig is unaligned. (13117 bp)
		Unaligned bases: 13117  total: 359576

CONTIG: NODE_39_length_11686_cov_55.8339 (11686bp)
		This contig is unaligned. (11686 bp)
		Unaligned bases: 11686  total: 371262

CONTIG: NODE_40_length_11288_cov_49.4343 (11288bp)
		This contig is unaligned. (11288 bp)
		Unaligned bases: 11288  total: 382550

CONTIG: NODE_41_length_9516_cov_38.6634 (9516bp)
		This contig is unaligned. (9516 bp)
		Unaligned bases: 9516  total: 392066

CONTIG: NODE_44_length_8403_cov_49.0904 (8403bp)
		This contig is unaligned. (8403 bp)
		Unaligned bases: 8403  total: 400469

CONTIG: NODE_47_length_6729_cov_73.6502 (6729bp)
		This contig is unaligned. (6729 bp)
		Unaligned bases: 6729  total: 407198

CONTIG: NODE_48_length_5817_cov_83.9197 (5817bp)
		This contig is unaligned. (5817 bp)
		Unaligned bases: 5817  total: 413015

CONTIG: NODE_50_length_5014_cov_471.6 (5014bp)
		This contig is unaligned. (5014 bp)
		Unaligned bases: 5014  total: 418029

CONTIG: NODE_52_length_4403_cov_40.1706 (4403bp)
		This contig is unaligned. (4403 bp)
		Unaligned bases: 4403  total: 422432

CONTIG: NODE_54_length_3856_cov_345.885 (3856bp)
Top Length: 1929  Top ID: 100.0
		This contig is misassembled. 2 total aligns.
			Real Alignment 1: 2382 4310 | 1 1929 | 1929 1929 | 100.0 | gi_828939395_gb_CP011606.1__Citrobacter_freundii_strain_CAV1321_plasmid_pCAV1321-4310__complete_sequence NODE_54_length_3856_cov_345.885
			  Fake misassembly (caused by linear representation of circular genome) between these two alignments
			Real Alignment 2: 1 1927 | 1930 3856 | 1927 1927 | 100.0 | gi_828939395_gb_CP011606.1__Citrobacter_freundii_strain_CAV1321_plasmid_pCAV1321-4310__complete_sequence NODE_54_length_3856_cov_345.885

CONTIG: NODE_55_length_3694_cov_57.1844 (3694bp)
		This contig is unaligned. (3694 bp)
		Unaligned bases: 3694  total: 426126

CONTIG: NODE_56_length_3664_cov_136.322 (3664bp)
		This contig is unaligned. (3664 bp)
		Unaligned bases: 3664  total: 429790

CONTIG: NODE_56_length_3664_cov_136.322 (3664bp)
		This contig is unaligned. (3664 bp)
		Unaligned bases: 3664  total: 433454

CONTIG: NODE_57_length_3356_cov_40.3422 (3356bp)
		This contig is unaligned. (3356 bp)
		Unaligned bases: 3356  total: 436810

CONTIG: NODE_58_length_3312_cov_678.651 (3312bp)
		This contig is unaligned. (3312 bp)
		Unaligned bases: 3312  total: 440122

CONTIG: NODE_59_length_3256_cov_334.045 (3256bp)
		This contig is unaligned. (3256 bp)
		Unaligned bases: 3256  total: 443378

CONTIG: NODE_62_length_2754_cov_33.2316 (2754bp)
		This contig is unaligned. (2754 bp)
		Unaligned bases: 2754  total: 446132

CONTIG: NODE_63_length_2471_cov_41.0911 (2471bp)
		This contig is unaligned. (2471 bp)
		Unaligned bases: 2471  total: 448603

CONTIG: NODE_65_length_2120_cov_33.8008 (2120bp)
		This contig is unaligned. (2120 bp)
		Unaligned bases: 2120  total: 450723

CONTIG: NODE_66_length_1875_cov_72.7542 (1875bp)
		This contig is unaligned. (1875 bp)
		Unaligned bases: 1875  total: 452598

CONTIG: NODE_66_length_1875_cov_72.7542 (1875bp)
		This contig is unaligned. (1875 bp)
		Unaligned bases: 1875  total: 454473

CONTIG: NODE_67_length_1814_cov_740.69 (1814bp)
		This contig is unaligned. (1814 bp)
		Unaligned bases: 1814  total: 456287

CONTIG: NODE_72_length_1360_cov_108.01 (1360bp)
		This contig is unaligned. (1360 bp)
		Unaligned bases: 1360  total: 457647

CONTIG: NODE_72_length_1360_cov_108.01 (1360bp)
		This contig is unaligned. (1360 bp)
		Unaligned bases: 1360  total: 459007

CONTIG: NODE_73_length_1331_cov_102.843 (1331bp)
		This contig is unaligned. (1331 bp)
		Unaligned bases: 1331  total: 460338

CONTIG: NODE_74_length_1316_cov_102.182 (1316bp)
		This contig is unaligned. (1316 bp)
		Unaligned bases: 1316  total: 461654

CONTIG: NODE_74_length_1316_cov_102.182 (1316bp)
		This contig is unaligned. (1316 bp)
		Unaligned bases: 1316  total: 462970

CONTIG: NODE_77_length_1222_cov_97.8323 (1222bp)
		This contig is unaligned. (1222 bp)
		Unaligned bases: 1222  total: 464192

CONTIG: NODE_78_length_1221_cov_226.173 (1221bp)
		This contig is unaligned. (1221 bp)
		Unaligned bases: 1221  total: 465413

CONTIG: NODE_79_length_1160_cov_121.543 (1160bp)
		This contig is unaligned. (1160 bp)
		Unaligned bases: 1160  total: 466573

CONTIG: NODE_80_length_1095_cov_93.1739 (1095bp)
		This contig is unaligned. (1095 bp)
		Unaligned bases: 1095  total: 467668

CONTIG: NODE_83_length_959_cov_187.714 (959bp)
		This contig is unaligned. (959 bp)
		Unaligned bases: 959  total: 468627

CONTIG: NODE_85_length_780_cov_99.1863 (780bp)
		This contig is unaligned. (780 bp)
		Unaligned bases: 780  total: 469407

CONTIG: NODE_86_length_654_cov_193.087 (654bp)
		This contig is unaligned. (654 bp)
		Unaligned bases: 654  total: 470061

CONTIG: NODE_86_length_654_cov_193.087 (654bp)
		This contig is unaligned. (654 bp)
		Unaligned bases: 654  total: 470715

CONTIG: NODE_87_length_650_cov_122.614 (650bp)
		This contig is unaligned. (650 bp)
		Unaligned bases: 650  total: 471365

CONTIG: NODE_87_length_650_cov_122.614 (650bp)
		This contig is unaligned. (650 bp)
		Unaligned bases: 650  total: 472015

CONTIG: NODE_88_length_649_cov_134.163 (649bp)
		This contig is unaligned. (649 bp)
		Unaligned bases: 649  total: 472664

CONTIG: NODE_88_length_649_cov_134.163 (649bp)
		This contig is unaligned. (649 bp)
		Unaligned bases: 649  total: 473313

CONTIG: NODE_91_length_501_cov_290.762 (501bp)
Top Length: 501  Top ID: 95.61
		One align captures most of this contig: 715 1215 | 1 501 | 501 501 | 95.61 | gi_828939395_gb_CP011606.1__Citrobacter_freundii_strain_CAV1321_plasmid_pCAV1321-4310__complete_sequence NODE_91_length_501_cov_290.762

Analyzing coverage...
Writing SNPs into /home/mmbbio/Plasmid_Assembly/completegenomes/plasmids/CAV1321_plasmids_references/group_4.fasta_comparison_cbar/contigs_reports/nucmer_output/prediction.used_snps
	Reference gi_828939395_gb_CP011606.1__Citrobacter_freundii_strain_CAV1321_plasmid_pCAV1321-4310__complete_sequence: 3 total alignments. 1 total regions.
		Region: 1 to 4310 (4310 bp)
			Align 1: 1 1927 NODE_54_length_3856_cov_345.885 1930 3856
				The next alignment (715 1215 NODE_91_length_501_cov_290.762 1 501) is redundant. Skipping.
				Gap between this and next alignment: 1927 to 2382 (454 bp)
				Next Alignment: 2382 4310 NODE_54_length_3856_cov_345.885 1 1929

			Align 3: 2382 4310 NODE_54_length_3856_cov_345.885 1 1929
			END in current alignment.  Modifying 4310 to 4310.

Analysis is finished!
Founded SNPs were written into /home/mmbbio/Plasmid_Assembly/completegenomes/plasmids/CAV1321_plasmids_references/group_4.fasta_comparison_cbar/contigs_reports/nucmer_output/prediction.used_snps

Results:
	Local Misassemblies: 0
	Misassemblies: 0
		Relocations: 0
		Translocations: 0
		Inversions: 0
	Misassembled Contigs: 0
	Misassembled Contig Bases: 0
	Misassemblies Inter-Contig Overlap: 0
Uncovered Regions: 0 (0)
Unaligned Contigs: 44 + 0 part
Partially Unaligned Contigs with Misassemblies: 0
Unaligned Contig Bases: 473313

Ambiguously Mapped Contigs: 0
Extra Bases in Ambiguously Mapped Contigs: 0
Note that --allow-ambiguity option was set to "all" and each of these contigs was used several times.

	Covered Bases: 3856

	SNPs: 0
	Insertions: 0
	Deletions: 0

	Positive Gaps: 1
		Internal Gaps:  1
		External Gaps:  0
		External Gap Total:  0
		External Gap Average: 0
	Negative Gaps: 0
		Internal Overlaps:  0
		External Overlaps:  0
		External Overlaps Total:  0
		External Overlaps Average: 0
	Contigs with Redundant Alignments: 1 (501)
