Assembly	prediction
# contigs (>= 0 bp)	36
# contigs (>= 1000 bp)	33
# contigs (>= 5000 bp)	22
# contigs (>= 10000 bp)	12
# contigs (>= 25000 bp)	7
# contigs (>= 50000 bp)	1
Total length (>= 0 bp)	450759
Total length (>= 1000 bp)	448374
Total length (>= 5000 bp)	428801
Total length (>= 10000 bp)	356804
Total length (>= 25000 bp)	267985
Total length (>= 50000 bp)	56974
# contigs	36
Largest contig	56974
Total length	450759
Reference length	205586
GC (%)	52.37
Reference GC (%)	53.90
N50	32049
NG50	38916
N75	14409
NG75	36511
L50	6
LG50	3
L75	11
LG75	4
# misassemblies	0
# misassembled contigs	0
Misassembled contigs length	0
# local misassemblies	0
# unaligned contigs	17 + 1 part
Unaligned length	291475
Genome fraction (%)	77.546
Duplication ratio	1.017
# N's per 100 kbp	0.00
# mismatches per 100 kbp	11.29
# indels per 100 kbp	1.25
Largest alignment	32049
NGA50	9218
NGA75	1403
LGA50	5
LGA75	15
