All statistics are based on contigs of size >= 500 bp, unless otherwise noted (e.g., "# contigs (>= 0 bp)" and "Total length (>= 0 bp)" include all contigs).

Assembly    # misassemblies      # relocations      # translocations      # inversions  # misassembled contigs  Misassembled contigs length  # local misassemblies  # mismatches  # indels      # short indels      # long indels  Indels length
prediction  0                0                  0                     0                 0                       0                            1                      35            0         0                   0                  0            
