Aligning contigs to reference...
	Running Nucmer
Parsing coords...
Loading reference...
	Loaded [gi_828933578_gb_CP011600.1__Kluyvera_intermedia_strain_CAV1151_plasmid_pCAV1151-215__complete_sequence]
Loading SNPs...
Loading regions...
	No regions given, using whole reference.
	Total Regions: 1
	Total Region Length: 215092
Analyzing contigs...
CONTIG: NODE_33_length_58861_cov_36.1777 (58861bp)
		This contig is unaligned. (58861 bp)
		Unaligned bases: 58861  total: 58861

CONTIG: NODE_34_length_56122_cov_65.4178 (56122bp)
		This contig is unaligned. (56122 bp)
		Unaligned bases: 56122  total: 114983

CONTIG: NODE_44_length_39259_cov_35.7075 (39259bp)
		This contig is unaligned. (39259 bp)
		Unaligned bases: 39259  total: 154242

CONTIG: NODE_45_length_38788_cov_50.7759 (38788bp)
Top Length: 30009  Top ID: 99.92
			Skipping redundant alignments after choosing the best set of alignments
		Skipping redundant alignment 55732 56273 | 546 1 | 542 546 | 96.71 | gi_828933578_gb_CP011600.1__Kluyvera_intermedia_strain_CAV1151_plasmid_pCAV1151-215__complete_sequence NODE_45_length_38788_cov_50.7759
		This contig is misassembled. 3 total aligns.
			Real Alignment 1: 23994 54002 | 30009 1 | 30009 30009 | 99.92 | gi_828933578_gb_CP011600.1__Kluyvera_intermedia_strain_CAV1151_plasmid_pCAV1151-215__complete_sequence NODE_45_length_38788_cov_50.7759
			  Overlap between these two alignments (local misassembly). Inconsistency = -111  
			Real Alignment 2: 15326 24505 | 38788 29609 | 9180 9180 | 99.6 | gi_828933578_gb_CP011600.1__Kluyvera_intermedia_strain_CAV1151_plasmid_pCAV1151-215__complete_sequence NODE_45_length_38788_cov_50.7759

CONTIG: NODE_54_length_31244_cov_50.8729 (31244bp)
Top Length: 31244  Top ID: 100.0
		One align captures most of this contig: 59347 90590 | 31244 1 | 31244 31244 | 100.0 | gi_828933578_gb_CP011600.1__Kluyvera_intermedia_strain_CAV1151_plasmid_pCAV1151-215__complete_sequence NODE_54_length_31244_cov_50.8729

CONTIG: NODE_56_length_30499_cov_46.7511 (30499bp)
Top Length: 2081  Top ID: 96.25
		This contig is partially unaligned. (Aligned 2081 out of 30499 bases)
		Alignment: 120447 122527 | 4597 6677 | 2081 2081 | 96.25 | gi_828933578_gb_CP011600.1__Kluyvera_intermedia_strain_CAV1151_plasmid_pCAV1151-215__complete_sequence NODE_56_length_30499_cov_46.7511
		Unaligned bases: 1 to 4596 (4596)
		Unaligned bases: 6678 to 30499 (23822)
		This contig has both significant aligned and unaligned parts (of length >= 500)!

CONTIG: NODE_57_length_28815_cov_57.6469 (28815bp)
		This contig is unaligned. (28815 bp)
		Unaligned bases: 28815  total: 183057

CONTIG: NODE_72_length_17756_cov_52.8233 (17756bp)
Top Length: 17756  Top ID: 100.0
		One align captures most of this contig: 91666 109421 | 1 17756 | 17756 17756 | 100.0 | gi_828933578_gb_CP011600.1__Kluyvera_intermedia_strain_CAV1151_plasmid_pCAV1151-215__complete_sequence NODE_72_length_17756_cov_52.8233

CONTIG: NODE_78_length_13736_cov_55.2457 (13736bp)
Top Length: 9446  Top ID: 99.8
		This contig is misassembled. 2 total aligns.
			Real Alignment 1: 183211 192656 | 1 9446 | 9446 9446 | 99.8 | gi_828933578_gb_CP011600.1__Kluyvera_intermedia_strain_CAV1151_plasmid_pCAV1151-215__complete_sequence NODE_78_length_13736_cov_55.2457
			  Gap between these two alignments (local misassembly). Inconsistency = 86  
			Real Alignment 2: 192063 197032 | 8767 13736 | 4970 4970 | 99.38 | gi_828933578_gb_CP011600.1__Kluyvera_intermedia_strain_CAV1151_plasmid_pCAV1151-215__complete_sequence NODE_78_length_13736_cov_55.2457

CONTIG: NODE_79_length_13735_cov_35.8235 (13735bp)
		This contig is unaligned. (13735 bp)
		Unaligned bases: 13735  total: 196792

CONTIG: NODE_85_length_10157_cov_55.1913 (10157bp)
		This contig is unaligned. (10157 bp)
		Unaligned bases: 10157  total: 206949

CONTIG: NODE_88_length_9191_cov_54.0687 (9191bp)
Top Length: 9191  Top ID: 100.0
		One align captures most of this contig: 115119 124309 | 9191 1 | 9191 9191 | 100.0 | gi_828933578_gb_CP011600.1__Kluyvera_intermedia_strain_CAV1151_plasmid_pCAV1151-215__complete_sequence NODE_88_length_9191_cov_54.0687

CONTIG: NODE_91_length_7748_cov_51.0284 (7748bp)
Top Length: 7748  Top ID: 100.0
		One align captures most of this contig: 200782 208529 | 1 7748 | 7748 7748 | 100.0 | gi_828933578_gb_CP011600.1__Kluyvera_intermedia_strain_CAV1151_plasmid_pCAV1151-215__complete_sequence NODE_91_length_7748_cov_51.0284

CONTIG: NODE_95_length_6281_cov_38.9936 (6281bp)
		This contig is unaligned. (6281 bp)
		Unaligned bases: 6281  total: 213230

CONTIG: NODE_98_length_5244_cov_50.755 (5244bp)
Top Length: 5244  Top ID: 100.0
		One align captures most of this contig: 163336 168579 | 1 5244 | 5244 5244 | 100.0 | gi_828933578_gb_CP011600.1__Kluyvera_intermedia_strain_CAV1151_plasmid_pCAV1151-215__complete_sequence NODE_98_length_5244_cov_50.755

CONTIG: NODE_99_length_5224_cov_38.1517 (5224bp)
		This contig is unaligned. (5224 bp)
		Unaligned bases: 5224  total: 218454

CONTIG: NODE_100_length_5086_cov_35.8317 (5086bp)
		This contig is unaligned. (5086 bp)
		Unaligned bases: 5086  total: 223540

CONTIG: NODE_102_length_4915_cov_36.5622 (4915bp)
		This contig is unaligned. (4915 bp)
		Unaligned bases: 4915  total: 228455

CONTIG: NODE_104_length_4775_cov_71.4342 (4775bp)
		This contig is unaligned. (4775 bp)
		Unaligned bases: 4775  total: 233230

CONTIG: NODE_105_length_4312_cov_96.6144 (4312bp)
		This contig is unaligned. (4312 bp)
		Unaligned bases: 4312  total: 237542

CONTIG: NODE_106_length_4295_cov_91.4647 (4295bp)
		This contig is unaligned. (4295 bp)
		Unaligned bases: 4295  total: 241837

CONTIG: NODE_107_length_4181_cov_52.6333 (4181bp)
Top Length: 4181  Top ID: 100.0
		One align captures most of this contig: 169777 173957 | 1 4181 | 4181 4181 | 100.0 | gi_828933578_gb_CP011600.1__Kluyvera_intermedia_strain_CAV1151_plasmid_pCAV1151-215__complete_sequence NODE_107_length_4181_cov_52.6333

CONTIG: NODE_108_length_4099_cov_35.8881 (4099bp)
		This contig is unaligned. (4099 bp)
		Unaligned bases: 4099  total: 245936

CONTIG: NODE_109_length_4060_cov_78.9601 (4060bp)
Top Length: 4060  Top ID: 100.0
		One align captures most of this contig: 135650 139709 | 4060 1 | 4060 4060 | 100.0 | gi_828933578_gb_CP011600.1__Kluyvera_intermedia_strain_CAV1151_plasmid_pCAV1151-215__complete_sequence NODE_109_length_4060_cov_78.9601

CONTIG: NODE_110_length_4024_cov_50.2926 (4024bp)
Top Length: 4024  Top ID: 100.0
		One align captures most of this contig: 158136 162159 | 1 4024 | 4024 4024 | 100.0 | gi_828933578_gb_CP011600.1__Kluyvera_intermedia_strain_CAV1151_plasmid_pCAV1151-215__complete_sequence NODE_110_length_4024_cov_50.2926

CONTIG: NODE_111_length_3982_cov_74.4873 (3982bp)
Top Length: 3982  Top ID: 100.0
		One align captures most of this contig: 124233 128214 | 1 3982 | 3982 3982 | 100.0 | gi_828933578_gb_CP011600.1__Kluyvera_intermedia_strain_CAV1151_plasmid_pCAV1151-215__complete_sequence NODE_111_length_3982_cov_74.4873

CONTIG: NODE_112_length_3817_cov_94.3545 (3817bp)
		This contig is unaligned. (3817 bp)
		Unaligned bases: 3817  total: 249753

CONTIG: NODE_114_length_3654_cov_29.9785 (3654bp)
		This contig is unaligned. (3654 bp)
		Unaligned bases: 3654  total: 253407

CONTIG: NODE_116_length_3387_cov_55.223 (3387bp)
Top Length: 3387  Top ID: 100.0
		One align captures most of this contig: 153573 156959 | 1 3387 | 3387 3387 | 100.0 | gi_828933578_gb_CP011600.1__Kluyvera_intermedia_strain_CAV1151_plasmid_pCAV1151-215__complete_sequence NODE_116_length_3387_cov_55.223

CONTIG: NODE_117_length_3274_cov_46.213 (3274bp)
Top Length: 3274  Top ID: 100.0
		One align captures most of this contig: 131152 134425 | 1 3274 | 3274 3274 | 100.0 | gi_828933578_gb_CP011600.1__Kluyvera_intermedia_strain_CAV1151_plasmid_pCAV1151-215__complete_sequence NODE_117_length_3274_cov_46.213

CONTIG: NODE_118_length_3156_cov_123.638 (3156bp)
Top Length: 3156  Top ID: 100.0
		One align captures most of this contig: 10920 14075 | 1 3156 | 3156 3156 | 100.0 | gi_828933578_gb_CP011600.1__Kluyvera_intermedia_strain_CAV1151_plasmid_pCAV1151-215__complete_sequence NODE_118_length_3156_cov_123.638

CONTIG: NODE_120_length_2911_cov_52.8246 (2911bp)
Top Length: 2911  Top ID: 100.0
		One align captures most of this contig: 55871 58781 | 2911 1 | 2911 2911 | 100.0 | gi_828933578_gb_CP011600.1__Kluyvera_intermedia_strain_CAV1151_plasmid_pCAV1151-215__complete_sequence NODE_120_length_2911_cov_52.8246

CONTIG: NODE_124_length_2455_cov_115.63 (2455bp)
Top Length: 2455  Top ID: 100.0
		One align captures most of this contig: 112741 115195 | 1 2455 | 2455 2455 | 100.0 | gi_828933578_gb_CP011600.1__Kluyvera_intermedia_strain_CAV1151_plasmid_pCAV1151-215__complete_sequence NODE_124_length_2455_cov_115.63

CONTIG: NODE_125_length_2429_cov_37.5999 (2429bp)
		This contig is unaligned. (2429 bp)
		Unaligned bases: 2429  total: 255836

CONTIG: NODE_126_length_2242_cov_61.4328 (2242bp)
Top Length: 2242  Top ID: 99.87
		Marking as insignificant: 174684 175459 | 776 1 | 776 776 | 98.58 | gi_828933578_gb_CP011600.1__Kluyvera_intermedia_strain_CAV1151_plasmid_pCAV1151-215__complete_sequence NODE_126_length_2242_cov_61.4328
		One align captures most of this contig: 110576 112817 | 1 2242 | 2242 2242 | 99.87 | gi_828933578_gb_CP011600.1__Kluyvera_intermedia_strain_CAV1151_plasmid_pCAV1151-215__complete_sequence NODE_126_length_2242_cov_61.4328

CONTIG: NODE_127_length_2146_cov_91.1237 (2146bp)
		This contig is unaligned. (2146 bp)
		Unaligned bases: 2146  total: 257982

CONTIG: NODE_129_length_2022_cov_50.853 (2022bp)
Top Length: 2022  Top ID: 100.0
		One align captures most of this contig: 53926 55947 | 1 2022 | 2022 2022 | 100.0 | gi_828933578_gb_CP011600.1__Kluyvera_intermedia_strain_CAV1151_plasmid_pCAV1151-215__complete_sequence NODE_129_length_2022_cov_50.853

CONTIG: NODE_131_length_1906_cov_56.4691 (1906bp)
Top Length: 1906  Top ID: 100.0
		One align captures most of this contig: 150491 152396 | 1 1906 | 1906 1906 | 100.0 | gi_828933578_gb_CP011600.1__Kluyvera_intermedia_strain_CAV1151_plasmid_pCAV1151-215__complete_sequence NODE_131_length_1906_cov_56.4691

CONTIG: NODE_133_length_1838_cov_57.0857 (1838bp)
Top Length: 1838  Top ID: 100.0
		One align captures most of this contig: 128138 129975 | 1838 1 | 1838 1838 | 100.0 | gi_828933578_gb_CP011600.1__Kluyvera_intermedia_strain_CAV1151_plasmid_pCAV1151-215__complete_sequence NODE_133_length_1838_cov_57.0857

CONTIG: NODE_134_length_1785_cov_36.1692 (1785bp)
		This contig is unaligned. (1785 bp)
		Unaligned bases: 1785  total: 259767

CONTIG: NODE_136_length_1710_cov_71.5713 (1710bp)
		This contig is unaligned. (1710 bp)
		Unaligned bases: 1710  total: 261477

CONTIG: NODE_137_length_1616_cov_93.1585 (1616bp)
		This contig is unaligned. (1616 bp)
		Unaligned bases: 1616  total: 263093

CONTIG: NODE_141_length_1496_cov_63.1212 (1496bp)
		This contig is unaligned. (1496 bp)
		Unaligned bases: 1496  total: 264589

CONTIG: NODE_143_length_1440_cov_25.7718 (1440bp)
		This contig is unaligned. (1440 bp)
		Unaligned bases: 1440  total: 266029

CONTIG: NODE_144_length_1330_cov_584.962 (1330bp)
Top Length: 1330  Top ID: 100.0
		This contig has 8 significant alignments. [An ambiguously mapped contig]
		Using all these alignments (option --ambiguity-usage is set to "all"):
		Alignment: 14073 15402 | 1330 1 | 1330 1330 | 100.0 | gi_828933578_gb_CP011600.1__Kluyvera_intermedia_strain_CAV1151_plasmid_pCAV1151-215__complete_sequence NODE_144_length_1330_cov_584.962
		Alignment: 129899 131228 | 1 1330 | 1330 1330 | 100.0 | gi_828933578_gb_CP011600.1__Kluyvera_intermedia_strain_CAV1151_plasmid_pCAV1151-215__complete_sequence NODE_144_length_1330_cov_584.962
		Alignment: 134349 135678 | 1 1330 | 1330 1330 | 100.0 | gi_828933578_gb_CP011600.1__Kluyvera_intermedia_strain_CAV1151_plasmid_pCAV1151-215__complete_sequence NODE_144_length_1330_cov_584.962
		Alignment: 152320 153649 | 1 1330 | 1330 1330 | 100.0 | gi_828933578_gb_CP011600.1__Kluyvera_intermedia_strain_CAV1151_plasmid_pCAV1151-215__complete_sequence NODE_144_length_1330_cov_584.962
		Alignment: 156883 158212 | 1 1330 | 1330 1330 | 100.0 | gi_828933578_gb_CP011600.1__Kluyvera_intermedia_strain_CAV1151_plasmid_pCAV1151-215__complete_sequence NODE_144_length_1330_cov_584.962
		Alignment: 162083 163412 | 1 1330 | 1330 1330 | 100.0 | gi_828933578_gb_CP011600.1__Kluyvera_intermedia_strain_CAV1151_plasmid_pCAV1151-215__complete_sequence NODE_144_length_1330_cov_584.962
		Alignment: 168503 169832 | 1330 1 | 1330 1330 | 100.0 | gi_828933578_gb_CP011600.1__Kluyvera_intermedia_strain_CAV1151_plasmid_pCAV1151-215__complete_sequence NODE_144_length_1330_cov_584.962
		Alignment: 199529 200858 | 1 1330 | 1330 1330 | 100.0 | gi_828933578_gb_CP011600.1__Kluyvera_intermedia_strain_CAV1151_plasmid_pCAV1151-215__complete_sequence NODE_144_length_1330_cov_584.962

CONTIG: NODE_145_length_1315_cov_128.09 (1315bp)
		This contig is unaligned. (1315 bp)
		Unaligned bases: 1315  total: 267344

CONTIG: NODE_147_length_1308_cov_97.9025 (1308bp)
Top Length: 1308  Top ID: 99.85
		Marking as insignificant: 109345 110652 | 1 1308 | 1308 1308 | 98.24 | gi_828933578_gb_CP011600.1__Kluyvera_intermedia_strain_CAV1151_plasmid_pCAV1151-215__complete_sequence NODE_147_length_1308_cov_97.9025
		One align captures most of this contig: 175383 176690 | 1308 1 | 1308 1308 | 99.85 | gi_828933578_gb_CP011600.1__Kluyvera_intermedia_strain_CAV1151_plasmid_pCAV1151-215__complete_sequence NODE_147_length_1308_cov_97.9025

CONTIG: NODE_150_length_1261_cov_163.889 (1261bp)
		This contig is unaligned. (1261 bp)
		Unaligned bases: 1261  total: 268605

CONTIG: NODE_154_length_1229_cov_178.768 (1229bp)
Top Length: 1229  Top ID: 100.0
		One align captures most of this contig: 90514 91742 | 1229 1 | 1229 1229 | 100.0 | gi_828933578_gb_CP011600.1__Kluyvera_intermedia_strain_CAV1151_plasmid_pCAV1151-215__complete_sequence NODE_154_length_1229_cov_178.768

CONTIG: NODE_156_length_1196_cov_198.827 (1196bp)
Top Length: 1196  Top ID: 100.0
		One align captures most of this contig: 182092 183287 | 1196 1 | 1196 1196 | 100.0 | gi_828933578_gb_CP011600.1__Kluyvera_intermedia_strain_CAV1151_plasmid_pCAV1151-215__complete_sequence NODE_156_length_1196_cov_198.827

CONTIG: NODE_162_length_968_cov_95.33 (968bp)
		This contig is unaligned. (968 bp)
		Unaligned bases: 968  total: 269573

CONTIG: NODE_163_length_857_cov_57.4474 (857bp)
Top Length: 857  Top ID: 100.0
		One align captures most of this contig: 139633 140489 | 1 857 | 857 857 | 100.0 | gi_828933578_gb_CP011600.1__Kluyvera_intermedia_strain_CAV1151_plasmid_pCAV1151-215__complete_sequence NODE_163_length_857_cov_57.4474

CONTIG: NODE_167_length_784_cov_222.54 (784bp)
		This contig is unaligned. (784 bp)
		Unaligned bases: 784  total: 270357

CONTIG: NODE_168_length_750_cov_96.7444 (750bp)
Top Length: 750  Top ID: 100.0
		One align captures most of this contig: 208453 209202 | 750 1 | 750 750 | 100.0 | gi_828933578_gb_CP011600.1__Kluyvera_intermedia_strain_CAV1151_plasmid_pCAV1151-215__complete_sequence NODE_168_length_750_cov_96.7444

CONTIG: NODE_170_length_719_cov_109.442 (719bp)
Top Length: 719  Top ID: 100.0
		One align captures most of this contig: 58705 59423 | 1 719 | 719 719 | 100.0 | gi_828933578_gb_CP011600.1__Kluyvera_intermedia_strain_CAV1151_plasmid_pCAV1151-215__complete_sequence NODE_170_length_719_cov_109.442

CONTIG: NODE_188_length_512_cov_238.09 (512bp)
		This contig is unaligned. (512 bp)
		Unaligned bases: 512  total: 270869

Analyzing coverage...
Writing SNPs into /home/mmbbio/Plasmid_Assembly/completegenomes/plasmids/CAV1151_plasmids_references/group_3.fasta_comparison_cbar/contigs_reports/nucmer_output/prediction.used_snps
	Reference gi_828933578_gb_CP011600.1__Kluyvera_intermedia_strain_CAV1151_plasmid_pCAV1151-215__complete_sequence: 37 total alignments. 1 total regions.
		Region: 1 to 215092 (215092 bp)
			START in gap: 1 to 10920 (10919 bp)
			Align 1: 10920 14075 NODE_118_length_3156_cov_123.638 1 3156
				Negative gap (overlap) between this and next alignment: 14075 to 14073 (-2 bp)
				Next Alignment: 14073 15402 NODE_144_length_1330_cov_584.962 1330 1

			Previous gap was negative, modifying coordinates to ignore overlap
				Moving contig start from 1330 to 1327.
			Align 2: 14076 15402 NODE_144_length_1330_cov_584.962 1327 1
				Negative gap (overlap) between this and next alignment: 15402 to 15326 (-76 bp)
				Next Alignment: 15326 24505 NODE_45_length_38788_cov_50.7759 38788 29609

			Previous gap was negative, modifying coordinates to ignore overlap
				Moving contig start from 38788 to 38711.
			Align 3: 15403 24505 NODE_45_length_38788_cov_50.7759 38711 29609
				Negative gap (overlap) between this and next alignment: 24505 to 23994 (-511 bp)
				Next Alignment: 23994 54002 NODE_45_length_38788_cov_50.7759 30009 1

			Previous gap was negative, modifying coordinates to ignore overlap
				Moving contig start from 30009 to 29497.
			Align 4: 24506 54002 NODE_45_length_38788_cov_50.7759 29497 1
				Negative gap (overlap) between this and next alignment: 54002 to 53926 (-76 bp)
				Next Alignment: 53926 55947 NODE_129_length_2022_cov_50.853 1 2022

			Previous gap was negative, modifying coordinates to ignore overlap
				Moving contig start from 1 to 78.
			Align 5: 54003 55947 NODE_129_length_2022_cov_50.853 78 2022
				Negative gap (overlap) between this and next alignment: 55947 to 55871 (-76 bp)
				Next Alignment: 55871 58781 NODE_120_length_2911_cov_52.8246 2911 1

			Previous gap was negative, modifying coordinates to ignore overlap
				Moving contig start from 2911 to 2834.
			Align 6: 55948 58781 NODE_120_length_2911_cov_52.8246 2834 1
				Negative gap (overlap) between this and next alignment: 58781 to 58705 (-76 bp)
				Next Alignment: 58705 59423 NODE_170_length_719_cov_109.442 1 719

			Previous gap was negative, modifying coordinates to ignore overlap
				Moving contig start from 1 to 78.
			Align 7: 58782 59423 NODE_170_length_719_cov_109.442 78 719
				Negative gap (overlap) between this and next alignment: 59423 to 59347 (-76 bp)
				Next Alignment: 59347 90590 NODE_54_length_31244_cov_50.8729 31244 1

			Previous gap was negative, modifying coordinates to ignore overlap
				Moving contig start from 31244 to 31167.
			Align 8: 59424 90590 NODE_54_length_31244_cov_50.8729 31167 1
				Negative gap (overlap) between this and next alignment: 90590 to 90514 (-76 bp)
				Next Alignment: 90514 91742 NODE_154_length_1229_cov_178.768 1229 1

			Previous gap was negative, modifying coordinates to ignore overlap
				Moving contig start from 1229 to 1152.
			Align 9: 90591 91742 NODE_154_length_1229_cov_178.768 1152 1
				Negative gap (overlap) between this and next alignment: 91742 to 91666 (-76 bp)
				Next Alignment: 91666 109421 NODE_72_length_17756_cov_52.8233 1 17756

			Previous gap was negative, modifying coordinates to ignore overlap
				Moving contig start from 1 to 78.
			Align 10: 91743 109421 NODE_72_length_17756_cov_52.8233 78 17756
				Gap between this and next alignment: 109421 to 110576 (1154 bp)
				Next Alignment: 110576 112817 NODE_126_length_2242_cov_61.4328 1 2242

			Align 11: 110576 112817 NODE_126_length_2242_cov_61.4328 1 2242
				Negative gap (overlap) between this and next alignment: 112817 to 112741 (-76 bp)
				Next Alignment: 112741 115195 NODE_124_length_2455_cov_115.63 1 2455

			Previous gap was negative, modifying coordinates to ignore overlap
				Moving contig start from 1 to 78.
			Align 12: 112818 115195 NODE_124_length_2455_cov_115.63 78 2455
				Negative gap (overlap) between this and next alignment: 115195 to 115119 (-76 bp)
				Next Alignment: 115119 124309 NODE_88_length_9191_cov_54.0687 9191 1

			Previous gap was negative, modifying coordinates to ignore overlap
				Moving contig start from 9191 to 9114.
			Align 13: 115196 124309 NODE_88_length_9191_cov_54.0687 9114 1
				The next alignment (120447 122527 NODE_56_length_30499_cov_46.7511 4597 6677) is redundant. Skipping.
				Negative gap (overlap) between this and next alignment: 124309 to 124233 (-76 bp)
				Next Alignment: 124233 128214 NODE_111_length_3982_cov_74.4873 1 3982

			Previous gap was negative, modifying coordinates to ignore overlap
				Moving contig start from 1 to 78.
			Align 15: 124310 128214 NODE_111_length_3982_cov_74.4873 78 3982
				Negative gap (overlap) between this and next alignment: 128214 to 128138 (-76 bp)
				Next Alignment: 128138 129975 NODE_133_length_1838_cov_57.0857 1838 1

			Previous gap was negative, modifying coordinates to ignore overlap
				Moving contig start from 1838 to 1761.
			Align 16: 128215 129975 NODE_133_length_1838_cov_57.0857 1761 1
				Negative gap (overlap) between this and next alignment: 129975 to 129899 (-76 bp)
				Next Alignment: 129899 131228 NODE_144_length_1330_cov_584.962 1 1330

			Previous gap was negative, modifying coordinates to ignore overlap
				Moving contig start from 1 to 78.
			Align 17: 129976 131228 NODE_144_length_1330_cov_584.962 78 1330
				Negative gap (overlap) between this and next alignment: 131228 to 131152 (-76 bp)
				Next Alignment: 131152 134425 NODE_117_length_3274_cov_46.213 1 3274

			Previous gap was negative, modifying coordinates to ignore overlap
				Moving contig start from 1 to 78.
			Align 18: 131229 134425 NODE_117_length_3274_cov_46.213 78 3274
				Negative gap (overlap) between this and next alignment: 134425 to 134349 (-76 bp)
				Next Alignment: 134349 135678 NODE_144_length_1330_cov_584.962 1 1330

			Previous gap was negative, modifying coordinates to ignore overlap
				Moving contig start from 1 to 78.
			Align 19: 134426 135678 NODE_144_length_1330_cov_584.962 78 1330
				Negative gap (overlap) between this and next alignment: 135678 to 135650 (-28 bp)
				Next Alignment: 135650 139709 NODE_109_length_4060_cov_78.9601 4060 1

			Previous gap was negative, modifying coordinates to ignore overlap
				Moving contig start from 4060 to 4031.
			Align 20: 135679 139709 NODE_109_length_4060_cov_78.9601 4031 1
				Negative gap (overlap) between this and next alignment: 139709 to 139633 (-76 bp)
				Next Alignment: 139633 140489 NODE_163_length_857_cov_57.4474 1 857

			Previous gap was negative, modifying coordinates to ignore overlap
				Moving contig start from 1 to 78.
			Align 21: 139710 140489 NODE_163_length_857_cov_57.4474 78 857
				Gap between this and next alignment: 140489 to 150491 (10001 bp)
				Next Alignment: 150491 152396 NODE_131_length_1906_cov_56.4691 1 1906

			Align 22: 150491 152396 NODE_131_length_1906_cov_56.4691 1 1906
				Negative gap (overlap) between this and next alignment: 152396 to 152320 (-76 bp)
				Next Alignment: 152320 153649 NODE_144_length_1330_cov_584.962 1 1330

			Previous gap was negative, modifying coordinates to ignore overlap
				Moving contig start from 1 to 78.
			Align 23: 152397 153649 NODE_144_length_1330_cov_584.962 78 1330
				Negative gap (overlap) between this and next alignment: 153649 to 153573 (-76 bp)
				Next Alignment: 153573 156959 NODE_116_length_3387_cov_55.223 1 3387

			Previous gap was negative, modifying coordinates to ignore overlap
				Moving contig start from 1 to 78.
			Align 24: 153650 156959 NODE_116_length_3387_cov_55.223 78 3387
				Negative gap (overlap) between this and next alignment: 156959 to 156883 (-76 bp)
				Next Alignment: 156883 158212 NODE_144_length_1330_cov_584.962 1 1330

			Previous gap was negative, modifying coordinates to ignore overlap
				Moving contig start from 1 to 78.
			Align 25: 156960 158212 NODE_144_length_1330_cov_584.962 78 1330
				Negative gap (overlap) between this and next alignment: 158212 to 158136 (-76 bp)
				Next Alignment: 158136 162159 NODE_110_length_4024_cov_50.2926 1 4024

			Previous gap was negative, modifying coordinates to ignore overlap
				Moving contig start from 1 to 78.
			Align 26: 158213 162159 NODE_110_length_4024_cov_50.2926 78 4024
				Negative gap (overlap) between this and next alignment: 162159 to 162083 (-76 bp)
				Next Alignment: 162083 163412 NODE_144_length_1330_cov_584.962 1 1330

			Previous gap was negative, modifying coordinates to ignore overlap
				Moving contig start from 1 to 78.
			Align 27: 162160 163412 NODE_144_length_1330_cov_584.962 78 1330
				Negative gap (overlap) between this and next alignment: 163412 to 163336 (-76 bp)
				Next Alignment: 163336 168579 NODE_98_length_5244_cov_50.755 1 5244

			Previous gap was negative, modifying coordinates to ignore overlap
				Moving contig start from 1 to 78.
			Align 28: 163413 168579 NODE_98_length_5244_cov_50.755 78 5244
				Negative gap (overlap) between this and next alignment: 168579 to 168503 (-76 bp)
				Next Alignment: 168503 169832 NODE_144_length_1330_cov_584.962 1330 1

			Previous gap was negative, modifying coordinates to ignore overlap
				Moving contig start from 1330 to 1253.
			Align 29: 168580 169832 NODE_144_length_1330_cov_584.962 1253 1
				Negative gap (overlap) between this and next alignment: 169832 to 169777 (-55 bp)
				Next Alignment: 169777 173957 NODE_107_length_4181_cov_52.6333 1 4181

			Previous gap was negative, modifying coordinates to ignore overlap
				Moving contig start from 1 to 57.
			Align 30: 169833 173957 NODE_107_length_4181_cov_52.6333 57 4181
				Gap between this and next alignment: 173957 to 175383 (1425 bp)
				Next Alignment: 175383 176690 NODE_147_length_1308_cov_97.9025 1308 1

			Align 31: 175383 176690 NODE_147_length_1308_cov_97.9025 1308 1
				Gap between this and next alignment: 176690 to 182092 (5401 bp)
				Next Alignment: 182092 183287 NODE_156_length_1196_cov_198.827 1196 1

			Align 32: 182092 183287 NODE_156_length_1196_cov_198.827 1196 1
				Negative gap (overlap) between this and next alignment: 183287 to 183211 (-76 bp)
				Next Alignment: 183211 192656 NODE_78_length_13736_cov_55.2457 1 9446

			Previous gap was negative, modifying coordinates to ignore overlap
				Moving contig start from 1 to 78.
			Align 33: 183288 192656 NODE_78_length_13736_cov_55.2457 78 9446
				Negative gap (overlap) between this and next alignment: 192656 to 192063 (-593 bp)
				Next Alignment: 192063 197032 NODE_78_length_13736_cov_55.2457 8767 13736

			Previous gap was negative, modifying coordinates to ignore overlap
				Moving contig start from 8767 to 9361.
			Align 34: 192657 197032 NODE_78_length_13736_cov_55.2457 9361 13736
				Gap between this and next alignment: 197032 to 199529 (2496 bp)
				Next Alignment: 199529 200858 NODE_144_length_1330_cov_584.962 1 1330

			Align 35: 199529 200858 NODE_144_length_1330_cov_584.962 1 1330
				Negative gap (overlap) between this and next alignment: 200858 to 200782 (-76 bp)
				Next Alignment: 200782 208529 NODE_91_length_7748_cov_51.0284 1 7748

			Previous gap was negative, modifying coordinates to ignore overlap
				Moving contig start from 1 to 78.
			Align 36: 200859 208529 NODE_91_length_7748_cov_51.0284 78 7748
				Negative gap (overlap) between this and next alignment: 208529 to 208453 (-76 bp)
				Next Alignment: 208453 209202 NODE_168_length_750_cov_96.7444 750 1

			Previous gap was negative, modifying coordinates to ignore overlap
				Moving contig start from 750 to 673.
			Align 37: 208530 209202 NODE_168_length_750_cov_96.7444 673 1
			END in gap: 209202 to 215092 (5890 bp)

Analysis is finished!
Founded SNPs were written into /home/mmbbio/Plasmid_Assembly/completegenomes/plasmids/CAV1151_plasmids_references/group_3.fasta_comparison_cbar/contigs_reports/nucmer_output/prediction.used_snps

Results:
	Local Misassemblies: 2
	Misassemblies: 0
		Relocations: 0
		Translocations: 0
		Inversions: 0
	Misassembled Contigs: 0
	Misassembled Contig Bases: 0
	Misassemblies Inter-Contig Overlap: 86
Uncovered Regions: 0 (0)
Unaligned Contigs: 28 + 1 part
Partially Unaligned Contigs with Misassemblies: 0
Unaligned Contig Bases: 299287

Ambiguously Mapped Contigs: 1
Extra Bases in Ambiguously Mapped Contigs: 9310
Note that --allow-ambiguity option was set to "all" and each of these contigs was used several times.

	Covered Bases: 177806

	SNPs: 59
	Insertions: 1
	Deletions: 1

	Positive Gaps: 7
		Internal Gaps:  0
		External Gaps:  7
		External Gap Total:  37286
		External Gap Average: 5327
	Negative Gaps: 30
		Internal Overlaps:  2
		External Overlaps:  28
		External Overlaps Total: -1985
		External Overlaps Average: -71
	Contigs with Redundant Alignments: 1 (2081)
