S1	E1	S2	E2	Reference	Contig	IDY	Ambiguous
CONTIG	NODE_1_length_144675_cov_39.328_component_0	144675	unaligned
CONTIG	NODE_2_length_76870_cov_52.0573_component_0	76870	unaligned
CONTIG	NODE_3_length_56128_cov_83.0426_component_0	56128	unaligned
CONTIG	NODE_4_length_34586_cov_41.5991_component_0	34586	unaligned
CONTIG	NODE_5_length_30167_cov_83.4023_component_0	30167	unaligned
CONTIG	NODE_6_length_22010_cov_55.1726_component_0	22010	unaligned
CONTIG	NODE_7_length_14834_cov_98.7511_component_0	14834	unaligned
CONTIG	NODE_8_length_12809_cov_57.1408_component_0	12809	unaligned
CONTIG	NODE_9_length_10775_cov_61.5136_component_0	10775	unaligned
CONTIG	NODE_10_length_9516_cov_38.6634_component_0	9516	unaligned
CONTIG	NODE_11_length_9450_cov_75.3946_component_0	9450	unaligned
CONTIG	NODE_12_length_5612_cov_58.1541_component_0	5612	unaligned
CONTIG	NODE_13_length_5014_cov_471.6_component_0	5014	unaligned
CONTIG	NODE_14_length_4875_cov_51.5294_component_0	4875	unaligned
CONTIG	NODE_15_length_3856_cov_345.885_component_0	3856	unaligned
CONTIG	NODE_16_length_3694_cov_57.1844_component_0	3694	unaligned
CONTIG	NODE_17_length_3664_cov_136.322_component_0	3664	unaligned
CONTIG	NODE_18_length_3356_cov_40.3422_component_0	3356	unaligned
CONTIG	NODE_19_length_3312_cov_678.651_component_0	3312	unaligned
1	1828	1828	1	gi_828939390_gb_CP011605.1__Citrobacter_freundii_strain_CAV1321_plasmid_pCAV1321-3820__complete_sequence	NODE_20_length_3256_cov_334.045_component_0	100.0	
fake misassembly (linear representation of circular genome)
2393	3820	3256	1829	gi_828939390_gb_CP011605.1__Citrobacter_freundii_strain_CAV1321_plasmid_pCAV1321-3820__complete_sequence	NODE_20_length_3256_cov_334.045_component_0	100.0	
CONTIG	NODE_20_length_3256_cov_334.045_component_0	3256	correct
CONTIG	NODE_21_length_2434_cov_97.2843_component_0	2434	unaligned
CONTIG	NODE_22_length_1875_cov_72.7542_component_0	1875	unaligned
CONTIG	NODE_23_length_1814_cov_740.69_component_0	1814	unaligned
CONTIG	NODE_24_length_1553_cov_34.7771_component_0	1553	unaligned
CONTIG	NODE_25_length_1360_cov_108.01_component_0	1360	unaligned
CONTIG	NODE_26_length_1005_cov_91.6767_component_0	1005	unaligned
CONTIG	NODE_27_length_823_cov_48.0483_component_0	823	unaligned
CONTIG	NODE_28_length_820_cov_395.542_component_0	820	unaligned
CONTIG	NODE_29_length_780_cov_99.1863_component_0	780	unaligned
CONTIG	NODE_30_length_650_cov_122.614_component_0	650	unaligned
CONTIG	NODE_31_length_649_cov_134.163_component_0	649	unaligned
CONTIG	NODE_32_length_595_cov_58.8514_component_0	595	unaligned
1752	2252	501	1	gi_828939390_gb_CP011605.1__Citrobacter_freundii_strain_CAV1321_plasmid_pCAV1321-3820__complete_sequence	NODE_33_length_501_cov_290.762_component_0	100.0	
CONTIG	NODE_33_length_501_cov_290.762_component_0	501	correct
