All statistics are based on contigs of size >= 500 bp, unless otherwise noted (e.g., "# contigs (>= 0 bp)" and "Total length (>= 0 bp)" include all contigs).

Assembly    # contigs (>= 0 bp)  # contigs (>= 1000 bp)  # contigs (>= 5000 bp)  # contigs (>= 10000 bp)  # contigs (>= 25000 bp)  # contigs (>= 50000 bp)  Total length (>= 0 bp)  Total length (>= 1000 bp)  Total length (>= 5000 bp)  Total length (>= 10000 bp)  Total length (>= 25000 bp)  Total length (>= 50000 bp)  # contigs  Largest contig  Total length  Reference length  GC (%)  Reference GC (%)  N50    NG50   N75   NG75   L50  LG50  L75  LG75  # misassemblies  # misassembled contigs  Misassembled contigs length  # local misassemblies  # unaligned contigs  Unaligned length  Genome fraction (%)  Duplication ratio  # N's per 100 kbp  # mismatches per 100 kbp  # indels per 100 kbp  Largest alignment  NGA50  NGA75  LGA50  LGA75
prediction  19                   16                      9                       5                        2                        0                        158756                  156215                     138647                     108878                      62664                       0                           19         34148           158756        2927              48.56   46.53             23370  34148  8423  34148  3    1     7    1     0                0                       0                            0                      18 + 0 part          155752            100.000              1.026              0.00               0.00                      0.00                  3004               3004   3004   1      1    
