Aligning contigs to reference...
	Running Nucmer
Parsing coords...
Loading reference...
	Loaded [gi_749295865_ref_NZ_CP008830.1__Klebsiella_pneumoniae_subsp._pneumoniae_KPNIH1_plasmid_pKpQIL-6e6__complete_sequence]
Loading SNPs...
Loading regions...
	No regions given, using whole reference.
	Total Regions: 1
	Total Region Length: 113639
Analyzing contigs...
CONTIG: NODE_1_length_56873_cov_26.336_component_0 (56873bp)
Top Length: 1114  Top ID: 99.28
		This contig is partially unaligned. (Aligned 1114 out of 56873 bases)
		Alignment: 63033 64146 | 55760 56873 | 1114 1114 | 99.28 | gi_749295865_ref_NZ_CP008830.1__Klebsiella_pneumoniae_subsp._pneumoniae_KPNIH1_plasmid_pKpQIL-6e6__complete_sequence NODE_1_length_56873_cov_26.336_component_0
		Unaligned bases: 1 to 55759 (55759)
		This contig has both significant aligned and unaligned parts (of length >= 500)!

CONTIG: NODE_2_length_49173_cov_19.0524_component_0 (49173bp)
		This contig is unaligned. (49173 bp)
		Unaligned bases: 49173  total: 49173

CONTIG: NODE_3_length_30230_cov_17.5884_component_0 (30230bp)
		This contig is unaligned. (30230 bp)
		Unaligned bases: 30230  total: 79403

CONTIG: NODE_4_length_21535_cov_19.8846_component_0 (21535bp)
Top Length: 21535  Top ID: 100.0
		One align captures most of this contig: 41792 63326 | 1 21535 | 21535 21535 | 100.0 | gi_749295865_ref_NZ_CP008830.1__Klebsiella_pneumoniae_subsp._pneumoniae_KPNIH1_plasmid_pKpQIL-6e6__complete_sequence NODE_4_length_21535_cov_19.8846_component_0

CONTIG: NODE_5_length_20798_cov_18.4989_component_0 (20798bp)
Top Length: 20798  Top ID: 100.0
		One align captures most of this contig: 4819 25616 | 20798 1 | 20798 20798 | 100.0 | gi_749295865_ref_NZ_CP008830.1__Klebsiella_pneumoniae_subsp._pneumoniae_KPNIH1_plasmid_pKpQIL-6e6__complete_sequence NODE_5_length_20798_cov_18.4989_component_0

CONTIG: NODE_6_length_13083_cov_20.5707_component_0 (13083bp)
		This contig is unaligned. (13083 bp)
		Unaligned bases: 13083  total: 92486

CONTIG: NODE_7_length_12714_cov_30.0231_component_0 (12714bp)
		This contig is unaligned. (12714 bp)
		Unaligned bases: 12714  total: 105200

CONTIG: NODE_8_length_11816_cov_18.3336_component_0 (11816bp)
Top Length: 10800  Top ID: 100.0
		This contig is partially unaligned. (Aligned 10800 out of 11816 bases)
		Alignment: 30766 41565 | 1017 11816 | 10800 10800 | 100.0 | gi_749295865_ref_NZ_CP008830.1__Klebsiella_pneumoniae_subsp._pneumoniae_KPNIH1_plasmid_pKpQIL-6e6__complete_sequence NODE_8_length_11816_cov_18.3336_component_0
		Unaligned bases: 1 to 1016 (1016)
		This contig has both significant aligned and unaligned parts (of length >= 500)!

CONTIG: NODE_9_length_10838_cov_24.5888_component_0 (10838bp)
Top Length: 3220  Top ID: 99.22
		This contig is partially unaligned. (Aligned 3220 out of 10838 bases)
		Alignment: 64321 67539 | 10838 7619 | 3219 3220 | 99.22 | gi_749295865_ref_NZ_CP008830.1__Klebsiella_pneumoniae_subsp._pneumoniae_KPNIH1_plasmid_pKpQIL-6e6__complete_sequence NODE_9_length_10838_cov_24.5888_component_0
		Unaligned bases: 1 to 7618 (7618)
		This contig has both significant aligned and unaligned parts (of length >= 500)!

CONTIG: NODE_10_length_10133_cov_19.9212_component_0 (10133bp)
		This contig is unaligned. (10133 bp)
		Unaligned bases: 10133  total: 115333

CONTIG: NODE_11_length_7603_cov_20.504_component_0 (7603bp)
		This contig is unaligned. (7603 bp)
		Unaligned bases: 7603  total: 122936

CONTIG: NODE_12_length_7491_cov_20.2083_component_0 (7491bp)
Top Length: 802  Top ID: 96.51
		This contig is misassembled. 2 total aligns.
			Warning! This contig is more unaligned than misassembled. Contig length is 7491 and total length of all aligns is 1365
		Alignment: 113052 113614 | 6524 5962 | 563 563 | 95.38 | gi_749295865_ref_NZ_CP008830.1__Klebsiella_pneumoniae_subsp._pneumoniae_KPNIH1_plasmid_pKpQIL-6e6__complete_sequence NODE_12_length_7491_cov_20.2083_component_0
		Alignment: 112170 112972 | 7491 6690 | 803 802 | 96.51 | gi_749295865_ref_NZ_CP008830.1__Klebsiella_pneumoniae_subsp._pneumoniae_KPNIH1_plasmid_pKpQIL-6e6__complete_sequence NODE_12_length_7491_cov_20.2083_component_0
		Unaligned bases: 6126
		This contig has both significant aligned and unaligned parts (of length >= 500)!
CONTIG: NODE_13_length_6585_cov_20.5426_component_0 (6585bp)
Top Length: 2375  Top ID: 96.46
		This contig is misassembled. 2 total aligns.
			Real Alignment 1: 83110 84044 | 1 935 | 935 935 | 96.15 | gi_749295865_ref_NZ_CP008830.1__Klebsiella_pneumoniae_subsp._pneumoniae_KPNIH1_plasmid_pKpQIL-6e6__complete_sequence NODE_13_length_6585_cov_20.5426_component_0
			  Overlap between these two alignments (local misassembly). Inconsistency = -558  
			Real Alignment 2: 86762 89136 | 4211 6585 | 2375 2375 | 96.46 | gi_749295865_ref_NZ_CP008830.1__Klebsiella_pneumoniae_subsp._pneumoniae_KPNIH1_plasmid_pKpQIL-6e6__complete_sequence NODE_13_length_6585_cov_20.5426_component_0

CONTIG: NODE_14_length_5830_cov_19.8808_component_1 (5830bp)
		This contig is unaligned. (5830 bp)
		Unaligned bases: 5830  total: 128766

CONTIG: NODE_15_length_5598_cov_23.9634_component_0 (5598bp)
Top Length: 5598  Top ID: 100.0
		One align captures most of this contig: 100355 105952 | 5598 1 | 5598 5598 | 100.0 | gi_749295865_ref_NZ_CP008830.1__Klebsiella_pneumoniae_subsp._pneumoniae_KPNIH1_plasmid_pKpQIL-6e6__complete_sequence NODE_15_length_5598_cov_23.9634_component_0

CONTIG: NODE_16_length_5541_cov_21.4369_component_0 (5541bp)
Top Length: 5541  Top ID: 100.0
		One align captures most of this contig: 83110 88650 | 1 5541 | 5541 5541 | 100.0 | gi_749295865_ref_NZ_CP008830.1__Klebsiella_pneumoniae_subsp._pneumoniae_KPNIH1_plasmid_pKpQIL-6e6__complete_sequence NODE_16_length_5541_cov_21.4369_component_0

CONTIG: NODE_17_length_5517_cov_17.0243_component_0 (5517bp)
		This contig is unaligned. (5517 bp)
		Unaligned bases: 5517  total: 134283

CONTIG: NODE_18_length_5424_cov_20.5588_component_0 (5424bp)
Top Length: 3954  Top ID: 100.0
		This contig is misassembled. 2 total aligns.
			Real Alignment 1: 1 3954 | 3954 1 | 3954 3954 | 100.0 | gi_749295865_ref_NZ_CP008830.1__Klebsiella_pneumoniae_subsp._pneumoniae_KPNIH1_plasmid_pKpQIL-6e6__complete_sequence NODE_18_length_5424_cov_20.5588_component_0
			  Fake misassembly (caused by linear representation of circular genome) between these two alignments
			Real Alignment 2: 112170 113639 | 5424 3955 | 1470 1470 | 100.0 | gi_749295865_ref_NZ_CP008830.1__Klebsiella_pneumoniae_subsp._pneumoniae_KPNIH1_plasmid_pKpQIL-6e6__complete_sequence NODE_18_length_5424_cov_20.5588_component_0

CONTIG: NODE_19_length_5317_cov_21.888_component_0 (5317bp)
Top Length: 5317  Top ID: 100.0
		One align captures most of this contig: 67707 73023 | 5317 1 | 5317 5317 | 100.0 | gi_749295865_ref_NZ_CP008830.1__Klebsiella_pneumoniae_subsp._pneumoniae_KPNIH1_plasmid_pKpQIL-6e6__complete_sequence NODE_19_length_5317_cov_21.888_component_0

CONTIG: NODE_20_length_5091_cov_26.1089_component_0 (5091bp)
Top Length: 5091  Top ID: 100.0
		Marking as insignificant: 73416 73961 | 1 548 | 546 548 | 97.82 | gi_749295865_ref_NZ_CP008830.1__Klebsiella_pneumoniae_subsp._pneumoniae_KPNIH1_plasmid_pKpQIL-6e6__complete_sequence NODE_20_length_5091_cov_26.1089_component_0
		Marking as insignificant: 67245 67792 | 1 548 | 548 548 | 98.54 | gi_749295865_ref_NZ_CP008830.1__Klebsiella_pneumoniae_subsp._pneumoniae_KPNIH1_plasmid_pKpQIL-6e6__complete_sequence NODE_20_length_5091_cov_26.1089_component_0
		Marking as insignificant: 63858 64409 | 1 550 | 552 550 | 98.37 | gi_749295865_ref_NZ_CP008830.1__Klebsiella_pneumoniae_subsp._pneumoniae_KPNIH1_plasmid_pKpQIL-6e6__complete_sequence NODE_20_length_5091_cov_26.1089_component_0
		One align captures most of this contig: 76120 81210 | 1 5091 | 5091 5091 | 100.0 | gi_749295865_ref_NZ_CP008830.1__Klebsiella_pneumoniae_subsp._pneumoniae_KPNIH1_plasmid_pKpQIL-6e6__complete_sequence NODE_20_length_5091_cov_26.1089_component_0

CONTIG: NODE_21_length_4926_cov_22.4729_component_0 (4926bp)
Top Length: 1414  Top ID: 96.96
		This contig is partially unaligned. (Aligned 1414 out of 4926 bases)
		Alignment: 104539 105952 | 1414 1 | 1414 1414 | 96.96 | gi_749295865_ref_NZ_CP008830.1__Klebsiella_pneumoniae_subsp._pneumoniae_KPNIH1_plasmid_pKpQIL-6e6__complete_sequence NODE_21_length_4926_cov_22.4729_component_0
		Unaligned bases: 1415 to 4926 (3512)
		This contig has both significant aligned and unaligned parts (of length >= 500)!

CONTIG: NODE_22_length_4384_cov_103.166_component_1 (4384bp)
		This contig is unaligned. (4384 bp)
		Unaligned bases: 4384  total: 138667

CONTIG: NODE_23_length_4316_cov_29.5622_component_0 (4316bp)
		This contig is unaligned. (4316 bp)
		Unaligned bases: 4316  total: 142983

CONTIG: NODE_24_length_2988_cov_33.9282_component_0 (2988bp)
Top Length: 1609  Top ID: 99.13
		This contig is misassembled. 2 total aligns.
			Real Alignment 1: 93189 94797 | 1609 1 | 1609 1609 | 99.13 | gi_749295865_ref_NZ_CP008830.1__Klebsiella_pneumoniae_subsp._pneumoniae_KPNIH1_plasmid_pKpQIL-6e6__complete_sequence NODE_24_length_2988_cov_33.9282_component_0
			  Fake misassembly between these two alignments: inconsistency = 0 , gap in the contig is small or absent or filled mostly with Ns (no indel; 0 mismatches)
			Real Alignment 2: 91810 93001 | 2988 1797 | 1192 1192 | 99.5 | gi_749295865_ref_NZ_CP008830.1__Klebsiella_pneumoniae_subsp._pneumoniae_KPNIH1_plasmid_pKpQIL-6e6__complete_sequence NODE_24_length_2988_cov_33.9282_component_0

CONTIG: NODE_25_length_2738_cov_20.5212_component_0 (2738bp)
		This contig is unaligned. (2738 bp)
		Unaligned bases: 2738  total: 145721

CONTIG: NODE_26_length_2452_cov_40.6371_component_0 (2452bp)
Top Length: 2452  Top ID: 99.59
		One align captures most of this contig: 97980 100431 | 2452 1 | 2452 2452 | 99.59 | gi_749295865_ref_NZ_CP008830.1__Klebsiella_pneumoniae_subsp._pneumoniae_KPNIH1_plasmid_pKpQIL-6e6__complete_sequence NODE_26_length_2452_cov_40.6371_component_0

CONTIG: NODE_27_length_2433_cov_27.0216_component_0 (2433bp)
		This contig is unaligned. (2433 bp)
		Unaligned bases: 2433  total: 148154

CONTIG: NODE_28_length_2321_cov_17.8409_component_0 (2321bp)
Top Length: 2321  Top ID: 100.0
		One align captures most of this contig: 73876 76196 | 2321 1 | 2321 2321 | 100.0 | gi_749295865_ref_NZ_CP008830.1__Klebsiella_pneumoniae_subsp._pneumoniae_KPNIH1_plasmid_pKpQIL-6e6__complete_sequence NODE_28_length_2321_cov_17.8409_component_0

CONTIG: NODE_29_length_2281_cov_15.7291_component_0 (2281bp)
		This contig is unaligned. (2281 bp)
		Unaligned bases: 2281  total: 150435

CONTIG: NODE_30_length_2005_cov_39.2547_component_0 (2005bp)
		This contig is unaligned. (2005 bp)
		Unaligned bases: 2005  total: 152440

CONTIG: NODE_31_length_1899_cov_16.213_component_0 (1899bp)
		This contig is unaligned. (1899 bp)
		Unaligned bases: 1899  total: 154339

CONTIG: NODE_32_length_1694_cov_32.4187_component_0 (1694bp)
Top Length: 1694  Top ID: 99.53
		One align captures most of this contig: 106991 108684 | 1694 1 | 1694 1694 | 99.53 | gi_749295865_ref_NZ_CP008830.1__Klebsiella_pneumoniae_subsp._pneumoniae_KPNIH1_plasmid_pKpQIL-6e6__complete_sequence NODE_32_length_1694_cov_32.4187_component_0

CONTIG: NODE_33_length_1655_cov_45.5634_component_0 (1655bp)
		This contig is unaligned. (1655 bp)
		Unaligned bases: 1655  total: 155994

CONTIG: NODE_34_length_1641_cov_16.6381_component_0 (1641bp)
		This contig is unaligned. (1641 bp)
		Unaligned bases: 1641  total: 157635

CONTIG: NODE_35_length_1586_cov_15.008_component_0 (1586bp)
		This contig is unaligned. (1586 bp)
		Unaligned bases: 1586  total: 159221

CONTIG: NODE_36_length_1370_cov_18.1423_component_0 (1370bp)
Top Length: 1370  Top ID: 100.0
		One align captures most of this contig: 94721 96090 | 1 1370 | 1370 1370 | 100.0 | gi_749295865_ref_NZ_CP008830.1__Klebsiella_pneumoniae_subsp._pneumoniae_KPNIH1_plasmid_pKpQIL-6e6__complete_sequence NODE_36_length_1370_cov_18.1423_component_0

CONTIG: NODE_37_length_1344_cov_23.9361_component_0 (1344bp)
Top Length: 1344  Top ID: 100.0
		One align captures most of this contig: 26283 27626 | 1 1344 | 1344 1344 | 100.0 | gi_749295865_ref_NZ_CP008830.1__Klebsiella_pneumoniae_subsp._pneumoniae_KPNIH1_plasmid_pKpQIL-6e6__complete_sequence NODE_37_length_1344_cov_23.9361_component_0

CONTIG: NODE_38_length_1341_cov_19.5593_component_0 (1341bp)
Top Length: 566  Top ID: 97.17
		This contig is partially unaligned. (Aligned 566 out of 1341 bases)
		Alignment: 95525 96090 | 776 1341 | 566 566 | 97.17 | gi_749295865_ref_NZ_CP008830.1__Klebsiella_pneumoniae_subsp._pneumoniae_KPNIH1_plasmid_pKpQIL-6e6__complete_sequence NODE_38_length_1341_cov_19.5593_component_0
		Unaligned bases: 1 to 775 (775)
		This contig has both significant aligned and unaligned parts (of length >= 500)!

CONTIG: NODE_39_length_1276_cov_19.1334_component_0 (1276bp)
Top Length: 1276  Top ID: 97.18
		One align captures most of this contig: 81388 82663 | 1 1276 | 1276 1276 | 97.18 | gi_749295865_ref_NZ_CP008830.1__Klebsiella_pneumoniae_subsp._pneumoniae_KPNIH1_plasmid_pKpQIL-6e6__complete_sequence NODE_39_length_1276_cov_19.1334_component_0

CONTIG: NODE_40_length_1199_cov_183.819_component_0 (1199bp)
		This contig is unaligned. (1199 bp)
		Unaligned bases: 1199  total: 160420

CONTIG: NODE_41_length_1194_cov_25.6983_component_0 (1194bp)
		This contig is unaligned. (1194 bp)
		Unaligned bases: 1194  total: 161614

CONTIG: NODE_42_length_1156_cov_18.6015_component_0 (1156bp)
Top Length: 1156  Top ID: 100.0
		One align captures most of this contig: 96901 98056 | 1 1156 | 1156 1156 | 100.0 | gi_749295865_ref_NZ_CP008830.1__Klebsiella_pneumoniae_subsp._pneumoniae_KPNIH1_plasmid_pKpQIL-6e6__complete_sequence NODE_42_length_1156_cov_18.6015_component_0

CONTIG: NODE_43_length_1141_cov_16.2378_component_0 (1141bp)
Top Length: 1141  Top ID: 97.46
		One align captures most of this contig: 108608 109748 | 1 1141 | 1141 1141 | 97.46 | gi_749295865_ref_NZ_CP008830.1__Klebsiella_pneumoniae_subsp._pneumoniae_KPNIH1_plasmid_pKpQIL-6e6__complete_sequence NODE_43_length_1141_cov_16.2378_component_0

CONTIG: NODE_44_length_1134_cov_19.1769_component_0 (1134bp)
Top Length: 1134  Top ID: 100.0
		One align captures most of this contig: 90753 91886 | 1134 1 | 1134 1134 | 100.0 | gi_749295865_ref_NZ_CP008830.1__Klebsiella_pneumoniae_subsp._pneumoniae_KPNIH1_plasmid_pKpQIL-6e6__complete_sequence NODE_44_length_1134_cov_19.1769_component_0

CONTIG: NODE_45_length_1103_cov_19.8587_component_0 (1103bp)
Top Length: 508  Top ID: 96.65
		This contig is partially unaligned. (Aligned 508 out of 1103 bases)
		Alignment: 96901 97408 | 1 508 | 508 508 | 96.65 | gi_749295865_ref_NZ_CP008830.1__Klebsiella_pneumoniae_subsp._pneumoniae_KPNIH1_plasmid_pKpQIL-6e6__complete_sequence NODE_45_length_1103_cov_19.8587_component_0
		Unaligned bases: 509 to 1103 (595)
		This contig has both significant aligned and unaligned parts (of length >= 500)!

CONTIG: NODE_46_length_1071_cov_24.335_component_0 (1071bp)
		This contig is unaligned. (1071 bp)
		Unaligned bases: 1071  total: 162685

CONTIG: NODE_47_length_1057_cov_38.8602_component_0 (1057bp)
		This contig is unaligned. (1057 bp)
		Unaligned bases: 1057  total: 163742

CONTIG: NODE_48_length_1028_cov_29.2334_component_0 (1028bp)
		This contig is unaligned. (1028 bp)
		Unaligned bases: 1028  total: 164770

CONTIG: NODE_49_length_1018_cov_35_component_0 (1018bp)
Top Length: 1018  Top ID: 100.0
		One align captures most of this contig: 3878 4895 | 1018 1 | 1018 1018 | 100.0 | gi_749295865_ref_NZ_CP008830.1__Klebsiella_pneumoniae_subsp._pneumoniae_KPNIH1_plasmid_pKpQIL-6e6__complete_sequence NODE_49_length_1018_cov_35_component_0

CONTIG: NODE_50_length_964_cov_36.8918_component_0 (964bp)
Top Length: 964  Top ID: 98.96
		One align captures most of this contig: 96014 96977 | 964 1 | 964 964 | 98.96 | gi_749295865_ref_NZ_CP008830.1__Klebsiella_pneumoniae_subsp._pneumoniae_KPNIH1_plasmid_pKpQIL-6e6__complete_sequence NODE_50_length_964_cov_36.8918_component_0

CONTIG: NODE_51_length_961_cov_11.4593_component_0 (961bp)
Top Length: 961  Top ID: 100.0
		One align captures most of this contig: 106107 107067 | 1 961 | 961 961 | 100.0 | gi_749295865_ref_NZ_CP008830.1__Klebsiella_pneumoniae_subsp._pneumoniae_KPNIH1_plasmid_pKpQIL-6e6__complete_sequence NODE_51_length_961_cov_11.4593_component_0

CONTIG: NODE_52_length_958_cov_13.807_component_0 (958bp)
		This contig is unaligned. (958 bp)
		Unaligned bases: 958  total: 165728

CONTIG: NODE_53_length_938_cov_28.5482_component_0 (938bp)
		This contig is unaligned. (938 bp)
		Unaligned bases: 938  total: 166666

CONTIG: NODE_54_length_825_cov_15.3997_component_0 (825bp)
Top Length: 825  Top ID: 100.0
		One align captures most of this contig: 81839 82663 | 1 825 | 825 825 | 100.0 | gi_749295865_ref_NZ_CP008830.1__Klebsiella_pneumoniae_subsp._pneumoniae_KPNIH1_plasmid_pKpQIL-6e6__complete_sequence NODE_54_length_825_cov_15.3997_component_0

CONTIG: NODE_55_length_823_cov_25.252_component_0 (823bp)
Top Length: 823  Top ID: 100.0
		One align captures most of this contig: 27993 28815 | 823 1 | 823 823 | 100.0 | gi_749295865_ref_NZ_CP008830.1__Klebsiella_pneumoniae_subsp._pneumoniae_KPNIH1_plasmid_pKpQIL-6e6__complete_sequence NODE_55_length_823_cov_25.252_component_0

CONTIG: NODE_56_length_798_cov_10.0583_component_0 (798bp)
		This contig is unaligned. (798 bp)
		Unaligned bases: 798  total: 167464

CONTIG: NODE_57_length_775_cov_32.8782_component_0 (775bp)
Top Length: 775  Top ID: 100.0
		One align captures most of this contig: 90055 90829 | 775 1 | 775 775 | 100.0 | gi_749295865_ref_NZ_CP008830.1__Klebsiella_pneumoniae_subsp._pneumoniae_KPNIH1_plasmid_pKpQIL-6e6__complete_sequence NODE_57_length_775_cov_32.8782_component_0

CONTIG: NODE_58_length_720_cov_16.4152_component_0 (720bp)
		This contig is unaligned. (720 bp)
		Unaligned bases: 720  total: 168184

CONTIG: NODE_59_length_695_cov_13.8835_component_1 (695bp)
		This contig is unaligned. (695 bp)
		Unaligned bases: 695  total: 168879

CONTIG: NODE_60_length_671_cov_38.0034_component_0 (671bp)
Top Length: 671  Top ID: 99.7
		One align captures most of this contig: 89060 89730 | 1 671 | 671 671 | 99.7 | gi_749295865_ref_NZ_CP008830.1__Klebsiella_pneumoniae_subsp._pneumoniae_KPNIH1_plasmid_pKpQIL-6e6__complete_sequence NODE_60_length_671_cov_38.0034_component_0

CONTIG: NODE_61_length_608_cov_15.5179_component_0 (608bp)
Top Length: 608  Top ID: 100.0
		One align captures most of this contig: 108608 109215 | 1 608 | 608 608 | 100.0 | gi_749295865_ref_NZ_CP008830.1__Klebsiella_pneumoniae_subsp._pneumoniae_KPNIH1_plasmid_pKpQIL-6e6__complete_sequence NODE_61_length_608_cov_15.5179_component_0

CONTIG: NODE_62_length_600_cov_28.4168_component_0 (600bp)
Top Length: 600  Top ID: 99.33
		One align captures most of this contig: 82587 83186 | 600 1 | 600 600 | 99.33 | gi_749295865_ref_NZ_CP008830.1__Klebsiella_pneumoniae_subsp._pneumoniae_KPNIH1_plasmid_pKpQIL-6e6__complete_sequence NODE_62_length_600_cov_28.4168_component_0

CONTIG: NODE_63_length_580_cov_32.2147_component_0 (580bp)
Top Length: 580  Top ID: 98.97
		One align captures most of this contig: 109672 110251 | 1 580 | 580 580 | 98.97 | gi_749295865_ref_NZ_CP008830.1__Klebsiella_pneumoniae_subsp._pneumoniae_KPNIH1_plasmid_pKpQIL-6e6__complete_sequence NODE_63_length_580_cov_32.2147_component_0

CONTIG: NODE_64_length_520_cov_59.2596_component_0 (520bp)
Top Length: 520  Top ID: 99.81
		One align captures most of this contig: 27550 28069 | 1 520 | 520 520 | 99.81 | gi_749295865_ref_NZ_CP008830.1__Klebsiella_pneumoniae_subsp._pneumoniae_KPNIH1_plasmid_pKpQIL-6e6__complete_sequence NODE_64_length_520_cov_59.2596_component_0

Analyzing coverage...
Writing SNPs into /home/mmbbio/Plasmid_Assembly/completegenomes/plasmids/KPNIH1_plasmids_references/group_3.fasta_comparison_spades/contigs_reports/nucmer_output/prediction.used_snps
	Reference gi_749295865_ref_NZ_CP008830.1__Klebsiella_pneumoniae_subsp._pneumoniae_KPNIH1_plasmid_pKpQIL-6e6__complete_sequence: 40 total alignments. 1 total regions.
		Region: 1 to 113639 (113639 bp)
			Align 1: 1 3954 NODE_18_length_5424_cov_20.5588_component_0 3954 1
				Negative gap (overlap) between this and next alignment: 3954 to 3878 (-76 bp)
				Next Alignment: 3878 4895 NODE_49_length_1018_cov_35_component_0 1018 1

			Previous gap was negative, modifying coordinates to ignore overlap
				Moving contig start from 1018 to 941.
			Align 2: 3955 4895 NODE_49_length_1018_cov_35_component_0 941 1
				Negative gap (overlap) between this and next alignment: 4895 to 4819 (-76 bp)
				Next Alignment: 4819 25616 NODE_5_length_20798_cov_18.4989_component_0 20798 1

			Previous gap was negative, modifying coordinates to ignore overlap
				Moving contig start from 20798 to 20721.
			Align 3: 4896 25616 NODE_5_length_20798_cov_18.4989_component_0 20721 1
				Gap between this and next alignment: 25616 to 26283 (666 bp)
				Next Alignment: 26283 27626 NODE_37_length_1344_cov_23.9361_component_0 1 1344

			Align 4: 26283 27626 NODE_37_length_1344_cov_23.9361_component_0 1 1344
				Negative gap (overlap) between this and next alignment: 27626 to 27550 (-76 bp)
				Next Alignment: 27550 28069 NODE_64_length_520_cov_59.2596_component_0 1 520

			Previous gap was negative, modifying coordinates to ignore overlap
				Moving contig start from 1 to 78.
			Align 5: 27627 28069 NODE_64_length_520_cov_59.2596_component_0 78 520
				Negative gap (overlap) between this and next alignment: 28069 to 27993 (-76 bp)
				Next Alignment: 27993 28815 NODE_55_length_823_cov_25.252_component_0 823 1

			Previous gap was negative, modifying coordinates to ignore overlap
				Moving contig start from 823 to 746.
			Align 6: 28070 28815 NODE_55_length_823_cov_25.252_component_0 746 1
				Gap between this and next alignment: 28815 to 30766 (1950 bp)
				Next Alignment: 30766 41565 NODE_8_length_11816_cov_18.3336_component_0 1017 11816

			Align 7: 30766 41565 NODE_8_length_11816_cov_18.3336_component_0 1017 11816
				Gap between this and next alignment: 41565 to 41792 (226 bp)
				Next Alignment: 41792 63326 NODE_4_length_21535_cov_19.8846_component_0 1 21535

			Align 8: 41792 63326 NODE_4_length_21535_cov_19.8846_component_0 1 21535
				Negative gap (overlap) between this and next alignment: 63326 to 63033 (-293 bp)
				Next Alignment: 63033 64146 NODE_1_length_56873_cov_26.336_component_0 55760 56873

			Previous gap was negative, modifying coordinates to ignore overlap
				Moving contig start from 55760 to 56054.
			Align 9: 63327 64146 NODE_1_length_56873_cov_26.336_component_0 56054 56873
				Gap between this and next alignment: 64146 to 64321 (174 bp)
				Next Alignment: 64321 67539 NODE_9_length_10838_cov_24.5888_component_0 10838 7619

			Align 10: 64321 67539 NODE_9_length_10838_cov_24.5888_component_0 10838 7619
				Gap between this and next alignment: 67539 to 67707 (167 bp)
				Next Alignment: 67707 73023 NODE_19_length_5317_cov_21.888_component_0 5317 1

			Align 11: 67707 73023 NODE_19_length_5317_cov_21.888_component_0 5317 1
				Gap between this and next alignment: 73023 to 73876 (852 bp)
				Next Alignment: 73876 76196 NODE_28_length_2321_cov_17.8409_component_0 2321 1

			Align 12: 73876 76196 NODE_28_length_2321_cov_17.8409_component_0 2321 1
				Negative gap (overlap) between this and next alignment: 76196 to 76120 (-76 bp)
				Next Alignment: 76120 81210 NODE_20_length_5091_cov_26.1089_component_0 1 5091

			Previous gap was negative, modifying coordinates to ignore overlap
				Moving contig start from 1 to 78.
			Align 13: 76197 81210 NODE_20_length_5091_cov_26.1089_component_0 78 5091
				Gap between this and next alignment: 81210 to 81388 (177 bp)
				Next Alignment: 81388 82663 NODE_39_length_1276_cov_19.1334_component_0 1 1276

			Align 14: 81388 82663 NODE_39_length_1276_cov_19.1334_component_0 1 1276
				The next alignment (81839 82663 NODE_54_length_825_cov_15.3997_component_0 1 825) is redundant. Skipping.
				Negative gap (overlap) between this and next alignment: 82663 to 82587 (-76 bp)
				Next Alignment: 82587 83186 NODE_62_length_600_cov_28.4168_component_0 600 1

			Previous gap was negative, modifying coordinates to ignore overlap
				Moving contig start from 600 to 523.
			Align 16: 82664 83186 NODE_62_length_600_cov_28.4168_component_0 523 1
				Negative gap (overlap) between this and next alignment: 83186 to 83110 (-76 bp)
				Next Alignment: 83110 84044 NODE_13_length_6585_cov_20.5426_component_0 1 935

			Previous gap was negative, modifying coordinates to ignore overlap
				Moving contig start from 1 to 78.
			Align 17: 83187 84044 NODE_13_length_6585_cov_20.5426_component_0 78 935
				Negative gap (overlap) between this and next alignment: 84044 to 83110 (-934 bp)
				Next Alignment: 83110 88650 NODE_16_length_5541_cov_21.4369_component_0 1 5541

			Previous gap was negative, modifying coordinates to ignore overlap
				Moving contig start from 1 to 936.
			Align 18: 84045 88650 NODE_16_length_5541_cov_21.4369_component_0 936 5541
				Negative gap (overlap) between this and next alignment: 88650 to 86762 (-1888 bp)
				Next Alignment: 86762 89136 NODE_13_length_6585_cov_20.5426_component_0 4211 6585

			Previous gap was negative, modifying coordinates to ignore overlap
				Moving contig start from 4211 to 6100.
			Align 19: 88651 89136 NODE_13_length_6585_cov_20.5426_component_0 6100 6585
				Negative gap (overlap) between this and next alignment: 89136 to 89060 (-76 bp)
				Next Alignment: 89060 89730 NODE_60_length_671_cov_38.0034_component_0 1 671

			Previous gap was negative, modifying coordinates to ignore overlap
				Moving contig start from 1 to 78.
			Align 20: 89137 89730 NODE_60_length_671_cov_38.0034_component_0 78 671
				Gap between this and next alignment: 89730 to 90055 (324 bp)
				Next Alignment: 90055 90829 NODE_57_length_775_cov_32.8782_component_0 775 1

			Align 21: 90055 90829 NODE_57_length_775_cov_32.8782_component_0 775 1
				Negative gap (overlap) between this and next alignment: 90829 to 90753 (-76 bp)
				Next Alignment: 90753 91886 NODE_44_length_1134_cov_19.1769_component_0 1134 1

			Previous gap was negative, modifying coordinates to ignore overlap
				Moving contig start from 1134 to 1057.
			Align 22: 90830 91886 NODE_44_length_1134_cov_19.1769_component_0 1057 1
				Negative gap (overlap) between this and next alignment: 91886 to 91810 (-76 bp)
				Next Alignment: 91810 93001 NODE_24_length_2988_cov_33.9282_component_0 2988 1797

			Previous gap was negative, modifying coordinates to ignore overlap
				Moving contig start from 2988 to 2911.
			Align 23: 91887 93001 NODE_24_length_2988_cov_33.9282_component_0 2911 1797
				Gap between this and next alignment: 93001 to 93189 (187 bp)
				Next Alignment: 93189 94797 NODE_24_length_2988_cov_33.9282_component_0 1609 1

			Align 24: 93189 94797 NODE_24_length_2988_cov_33.9282_component_0 1609 1
				Negative gap (overlap) between this and next alignment: 94797 to 94721 (-76 bp)
				Next Alignment: 94721 96090 NODE_36_length_1370_cov_18.1423_component_0 1 1370

			Previous gap was negative, modifying coordinates to ignore overlap
				Moving contig start from 1 to 78.
			Align 25: 94798 96090 NODE_36_length_1370_cov_18.1423_component_0 78 1370
				The next alignment (95525 96090 NODE_38_length_1341_cov_19.5593_component_0 776 1341) is redundant. Skipping.
				Negative gap (overlap) between this and next alignment: 96090 to 96014 (-76 bp)
				Next Alignment: 96014 96977 NODE_50_length_964_cov_36.8918_component_0 964 1

			Previous gap was negative, modifying coordinates to ignore overlap
				Moving contig start from 964 to 887.
			Align 27: 96091 96977 NODE_50_length_964_cov_36.8918_component_0 887 1
				Negative gap (overlap) between this and next alignment: 96977 to 96901 (-76 bp)
				Next Alignment: 96901 98056 NODE_42_length_1156_cov_18.6015_component_0 1 1156

			Previous gap was negative, modifying coordinates to ignore overlap
				Moving contig start from 1 to 78.
			Align 28: 96978 98056 NODE_42_length_1156_cov_18.6015_component_0 78 1156
				The next alignment (96901 97408 NODE_45_length_1103_cov_19.8587_component_0 1 508) is redundant. Skipping.
				Negative gap (overlap) between this and next alignment: 98056 to 97980 (-76 bp)
				Next Alignment: 97980 100431 NODE_26_length_2452_cov_40.6371_component_0 2452 1

			Previous gap was negative, modifying coordinates to ignore overlap
				Moving contig start from 2452 to 2375.
			Align 30: 98057 100431 NODE_26_length_2452_cov_40.6371_component_0 2375 1
				Negative gap (overlap) between this and next alignment: 100431 to 100355 (-76 bp)
				Next Alignment: 100355 105952 NODE_15_length_5598_cov_23.9634_component_0 5598 1

			Previous gap was negative, modifying coordinates to ignore overlap
				Moving contig start from 5598 to 5521.
			Align 31: 100432 105952 NODE_15_length_5598_cov_23.9634_component_0 5521 1
				The next alignment (104539 105952 NODE_21_length_4926_cov_22.4729_component_0 1414 1) is redundant. Skipping.
				Gap between this and next alignment: 105952 to 106107 (154 bp)
				Next Alignment: 106107 107067 NODE_51_length_961_cov_11.4593_component_0 1 961

			Align 33: 106107 107067 NODE_51_length_961_cov_11.4593_component_0 1 961
				Negative gap (overlap) between this and next alignment: 107067 to 106991 (-76 bp)
				Next Alignment: 106991 108684 NODE_32_length_1694_cov_32.4187_component_0 1694 1

			Previous gap was negative, modifying coordinates to ignore overlap
				Moving contig start from 1694 to 1617.
			Align 34: 107068 108684 NODE_32_length_1694_cov_32.4187_component_0 1617 1
				Negative gap (overlap) between this and next alignment: 108684 to 108608 (-76 bp)
				Next Alignment: 108608 109748 NODE_43_length_1141_cov_16.2378_component_0 1 1141

			Previous gap was negative, modifying coordinates to ignore overlap
				Moving contig start from 1 to 78.
			Align 35: 108685 109748 NODE_43_length_1141_cov_16.2378_component_0 78 1141
				The next alignment (108608 109215 NODE_61_length_608_cov_15.5179_component_0 1 608) is redundant. Skipping.
				Negative gap (overlap) between this and next alignment: 109748 to 109672 (-76 bp)
				Next Alignment: 109672 110251 NODE_63_length_580_cov_32.2147_component_0 1 580

			Previous gap was negative, modifying coordinates to ignore overlap
				Moving contig start from 1 to 78.
			Align 37: 109749 110251 NODE_63_length_580_cov_32.2147_component_0 78 580
				Gap between this and next alignment: 110251 to 112170 (1918 bp)
				Next Alignment: 112170 112972 NODE_12_length_7491_cov_20.2083_component_0 7491 6690

			Align 38: 112170 112972 NODE_12_length_7491_cov_20.2083_component_0 7491 6690
				Negative gap (overlap) between this and next alignment: 112972 to 112170 (-802 bp)
				Next Alignment: 112170 113639 NODE_18_length_5424_cov_20.5588_component_0 5424 3955

			Previous gap was negative, modifying coordinates to ignore overlap
				Moving contig start from 5424 to 4621.
			Align 39: 112973 113639 NODE_18_length_5424_cov_20.5588_component_0 4621 3955
			END in current alignment.  Modifying 113639 to 113639.

Analysis is finished!
Founded SNPs were written into /home/mmbbio/Plasmid_Assembly/completegenomes/plasmids/KPNIH1_plasmids_references/group_3.fasta_comparison_spades/contigs_reports/nucmer_output/prediction.used_snps

Results:
	Local Misassemblies: 1
	Misassemblies: 0
		Relocations: 0
		Translocations: 0
		Inversions: 0
	Misassembled Contigs: 0
	Misassembled Contig Bases: 0
	Misassemblies Inter-Contig Overlap: 0
Uncovered Regions: 0 (0)
Unaligned Contigs: 28 + 7 part
Partially Unaligned Contigs with Misassemblies: 1
Unaligned Contig Bases: 244280

Ambiguously Mapped Contigs: 0
Extra Bases in Ambiguously Mapped Contigs: 0
Note that --allow-ambiguity option was set to "all" and each of these contigs was used several times.

	Covered Bases: 106844

	SNPs: 220
	Insertions: 2
	Deletions: 2

	Positive Gaps: 11
		Internal Gaps:  1
		External Gaps:  10
		External Gap Total:  6608
		External Gap Average: 661
	Negative Gaps: 22
		Internal Overlaps:  0
		External Overlaps:  22
		External Overlaps Total: -5285
		External Overlaps Average: -240
	Contigs with Redundant Alignments: 5 (3921)
