Assembly	prediction
# misassemblies	0
    # relocations	0
    # translocations	0
    # inversions	0
# misassembled contigs	0
Misassembled contigs length	0
# local misassemblies	1
# mismatches	220
# indels	4
    # short indels	4
    # long indels	0
Indels length	4
