Assembly	prediction
# contigs (>= 0 bp)	3
# contigs (>= 1000 bp)	3
# contigs (>= 5000 bp)	3
# contigs (>= 10000 bp)	3
# contigs (>= 25000 bp)	2
# contigs (>= 50000 bp)	2
Total length (>= 0 bp)	179024
Total length (>= 1000 bp)	179024
Total length (>= 5000 bp)	179024
Total length (>= 10000 bp)	179024
Total length (>= 25000 bp)	168500
Total length (>= 50000 bp)	168500
# contigs	3
Largest contig	94266
Total length	179024
Reference length	224457
GC (%)	51.36
Reference GC (%)	52.48
N50	94266
NG50	74234
N75	74234
NG75	74234
L50	1
LG50	2
L75	2
LG75	2
# misassemblies	1
# misassembled contigs	1
Misassembled contigs length	94266
# local misassemblies	0
# unaligned contigs	2 + 0 part
Unaligned length	84758
Genome fraction (%)	42.263
Duplication ratio	1.000
# N's per 100 kbp	0.00
# mismatches per 100 kbp	9.49
# indels per 100 kbp	2.11
Largest alignment	64455
NA50	29811
NGA50	-
LA50	2
