Assembly	prediction
# fully unaligned contigs	57
Fully unaligned length	806136
# partially unaligned contigs	0
    # with misassembly	0
    # both parts are significant	0
Partially unaligned length	0
# N's	0
