S1	E1	S2	E2	Reference	Contig	IDY	Ambiguous
CONTIG	RNODE_1_length_3770_cov_642.31500	3770	unaligned
CONTIG	RNODE_3_length_5386_cov_37.06310	5386	unaligned
CONTIG	RNODE_5_length_21094_cov_32.42258	21094	unaligned
CONTIG	RNODE_6_length_19708_cov_21.12683	19708	unaligned
74887	111693	1	36807	gi_749295932_ref_NZ_CP008931.1__Klebsiella_pneumoniae_strain_PMK1_plasmid_pPMK1-B__complete_sequence	RNODE_4_length_111693_cov_31.87740	100.0	
fake misassembly (linear representation of circular genome)
1	74886	36808	111693	gi_749295932_ref_NZ_CP008931.1__Klebsiella_pneumoniae_strain_PMK1_plasmid_pPMK1-B__complete_sequence	RNODE_4_length_111693_cov_31.87740	100.0	
CONTIG	RNODE_4_length_111693_cov_31.87740	111693	correct
CONTIG	RNODE_2_length_5640_cov_477.78000	5640	unaligned
CONTIG	RNODE_7_length_9453_cov_21.34252	9453	unaligned
