1: PREPARING DATA
2,3: RUNNING mummer AND CREATING CLUSTERS
# reading input file "/home/mmbbio/Plasmid_Assembly/completegenomes/plasmids/KPNIH1_plasmids_references/group_3.fasta_comparison_plasmidfinder/contigs_reports/nucmer_output/prediction.ntref" of length 113640
# construct suffix tree for sequence of length 113640
# (maximum reference length is 536870908)
# (maximum query length is 4294967295)
# process 1136 characters per dot
#....................................................................................................
# CONSTRUCTIONTIME /home/mmbbio/Plasmid_Assembly/programmes/quast-4.1/libs/MUMmer3.23-linux/mummer /home/mmbbio/Plasmid_Assembly/completegenomes/plasmids/KPNIH1_plasmids_references/group_3.fasta_comparison_plasmidfinder/contigs_reports/nucmer_output/prediction.ntref 0.02
# reading input file "/home/mmbbio/Plasmid_Assembly/completegenomes/plasmids/KPNIH1_plasmids_references/group_3.fasta_comparison_plasmidfinder/quast_corrected_input/prediction.fas" of length 75268
# matching query-file "/home/mmbbio/Plasmid_Assembly/completegenomes/plasmids/KPNIH1_plasmids_references/group_3.fasta_comparison_plasmidfinder/quast_corrected_input/prediction.fas"
# against subject-file "/home/mmbbio/Plasmid_Assembly/completegenomes/plasmids/KPNIH1_plasmids_references/group_3.fasta_comparison_plasmidfinder/contigs_reports/nucmer_output/prediction.ntref"
# COMPLETETIME /home/mmbbio/Plasmid_Assembly/programmes/quast-4.1/libs/MUMmer3.23-linux/mummer /home/mmbbio/Plasmid_Assembly/completegenomes/plasmids/KPNIH1_plasmids_references/group_3.fasta_comparison_plasmidfinder/contigs_reports/nucmer_output/prediction.ntref 0.04
# SPACE /home/mmbbio/Plasmid_Assembly/programmes/quast-4.1/libs/MUMmer3.23-linux/mummer /home/mmbbio/Plasmid_Assembly/completegenomes/plasmids/KPNIH1_plasmids_references/group_3.fasta_comparison_plasmidfinder/contigs_reports/nucmer_output/prediction.ntref 0.18
4: FINISHING DATA
