Assembly	prediction
# contigs (>= 0 bp)	7
# contigs (>= 1000 bp)	7
# contigs (>= 5000 bp)	3
# contigs (>= 10000 bp)	2
# contigs (>= 25000 bp)	2
# contigs (>= 50000 bp)	1
Total length (>= 0 bp)	284496
Total length (>= 1000 bp)	284496
Total length (>= 5000 bp)	273682
Total length (>= 10000 bp)	264229
Total length (>= 25000 bp)	264229
Total length (>= 50000 bp)	220608
# contigs	7
Largest contig	220608
Total length	284496
Reference length	130719
GC (%)	56.80
Reference GC (%)	51.65
N50	220608
NG50	220608
N75	220608
NG75	220608
L50	1
LG50	1
L75	1
LG75	1
# unaligned contigs	7 + 0 part
Unaligned length	284496
# N's per 100 kbp	0.00
NGA50	-
