Assembly	prediction
# contigs (>= 0 bp)	1
# contigs (>= 1000 bp)	1
# contigs (>= 5000 bp)	0
# contigs (>= 10000 bp)	0
# contigs (>= 25000 bp)	0
# contigs (>= 50000 bp)	0
Total length (>= 0 bp)	3408
Total length (>= 1000 bp)	3408
Total length (>= 5000 bp)	0
Total length (>= 10000 bp)	0
Total length (>= 25000 bp)	0
Total length (>= 50000 bp)	0
# contigs	1
Largest contig	3408
Total length	3408
Reference length	133484
GC (%)	43.28
Reference GC (%)	52.50
N50	3408
N75	3408
L50	1
L75	1
# unaligned contigs	1 + 0 part
Unaligned length	3408
# N's per 100 kbp	0.00
NGA50	-
