All statistics are based on contigs of size >= 500 bp, unless otherwise noted (e.g., "# contigs (>= 0 bp)" and "Total length (>= 0 bp)" include all contigs).

Assembly    # contigs (>= 0 bp)  # contigs (>= 1000 bp)  # contigs (>= 5000 bp)  # contigs (>= 10000 bp)  # contigs (>= 25000 bp)  # contigs (>= 50000 bp)  Total length (>= 0 bp)  Total length (>= 1000 bp)  Total length (>= 5000 bp)  Total length (>= 10000 bp)  Total length (>= 25000 bp)  Total length (>= 50000 bp)  # contigs  Largest contig  Total length  Reference length  GC (%)  Reference GC (%)  N50     NG50    N75    NG75    L50  LG50  L75  LG75  # unaligned contigs  Unaligned length  # N's per 100 kbp  NGA50
prediction  2                    2                       2                       2                        2                        2                        171670                  171670                     171670                     171670                      171670                      171670                      2          112462          171670        111395            53.41   48.87             112462  112462  59208  112462  1    1     2    1     2 + 0 part           171670            0.00               -    
