Assembly	PMK1_cbar_recall
# misassemblies	0
    # relocations	0
    # translocations	0
    # inversions	0
# misassembled contigs	0
Misassembled contigs length	0
# local misassemblies	0
# mismatches	70
# indels	7
    # short indels	5
    # long indels	2
Indels length	62
