Assembly	prediction
# contigs (>= 0 bp)	4
# contigs (>= 1000 bp)	4
# contigs (>= 5000 bp)	4
# contigs (>= 10000 bp)	3
# contigs (>= 25000 bp)	2
# contigs (>= 50000 bp)	1
Total length (>= 0 bp)	131285
Total length (>= 1000 bp)	131285
Total length (>= 5000 bp)	131285
Total length (>= 10000 bp)	125450
Total length (>= 25000 bp)	108871
Total length (>= 50000 bp)	65173
# contigs	4
Largest contig	65173
Total length	131285
Reference length	43621
GC (%)	49.92
Reference GC (%)	48.27
N50	43698
NG50	65173
N75	43698
NG75	65173
L50	2
LG50	1
L75	2
LG75	1
# misassemblies	0
# misassembled contigs	0
Misassembled contigs length	0
# local misassemblies	0
# unaligned contigs	3 + 0 part
Unaligned length	87587
Genome fraction (%)	100.000
Duplication ratio	1.002
# N's per 100 kbp	0.00
# mismatches per 100 kbp	0.00
# indels per 100 kbp	0.00
Largest alignment	43698
NGA50	43698
NGA75	43698
LGA50	1
LGA75	1
