Nucmer: nothing aligned for /home/mmbbio/Plasmid_Assembly/completegenomes/plasmids/CAV1392_plasmids_references/group_3.fasta_comparison_recycler/quast_corrected_input/prediction.fas
parison_recycler/contigs_reports/nucmer_output/prediction.ntref" of length 130720
# construct suffix tree for sequence of length 130720
# (maximum reference length is 536870908)
# (maximum query length is 4294967295)
# process 1307 characters per dot
#....................................................................................................
# CONSTRUCTIONTIME /home/mmbbio/Plasmid_Assembly/programmes/quast-4.1/libs/MUMmer3.23-linux/mummer /home/mmbbio/Plasmid_Assembly/completegenomes/plasmids/CAV1392_plasmids_references/group_3.fasta_comparison_recycler/contigs_reports/nucmer_output/prediction.ntref 0.02
# reading input file "/home/mmbbio/Plasmid_Assembly/completegenomes/plasmids/CAV1392_plasmids_references/group_3.fasta_comparison_recycler/quast_corrected_input/prediction.fas" of length 284502
# matching query-file "/home/mmbbio/Plasmid_Assembly/completegenomes/plasmids/CAV1392_plasmids_references/group_3.fasta_comparison_recycler/quast_corrected_input/prediction.fas"
# against subject-file "/home/mmbbio/Plasmid_Assembly/completegenomes/plasmids/CAV1392_plasmids_references/group_3.fasta_comparison_recycler/contigs_reports/nucmer_output/prediction.ntref"
# COMPLETETIME /home/mmbbio/Plasmid_Assembly/programmes/quast-4.1/libs/MUMmer3.23-linux/mummer /home/mmbbio/Plasmid_Assembly/completegenomes/plasmids/CAV1392_plasmids_references/group_3.fasta_comparison_recycler/contigs_reports/nucmer_output/prediction.ntref 0.10
# SPACE /home/mmbbio/Plasmid_Assembly/programmes/quast-4.1/libs/MUMmer3.23-linux/mummer /home/mmbbio/Plasmid_Assembly/completegenomes/plasmids/CAV1392_plasmids_references/group_3.fasta_comparison_recycler/contigs_reports/nucmer_output/prediction.ntref 0.40
4: FINISHING DATA
