Assembly	prediction
# fully unaligned contigs	5
Fully unaligned length	247150
# partially unaligned contigs	0
    # with misassembly	0
    # both parts are significant	0
Partially unaligned length	0
# N's	0
