S1	E1	S2	E2	Reference	Contig	IDY	Ambiguous
CONTIG	NODE_20_length_92135_cov_125.157	92135	unaligned
CONTIG	NODE_29_length_66828_cov_123.257	66828	unaligned
95706	140758	1	45053	gi_757692139_ref_NZ_CP007734.1__Klebsiella_pneumoniae_subsp._pneumoniae_KPNIH27_plasmid_pKPN-262__complete_sequence	NODE_32_length_57003_cov_75.9163	99.98	
local misassembly
140437	152357	45083	57003	gi_757692139_ref_NZ_CP007734.1__Klebsiella_pneumoniae_subsp._pneumoniae_KPNIH27_plasmid_pKPN-262__complete_sequence	NODE_32_length_57003_cov_75.9163	99.91	
CONTIG	NODE_32_length_57003_cov_75.9163	57003	correct
270244	320611	1	50368	gi_757692139_ref_NZ_CP007734.1__Klebsiella_pneumoniae_subsp._pneumoniae_KPNIH27_plasmid_pKPN-262__complete_sequence	NODE_34_length_50368_cov_69.8803	99.99	
CONTIG	NODE_34_length_50368_cov_69.8803	50368	correct
CONTIG	NODE_50_length_27875_cov_101.575	27875	unaligned
210552	211320	2344	1576	gi_757692139_ref_NZ_CP007734.1__Klebsiella_pneumoniae_subsp._pneumoniae_KPNIH27_plasmid_pKPN-262__complete_sequence	NODE_51_length_27779_cov_126.061	95.19	
CONTIG	NODE_51_length_27779_cov_126.061	27779	correct
64249	91973	27725	1	gi_757692139_ref_NZ_CP007734.1__Klebsiella_pneumoniae_subsp._pneumoniae_KPNIH27_plasmid_pKPN-262__complete_sequence	NODE_52_length_27725_cov_73.6199	99.99	
CONTIG	NODE_52_length_27725_cov_73.6199	27725	correct
CONTIG	NODE_54_length_26762_cov_124.95	26762	unaligned
CONTIG	NODE_57_length_21680_cov_132.807	21680	unaligned
251651	269684	1	18034	gi_757692139_ref_NZ_CP007734.1__Klebsiella_pneumoniae_subsp._pneumoniae_KPNIH27_plasmid_pKPN-262__complete_sequence	NODE_60_length_18034_cov_61.0516	100.0	
CONTIG	NODE_60_length_18034_cov_61.0516	18034	correct
CONTIG	NODE_63_length_13736_cov_80.5581	13736	unaligned
CONTIG	NODE_65_length_13224_cov_76.3183	13224	unaligned
1	2004	2004	1	gi_757692139_ref_NZ_CP007734.1__Klebsiella_pneumoniae_subsp._pneumoniae_KPNIH27_plasmid_pKPN-262__complete_sequence	NODE_68_length_12608_cov_72.7815	100.0	
fake misassembly (linear representation of circular genome)
328247	338850	12608	2005	gi_757692139_ref_NZ_CP007734.1__Klebsiella_pneumoniae_subsp._pneumoniae_KPNIH27_plasmid_pKPN-262__complete_sequence	NODE_68_length_12608_cov_72.7815	100.0	
CONTIG	NODE_68_length_12608_cov_72.7815	12608	correct
88886	89971	3414	2329	gi_757692139_ref_NZ_CP007734.1__Klebsiella_pneumoniae_subsp._pneumoniae_KPNIH27_plasmid_pKPN-262__complete_sequence	NODE_69_length_12600_cov_83.3016	96.32	
CONTIG	NODE_69_length_12600_cov_83.3016	12600	correct
CONTIG	NODE_72_length_11778_cov_116.867	11778	unaligned
2947	13739	1	10793	gi_757692139_ref_NZ_CP007734.1__Klebsiella_pneumoniae_subsp._pneumoniae_KPNIH27_plasmid_pKPN-262__complete_sequence	NODE_75_length_10793_cov_68.4271	100.0	
CONTIG	NODE_75_length_10793_cov_68.4271	10793	correct
CONTIG	NODE_76_length_9226_cov_146.236	9226	unaligned
CONTIG	NODE_78_length_8747_cov_78.5682	8747	unaligned
320474	324479	4007	1	gi_757692139_ref_NZ_CP007734.1__Klebsiella_pneumoniae_subsp._pneumoniae_KPNIH27_plasmid_pKPN-262__complete_sequence	NODE_81_length_7303_cov_69.6777	99.95	
relocation, inconsistency = 303462
13714	17582	7303	3437	gi_757692139_ref_NZ_CP007734.1__Klebsiella_pneumoniae_subsp._pneumoniae_KPNIH27_plasmid_pKPN-262__complete_sequence	NODE_81_length_7303_cov_69.6777	99.66	
CONTIG	NODE_81_length_7303_cov_69.6777	7303	misassembled
181086	187663	6578	1	gi_757692139_ref_NZ_CP007734.1__Klebsiella_pneumoniae_subsp._pneumoniae_KPNIH27_plasmid_pKPN-262__complete_sequence	NODE_82_length_6578_cov_64.5702	100.0	
CONTIG	NODE_82_length_6578_cov_64.5702	6578	correct
30412	36741	1	6287	gi_757692139_ref_NZ_CP007734.1__Klebsiella_pneumoniae_subsp._pneumoniae_KPNIH27_plasmid_pKPN-262__complete_sequence	NODE_83_length_6287_cov_86.5853	99.27	
CONTIG	NODE_83_length_6287_cov_86.5853	6287	correct
CONTIG	NODE_86_length_5662_cov_110.901	5662	unaligned
CONTIG	NODE_87_length_5657_cov_81.4048	5657	unaligned
CONTIG	NODE_88_length_5595_cov_71.346	5595	unaligned
14348	16382	4806	2771	gi_757692139_ref_NZ_CP007734.1__Klebsiella_pneumoniae_subsp._pneumoniae_KPNIH27_plasmid_pKPN-262__complete_sequence	NODE_90_length_5444_cov_84.1412	96.02	
CONTIG	NODE_90_length_5444_cov_84.1412	5444	correct
CONTIG	NODE_92_length_4949_cov_132.613	4949	unaligned
CONTIG	NODE_93_length_4854_cov_121.922	4854	unaligned
CONTIG	NODE_94_length_4726_cov_79.2433	4726	unaligned
CONTIG	NODE_95_length_4557_cov_78.5859	4557	unaligned
CONTIG	NODE_96_length_4463_cov_108.863	4463	unaligned
CONTIG	NODE_99_length_4251_cov_75.9368	4251	unaligned
CONTIG	NODE_102_length_4014_cov_110.954	4014	unaligned
CONTIG	NODE_105_length_3842_cov_77.3097	3842	unaligned
CONTIG	NODE_107_length_3664_cov_375.094	3664	unaligned
58864	62500	3637	1	gi_757692139_ref_NZ_CP007734.1__Klebsiella_pneumoniae_subsp._pneumoniae_KPNIH27_plasmid_pKPN-262__complete_sequence	NODE_108_length_3637_cov_85.2916	100.0	
CONTIG	NODE_108_length_3637_cov_85.2916	3637	correct
CONTIG	NODE_111_length_3577_cov_138.044	3577	unaligned
215824	219226	3403	1	gi_757692139_ref_NZ_CP007734.1__Klebsiella_pneumoniae_subsp._pneumoniae_KPNIH27_plasmid_pKPN-262__complete_sequence	NODE_116_length_3403_cov_90.8334	99.97	
CONTIG	NODE_116_length_3403_cov_90.8334	3403	correct
26922	30316	1	3395	gi_757692139_ref_NZ_CP007734.1__Klebsiella_pneumoniae_subsp._pneumoniae_KPNIH27_plasmid_pKPN-262__complete_sequence	NODE_117_length_3395_cov_68.4364	100.0	
CONTIG	NODE_117_length_3395_cov_68.4364	3395	correct
CONTIG	NODE_120_length_3134_cov_226.171	3134	unaligned
55115	58068	2954	1	gi_757692139_ref_NZ_CP007734.1__Klebsiella_pneumoniae_subsp._pneumoniae_KPNIH27_plasmid_pKPN-262__complete_sequence	NODE_123_length_2954_cov_62.8036	100.0	
CONTIG	NODE_123_length_2954_cov_62.8036	2954	correct
41769	44321	2553	1	gi_757692139_ref_NZ_CP007734.1__Klebsiella_pneumoniae_subsp._pneumoniae_KPNIH27_plasmid_pKPN-262__complete_sequence	NODE_127_length_2553_cov_141.924	99.92	
CONTIG	NODE_127_length_2553_cov_141.924	2553	correct
CONTIG	NODE_128_length_2495_cov_223.397	2495	unaligned
22756	25166	2411	1	gi_757692139_ref_NZ_CP007734.1__Klebsiella_pneumoniae_subsp._pneumoniae_KPNIH27_plasmid_pKPN-262__complete_sequence	NODE_129_length_2411_cov_54.5651	100.0	
CONTIG	NODE_129_length_2411_cov_54.5651	2411	correct
39490	41845	2356	1	gi_757692139_ref_NZ_CP007734.1__Klebsiella_pneumoniae_subsp._pneumoniae_KPNIH27_plasmid_pKPN-262__complete_sequence	NODE_131_length_2356_cov_516.268	100.0	True
219197	221551	2356	1	gi_757692139_ref_NZ_CP007734.1__Klebsiella_pneumoniae_subsp._pneumoniae_KPNIH27_plasmid_pKPN-262__complete_sequence	NODE_131_length_2356_cov_516.268	99.75	True
CONTIG	NODE_131_length_2356_cov_516.268	2356	correct
91897	94151	1	2255	gi_757692139_ref_NZ_CP007734.1__Klebsiella_pneumoniae_subsp._pneumoniae_KPNIH27_plasmid_pKPN-262__complete_sequence	NODE_132_length_2255_cov_221.077	100.0	
CONTIG	NODE_132_length_2255_cov_221.077	2255	correct
17396	19440	1	2045	gi_757692139_ref_NZ_CP007734.1__Klebsiella_pneumoniae_subsp._pneumoniae_KPNIH27_plasmid_pKPN-262__complete_sequence	NODE_135_length_2045_cov_64.5315	100.0	
CONTIG	NODE_135_length_2045_cov_64.5315	2045	correct
CONTIG	NODE_138_length_1982_cov_95.4031	1982	unaligned
CONTIG	NODE_140_length_1897_cov_220.153	1897	unaligned
CONTIG	NODE_141_length_1860_cov_127.958	1860	unaligned
48755	50602	1848	1	gi_757692139_ref_NZ_CP007734.1__Klebsiella_pneumoniae_subsp._pneumoniae_KPNIH27_plasmid_pKPN-262__complete_sequence	NODE_142_length_1848_cov_99.0536	100.0	
CONTIG	NODE_142_length_1848_cov_99.0536	1848	correct
CONTIG	NODE_143_length_1840_cov_157.909	1840	unaligned
CONTIG	NODE_144_length_1762_cov_163.075	1762	unaligned
94184	95782	1599	1	gi_757692139_ref_NZ_CP007734.1__Klebsiella_pneumoniae_subsp._pneumoniae_KPNIH27_plasmid_pKPN-262__complete_sequence	NODE_147_length_1599_cov_153.135	99.87	
CONTIG	NODE_147_length_1599_cov_153.135	1599	correct
CONTIG	NODE_148_length_1579_cov_73.2017	1579	unaligned
CONTIG	NODE_150_length_1568_cov_82.2871	1568	unaligned
20327	21808	1482	1	gi_757692139_ref_NZ_CP007734.1__Klebsiella_pneumoniae_subsp._pneumoniae_KPNIH27_plasmid_pKPN-262__complete_sequence	NODE_152_length_1482_cov_106.895	99.06	
CONTIG	NODE_152_length_1482_cov_106.895	1482	correct
CONTIG	NODE_155_length_1381_cov_153.456	1381	unaligned
325692	327034	1343	1	gi_757692139_ref_NZ_CP007734.1__Klebsiella_pneumoniae_subsp._pneumoniae_KPNIH27_plasmid_pKPN-262__complete_sequence	NODE_156_length_1343_cov_229.751	100.0	
CONTIG	NODE_156_length_1343_cov_229.751	1343	correct
CONTIG	NODE_158_length_1336_cov_123.626	1336	unaligned
38279	39519	1241	1	gi_757692139_ref_NZ_CP007734.1__Klebsiella_pneumoniae_subsp._pneumoniae_KPNIH27_plasmid_pKPN-262__complete_sequence	NODE_160_length_1241_cov_70.9141	100.0	
CONTIG	NODE_160_length_1241_cov_70.9141	1241	correct
CONTIG	NODE_161_length_1233_cov_148.143	1233	unaligned
214672	215900	1	1229	gi_757692139_ref_NZ_CP007734.1__Klebsiella_pneumoniae_subsp._pneumoniae_KPNIH27_plasmid_pKPN-262__complete_sequence	NODE_162_length_1229_cov_149.004	99.43	
CONTIG	NODE_162_length_1229_cov_149.004	1229	correct
CONTIG	NODE_163_length_1208_cov_317.883	1208	unaligned
37162	38355	1194	1	gi_757692139_ref_NZ_CP007734.1__Klebsiella_pneumoniae_subsp._pneumoniae_KPNIH27_plasmid_pKPN-262__complete_sequence	NODE_164_length_1194_cov_99.615	100.0	
CONTIG	NODE_164_length_1194_cov_99.615	1194	correct
CONTIG	NODE_165_length_1079_cov_90.5798	1079	unaligned
CONTIG	NODE_167_length_1058_cov_158.947	1058	unaligned
CONTIG	NODE_172_length_951_cov_153.077	951	unaligned
57992	58940	1	949	gi_757692139_ref_NZ_CP007734.1__Klebsiella_pneumoniae_subsp._pneumoniae_KPNIH27_plasmid_pKPN-262__complete_sequence	NODE_173_length_949_cov_129.368	100.0	
CONTIG	NODE_173_length_949_cov_129.368	949	correct
50922	51809	888	1	gi_757692139_ref_NZ_CP007734.1__Klebsiella_pneumoniae_subsp._pneumoniae_KPNIH27_plasmid_pKPN-262__complete_sequence	NODE_176_length_888_cov_432.541	100.0	
CONTIG	NODE_176_length_888_cov_432.541	888	correct
26115	26998	1	884	gi_757692139_ref_NZ_CP007734.1__Klebsiella_pneumoniae_subsp._pneumoniae_KPNIH27_plasmid_pKPN-262__complete_sequence	NODE_177_length_884_cov_306.269	99.77	
CONTIG	NODE_177_length_884_cov_306.269	884	correct
CONTIG	NODE_178_length_846_cov_155.326	846	unaligned
243097	243937	1	841	gi_757692139_ref_NZ_CP007734.1__Klebsiella_pneumoniae_subsp._pneumoniae_KPNIH27_plasmid_pKPN-262__complete_sequence	NODE_179_length_841_cov_274.466	100.0	True
249828	250668	841	1	gi_757692139_ref_NZ_CP007734.1__Klebsiella_pneumoniae_subsp._pneumoniae_KPNIH27_plasmid_pKPN-262__complete_sequence	NODE_179_length_841_cov_274.466	100.0	True
CONTIG	NODE_179_length_841_cov_274.466	841	correct
152973	153753	781	1	gi_757692139_ref_NZ_CP007734.1__Klebsiella_pneumoniae_subsp._pneumoniae_KPNIH27_plasmid_pKPN-262__complete_sequence	NODE_180_length_781_cov_61.2188	100.0	
CONTIG	NODE_180_length_781_cov_61.2188	781	correct
324995	325768	774	1	gi_757692139_ref_NZ_CP007734.1__Klebsiella_pneumoniae_subsp._pneumoniae_KPNIH27_plasmid_pKPN-262__complete_sequence	NODE_181_length_774_cov_76.3501	100.0	
CONTIG	NODE_181_length_774_cov_76.3501	774	correct
63557	64325	769	1	gi_757692139_ref_NZ_CP007734.1__Klebsiella_pneumoniae_subsp._pneumoniae_KPNIH27_plasmid_pKPN-262__complete_sequence	NODE_182_length_769_cov_346.445	100.0	True
152281	153049	1	769	gi_757692139_ref_NZ_CP007734.1__Klebsiella_pneumoniae_subsp._pneumoniae_KPNIH27_plasmid_pKPN-262__complete_sequence	NODE_182_length_769_cov_346.445	100.0	True
CONTIG	NODE_182_length_769_cov_346.445	769	correct
CONTIG	NODE_183_length_746_cov_269.502	746	unaligned
19364	20092	1	728	gi_757692139_ref_NZ_CP007734.1__Klebsiella_pneumoniae_subsp._pneumoniae_KPNIH27_plasmid_pKPN-262__complete_sequence	NODE_185_length_728_cov_146.134	99.18	
CONTIG	NODE_185_length_728_cov_146.134	728	correct
269608	270320	713	1	gi_757692139_ref_NZ_CP007734.1__Klebsiella_pneumoniae_subsp._pneumoniae_KPNIH27_plasmid_pKPN-262__complete_sequence	NODE_188_length_713_cov_130.626	100.0	
CONTIG	NODE_188_length_713_cov_130.626	713	correct
CONTIG	NODE_191_length_684_cov_81.0725	684	unaligned
CONTIG	NODE_192_length_682_cov_323.288	682	unaligned
324403	325071	1	669	gi_757692139_ref_NZ_CP007734.1__Klebsiella_pneumoniae_subsp._pneumoniae_KPNIH27_plasmid_pKPN-262__complete_sequence	NODE_197_length_669_cov_159.15	97.61	
CONTIG	NODE_197_length_669_cov_159.15	669	correct
CONTIG	NODE_198_length_653_cov_86.1476	653	unaligned
54416	55058	643	1	gi_757692139_ref_NZ_CP007734.1__Klebsiella_pneumoniae_subsp._pneumoniae_KPNIH27_plasmid_pKPN-262__complete_sequence	NODE_199_length_643_cov_100.968	100.0	
CONTIG	NODE_199_length_643_cov_100.968	643	correct
167737	168329	1	593	gi_757692139_ref_NZ_CP007734.1__Klebsiella_pneumoniae_subsp._pneumoniae_KPNIH27_plasmid_pKPN-262__complete_sequence	NODE_206_length_593_cov_139.064	99.66	
CONTIG	NODE_206_length_593_cov_139.064	593	correct
154228	154790	563	1	gi_757692139_ref_NZ_CP007734.1__Klebsiella_pneumoniae_subsp._pneumoniae_KPNIH27_plasmid_pKPN-262__complete_sequence	NODE_209_length_563_cov_243.971	99.29	
CONTIG	NODE_209_length_563_cov_243.971	563	correct
188839	189343	505	1	gi_757692139_ref_NZ_CP007734.1__Klebsiella_pneumoniae_subsp._pneumoniae_KPNIH27_plasmid_pKPN-262__complete_sequence	NODE_211_length_505_cov_34.5514	100.0	
CONTIG	NODE_211_length_505_cov_34.5514	505	correct
