Assembly	prediction
# misassemblies	1
    # relocations	1
    # translocations	0
    # inversions	0
# misassembled contigs	1
Misassembled contigs length	7303
# local misassemblies	1
# mismatches	124
# indels	8
    # short indels	6
    # long indels	2
Indels length	92
