Aligning contigs to reference...
	Running Nucmer
Parsing coords...
Loading reference...
	Loaded [gi_828927103_gb_CP011592.1__Klebsiella_oxytoca_strain_CAV1099_plasmid_pCAV1099-5410__complete_sequence]
Loading SNPs...
Loading regions...
	No regions given, using whole reference.
	Total Regions: 1
	Total Region Length: 5410
Analyzing contigs...
CONTIG: RNODE_2_length_5432_cov_180.89900 (5410bp)
Top Length: 5259  Top ID: 100.0
		This contig is partially unaligned. (Aligned 5259 out of 5410 bases)
		Alignment: 1 5259 | 152 5410 | 5259 5259 | 100.0 | gi_828927103_gb_CP011592.1__Klebsiella_oxytoca_strain_CAV1099_plasmid_pCAV1099-5410__complete_sequence RNODE_2_length_5432_cov_180.89900
		Unaligned bases: 1 to 151 (151)

CONTIG: RNODE_3_length_36116_cov_33.46951 (36072bp)
		This contig is unaligned. (36072 bp)
		Unaligned bases: 36072  total: 36072

CONTIG: RNODE_1_length_111417_cov_36.07730 (111395bp)
		This contig is unaligned. (111395 bp)
		Unaligned bases: 111395  total: 147467

Analyzing coverage...
Writing SNPs into /home/mmbbio/Plasmid_Assembly/completegenomes/plasmids/CAV1099_plasmids_references/group_1.fasta_comparison_recycler/contigs_reports/nucmer_output/prediction.used_snps
	Reference gi_828927103_gb_CP011592.1__Klebsiella_oxytoca_strain_CAV1099_plasmid_pCAV1099-5410__complete_sequence: 1 total alignments. 1 total regions.
		Region: 1 to 5410 (5410 bp)
			Align 1: 1 5259 RNODE_2_length_5432_cov_180.89900 152 5410
			END in gap: 5259 to 5410 (151 bp)

Analysis is finished!
Founded SNPs were written into /home/mmbbio/Plasmid_Assembly/completegenomes/plasmids/CAV1099_plasmids_references/group_1.fasta_comparison_recycler/contigs_reports/nucmer_output/prediction.used_snps

Results:
	Local Misassemblies: 0
	Misassemblies: 0
		Relocations: 0
		Translocations: 0
		Inversions: 0
	Misassembled Contigs: 0
	Misassembled Contig Bases: 0
	Misassemblies Inter-Contig Overlap: 0
Uncovered Regions: 0 (0)
Unaligned Contigs: 2 + 1 part
Partially Unaligned Contigs with Misassemblies: 0
Unaligned Contig Bases: 147618

Ambiguously Mapped Contigs: 0
Extra Bases in Ambiguously Mapped Contigs: 0
Note that --allow-ambiguity option was set to "all" and each of these contigs was used several times.

	Covered Bases: 5259

	SNPs: 0
	Insertions: 0
	Deletions: 0

	Positive Gaps: 1
		Internal Gaps:  0
		External Gaps:  1
		External Gap Total:  151
		External Gap Average: 151
	Negative Gaps: 0
		Internal Overlaps:  0
		External Overlaps:  0
		External Overlaps Total:  0
		External Overlaps Average: 0
	Contigs with Redundant Alignments: 0 (0)
