Assembly	prediction
# contigs (>= 0 bp)	6
# contigs (>= 1000 bp)	6
# contigs (>= 5000 bp)	4
# contigs (>= 10000 bp)	4
# contigs (>= 25000 bp)	1
# contigs (>= 50000 bp)	1
Total length (>= 0 bp)	166687
Total length (>= 1000 bp)	166687
Total length (>= 5000 bp)	159856
Total length (>= 10000 bp)	159856
Total length (>= 25000 bp)	113130
Total length (>= 50000 bp)	113130
# contigs	6
Largest contig	113130
Total length	166687
Reference length	38384
GC (%)	49.98
Reference GC (%)	51.76
N50	113130
NG50	113130
N75	23865
NG75	113130
L50	1
LG50	1
L75	2
LG75	1
# misassemblies	0
# misassembled contigs	0
Misassembled contigs length	0
# local misassemblies	0
# unaligned contigs	4 + 0 part
Unaligned length	140928
Genome fraction (%)	66.778
Duplication ratio	1.005
# N's per 100 kbp	0.00
# mismatches per 100 kbp	15.61
# indels per 100 kbp	0.00
Largest alignment	23865
NGA50	23865
LGA50	1
