Assembly	prediction
# contigs (>= 0 bp)	2
# contigs (>= 1000 bp)	2
# contigs (>= 5000 bp)	2
# contigs (>= 10000 bp)	2
# contigs (>= 25000 bp)	1
# contigs (>= 50000 bp)	1
Total length (>= 0 bp)	78499
Total length (>= 1000 bp)	78499
Total length (>= 5000 bp)	78499
Total length (>= 10000 bp)	78499
Total length (>= 25000 bp)	56128
Total length (>= 50000 bp)	56128
# contigs	2
Largest contig	56128
Total length	78499
Reference length	243709
GC (%)	49.28
Reference GC (%)	48.09
N50	56128
N75	22371
L50	1
L75	2
# unaligned contigs	2 + 0 part
Unaligned length	78499
# N's per 100 kbp	0.00
NGA50	-
