Assembly	prediction
# contigs (>= 0 bp)	166
# contigs (>= 1000 bp)	59
# contigs (>= 5000 bp)	29
# contigs (>= 10000 bp)	19
# contigs (>= 25000 bp)	8
# contigs (>= 50000 bp)	1
Total length (>= 0 bp)	702312
Total length (>= 1000 bp)	672313
Total length (>= 5000 bp)	598016
Total length (>= 10000 bp)	530588
Total length (>= 25000 bp)	376382
Total length (>= 50000 bp)	125620
# contigs	76
Largest contig	125620
Total length	685265
Reference length	250396
GC (%)	51.41
Reference GC (%)	52.67
N50	30893
NG50	125620
N75	10536
NG75	44345
L50	7
LG50	1
L75	18
LG75	3
# misassemblies	0
# misassembled contigs	0
Misassembled contigs length	0
# local misassemblies	2
# unaligned contigs	40 + 3 part
Unaligned length	431546
Genome fraction (%)	98.040
Duplication ratio	1.048
# N's per 100 kbp	30.06
# mismatches per 100 kbp	108.36
# indels per 100 kbp	2.44
Largest alignment	45989
NGA50	13135
NGA75	9730
LGA50	5
LGA75	11
