All statistics are based on contigs of size >= 500 bp, unless otherwise noted (e.g., "# contigs (>= 0 bp)" and "Total length (>= 0 bp)" include all contigs).

Assembly                          recycler_DRR016448_assembly_graph.cycs  recycler_SRR1284629_assembly_graph.cycs  recycler_SRR1427234_assembly_graph.cycs  recycler_SRR1427243_assembly_graph.cycs  recycler_SRR1501122_assembly_graph.cycs  recycler_SRR1501128_assembly_graph.cycs  recycler_SRR1505904_assembly_graph.cycs  recycler_SRR1508819_assembly_graph.cycs  recycler_SRR1510963_assembly_graph.cycs  recycler_SRR1515967_assembly_graph.cycs  recycler_SRR1558174_assembly_graph.cycs  recycler_SRR1576778_assembly_graph.cycs  recycler_SRR1576808_assembly_graph.cycs  recycler_SRR1582868_assembly_graph.cycs  recycler_SRR1582875_assembly_graph.cycs  recycler_SRR1582895_assembly_graph.cycs  recycler_SRR2965612_assembly_graph.cycs  recycler_SRR2965616_assembly_graph.cycs  recycler_SRR2965639_assembly_graph.cycs  recycler_SRR2965655_assembly_graph.cycs  recycler_SRR2965660_assembly_graph.cycs  recycler_SRR2965672_assembly_graph.cycs  recycler_SRR2965690_assembly_graph.cycs  recycler_SRR2965721_assembly_graph.cycs  recycler_SRR2965730_assembly_graph.cycs  recycler_SRR2965739_assembly_graph.cycs  recycler_SRR2965748_assembly_graph.cycs  recycler_SRR2965752_assembly_graph.cycs  recycler_SRR2965815_assembly_graph.cycs  recycler_SRR2965820_assembly_graph.cycs  recycler_SRR3176159_assembly_graph.cycs  recycler_SRR3217430_assembly_graph.cycs  recycler_SRR3222156_assembly_graph.cycs  recycler_SRR3228444_assembly_graph.cycs  recycler_SRR3465535_assembly_graph.cycs  recycler_SRR3465539_assembly_graph.cycs  recycler_SRR3465557_assembly_graph.cycs  recycler_SRR3465562_assembly_graph.cycs  recycler_SRR522246_assembly_graph.cycs  recycler_SRR892039_assembly_graph.cycs  recycler_SRR933487_assembly_graph.cycs  recycler_SRR933489_assembly_graph.cycs
# fully unaligned contigs         4                                       1                                        1                                        2                                        2                                        2                                        6                                        7                                        3                                        2                                        2                                        6                                        7                                        3                                        5                                        7                                        6                                        7                                        3                                        2                                        3                                        2                                        2                                        6                                        2                                        5                                        1                                        1                                        8                                        7                                        3                                        4                                        1                                        1                                        2                                        1                                        4                                        7                                        2                                       0                                       9                                       15                                    
Fully unaligned length            14373                                   5410                                     2146                                     12719                                    31076                                    5233                                     56073                                    176744                                   232610                                   44743                                    51717                                    91133                                    94558                                    232209                                   39401                                    284496                                   107224                                   112766                                   152877                                   30128                                    61002                                    13194                                    180835                                   111000                                   9133                                     295662                                   13981                                    3017                                     92244                                    112766                                   20349                                    63463                                    3408                                     4167                                     8850                                     1213                                     15067                                    257779                                   34036                                   0                                       125353                                  87076                                 
# partially unaligned contigs     -                                       -                                        -                                        -                                        -                                        -                                        -                                        -                                        -                                        -                                        -                                        -                                        -                                        -                                        -                                        -                                        -                                        -                                        -                                        -                                        -                                        -                                        -                                        -                                        -                                        -                                        -                                        -                                        -                                        -                                        -                                        -                                        -                                        -                                        -                                        -                                        -                                        -                                        -                                       1                                       -                                       -                                     
    # with misassembly            -                                       -                                        -                                        -                                        -                                        -                                        -                                        -                                        -                                        -                                        -                                        -                                        -                                        -                                        -                                        -                                        -                                        -                                        -                                        -                                        -                                        -                                        -                                        -                                        -                                        -                                        -                                        -                                        -                                        -                                        -                                        -                                        -                                        -                                        -                                        -                                        -                                        -                                        -                                       0                                       -                                       -                                     
    # both parts are significant  -                                       -                                        -                                        -                                        -                                        -                                        -                                        -                                        -                                        -                                        -                                        -                                        -                                        -                                        -                                        -                                        -                                        -                                        -                                        -                                        -                                        -                                        -                                        -                                        -                                        -                                        -                                        -                                        -                                        -                                        -                                        -                                        -                                        -                                        -                                        -                                        -                                        -                                        -                                       0                                       -                                       -                                     
Partially unaligned length        -                                       -                                        -                                        -                                        -                                        -                                        -                                        -                                        -                                        -                                        -                                        -                                        -                                        -                                        -                                        -                                        -                                        -                                        -                                        -                                        -                                        -                                        -                                        -                                        -                                        -                                        -                                        -                                        -                                        -                                        -                                        -                                        -                                        -                                        -                                        -                                        -                                        -                                        -                                       334                                     -                                       -                                     
# N's                             0                                       0                                        0                                        0                                        0                                        0                                        0                                        0                                        0                                        0                                        0                                        0                                        0                                        0                                        0                                        0                                        0                                        0                                        0                                        0                                        0                                        0                                        0                                        0                                        0                                        0                                        0                                        0                                        0                                        0                                        0                                        0                                        0                                        0                                        0                                        0                                        0                                        0                                        0                                       0                                       0                                       0                                     
