Assembly	prediction
# fully unaligned contigs	28
Fully unaligned length	282386
# partially unaligned contigs	4
    # with misassembly	0
    # both parts are significant	4
Partially unaligned length	25342
# N's	0
