Assembly	prediction
# contigs (>= 0 bp)	5
# contigs (>= 1000 bp)	5
# contigs (>= 5000 bp)	4
# contigs (>= 10000 bp)	4
# contigs (>= 25000 bp)	3
# contigs (>= 50000 bp)	2
Total length (>= 0 bp)	161715
Total length (>= 1000 bp)	161715
Total length (>= 5000 bp)	157534
Total length (>= 10000 bp)	157534
Total length (>= 25000 bp)	143798
Total length (>= 50000 bp)	114983
# contigs	5
Largest contig	58861
Total length	161715
Reference length	43621
GC (%)	46.88
Reference GC (%)	48.27
N50	56122
NG50	58861
N75	28815
NG75	58861
L50	2
LG50	1
L75	3
LG75	1
# misassemblies	0
# misassembled contigs	0
Misassembled contigs length	0
# local misassemblies	0
# unaligned contigs	4 + 0 part
Unaligned length	132900
Genome fraction (%)	66.058
Duplication ratio	1.000
# N's per 100 kbp	0.00
# mismatches per 100 kbp	0.00
# indels per 100 kbp	0.00
Largest alignment	28815
NGA50	28815
LGA50	1
