Aligning contigs to reference...
	Running Nucmer
Parsing coords...
Loading reference...
	Loaded [gi_828939458_gb_CP011609.1__Citrobacter_freundii_strain_CAV1321_plasmid_pCAV1321-71__complete_sequence]
Loading SNPs...
Loading regions...
	No regions given, using whole reference.
	Total Regions: 1
	Total Region Length: 70610
Analyzing contigs...
CONTIG: NODE_25_length_56128_cov_83.0426 (56128bp)
Top Length: 43847  Top ID: 100.0
		This contig is misassembled. 2 total aligns.
			Real Alignment 1: 1 12281 | 12281 1 | 12281 12281 | 100.0 | gi_828939458_gb_CP011609.1__Citrobacter_freundii_strain_CAV1321_plasmid_pCAV1321-71__complete_sequence NODE_25_length_56128_cov_83.0426
			  Fake misassembly (caused by linear representation of circular genome) between these two alignments
			Real Alignment 2: 26764 70610 | 56128 12282 | 43847 43847 | 100.0 | gi_828939458_gb_CP011609.1__Citrobacter_freundii_strain_CAV1321_plasmid_pCAV1321-71__complete_sequence NODE_25_length_56128_cov_83.0426

CONTIG: NODE_35_length_22371_cov_78.9859 (22371bp)
		This contig is unaligned. (22371 bp)
		Unaligned bases: 22371  total: 22371

Analyzing coverage...
Writing SNPs into /home/mmbbio/Plasmid_Assembly/completegenomes/plasmids/CAV1321_plasmids_references/group_7.fasta_comparison_plasmidfinder/contigs_reports/nucmer_output/prediction.used_snps
	Reference gi_828939458_gb_CP011609.1__Citrobacter_freundii_strain_CAV1321_plasmid_pCAV1321-71__complete_sequence: 2 total alignments. 1 total regions.
		Region: 1 to 70610 (70610 bp)
			Align 1: 1 12281 NODE_25_length_56128_cov_83.0426 12281 1
				Gap between this and next alignment: 12281 to 26764 (14482 bp)
				Next Alignment: 26764 70610 NODE_25_length_56128_cov_83.0426 56128 12282

			Align 2: 26764 70610 NODE_25_length_56128_cov_83.0426 56128 12282
			END in current alignment.  Modifying 70610 to 70610.

Analysis is finished!
Founded SNPs were written into /home/mmbbio/Plasmid_Assembly/completegenomes/plasmids/CAV1321_plasmids_references/group_7.fasta_comparison_plasmidfinder/contigs_reports/nucmer_output/prediction.used_snps

Results:
	Local Misassemblies: 0
	Misassemblies: 0
		Relocations: 0
		Translocations: 0
		Inversions: 0
	Misassembled Contigs: 0
	Misassembled Contig Bases: 0
	Misassemblies Inter-Contig Overlap: 0
Uncovered Regions: 0 (0)
Unaligned Contigs: 1 + 0 part
Partially Unaligned Contigs with Misassemblies: 0
Unaligned Contig Bases: 22371

Ambiguously Mapped Contigs: 0
Extra Bases in Ambiguously Mapped Contigs: 0
Note that --allow-ambiguity option was set to "all" and each of these contigs was used several times.

	Covered Bases: 56128

	SNPs: 0
	Insertions: 0
	Deletions: 0

	Positive Gaps: 1
		Internal Gaps:  1
		External Gaps:  0
		External Gap Total:  0
		External Gap Average: 0
	Negative Gaps: 0
		Internal Overlaps:  0
		External Overlaps:  0
		External Overlaps Total:  0
		External Overlaps Average: 0
	Contigs with Redundant Alignments: 0 (0)
