Assembly	prediction
# contigs (>= 0 bp)	4
# contigs (>= 1000 bp)	4
# contigs (>= 5000 bp)	4
# contigs (>= 10000 bp)	3
# contigs (>= 25000 bp)	2
# contigs (>= 50000 bp)	1
Total length (>= 0 bp)	126447
Total length (>= 1000 bp)	126447
Total length (>= 5000 bp)	126447
Total length (>= 10000 bp)	116654
Total length (>= 25000 bp)	100522
Total length (>= 50000 bp)	65587
# contigs	4
Largest contig	65587
Total length	126447
Reference length	133484
GC (%)	53.87
Reference GC (%)	52.50
N50	65587
NG50	34935
N75	34935
NG75	34935
L50	1
LG50	2
L75	2
LG75	2
# misassemblies	0
# misassembled contigs	0
Misassembled contigs length	0
# local misassemblies	0
# unaligned contigs	1 + 2 part
Unaligned length	114123
Genome fraction (%)	8.886
Duplication ratio	1.039
# N's per 100 kbp	0.00
# mismatches per 100 kbp	252.91
# indels per 100 kbp	16.86
Largest alignment	9793
NGA50	-
