24 Nucmer: nothing aligned for /home/mmbbio/Plasmid_Assembly/completegenomes/plasmids/Corynebacterium_callunae_DSM_20147_plasmids_references/group_1.fasta_comparison_pspades/quast_corrected_input/pspades_SRR2965672_scaffolds.fasta
s_reports/nucmer_output/pspades_SRR2965672_scaffolds.ntref" of length 4110
# construct suffix tree for sequence of length 4110
# (maximum reference length is 536870908)
# (maximum query length is 4294967295)
# CONSTRUCTIONTIME /home/mmbbio/Plasmid_Assembly/programmes/quast-4.1/libs/MUMmer3.23-linux/mummer /home/mmbbio/Plasmid_Assembly/completegenomes/plasmids/Corynebacterium_callunae_DSM_20147_plasmids_references/group_1.fasta_comparison_pspades/contigs_reports/nucmer_output/pspades_SRR2965672_scaffolds.ntref 0.00
# reading input file "/home/mmbbio/Plasmid_Assembly/completegenomes/plasmids/Corynebacterium_callunae_DSM_20147_plasmids_references/group_1.fasta_comparison_pspades/quast_corrected_input/pspades_SRR2965672_scaffolds.fasta" of length 1071131
# matching query-file "/home/mmbbio/Plasmid_Assembly/completegenomes/plasmids/Corynebacterium_callunae_DSM_20147_plasmids_references/group_1.fasta_comparison_pspades/quast_corrected_input/pspades_SRR2965672_scaffolds.fasta"
# against subject-file "/home/mmbbio/Plasmid_Assembly/completegenomes/plasmids/Corynebacterium_callunae_DSM_20147_plasmids_references/group_1.fasta_comparison_pspades/contigs_reports/nucmer_output/pspades_SRR2965672_scaffolds.ntref"
# COMPLETETIME /home/mmbbio/Plasmid_Assembly/programmes/quast-4.1/libs/MUMmer3.23-linux/mummer /home/mmbbio/Plasmid_Assembly/completegenomes/plasmids/Corynebacterium_callunae_DSM_20147_plasmids_references/group_1.fasta_comparison_pspades/contigs_reports/nucmer_output/pspades_SRR2965672_scaffolds.ntref 0.18
# SPACE /home/mmbbio/Plasmid_Assembly/programmes/quast-4.1/libs/MUMmer3.23-linux/mummer /home/mmbbio/Plasmid_Assembly/completegenomes/plasmids/Corynebacterium_callunae_DSM_20147_plasmids_references/group_1.fasta_comparison_pspades/contigs_reports/nucmer_output/pspades_SRR2965672_scaffolds.ntref 1.05
4: FINISHING DATA
