S1	E1	S2	E2	Reference	Contig	IDY	Ambiguous
51587	58427	1	6841	gi_828921864_gb_CP011588.1__Enterobacter_asburiae_strain_CAV1043_plasmid_pCAV1043-58__complete_sequence	NODE_1_length_57992_cov_80.8526_component_0	100.0	
fake misassembly (linear representation of circular genome)
1	51151	6842	57992	gi_828921864_gb_CP011588.1__Enterobacter_asburiae_strain_CAV1043_plasmid_pCAV1043-58__complete_sequence	NODE_1_length_57992_cov_80.8526_component_0	99.99	
CONTIG	NODE_1_length_57992_cov_80.8526_component_0	57992	correct
CONTIG	NODE_2_length_45161_cov_110.116_component_0	45161	unaligned
CONTIG	NODE_3_length_32879_cov_48.3073_component_0	32879	unaligned
CONTIG	NODE_4_length_23159_cov_41.5873_component_1	23159	unaligned
CONTIG	NODE_5_length_14356_cov_43.1964_component_0	14356	unaligned
CONTIG	NODE_6_length_13551_cov_64.9201_component_0	13551	unaligned
CONTIG	NODE_7_length_12757_cov_70.2397_component_0	12757	unaligned
CONTIG	NODE_8_length_12477_cov_42.0003_component_0	12477	unaligned
CONTIG	NODE_9_length_10713_cov_72.4625_component_0	10713	unaligned
CONTIG	NODE_10_length_9707_cov_44.3208_component_0	9707	unaligned
CONTIG	NODE_11_length_9587_cov_72.2524_component_0	9587	unaligned
CONTIG	NODE_12_length_9133_cov_73.1019_component_0	9133	unaligned
CONTIG	NODE_13_length_7975_cov_43.1421_component_0	7975	unaligned
CONTIG	NODE_14_length_7231_cov_44.1777_component_0	7231	unaligned
CONTIG	NODE_15_length_7207_cov_70.2509_component_0	7207	unaligned
CONTIG	NODE_16_length_6653_cov_39.9483_component_0	6653	unaligned
CONTIG	NODE_17_length_6474_cov_37.2164_component_0	6474	unaligned
CONTIG	NODE_18_length_6196_cov_42.2536_component_0	6196	unaligned
CONTIG	NODE_19_length_5895_cov_55.0579_component_0	5895	unaligned
CONTIG	NODE_20_length_5571_cov_251.072_component_0	5571	unaligned
CONTIG	NODE_21_length_3665_cov_291.41_component_0	3665	unaligned
CONTIG	NODE_22_length_3629_cov_79.5526_component_0	3629	unaligned
CONTIG	NODE_23_length_3281_cov_41.9863_component_0	3281	unaligned
CONTIG	NODE_24_length_2363_cov_49.9685_component_0	2363	unaligned
CONTIG	NODE_25_length_2287_cov_40.6774_component_0	2287	unaligned
CONTIG	NODE_26_length_2179_cov_127.57_component_0	2179	unaligned
CONTIG	NODE_27_length_1985_cov_42.1258_component_0	1985	unaligned
CONTIG	NODE_28_length_1937_cov_352.388_component_0	1937	unaligned
CONTIG	NODE_29_length_1874_cov_180.236_component_0	1874	unaligned
CONTIG	NODE_30_length_1731_cov_52.5266_component_0	1731	unaligned
CONTIG	NODE_31_length_1655_cov_40.557_component_1	1655	unaligned
CONTIG	NODE_32_length_1655_cov_25.6515_component_1	1655	unaligned
CONTIG	NODE_33_length_1237_cov_39.8362_component_0	1237	unaligned
CONTIG	NODE_34_length_1126_cov_33.8684_component_1	1126	unaligned
CONTIG	NODE_35_length_1110_cov_117.468_component_0	1110	unaligned
CONTIG	NODE_36_length_913_cov_43.4785_component_0	913	unaligned
CONTIG	NODE_37_length_888_cov_36.947_component_1	888	unaligned
CONTIG	NODE_38_length_804_cov_35.1596_component_0	804	unaligned
CONTIG	NODE_39_length_695_cov_24.1311_component_1	695	unaligned
CONTIG	NODE_40_length_656_cov_60.2418_component_1	656	unaligned
CONTIG	NODE_41_length_639_cov_321.559_component_0	639	unaligned
CONTIG	NODE_42_length_639_cov_25.9128_component_0	639	unaligned
CONTIG	NODE_43_length_599_cov_23.2356_component_0	599	unaligned
CONTIG	NODE_44_length_589_cov_31.6133_component_0	589	unaligned
51075	51663	1	589	gi_828921864_gb_CP011588.1__Enterobacter_asburiae_strain_CAV1043_plasmid_pCAV1043-58__complete_sequence	NODE_45_length_589_cov_366.395_component_0	100.0	
CONTIG	NODE_45_length_589_cov_366.395_component_0	589	correct
CONTIG	NODE_46_length_559_cov_30.2012_component_0	559	unaligned
CONTIG	NODE_47_length_542_cov_271.602_component_0	542	unaligned
