1: PREPARING DATA
2,3: RUNNING mummer AND CREATING CLUSTERS
# reading input file "/home/mmbbio/Plasmid_Assembly/completegenomes/plasmids/KPNIH39_plasmids_references/group_3.fasta_comparison_plasmidfinder/contigs_reports/nucmer_output/prediction.ntref" of length 106560
# construct suffix tree for sequence of length 106560
# (maximum reference length is 536870908)
# (maximum query length is 4294967295)
# process 1065 characters per dot
#....................................................................................................
# CONSTRUCTIONTIME /home/mmbbio/Plasmid_Assembly/programmes/quast-4.1/libs/MUMmer3.23-linux/mummer /home/mmbbio/Plasmid_Assembly/completegenomes/plasmids/KPNIH39_plasmids_references/group_3.fasta_comparison_plasmidfinder/contigs_reports/nucmer_output/prediction.ntref 0.01
# reading input file "/home/mmbbio/Plasmid_Assembly/completegenomes/plasmids/KPNIH39_plasmids_references/group_3.fasta_comparison_plasmidfinder/quast_corrected_input/prediction.fas" of length 105613
# matching query-file "/home/mmbbio/Plasmid_Assembly/completegenomes/plasmids/KPNIH39_plasmids_references/group_3.fasta_comparison_plasmidfinder/quast_corrected_input/prediction.fas"
# against subject-file "/home/mmbbio/Plasmid_Assembly/completegenomes/plasmids/KPNIH39_plasmids_references/group_3.fasta_comparison_plasmidfinder/contigs_reports/nucmer_output/prediction.ntref"
# COMPLETETIME /home/mmbbio/Plasmid_Assembly/programmes/quast-4.1/libs/MUMmer3.23-linux/mummer /home/mmbbio/Plasmid_Assembly/completegenomes/plasmids/KPNIH39_plasmids_references/group_3.fasta_comparison_plasmidfinder/contigs_reports/nucmer_output/prediction.ntref 0.04
# SPACE /home/mmbbio/Plasmid_Assembly/programmes/quast-4.1/libs/MUMmer3.23-linux/mummer /home/mmbbio/Plasmid_Assembly/completegenomes/plasmids/KPNIH39_plasmids_references/group_3.fasta_comparison_plasmidfinder/contigs_reports/nucmer_output/prediction.ntref 0.21
4: FINISHING DATA
