S1	E1	S2	E2	Reference	Contig	IDY	Ambiguous
24647	32800	36021	27868	gi_1033167582_ref_NZ_CP014756.1__Klebsiella_pneumoniae_strain_AATZP_plasmid_pKPN-04f__complete_sequence	NODE_1_length_85885_cov_133.666_component_0	100.0	
CONTIG	NODE_1_length_85885_cov_133.666_component_0	85885	correct
CONTIG	NODE_2_length_4294_cov_186.15_component_1	4294	unaligned
