All statistics are based on contigs of size >= 500 bp, unless otherwise noted (e.g., "# contigs (>= 0 bp)" and "Total length (>= 0 bp)" include all contigs).

Assembly    # contigs (>= 0 bp)  # contigs (>= 1000 bp)  # contigs (>= 5000 bp)  # contigs (>= 10000 bp)  # contigs (>= 25000 bp)  # contigs (>= 50000 bp)  Total length (>= 0 bp)  Total length (>= 1000 bp)  Total length (>= 5000 bp)  Total length (>= 10000 bp)  Total length (>= 25000 bp)  Total length (>= 50000 bp)  # contigs  Largest contig  Total length  Reference length  GC (%)  Reference GC (%)  N50     NG50    N75     NG75    L50  LG50  L75  LG75  # unaligned contigs  Unaligned length  # N's per 100 kbp  NGA50
prediction  7                    7                       2                       2                        1                        1                        257779                  257779                     241173                     241173                      229765                      229765                      7          229765          257779        142858            57.16   52.45             229765  229765  229765  229765  1    1     1    1     7 + 0 part           257779            0.00               -    
