Assembly	prediction
# contigs (>= 0 bp)	93
# contigs (>= 1000 bp)	51
# contigs (>= 5000 bp)	21
# contigs (>= 10000 bp)	13
# contigs (>= 25000 bp)	7
# contigs (>= 50000 bp)	3
Total length (>= 0 bp)	594575
Total length (>= 1000 bp)	582043
Total length (>= 5000 bp)	499445
Total length (>= 10000 bp)	450203
Total length (>= 25000 bp)	362222
Total length (>= 50000 bp)	224861
# contigs	61
Largest contig	118664
Total length	588990
Reference length	295619
GC (%)	49.74
Reference GC (%)	47.20
N50	38788
NG50	56122
N75	10157
NG75	50075
L50	5
LG50	2
L75	13
LG75	3
# misassemblies	1
# misassembled contigs	1
Misassembled contigs length	30499
# local misassemblies	1
# unaligned contigs	28 + 4 part
Unaligned length	307728
Genome fraction (%)	97.238
Duplication ratio	1.016
# N's per 100 kbp	0.00
# mismatches per 100 kbp	38.27
# indels per 100 kbp	2.09
Largest alignment	118664
NGA50	39259
NGA75	5224
LGA50	2
LGA75	7
