1: PREPARING DATA
2,3: RUNNING mummer AND CREATING CLUSTERS
# reading input file "/home/mmbbio/Plasmid_Assembly/completegenomes/plasmids/CAV1596_plasmids_references/group_4.fasta_comparison_spades/contigs_reports/nucmer_output/prediction.ntref" of length 96703
# construct suffix tree for sequence of length 96703
# (maximum reference length is 536870908)
# (maximum query length is 4294967295)
# CONSTRUCTIONTIME /home/mmbbio/Plasmid_Assembly/programmes/quast-4.1/libs/MUMmer3.23-linux/mummer /home/mmbbio/Plasmid_Assembly/completegenomes/plasmids/CAV1596_plasmids_references/group_4.fasta_comparison_spades/contigs_reports/nucmer_output/prediction.ntref 0.01
# reading input file "/home/mmbbio/Plasmid_Assembly/completegenomes/plasmids/CAV1596_plasmids_references/group_4.fasta_comparison_spades/quast_corrected_input/prediction.fas" of length 373803
# matching query-file "/home/mmbbio/Plasmid_Assembly/completegenomes/plasmids/CAV1596_plasmids_references/group_4.fasta_comparison_spades/quast_corrected_input/prediction.fas"
# against subject-file "/home/mmbbio/Plasmid_Assembly/completegenomes/plasmids/CAV1596_plasmids_references/group_4.fasta_comparison_spades/contigs_reports/nucmer_output/prediction.ntref"
# COMPLETETIME /home/mmbbio/Plasmid_Assembly/programmes/quast-4.1/libs/MUMmer3.23-linux/mummer /home/mmbbio/Plasmid_Assembly/completegenomes/plasmids/CAV1596_plasmids_references/group_4.fasta_comparison_spades/contigs_reports/nucmer_output/prediction.ntref 0.11
# SPACE /home/mmbbio/Plasmid_Assembly/programmes/quast-4.1/libs/MUMmer3.23-linux/mummer /home/mmbbio/Plasmid_Assembly/completegenomes/plasmids/CAV1596_plasmids_references/group_4.fasta_comparison_spades/contigs_reports/nucmer_output/prediction.ntref 0.46
4: FINISHING DATA
