Assembly	prediction
# contigs (>= 0 bp)	21
# contigs (>= 1000 bp)	18
# contigs (>= 5000 bp)	8
# contigs (>= 10000 bp)	5
# contigs (>= 25000 bp)	4
# contigs (>= 50000 bp)	3
Total length (>= 0 bp)	378527
Total length (>= 1000 bp)	376127
Total length (>= 5000 bp)	351114
Total length (>= 10000 bp)	330140
Total length (>= 25000 bp)	309201
Total length (>= 50000 bp)	283142
# contigs	21
Largest contig	112462
Total length	378527
Reference length	111395
GC (%)	51.62
Reference GC (%)	48.87
N50	111472
NG50	112462
N75	26059
NG75	112462
L50	2
LG50	1
L75	4
LG75	1
# misassemblies	0
# misassembled contigs	0
Misassembled contigs length	0
# local misassemblies	0
# unaligned contigs	20 + 0 part
Unaligned length	267055
Genome fraction (%)	100.000
Duplication ratio	1.001
# N's per 100 kbp	0.00
# mismatches per 100 kbp	0.00
# indels per 100 kbp	0.00
Largest alignment	111472
NGA50	111472
NGA75	111472
LGA50	1
LGA75	1
