Aligning contigs to reference...
	Running Nucmer
Parsing coords...
Loading reference...
	Loaded [gi_828945252_gb_CP011613.1__Klebsiella_oxytoca_strain_CAV1335_plasmid_pCAV1335-5410__complete_sequence]
Loading SNPs...
Loading regions...
	No regions given, using whole reference.
	Total Regions: 1
	Total Region Length: 5410
Analyzing contigs...
CONTIG: RNODE_1_length_5432_cov_64.23770 (5410bp)
Top Length: 3776  Top ID: 100.0
		This contig is misassembled. 2 total aligns.
			Real Alignment 1: 3777 5410 | 1 1634 | 1634 1634 | 100.0 | gi_828945252_gb_CP011613.1__Klebsiella_oxytoca_strain_CAV1335_plasmid_pCAV1335-5410__complete_sequence RNODE_1_length_5432_cov_64.23770
			  Fake misassembly (caused by linear representation of circular genome) between these two alignments
			Real Alignment 2: 1 3776 | 1635 5410 | 3776 3776 | 100.0 | gi_828945252_gb_CP011613.1__Klebsiella_oxytoca_strain_CAV1335_plasmid_pCAV1335-5410__complete_sequence RNODE_1_length_5432_cov_64.23770

CONTIG: RNODE_3_length_19586_cov_13.84466 (19520bp)
		This contig is unaligned. (19520 bp)
		Unaligned bases: 19520  total: 19520

CONTIG: RNODE_2_length_36116_cov_16.43623 (36072bp)
		This contig is unaligned. (36072 bp)
		Unaligned bases: 36072  total: 55592

Analyzing coverage...
Writing SNPs into /home/mmbbio/Plasmid_Assembly/completegenomes/plasmids/CAV1335_plasmids_references/group_1.fasta_comparison_recycler/contigs_reports/nucmer_output/prediction.used_snps
	Reference gi_828945252_gb_CP011613.1__Klebsiella_oxytoca_strain_CAV1335_plasmid_pCAV1335-5410__complete_sequence: 2 total alignments. 1 total regions.
		Region: 1 to 5410 (5410 bp)
			Align 1: 1 3776 RNODE_1_length_5432_cov_64.23770 1635 5410
				Next Alignment: 3777 5410 RNODE_1_length_5432_cov_64.23770 1 1634

			Align 2: 3777 5410 RNODE_1_length_5432_cov_64.23770 1 1634
			END in current alignment.  Modifying 5410 to 5410.

Analysis is finished!
Founded SNPs were written into /home/mmbbio/Plasmid_Assembly/completegenomes/plasmids/CAV1335_plasmids_references/group_1.fasta_comparison_recycler/contigs_reports/nucmer_output/prediction.used_snps

Results:
	Local Misassemblies: 0
	Misassemblies: 0
		Relocations: 0
		Translocations: 0
		Inversions: 0
	Misassembled Contigs: 0
	Misassembled Contig Bases: 0
	Misassemblies Inter-Contig Overlap: 0
Uncovered Regions: 0 (0)
Unaligned Contigs: 2 + 0 part
Partially Unaligned Contigs with Misassemblies: 0
Unaligned Contig Bases: 55592

Ambiguously Mapped Contigs: 0
Extra Bases in Ambiguously Mapped Contigs: 0
Note that --allow-ambiguity option was set to "all" and each of these contigs was used several times.

	Covered Bases: 5410

	SNPs: 0
	Insertions: 0
	Deletions: 0

	Positive Gaps: 0
		Internal Gaps:  0
		External Gaps:  0
		External Gap Total:  0
		External Gap Average: 0
	Negative Gaps: 0
		Internal Overlaps:  0
		External Overlaps:  0
		External Overlaps Total:  0
		External Overlaps Average: 0
	Contigs with Redundant Alignments: 0 (0)
