S1	E1	S2	E2	Reference	Contig	IDY	Ambiguous
CONTIG	NODE_18_length_59667_cov_27.5391	59667	unaligned
95127	125136	1	30018	gi_1008423447_gb_CP014450.1__Enterococcus_faecium_strain_ATCC_700221_plasmid_unnamed1__complete_sequence	NODE_25_length_32917_cov_59.4155	99.97	
CONTIG	NODE_25_length_32917_cov_59.4155	32917	correct
76140	89256	1	13117	gi_1008423447_gb_CP014450.1__Enterococcus_faecium_strain_ATCC_700221_plasmid_unnamed1__complete_sequence	NODE_51_length_13117_cov_47.5846	99.86	
CONTIG	NODE_51_length_13117_cov_47.5846	13117	correct
36568	48101	1	11535	gi_1008423447_gb_CP014450.1__Enterococcus_faecium_strain_ATCC_700221_plasmid_unnamed1__complete_sequence	NODE_55_length_11535_cov_86.6382	99.92	
CONTIG	NODE_55_length_11535_cov_86.6382	11535	correct
CONTIG	NODE_57_length_10409_cov_79.2725	10409	unaligned
142460	151965	1	9512	gi_1008423447_gb_CP014450.1__Enterococcus_faecium_strain_ATCC_700221_plasmid_unnamed1__complete_sequence	NODE_61_length_9512_cov_27.9477	99.94	
CONTIG	NODE_61_length_9512_cov_27.9477	9512	correct
155114	164470	1	9357	gi_1008423447_gb_CP014450.1__Enterococcus_faecium_strain_ATCC_700221_plasmid_unnamed1__complete_sequence	NODE_62_length_9357_cov_82.4595	99.99	
CONTIG	NODE_62_length_9357_cov_82.4595	9357	correct
68106	69020	8745	7831	gi_1008423447_gb_CP014450.1__Enterococcus_faecium_strain_ATCC_700221_plasmid_unnamed1__complete_sequence	NODE_66_length_8745_cov_499.296	99.78	
CONTIG	NODE_66_length_8745_cov_499.296	8745	correct
CONTIG	NODE_70_length_7655_cov_114.83	7655	unaligned
49354	55130	5777	1	gi_1008423447_gb_CP014450.1__Enterococcus_faecium_strain_ATCC_700221_plasmid_unnamed1__complete_sequence	NODE_75_length_5777_cov_23.4508	100.0	
CONTIG	NODE_75_length_5777_cov_23.4508	5777	correct
CONTIG	NODE_77_length_5426_cov_273.839	5426	unaligned
63017	68081	5066	1	gi_1008423447_gb_CP014450.1__Enterococcus_faecium_strain_ATCC_700221_plasmid_unnamed1__complete_sequence	NODE_79_length_5066_cov_9.5981	99.98	
CONTIG	NODE_79_length_5066_cov_9.5981	5066	correct
176643	181012	1	4372	gi_1008423447_gb_CP014450.1__Enterococcus_faecium_strain_ATCC_700221_plasmid_unnamed1__complete_sequence	NODE_83_length_4372_cov_14.3715	99.95	
CONTIG	NODE_83_length_4372_cov_14.3715	4372	correct
90797	94315	3523	1	gi_1008423447_gb_CP014450.1__Enterococcus_faecium_strain_ATCC_700221_plasmid_unnamed1__complete_sequence	NODE_85_length_3523_cov_17.5436	99.89	
CONTIG	NODE_85_length_3523_cov_17.5436	3523	correct
CONTIG	NODE_86_length_3477_cov_229.418	3477	unaligned
139345	142296	2955	1	gi_1008423447_gb_CP014450.1__Enterococcus_faecium_strain_ATCC_700221_plasmid_unnamed1__complete_sequence	NODE_89_length_2955_cov_22.2907	99.9	
CONTIG	NODE_89_length_2955_cov_22.2907	2955	correct
15275	18042	1	2771	gi_1008423447_gb_CP014450.1__Enterococcus_faecium_strain_ATCC_700221_plasmid_unnamed1__complete_sequence	NODE_92_length_2771_cov_25.9138	99.89	
CONTIG	NODE_92_length_2771_cov_25.9138	2771	correct
7959	10524	1	2566	gi_1008423447_gb_CP014450.1__Enterococcus_faecium_strain_ATCC_700221_plasmid_unnamed1__complete_sequence	NODE_94_length_2688_cov_8.52675	100.0	
CONTIG	NODE_94_length_2688_cov_8.52675	2688	correct
10460	12931	2472	1	gi_1008423447_gb_CP014450.1__Enterococcus_faecium_strain_ATCC_700221_plasmid_unnamed1__complete_sequence	NODE_97_length_2573_cov_24.4767	99.84	
CONTIG	NODE_97_length_2573_cov_24.4767	2573	correct
168940	171072	1	2133	gi_1008423447_gb_CP014450.1__Enterococcus_faecium_strain_ATCC_700221_plasmid_unnamed1__complete_sequence	NODE_99_length_2133_cov_4.43868	100.0	
CONTIG	NODE_99_length_2133_cov_4.43868	2133	correct
CONTIG	NODE_100_length_2129_cov_10.6109	2129	unaligned
174236	176149	1	1914	gi_1008423447_gb_CP014450.1__Enterococcus_faecium_strain_ATCC_700221_plasmid_unnamed1__complete_sequence	NODE_103_length_1914_cov_109.803	99.9	
CONTIG	NODE_103_length_1914_cov_109.803	1914	correct
137969	139471	1503	1	gi_1008423447_gb_CP014450.1__Enterococcus_faecium_strain_ATCC_700221_plasmid_unnamed1__complete_sequence	NODE_111_length_1503_cov_1467.48	100.0	
CONTIG	NODE_111_length_1503_cov_1467.48	1503	correct
180886	182387	1	1502	gi_1008423447_gb_CP014450.1__Enterococcus_faecium_strain_ATCC_700221_plasmid_unnamed1__complete_sequence	NODE_112_length_1502_cov_273.079	99.8	
CONTIG	NODE_112_length_1502_cov_273.079	1502	correct
CONTIG	NODE_120_length_1245_cov_377.898	1245	unaligned
7042	8085	1	1044	gi_1008423447_gb_CP014450.1__Enterococcus_faecium_strain_ATCC_700221_plasmid_unnamed1__complete_sequence	NODE_126_length_1044_cov_763.364	100.0	True
154197	155240	1	1044	gi_1008423447_gb_CP014450.1__Enterococcus_faecium_strain_ATCC_700221_plasmid_unnamed1__complete_sequence	NODE_126_length_1044_cov_763.364	99.81	True
CONTIG	NODE_126_length_1044_cov_763.364	1044	correct
127275	128204	1	930	gi_1008423447_gb_CP014450.1__Enterococcus_faecium_strain_ATCC_700221_plasmid_unnamed1__complete_sequence	NODE_130_length_930_cov_339.26	99.78	
CONTIG	NODE_130_length_930_cov_339.26	930	correct
68106	69019	914	1	gi_1008423447_gb_CP014450.1__Enterococcus_faecium_strain_ATCC_700221_plasmid_unnamed1__complete_sequence	NODE_131_length_914_cov_1535.95	99.67	
CONTIG	NODE_131_length_914_cov_1535.95	914	correct
35605	36511	1	907	gi_1008423447_gb_CP014450.1__Enterococcus_faecium_strain_ATCC_700221_plasmid_unnamed1__complete_sequence	NODE_135_length_907_cov_1253.58	96.47	True
124044	124950	1	907	gi_1008423447_gb_CP014450.1__Enterococcus_faecium_strain_ATCC_700221_plasmid_unnamed1__complete_sequence	NODE_135_length_907_cov_1253.58	96.47	True
CONTIG	NODE_135_length_907_cov_1253.58	907	correct
35605	36511	907	1	gi_1008423447_gb_CP014450.1__Enterococcus_faecium_strain_ATCC_700221_plasmid_unnamed1__complete_sequence	NODE_138_length_907_cov_1250.97	96.58	True
124044	124950	907	1	gi_1008423447_gb_CP014450.1__Enterococcus_faecium_strain_ATCC_700221_plasmid_unnamed1__complete_sequence	NODE_138_length_907_cov_1250.97	96.58	True
CONTIG	NODE_138_length_907_cov_1250.97	907	correct
126519	127401	1	884	gi_1008423447_gb_CP014450.1__Enterococcus_faecium_strain_ATCC_700221_plasmid_unnamed1__complete_sequence	NODE_141_length_884_cov_19.9287	99.89	
CONTIG	NODE_141_length_884_cov_19.9287	884	correct
170946	171807	1	862	gi_1008423447_gb_CP014450.1__Enterococcus_faecium_strain_ATCC_700221_plasmid_unnamed1__complete_sequence	NODE_144_length_862_cov_108.992	100.0	True
166780	167641	1	862	gi_1008423447_gb_CP014450.1__Enterococcus_faecium_strain_ATCC_700221_plasmid_unnamed1__complete_sequence	NODE_144_length_862_cov_108.992	99.88	True
CONTIG	NODE_144_length_862_cov_108.992	862	correct
153210	154043	1	834	gi_1008423447_gb_CP014450.1__Enterococcus_faecium_strain_ATCC_700221_plasmid_unnamed1__complete_sequence	NODE_145_length_834_cov_27.6591	99.88	
CONTIG	NODE_145_length_834_cov_27.6591	834	correct
13425	14257	1	833	gi_1008423447_gb_CP014450.1__Enterococcus_faecium_strain_ATCC_700221_plasmid_unnamed1__complete_sequence	NODE_147_length_833_cov_33.1572	100.0	
CONTIG	NODE_147_length_833_cov_33.1572	833	correct
35605	36295	691	1	gi_1008423447_gb_CP014450.1__Enterococcus_faecium_strain_ATCC_700221_plasmid_unnamed1__complete_sequence	NODE_154_length_691_cov_1302.78	96.82	True
124044	124734	691	1	gi_1008423447_gb_CP014450.1__Enterococcus_faecium_strain_ATCC_700221_plasmid_unnamed1__complete_sequence	NODE_154_length_691_cov_1302.78	96.82	True
CONTIG	NODE_154_length_691_cov_1302.78	691	correct
35465	36091	627	1	gi_1008423447_gb_CP014450.1__Enterococcus_faecium_strain_ATCC_700221_plasmid_unnamed1__complete_sequence	NODE_158_length_627_cov_1236.16	96.97	True
123904	124530	627	1	gi_1008423447_gb_CP014450.1__Enterococcus_faecium_strain_ATCC_700221_plasmid_unnamed1__complete_sequence	NODE_158_length_627_cov_1236.16	96.97	True
CONTIG	NODE_158_length_627_cov_1236.16	627	correct
35465	36091	1	627	gi_1008423447_gb_CP014450.1__Enterococcus_faecium_strain_ATCC_700221_plasmid_unnamed1__complete_sequence	NODE_160_length_627_cov_1051.05	97.61	True
123904	124530	1	627	gi_1008423447_gb_CP014450.1__Enterococcus_faecium_strain_ATCC_700221_plasmid_unnamed1__complete_sequence	NODE_160_length_627_cov_1051.05	97.61	True
CONTIG	NODE_160_length_627_cov_1051.05	627	correct
35947	36511	565	1	gi_1008423447_gb_CP014450.1__Enterococcus_faecium_strain_ATCC_700221_plasmid_unnamed1__complete_sequence	NODE_169_length_565_cov_837.742	96.46	True
124386	124950	565	1	gi_1008423447_gb_CP014450.1__Enterococcus_faecium_strain_ATCC_700221_plasmid_unnamed1__complete_sequence	NODE_169_length_565_cov_837.742	96.46	True
CONTIG	NODE_169_length_565_cov_837.742	565	correct
82064	82570	507	1	gi_1008423447_gb_CP014450.1__Enterococcus_faecium_strain_ATCC_700221_plasmid_unnamed1__complete_sequence	NODE_178_length_509_cov_0.863874	97.04	
CONTIG	NODE_178_length_509_cov_0.863874	509	correct
67978	68482	1	505	gi_1008423447_gb_CP014450.1__Enterococcus_faecium_strain_ATCC_700221_plasmid_unnamed1__complete_sequence	NODE_180_length_505_cov_1233.53	99.8	
CONTIG	NODE_180_length_505_cov_1233.53	505	correct
