Assembly	prediction
# fully unaligned contigs	41
Fully unaligned length	639453
# partially unaligned contigs	3
    # with misassembly	0
    # both parts are significant	3
Partially unaligned length	39006
# N's	0
