Aligning contigs to reference...
	Running Nucmer
Parsing coords...
Loading reference...
	Loaded [gi_749295863_ref_NZ_CP008828.1__Klebsiella_pneumoniae_subsp._pneumoniae_KPNIH1_plasmid_pAAC154-a50__complete_sequence]
Loading SNPs...
Loading regions...
	No regions given, using whole reference.
	Total Regions: 1
	Total Region Length: 15096
Analyzing contigs...
CONTIG: NODE_46_length_49839_cov_19.152 (49839bp)
		This contig is unaligned. (49839 bp)
		Unaligned bases: 49839  total: 49839

CONTIG: NODE_61_length_25511_cov_22.4894 (25511bp)
		This contig is unaligned. (25511 bp)
		Unaligned bases: 25511  total: 75350

CONTIG: NODE_63_length_24124_cov_27.8048 (24124bp)
		This contig is unaligned. (24124 bp)
		Unaligned bases: 24124  total: 99474

CONTIG: NODE_68_length_20798_cov_18.4989 (20798bp)
		This contig is unaligned. (20798 bp)
		Unaligned bases: 20798  total: 120272

CONTIG: NODE_84_length_12714_cov_30.0231 (12714bp)
Top Length: 9155  Top ID: 100.0
		This contig is misassembled. 2 total aligns.
			Real Alignment 1: 1 3559 | 3559 1 | 3559 3559 | 100.0 | gi_749295863_ref_NZ_CP008828.1__Klebsiella_pneumoniae_subsp._pneumoniae_KPNIH1_plasmid_pAAC154-a50__complete_sequence NODE_84_length_12714_cov_30.0231
			  Fake misassembly (caused by linear representation of circular genome) between these two alignments
			Real Alignment 2: 5942 15096 | 12714 3560 | 9155 9155 | 100.0 | gi_749295863_ref_NZ_CP008828.1__Klebsiella_pneumoniae_subsp._pneumoniae_KPNIH1_plasmid_pAAC154-a50__complete_sequence NODE_84_length_12714_cov_30.0231

CONTIG: NODE_85_length_12147_cov_17.2383 (12147bp)
		This contig is unaligned. (12147 bp)
		Unaligned bases: 12147  total: 132419

CONTIG: NODE_89_length_10133_cov_19.9212 (10133bp)
		This contig is unaligned. (10133 bp)
		Unaligned bases: 10133  total: 142552

CONTIG: NODE_90_length_7784_cov_21.1292 (7784bp)
		This contig is unaligned. (7784 bp)
		Unaligned bases: 7784  total: 150336

CONTIG: NODE_91_length_7603_cov_20.504 (7603bp)
		This contig is unaligned. (7603 bp)
		Unaligned bases: 7603  total: 157939

CONTIG: NODE_92_length_7491_cov_20.2083 (7491bp)
		This contig is unaligned. (7491 bp)
		Unaligned bases: 7491  total: 165430

CONTIG: NODE_94_length_6585_cov_20.5426 (6585bp)
		This contig is unaligned. (6585 bp)
		Unaligned bases: 6585  total: 172015

CONTIG: NODE_96_length_5758_cov_18.6511 (5758bp)
		This contig is unaligned. (5758 bp)
		Unaligned bases: 5758  total: 177773

CONTIG: NODE_97_length_5598_cov_23.9634 (5598bp)
		This contig is unaligned. (5598 bp)
		Unaligned bases: 5598  total: 183371

CONTIG: NODE_98_length_5541_cov_21.4369 (5541bp)
		This contig is unaligned. (5541 bp)
		Unaligned bases: 5541  total: 188912

CONTIG: NODE_99_length_5424_cov_20.5588 (5424bp)
		This contig is unaligned. (5424 bp)
		Unaligned bases: 5424  total: 194336

CONTIG: NODE_100_length_5317_cov_21.888 (5317bp)
		This contig is unaligned. (5317 bp)
		Unaligned bases: 5317  total: 199653

CONTIG: NODE_101_length_4926_cov_22.4729 (4926bp)
		This contig is unaligned. (4926 bp)
		Unaligned bases: 4926  total: 204579

CONTIG: NODE_108_length_4149_cov_36.2913 (4149bp)
		This contig is unaligned. (4149 bp)
		Unaligned bases: 4149  total: 208728

CONTIG: NODE_110_length_3769_cov_24.072 (3769bp)
		This contig is unaligned. (3769 bp)
		Unaligned bases: 3769  total: 212497

CONTIG: NODE_116_length_2642_cov_19.5981 (2642bp)
		This contig is unaligned. (2642 bp)
		Unaligned bases: 2642  total: 215139

CONTIG: NODE_117_length_2533_cov_18.4292 (2533bp)
		This contig is unaligned. (2533 bp)
		Unaligned bases: 2533  total: 217672

CONTIG: NODE_118_length_2452_cov_40.6371 (2452bp)
		This contig is unaligned. (2452 bp)
		Unaligned bases: 2452  total: 220124

CONTIG: NODE_119_length_2433_cov_27.0216 (2433bp)
		This contig is unaligned. (2433 bp)
		Unaligned bases: 2433  total: 222557

CONTIG: NODE_120_length_1958_cov_20.3083 (1958bp)
		This contig is unaligned. (1958 bp)
		Unaligned bases: 1958  total: 224515

CONTIG: NODE_121_length_1899_cov_16.213 (1899bp)
		This contig is unaligned. (1899 bp)
		Unaligned bases: 1899  total: 226414

CONTIG: NODE_122_length_1811_cov_84.8806 (1811bp)
		This contig is unaligned. (1811 bp)
		Unaligned bases: 1811  total: 228225

CONTIG: NODE_124_length_1655_cov_45.5634 (1655bp)
		This contig is unaligned. (1655 bp)
		Unaligned bases: 1655  total: 229880

CONTIG: NODE_126_length_1641_cov_16.6381 (1641bp)
		This contig is unaligned. (1641 bp)
		Unaligned bases: 1641  total: 231521

CONTIG: NODE_127_length_1609_cov_41.2826 (1609bp)
		This contig is unaligned. (1609 bp)
		Unaligned bases: 1609  total: 233130

CONTIG: NODE_128_length_1539_cov_18.4644 (1539bp)
		This contig is unaligned. (1539 bp)
		Unaligned bases: 1539  total: 234669

CONTIG: NODE_130_length_1370_cov_18.1423 (1370bp)
		This contig is unaligned. (1370 bp)
		Unaligned bases: 1370  total: 236039

CONTIG: NODE_132_length_1341_cov_19.5593 (1341bp)
		This contig is unaligned. (1341 bp)
		Unaligned bases: 1341  total: 237380

CONTIG: NODE_134_length_1276_cov_19.1334 (1276bp)
		This contig is unaligned. (1276 bp)
		Unaligned bases: 1276  total: 238656

CONTIG: NODE_136_length_1232_cov_18.69 (1232bp)
		This contig is unaligned. (1232 bp)
		Unaligned bases: 1232  total: 239888

CONTIG: NODE_138_length_1194_cov_25.6983 (1194bp)
		This contig is unaligned. (1194 bp)
		Unaligned bases: 1194  total: 241082

CONTIG: NODE_139_length_1192_cov_31.8565 (1192bp)
		This contig is unaligned. (1192 bp)
		Unaligned bases: 1192  total: 242274

CONTIG: NODE_140_length_1156_cov_18.6015 (1156bp)
		This contig is unaligned. (1156 bp)
		Unaligned bases: 1156  total: 243430

CONTIG: NODE_142_length_1141_cov_16.2378 (1141bp)
		This contig is unaligned. (1141 bp)
		Unaligned bases: 1141  total: 244571

CONTIG: NODE_143_length_1134_cov_19.1769 (1134bp)
		This contig is unaligned. (1134 bp)
		Unaligned bases: 1134  total: 245705

CONTIG: NODE_147_length_1071_cov_24.335 (1071bp)
		This contig is unaligned. (1071 bp)
		Unaligned bases: 1071  total: 246776

CONTIG: NODE_149_length_1057_cov_38.8602 (1057bp)
		This contig is unaligned. (1057 bp)
		Unaligned bases: 1057  total: 247833

CONTIG: NODE_154_length_964_cov_36.8918 (964bp)
		This contig is unaligned. (964 bp)
		Unaligned bases: 964  total: 248797

CONTIG: NODE_155_length_961_cov_11.4593 (961bp)
		This contig is unaligned. (961 bp)
		Unaligned bases: 961  total: 249758

CONTIG: NODE_156_length_958_cov_13.807 (958bp)
		This contig is unaligned. (958 bp)
		Unaligned bases: 958  total: 250716

CONTIG: NODE_158_length_825_cov_15.3997 (825bp)
		This contig is unaligned. (825 bp)
		Unaligned bases: 825  total: 251541

CONTIG: NODE_161_length_775_cov_32.8782 (775bp)
		This contig is unaligned. (775 bp)
		Unaligned bases: 775  total: 252316

CONTIG: NODE_162_length_733_cov_188.037 (733bp)
		This contig is unaligned. (733 bp)
		Unaligned bases: 733  total: 253049

CONTIG: NODE_163_length_720_cov_16.4152 (720bp)
		This contig is unaligned. (720 bp)
		Unaligned bases: 720  total: 253769

CONTIG: NODE_167_length_608_cov_15.5179 (608bp)
		This contig is unaligned. (608 bp)
		Unaligned bases: 608  total: 254377

CONTIG: NODE_168_length_600_cov_28.4168 (600bp)
		This contig is unaligned. (600 bp)
		Unaligned bases: 600  total: 254977

CONTIG: NODE_171_length_580_cov_32.2147 (580bp)
		This contig is unaligned. (580 bp)
		Unaligned bases: 580  total: 255557

Analyzing coverage...
Writing SNPs into /home/mmbbio/Plasmid_Assembly/completegenomes/plasmids/KPNIH1_plasmids_references/group_1.fasta_comparison_cbar/contigs_reports/nucmer_output/prediction.used_snps
	Reference gi_749295863_ref_NZ_CP008828.1__Klebsiella_pneumoniae_subsp._pneumoniae_KPNIH1_plasmid_pAAC154-a50__complete_sequence: 2 total alignments. 1 total regions.
		Region: 1 to 15096 (15096 bp)
			Align 1: 1 3559 NODE_84_length_12714_cov_30.0231 3559 1
				Gap between this and next alignment: 3559 to 5942 (2382 bp)
				Next Alignment: 5942 15096 NODE_84_length_12714_cov_30.0231 12714 3560

			Align 2: 5942 15096 NODE_84_length_12714_cov_30.0231 12714 3560
			END in current alignment.  Modifying 15096 to 15096.

Analysis is finished!
Founded SNPs were written into /home/mmbbio/Plasmid_Assembly/completegenomes/plasmids/KPNIH1_plasmids_references/group_1.fasta_comparison_cbar/contigs_reports/nucmer_output/prediction.used_snps

Results:
	Local Misassemblies: 0
	Misassemblies: 0
		Relocations: 0
		Translocations: 0
		Inversions: 0
	Misassembled Contigs: 0
	Misassembled Contig Bases: 0
	Misassemblies Inter-Contig Overlap: 0
Uncovered Regions: 0 (0)
Unaligned Contigs: 50 + 0 part
Partially Unaligned Contigs with Misassemblies: 0
Unaligned Contig Bases: 255557

Ambiguously Mapped Contigs: 0
Extra Bases in Ambiguously Mapped Contigs: 0
Note that --allow-ambiguity option was set to "all" and each of these contigs was used several times.

	Covered Bases: 12714

	SNPs: 0
	Insertions: 0
	Deletions: 0

	Positive Gaps: 1
		Internal Gaps:  1
		External Gaps:  0
		External Gap Total:  0
		External Gap Average: 0
	Negative Gaps: 0
		Internal Overlaps:  0
		External Overlaps:  0
		External Overlaps Total:  0
		External Overlaps Average: 0
	Contigs with Redundant Alignments: 0 (0)
