Aligning contigs to reference...
	Running Nucmer
Parsing coords...
Loading reference...
	Loaded [gi_749295352_ref_NZ_CP008901.1__Enterobacter_cloacae_ECNIH3_plasmid_pKPC-47e__complete_sequence]
Loading SNPs...
Loading regions...
	No regions given, using whole reference.
	Total Regions: 1
	Total Region Length: 50333
Analyzing contigs...
CONTIG: NODE_51_length_21637_cov_104.486 (21637bp)
		This contig is unaligned. (21637 bp)
		Unaligned bases: 21637  total: 21637

CONTIG: NODE_34_length_49338_cov_66.1672 (49338bp)
		This contig is unaligned. (49338 bp)
		Unaligned bases: 49338  total: 70975

CONTIG: NODE_63_length_8569_cov_157.771 (8569bp)
Top Length: 8258  Top ID: 99.99
		This contig is partially unaligned. (Aligned 8258 out of 8569 bases)
		Alignment: 42076 50333 | 1 8258 | 8258 8258 | 99.99 | gi_749295352_ref_NZ_CP008901.1__Enterobacter_cloacae_ECNIH3_plasmid_pKPC-47e__complete_sequence NODE_63_length_8569_cov_157.771
		Unaligned bases: 8259 to 8569 (311)

CONTIG: NODE_57_length_16454_cov_93.1849 (16454bp)
		This contig is unaligned. (16454 bp)
		Unaligned bases: 16454  total: 87429

Analyzing coverage...
Writing SNPs into /home/mmbbio/Plasmid_Assembly/completegenomes/plasmids/ECNIH3_plasmids_references/group_4.fasta_comparison_plasmidfinder/contigs_reports/nucmer_output/prediction.used_snps
	Reference gi_749295352_ref_NZ_CP008901.1__Enterobacter_cloacae_ECNIH3_plasmid_pKPC-47e__complete_sequence: 1 total alignments. 1 total regions.
		Region: 1 to 50333 (50333 bp)
			START in gap: 1 to 42076 (42075 bp)
			Align 1: 42076 50333 NODE_63_length_8569_cov_157.771 1 8258
			END in current alignment.  Modifying 50333 to 50333.

Analysis is finished!
Founded SNPs were written into /home/mmbbio/Plasmid_Assembly/completegenomes/plasmids/ECNIH3_plasmids_references/group_4.fasta_comparison_plasmidfinder/contigs_reports/nucmer_output/prediction.used_snps

Results:
	Local Misassemblies: 0
	Misassemblies: 0
		Relocations: 0
		Translocations: 0
		Inversions: 0
	Misassembled Contigs: 0
	Misassembled Contig Bases: 0
	Misassemblies Inter-Contig Overlap: 0
Uncovered Regions: 0 (0)
Unaligned Contigs: 3 + 1 part
Partially Unaligned Contigs with Misassemblies: 0
Unaligned Contig Bases: 87740

Ambiguously Mapped Contigs: 0
Extra Bases in Ambiguously Mapped Contigs: 0
Note that --allow-ambiguity option was set to "all" and each of these contigs was used several times.

	Covered Bases: 8258

	SNPs: 1
	Insertions: 0
	Deletions: 0

	Positive Gaps: 1
		Internal Gaps:  0
		External Gaps:  1
		External Gap Total:  42075
		External Gap Average: 42075
	Negative Gaps: 0
		Internal Overlaps:  0
		External Overlaps:  0
		External Overlaps Total:  0
		External Overlaps Average: 0
	Contigs with Redundant Alignments: 0 (0)
