Assembly	prediction
# fully unaligned contigs	3
Fully unaligned length	87429
# partially unaligned contigs	1
    # with misassembly	0
    # both parts are significant	0
Partially unaligned length	311
# N's	0
