Assembly	prediction
# contigs (>= 0 bp)	2
# contigs (>= 1000 bp)	2
# contigs (>= 5000 bp)	1
# contigs (>= 10000 bp)	0
# contigs (>= 25000 bp)	0
# contigs (>= 50000 bp)	0
Total length (>= 0 bp)	9133
Total length (>= 1000 bp)	9133
Total length (>= 5000 bp)	7672
Total length (>= 10000 bp)	0
Total length (>= 25000 bp)	0
Total length (>= 50000 bp)	0
# contigs	2
Largest contig	7672
Total length	9133
Reference length	3223
GC (%)	44.49
Reference GC (%)	56.35
N50	7672
NG50	7672
N75	7672
NG75	7672
L50	1
LG50	1
L75	1
LG75	1
# unaligned contigs	2 + 0 part
Unaligned length	9133
# N's per 100 kbp	0.00
NGA50	-
