S1	E1	S2	E2	Reference	Contig	IDY	Ambiguous
CONTIG	NODE_1_length_45219_cov_61.0959_component_0	45219	unaligned
CONTIG	NODE_2_length_43243_cov_112.637_component_1	43243	unaligned
42159	43433	1	1275	gi_828916677_gb_CP011582.1__Enterobacter_cloacae_strain_CAV1668_plasmid_pKPC_CAV1668__complete_sequence	NODE_3_length_28815_cov_100.167_component_0	100.0	
fake misassembly (linear representation of circular genome)
1	27540	1276	28815	gi_828916677_gb_CP011582.1__Enterobacter_cloacae_strain_CAV1668_plasmid_pKPC_CAV1668__complete_sequence	NODE_3_length_28815_cov_100.167_component_0	100.0	
CONTIG	NODE_3_length_28815_cov_100.167_component_0	28815	correct
CONTIG	NODE_4_length_16524_cov_89.6098_component_0	16524	unaligned
29533	39501	9969	1	gi_828916677_gb_CP011582.1__Enterobacter_cloacae_strain_CAV1668_plasmid_pKPC_CAV1668__complete_sequence	NODE_5_length_9969_cov_75.8242_component_0	100.0	
CONTIG	NODE_5_length_9969_cov_75.8242_component_0	9969	correct
CONTIG	NODE_6_length_5974_cov_91.7383_component_0	5974	unaligned
CONTIG	NODE_7_length_4494_cov_352.01_component_1	4494	unaligned
CONTIG	NODE_8_length_3348_cov_127.902_component_0	3348	unaligned
27464	29609	1	2146	gi_828916677_gb_CP011582.1__Enterobacter_cloacae_strain_CAV1668_plasmid_pKPC_CAV1668__complete_sequence	NODE_9_length_2146_cov_168.132_component_0	100.0	
CONTIG	NODE_9_length_2146_cov_168.132_component_0	2146	correct
CONTIG	NODE_10_length_1996_cov_87.1668_component_0	1996	unaligned
40620	42235	1616	1	gi_828916677_gb_CP011582.1__Enterobacter_cloacae_strain_CAV1668_plasmid_pKPC_CAV1668__complete_sequence	NODE_11_length_1616_cov_181.703_component_0	100.0	
CONTIG	NODE_11_length_1616_cov_181.703_component_0	1616	correct
CONTIG	NODE_12_length_1370_cov_84.4308_component_1	1370	unaligned
CONTIG	NODE_13_length_1364_cov_428.393_component_0	1364	unaligned
CONTIG	NODE_14_length_1228_cov_304.305_component_1	1228	unaligned
39425	40392	1	968	gi_828916677_gb_CP011582.1__Enterobacter_cloacae_strain_CAV1668_plasmid_pKPC_CAV1668__complete_sequence	NODE_15_length_968_cov_170.825_component_0	100.0	
CONTIG	NODE_15_length_968_cov_170.825_component_0	968	correct
