Aligning contigs to reference...
	Running Nucmer
Parsing coords...
Loading reference...
	Loaded [gi_828916677_gb_CP011582.1__Enterobacter_cloacae_strain_CAV1668_plasmid_pKPC_CAV1668__complete_sequence]
Loading SNPs...
Loading regions...
	No regions given, using whole reference.
	Total Regions: 1
	Total Region Length: 43433
Analyzing contigs...
CONTIG: NODE_1_length_45219_cov_61.0959_component_0 (45219bp)
		This contig is unaligned. (45219 bp)
		Unaligned bases: 45219  total: 45219

CONTIG: NODE_2_length_43243_cov_112.637_component_1 (43243bp)
		This contig is unaligned. (43243 bp)
		Unaligned bases: 43243  total: 88462

CONTIG: NODE_3_length_28815_cov_100.167_component_0 (28815bp)
Top Length: 27540  Top ID: 100.0
		This contig is misassembled. 2 total aligns.
			Real Alignment 1: 42159 43433 | 1 1275 | 1275 1275 | 100.0 | gi_828916677_gb_CP011582.1__Enterobacter_cloacae_strain_CAV1668_plasmid_pKPC_CAV1668__complete_sequence NODE_3_length_28815_cov_100.167_component_0
			  Fake misassembly (caused by linear representation of circular genome) between these two alignments
			Real Alignment 2: 1 27540 | 1276 28815 | 27540 27540 | 100.0 | gi_828916677_gb_CP011582.1__Enterobacter_cloacae_strain_CAV1668_plasmid_pKPC_CAV1668__complete_sequence NODE_3_length_28815_cov_100.167_component_0

CONTIG: NODE_4_length_16524_cov_89.6098_component_0 (16524bp)
		This contig is unaligned. (16524 bp)
		Unaligned bases: 16524  total: 104986

CONTIG: NODE_5_length_9969_cov_75.8242_component_0 (9969bp)
Top Length: 9969  Top ID: 100.0
		One align captures most of this contig: 29533 39501 | 9969 1 | 9969 9969 | 100.0 | gi_828916677_gb_CP011582.1__Enterobacter_cloacae_strain_CAV1668_plasmid_pKPC_CAV1668__complete_sequence NODE_5_length_9969_cov_75.8242_component_0

CONTIG: NODE_6_length_5974_cov_91.7383_component_0 (5974bp)
		This contig is unaligned. (5974 bp)
		Unaligned bases: 5974  total: 110960

CONTIG: NODE_7_length_4494_cov_352.01_component_1 (4494bp)
		This contig is unaligned. (4494 bp)
		Unaligned bases: 4494  total: 115454

CONTIG: NODE_8_length_3348_cov_127.902_component_0 (3348bp)
		This contig is unaligned. (3348 bp)
		Unaligned bases: 3348  total: 118802

CONTIG: NODE_9_length_2146_cov_168.132_component_0 (2146bp)
Top Length: 2146  Top ID: 100.0
		One align captures most of this contig: 27464 29609 | 1 2146 | 2146 2146 | 100.0 | gi_828916677_gb_CP011582.1__Enterobacter_cloacae_strain_CAV1668_plasmid_pKPC_CAV1668__complete_sequence NODE_9_length_2146_cov_168.132_component_0

CONTIG: NODE_10_length_1996_cov_87.1668_component_0 (1996bp)
		This contig is unaligned. (1996 bp)
		Unaligned bases: 1996  total: 120798

CONTIG: NODE_11_length_1616_cov_181.703_component_0 (1616bp)
Top Length: 1616  Top ID: 100.0
		One align captures most of this contig: 40620 42235 | 1616 1 | 1616 1616 | 100.0 | gi_828916677_gb_CP011582.1__Enterobacter_cloacae_strain_CAV1668_plasmid_pKPC_CAV1668__complete_sequence NODE_11_length_1616_cov_181.703_component_0

CONTIG: NODE_12_length_1370_cov_84.4308_component_1 (1370bp)
		This contig is unaligned. (1370 bp)
		Unaligned bases: 1370  total: 122168

CONTIG: NODE_13_length_1364_cov_428.393_component_0 (1364bp)
		This contig is unaligned. (1364 bp)
		Unaligned bases: 1364  total: 123532

CONTIG: NODE_14_length_1228_cov_304.305_component_1 (1228bp)
		This contig is unaligned. (1228 bp)
		Unaligned bases: 1228  total: 124760

CONTIG: NODE_15_length_968_cov_170.825_component_0 (968bp)
Top Length: 968  Top ID: 100.0
		One align captures most of this contig: 39425 40392 | 1 968 | 968 968 | 100.0 | gi_828916677_gb_CP011582.1__Enterobacter_cloacae_strain_CAV1668_plasmid_pKPC_CAV1668__complete_sequence NODE_15_length_968_cov_170.825_component_0

Analyzing coverage...
Writing SNPs into /home/mmbbio/Plasmid_Assembly/completegenomes/plasmids/CAV1668_plasmids_references/group_1.fasta_comparison_spades/contigs_reports/nucmer_output/prediction.used_snps
	Reference gi_828916677_gb_CP011582.1__Enterobacter_cloacae_strain_CAV1668_plasmid_pKPC_CAV1668__complete_sequence: 6 total alignments. 1 total regions.
		Region: 1 to 43433 (43433 bp)
			Align 1: 1 27540 NODE_3_length_28815_cov_100.167_component_0 1276 28815
				Negative gap (overlap) between this and next alignment: 27540 to 27464 (-76 bp)
				Next Alignment: 27464 29609 NODE_9_length_2146_cov_168.132_component_0 1 2146

			Previous gap was negative, modifying coordinates to ignore overlap
				Moving contig start from 1 to 78.
			Align 2: 27541 29609 NODE_9_length_2146_cov_168.132_component_0 78 2146
				Negative gap (overlap) between this and next alignment: 29609 to 29533 (-76 bp)
				Next Alignment: 29533 39501 NODE_5_length_9969_cov_75.8242_component_0 9969 1

			Previous gap was negative, modifying coordinates to ignore overlap
				Moving contig start from 9969 to 9892.
			Align 3: 29610 39501 NODE_5_length_9969_cov_75.8242_component_0 9892 1
				Negative gap (overlap) between this and next alignment: 39501 to 39425 (-76 bp)
				Next Alignment: 39425 40392 NODE_15_length_968_cov_170.825_component_0 1 968

			Previous gap was negative, modifying coordinates to ignore overlap
				Moving contig start from 1 to 78.
			Align 4: 39502 40392 NODE_15_length_968_cov_170.825_component_0 78 968
				Gap between this and next alignment: 40392 to 40620 (227 bp)
				Next Alignment: 40620 42235 NODE_11_length_1616_cov_181.703_component_0 1616 1

			Align 5: 40620 42235 NODE_11_length_1616_cov_181.703_component_0 1616 1
				Negative gap (overlap) between this and next alignment: 42235 to 42159 (-76 bp)
				Next Alignment: 42159 43433 NODE_3_length_28815_cov_100.167_component_0 1 1275

			Previous gap was negative, modifying coordinates to ignore overlap
				Moving contig start from 1 to 78.
			Align 6: 42236 43433 NODE_3_length_28815_cov_100.167_component_0 78 1275
			END in current alignment.  Modifying 43433 to 43433.

Analysis is finished!
Founded SNPs were written into /home/mmbbio/Plasmid_Assembly/completegenomes/plasmids/CAV1668_plasmids_references/group_1.fasta_comparison_spades/contigs_reports/nucmer_output/prediction.used_snps

Results:
	Local Misassemblies: 0
	Misassemblies: 0
		Relocations: 0
		Translocations: 0
		Inversions: 0
	Misassembled Contigs: 0
	Misassembled Contig Bases: 0
	Misassemblies Inter-Contig Overlap: 0
Uncovered Regions: 0 (0)
Unaligned Contigs: 10 + 0 part
Partially Unaligned Contigs with Misassemblies: 0
Unaligned Contig Bases: 124760

Ambiguously Mapped Contigs: 0
Extra Bases in Ambiguously Mapped Contigs: 0
Note that --allow-ambiguity option was set to "all" and each of these contigs was used several times.

	Covered Bases: 43206

	SNPs: 0
	Insertions: 0
	Deletions: 0

	Positive Gaps: 1
		Internal Gaps:  0
		External Gaps:  1
		External Gap Total:  227
		External Gap Average: 227
	Negative Gaps: 4
		Internal Overlaps:  0
		External Overlaps:  4
		External Overlaps Total: -304
		External Overlaps Average: -76
	Contigs with Redundant Alignments: 0 (0)
