Assembly	prediction
# contigs (>= 0 bp)	3
# contigs (>= 1000 bp)	3
# contigs (>= 5000 bp)	3
# contigs (>= 10000 bp)	2
# contigs (>= 25000 bp)	2
# contigs (>= 50000 bp)	1
Total length (>= 0 bp)	152877
Total length (>= 1000 bp)	152877
Total length (>= 5000 bp)	152877
Total length (>= 10000 bp)	147467
Total length (>= 25000 bp)	147467
Total length (>= 50000 bp)	111395
# contigs	3
Largest contig	111395
Total length	152877
Reference length	111395
GC (%)	48.46
Reference GC (%)	48.87
N50	111395
NG50	111395
N75	36072
NG75	111395
L50	1
LG50	1
L75	2
LG75	1
# misassemblies	0
# misassembled contigs	0
Misassembled contigs length	0
# local misassemblies	0
# unaligned contigs	2 + 0 part
Unaligned length	41482
Genome fraction (%)	100.000
Duplication ratio	1.000
# N's per 100 kbp	0.00
# mismatches per 100 kbp	0.00
# indels per 100 kbp	0.00
Largest alignment	111395
NA50	111395
NGA50	111395
NGA75	111395
LA50	1
LGA50	1
LGA75	1
