Aligning contigs to reference...
	Running Nucmer
Parsing coords...
Loading reference...
	Loaded [gi_828982668_gb_CP011654.1__Citrobacter_freundii_strain_CAV1741_plasmid_pCAV1741-101__complete_sequence]
Loading SNPs...
Loading regions...
	No regions given, using whole reference.
	Total Regions: 1
	Total Region Length: 100873
Analyzing contigs...
CONTIG: NODE_17_length_109765_cov_49.614 (109765bp)
		This contig is unaligned. (109765 bp)
		Unaligned bases: 109765  total: 109765

CONTIG: NODE_37_length_28815_cov_73.1474 (28815bp)
		This contig is unaligned. (28815 bp)
		Unaligned bases: 28815  total: 138580

CONTIG: NODE_24_length_71670_cov_98.7117 (71670bp)
Top Length: 659  Top ID: 99.7
		This contig is partially unaligned. (Aligned 659 out of 71670 bases)
		Alignment: 88486 89144 | 659 1 | 659 659 | 99.7 | gi_828982668_gb_CP011654.1__Citrobacter_freundii_strain_CAV1741_plasmid_pCAV1741-101__complete_sequence NODE_24_length_71670_cov_98.7117
		Unaligned bases: 660 to 71670 (71011)
		This contig has both significant aligned and unaligned parts (of length >= 500)!

Analyzing coverage...
Writing SNPs into /home/mmbbio/Plasmid_Assembly/completegenomes/plasmids/CAV1741_plasmids_references/group_4.fasta_comparison_plasmidfinder/contigs_reports/nucmer_output/prediction.used_snps
	Reference gi_828982668_gb_CP011654.1__Citrobacter_freundii_strain_CAV1741_plasmid_pCAV1741-101__complete_sequence: 1 total alignments. 1 total regions.
		Region: 1 to 100873 (100873 bp)
			START in gap: 1 to 88486 (88485 bp)
			Align 1: 88486 89144 NODE_24_length_71670_cov_98.7117 659 1
			END in gap: 89144 to 100873 (11729 bp)

Analysis is finished!
Founded SNPs were written into /home/mmbbio/Plasmid_Assembly/completegenomes/plasmids/CAV1741_plasmids_references/group_4.fasta_comparison_plasmidfinder/contigs_reports/nucmer_output/prediction.used_snps

Results:
	Local Misassemblies: 0
	Misassemblies: 0
		Relocations: 0
		Translocations: 0
		Inversions: 0
	Misassembled Contigs: 0
	Misassembled Contig Bases: 0
	Misassemblies Inter-Contig Overlap: 0
Uncovered Regions: 0 (0)
Unaligned Contigs: 2 + 1 part
Partially Unaligned Contigs with Misassemblies: 0
Unaligned Contig Bases: 209591

Ambiguously Mapped Contigs: 0
Extra Bases in Ambiguously Mapped Contigs: 0
Note that --allow-ambiguity option was set to "all" and each of these contigs was used several times.

	Covered Bases: 659

	SNPs: 2
	Insertions: 0
	Deletions: 0

	Positive Gaps: 2
		Internal Gaps:  0
		External Gaps:  2
		External Gap Total:  100214
		External Gap Average: 50107
	Negative Gaps: 0
		Internal Overlaps:  0
		External Overlaps:  0
		External Overlaps Total:  0
		External Overlaps Average: 0
	Contigs with Redundant Alignments: 0 (0)
