Assembly	prediction
# contigs (>= 0 bp)	4
# contigs (>= 1000 bp)	4
# contigs (>= 5000 bp)	3
# contigs (>= 10000 bp)	3
# contigs (>= 25000 bp)	1
# contigs (>= 50000 bp)	1
Total length (>= 0 bp)	150872
Total length (>= 1000 bp)	150872
Total length (>= 5000 bp)	149427
Total length (>= 10000 bp)	149427
Total length (>= 25000 bp)	113130
Total length (>= 50000 bp)	113130
# contigs	4
Largest contig	113130
Total length	150872
Reference length	54064
GC (%)	49.66
Reference GC (%)	52.29
N50	113130
NG50	113130
N75	23865
NG75	113130
L50	1
LG50	1
L75	2
LG75	1
# misassemblies	0
# misassembled contigs	0
Misassembled contigs length	0
# local misassemblies	0
# unaligned contigs	3 + 0 part
Unaligned length	138440
Genome fraction (%)	22.995
Duplication ratio	1.000
# N's per 100 kbp	0.00
# mismatches per 100 kbp	0.00
# indels per 100 kbp	0.00
Largest alignment	12432
NGA50	-
