Aligning contigs to reference...
	Running Nucmer
Parsing coords...
Loading reference...
	Loaded [gi_828905883_gb_CP011575.1__Klebsiella_pneumoniae_strain_CAV1392_plasmid_pKPC_CAV1392__complete_sequence]
Loading SNPs...
Loading regions...
	No regions given, using whole reference.
	Total Regions: 1
	Total Region Length: 43621
Analyzing contigs...
CONTIG: NODE_31_length_65173_cov_50.4139 (65173bp)
		This contig is unaligned. (65173 bp)
		Unaligned bases: 65173  total: 65173

CONTIG: NODE_35_length_43698_cov_118.975 (43698bp)
Top Length: 29685  Top ID: 100.0
		This contig is misassembled. 2 total aligns.
			Real Alignment 1: 1 29685 | 29685 1 | 29685 29685 | 100.0 | gi_828905883_gb_CP011575.1__Klebsiella_pneumoniae_strain_CAV1392_plasmid_pKPC_CAV1392__complete_sequence NODE_35_length_43698_cov_118.975
			  Fake misassembly (caused by linear representation of circular genome) between these two alignments
			Real Alignment 2: 29609 43621 | 43698 29686 | 14013 14013 | 100.0 | gi_828905883_gb_CP011575.1__Klebsiella_pneumoniae_strain_CAV1392_plasmid_pKPC_CAV1392__complete_sequence NODE_35_length_43698_cov_118.975

CONTIG: NODE_41_length_22981_cov_55.0822 (22981bp)
		This contig is unaligned. (22981 bp)
		Unaligned bases: 22981  total: 88154

CONTIG: NODE_48_length_16579_cov_59.4073 (16579bp)
		This contig is unaligned. (16579 bp)
		Unaligned bases: 16579  total: 104733

CONTIG: NODE_52_length_7372_cov_83.8263 (7372bp)
		This contig is unaligned. (7372 bp)
		Unaligned bases: 7372  total: 112105

CONTIG: NODE_53_length_5954_cov_53.9694 (5954bp)
		This contig is unaligned. (5954 bp)
		Unaligned bases: 5954  total: 118059

CONTIG: NODE_54_length_5835_cov_87.2015 (5835bp)
		This contig is unaligned. (5835 bp)
		Unaligned bases: 5835  total: 123894

CONTIG: NODE_56_length_4492_cov_88.1841 (4492bp)
		This contig is unaligned. (4492 bp)
		Unaligned bases: 4492  total: 128386

CONTIG: NODE_57_length_4312_cov_47.4017 (4312bp)
		This contig is unaligned. (4312 bp)
		Unaligned bases: 4312  total: 132698

CONTIG: NODE_59_length_3581_cov_70.3396 (3581bp)
		This contig is unaligned. (3581 bp)
		Unaligned bases: 3581  total: 136279

CONTIG: NODE_62_length_2786_cov_74.3854 (2786bp)
		This contig is unaligned. (2786 bp)
		Unaligned bases: 2786  total: 139065

CONTIG: NODE_64_length_2404_cov_110.183 (2404bp)
		This contig is unaligned. (2404 bp)
		Unaligned bases: 2404  total: 141469

CONTIG: NODE_65_length_2355_cov_48.9903 (2355bp)
		This contig is unaligned. (2355 bp)
		Unaligned bases: 2355  total: 143824

CONTIG: NODE_67_length_1893_cov_346.64 (1893bp)
		This contig is unaligned. (1893 bp)
		Unaligned bases: 1893  total: 145717

CONTIG: NODE_75_length_1196_cov_191.025 (1196bp)
		This contig is unaligned. (1196 bp)
		Unaligned bases: 1196  total: 146913

Analyzing coverage...
Writing SNPs into /home/mmbbio/Plasmid_Assembly/completegenomes/plasmids/CAV1392_plasmids_references/group_1.fasta_comparison_cbar/contigs_reports/nucmer_output/prediction.used_snps
	Reference gi_828905883_gb_CP011575.1__Klebsiella_pneumoniae_strain_CAV1392_plasmid_pKPC_CAV1392__complete_sequence: 2 total alignments. 1 total regions.
		Region: 1 to 43621 (43621 bp)
			Align 1: 1 29685 NODE_35_length_43698_cov_118.975 29685 1
				Negative gap (overlap) between this and next alignment: 29685 to 29609 (-76 bp)
				Next Alignment: 29609 43621 NODE_35_length_43698_cov_118.975 43698 29686

			Previous gap was negative, modifying coordinates to ignore overlap
				Moving contig start from 43698 to 43621.
			Align 2: 29686 43621 NODE_35_length_43698_cov_118.975 43621 29686
			END in current alignment.  Modifying 43621 to 43621.

Analysis is finished!
Founded SNPs were written into /home/mmbbio/Plasmid_Assembly/completegenomes/plasmids/CAV1392_plasmids_references/group_1.fasta_comparison_cbar/contigs_reports/nucmer_output/prediction.used_snps

Results:
	Local Misassemblies: 0
	Misassemblies: 0
		Relocations: 0
		Translocations: 0
		Inversions: 0
	Misassembled Contigs: 0
	Misassembled Contig Bases: 0
	Misassemblies Inter-Contig Overlap: 0
Uncovered Regions: 0 (0)
Unaligned Contigs: 14 + 0 part
Partially Unaligned Contigs with Misassemblies: 0
Unaligned Contig Bases: 146913

Ambiguously Mapped Contigs: 0
Extra Bases in Ambiguously Mapped Contigs: 0
Note that --allow-ambiguity option was set to "all" and each of these contigs was used several times.

	Covered Bases: 43621

	SNPs: 0
	Insertions: 0
	Deletions: 0

	Positive Gaps: 0
		Internal Gaps:  0
		External Gaps:  0
		External Gap Total:  0
		External Gap Average: 0
	Negative Gaps: 1
		Internal Overlaps:  1
		External Overlaps:  0
		External Overlaps Total:  0
		External Overlaps Average: 0
	Contigs with Redundant Alignments: 0 (0)
