Assembly	prediction
# contigs (>= 0 bp)	1097
# contigs (>= 1000 bp)	86
# contigs (>= 5000 bp)	21
# contigs (>= 10000 bp)	8
# contigs (>= 25000 bp)	4
# contigs (>= 50000 bp)	0
Total length (>= 0 bp)	589203
Total length (>= 1000 bp)	428706
Total length (>= 5000 bp)	282772
Total length (>= 10000 bp)	193669
Total length (>= 25000 bp)	129737
Total length (>= 50000 bp)	0
# contigs	115
Largest contig	46687
Total length	448856
Reference length	15096
GC (%)	53.16
Reference GC (%)	53.54
N50	7495
NG50	46687
N75	3342
NG75	46687
L50	12
LG50	1
L75	36
LG75	1
# misassemblies	0
# misassembled contigs	0
Misassembled contigs length	0
# local misassemblies	0
# unaligned contigs	106 + 0 part
Unaligned length	434434
Genome fraction (%)	92.985
Duplication ratio	1.027
# N's per 100 kbp	0.00
# mismatches per 100 kbp	0.00
# indels per 100 kbp	0.00
Largest alignment	6205
NGA50	1805
NGA75	1622
LGA50	2
LGA75	4
