All statistics are based on contigs of size >= 500 bp, unless otherwise noted (e.g., "# contigs (>= 0 bp)" and "Total length (>= 0 bp)" include all contigs).

Assembly    # contigs (>= 0 bp)  # contigs (>= 1000 bp)  # contigs (>= 5000 bp)  # contigs (>= 10000 bp)  # contigs (>= 25000 bp)  # contigs (>= 50000 bp)  Total length (>= 0 bp)  Total length (>= 1000 bp)  Total length (>= 5000 bp)  Total length (>= 10000 bp)  Total length (>= 25000 bp)  Total length (>= 50000 bp)  # contigs  Largest contig  Total length  Reference length  GC (%)  Reference GC (%)  N50     NG50    N75     L50  LG50  L75  # unaligned contigs  Unaligned length  # N's per 100 kbp  NGA50
prediction  2                    2                       1                       1                        1                        1                        180835                  180835                     179532                     179532                      179532                      179532                      2          179532          180835        243709            51.46   48.09             179532  179532  179532  1    1     1    2 + 0 part           180835            0.00               -    
