Aligning contigs to reference...
	Running Nucmer
Parsing coords...
Loading reference...
	Loaded [gi_1039435161_ref_NZ_CP014765.1__Klebsiella_pneumoniae_strain_KPNIH39_plasmid_pKpQIL-9b8__complete_sequence]
Loading SNPs...
Loading regions...
	No regions given, using whole reference.
	Total Regions: 1
	Total Region Length: 106559
Analyzing contigs...
CONTIG: RNODE_4_length_18023_cov_104.33668 (17879bp)
		This contig is unaligned. (17879 bp)
		Unaligned bases: 17879  total: 17879

CONTIG: RNODE_2_length_5665_cov_885.40921 (5521bp)
		This contig is unaligned. (5521 bp)
		Unaligned bases: 5521  total: 23400

CONTIG: RNODE_1_length_36779_cov_288.29700 (36707bp)
		This contig is unaligned. (36707 bp)
		Unaligned bases: 36707  total: 60107

CONTIG: RNODE_3_length_3500_cov_152.61009 (3356bp)
Top Length: 3356  Top ID: 100.0
		One align captures most of this contig: 63437 66792 | 1 3356 | 3356 3356 | 100.0 | gi_1039435161_ref_NZ_CP014765.1__Klebsiella_pneumoniae_strain_KPNIH39_plasmid_pKpQIL-9b8__complete_sequence RNODE_3_length_3500_cov_152.61009

Analyzing coverage...
Writing SNPs into /home/mmbbio/Plasmid_Assembly/completegenomes/plasmids/KPNIH39_plasmids_references/group_3.fasta_comparison_recycler/contigs_reports/nucmer_output/prediction.used_snps
	Reference gi_1039435161_ref_NZ_CP014765.1__Klebsiella_pneumoniae_strain_KPNIH39_plasmid_pKpQIL-9b8__complete_sequence: 1 total alignments. 1 total regions.
		Region: 1 to 106559 (106559 bp)
			START in gap: 1 to 63437 (63436 bp)
			Align 1: 63437 66792 RNODE_3_length_3500_cov_152.61009 1 3356
			END in gap: 66792 to 106559 (39767 bp)

Analysis is finished!
Founded SNPs were written into /home/mmbbio/Plasmid_Assembly/completegenomes/plasmids/KPNIH39_plasmids_references/group_3.fasta_comparison_recycler/contigs_reports/nucmer_output/prediction.used_snps

Results:
	Local Misassemblies: 0
	Misassemblies: 0
		Relocations: 0
		Translocations: 0
		Inversions: 0
	Misassembled Contigs: 0
	Misassembled Contig Bases: 0
	Misassemblies Inter-Contig Overlap: 0
Uncovered Regions: 0 (0)
Unaligned Contigs: 3 + 0 part
Partially Unaligned Contigs with Misassemblies: 0
Unaligned Contig Bases: 60107

Ambiguously Mapped Contigs: 0
Extra Bases in Ambiguously Mapped Contigs: 0
Note that --allow-ambiguity option was set to "all" and each of these contigs was used several times.

	Covered Bases: 3356

	SNPs: 0
	Insertions: 0
	Deletions: 0

	Positive Gaps: 2
		Internal Gaps:  0
		External Gaps:  2
		External Gap Total:  103203
		External Gap Average: 51602
	Negative Gaps: 0
		Internal Overlaps:  0
		External Overlaps:  0
		External Overlaps Total:  0
		External Overlaps Average: 0
	Contigs with Redundant Alignments: 0 (0)
