Nucmer: nothing aligned for /home/mmbbio/Plasmid_Assembly/completegenomes/plasmids/CAV1596_plasmids_references/group_3.fasta_comparison_recycler/quast_corrected_input/prediction.fas
parison_recycler/contigs_reports/nucmer_output/prediction.ntref" of length 77802
# construct suffix tree for sequence of length 77802
# (maximum reference length is 536870908)
# (maximum query length is 4294967295)
# CONSTRUCTIONTIME /home/mmbbio/Plasmid_Assembly/programmes/quast-4.1/libs/MUMmer3.23-linux/mummer /home/mmbbio/Plasmid_Assembly/completegenomes/plasmids/CAV1596_plasmids_references/group_3.fasta_comparison_recycler/contigs_reports/nucmer_output/prediction.ntref 0.01
# reading input file "/home/mmbbio/Plasmid_Assembly/completegenomes/plasmids/CAV1596_plasmids_references/group_3.fasta_comparison_recycler/quast_corrected_input/prediction.fas" of length 232211
# matching query-file "/home/mmbbio/Plasmid_Assembly/completegenomes/plasmids/CAV1596_plasmids_references/group_3.fasta_comparison_recycler/quast_corrected_input/prediction.fas"
# against subject-file "/home/mmbbio/Plasmid_Assembly/completegenomes/plasmids/CAV1596_plasmids_references/group_3.fasta_comparison_recycler/contigs_reports/nucmer_output/prediction.ntref"
# COMPLETETIME /home/mmbbio/Plasmid_Assembly/programmes/quast-4.1/libs/MUMmer3.23-linux/mummer /home/mmbbio/Plasmid_Assembly/completegenomes/plasmids/CAV1596_plasmids_references/group_3.fasta_comparison_recycler/contigs_reports/nucmer_output/prediction.ntref 0.07
# SPACE /home/mmbbio/Plasmid_Assembly/programmes/quast-4.1/libs/MUMmer3.23-linux/mummer /home/mmbbio/Plasmid_Assembly/completegenomes/plasmids/CAV1596_plasmids_references/group_3.fasta_comparison_recycler/contigs_reports/nucmer_output/prediction.ntref 0.30
4: FINISHING DATA
