S1	E1	S2	E2	Reference	Contig	IDY	Ambiguous
CONTIG	NODE_39_length_34880_cov_80.3536	34880	unaligned
CONTIG	NODE_54_length_22109_cov_70.3878	22109	unaligned
CONTIG	NODE_62_length_13551_cov_64.9201	13551	unaligned
CONTIG	NODE_63_length_12757_cov_70.2397	12757	unaligned
41229	51321	1	10093	gi_828921812_gb_CP011587.1__Enterobacter_asburiae_strain_CAV1043_plasmid_pCAV1043-51__complete_sequence	NODE_64_length_12423_cov_40.7965	100.0	
fake misassembly (linear representation of circular genome)
1	2330	10094	12423	gi_828921812_gb_CP011587.1__Enterobacter_asburiae_strain_CAV1043_plasmid_pCAV1043-51__complete_sequence	NODE_64_length_12423_cov_40.7965	100.0	
CONTIG	NODE_64_length_12423_cov_40.7965	12423	correct
CONTIG	NODE_66_length_10713_cov_72.4625	10713	unaligned
CONTIG	NODE_69_length_9509_cov_72.4271	9509	unaligned
CONTIG	NODE_70_length_9133_cov_73.1019	9133	unaligned
11425	19399	7975	1	gi_828921812_gb_CP011587.1__Enterobacter_asburiae_strain_CAV1043_plasmid_pCAV1043-51__complete_sequence	NODE_72_length_7975_cov_43.1421	100.0	
CONTIG	NODE_72_length_7975_cov_43.1421	7975	correct
CONTIG	NODE_73_length_7668_cov_35.0908	7668	unaligned
CONTIG	NODE_74_length_7538_cov_44.8467	7538	unaligned
CONTIG	NODE_76_length_6654_cov_39.9748	6654	unaligned
CONTIG	NODE_80_length_6367_cov_37.3493	6367	unaligned
CONTIG	NODE_81_length_6196_cov_42.2536	6196	unaligned
CONTIG	NODE_86_length_5571_cov_251.072	5571	unaligned
CONTIG	NODE_93_length_3664_cov_291.432	3664	unaligned
CONTIG	NODE_93_length_3664_cov_291.432	3664	unaligned
2254	5882	1	3629	gi_828921812_gb_CP011587.1__Enterobacter_asburiae_strain_CAV1043_plasmid_pCAV1043-51__complete_sequence	NODE_94_length_3629_cov_79.5526	99.97	
CONTIG	NODE_94_length_3629_cov_79.5526	3629	correct
2254	5882	1	3629	gi_828921812_gb_CP011587.1__Enterobacter_asburiae_strain_CAV1043_plasmid_pCAV1043-51__complete_sequence	NODE_94_length_3629_cov_79.5526	99.97	
CONTIG	NODE_94_length_3629_cov_79.5526	3629	correct
21375	24655	1	3281	gi_828921812_gb_CP011587.1__Enterobacter_asburiae_strain_CAV1043_plasmid_pCAV1043-51__complete_sequence	NODE_96_length_3281_cov_41.9863	100.0	
CONTIG	NODE_96_length_3281_cov_41.9863	3281	correct
CONTIG	NODE_98_length_2338_cov_46.4507	2338	unaligned
7987	10273	2287	1	gi_828921812_gb_CP011587.1__Enterobacter_asburiae_strain_CAV1043_plasmid_pCAV1043-51__complete_sequence	NODE_100_length_2287_cov_40.6774	100.0	
CONTIG	NODE_100_length_2287_cov_40.6774	2287	correct
CONTIG	NODE_102_length_1985_cov_42.1258	1985	unaligned
CONTIG	NODE_104_length_1937_cov_352.388	1937	unaligned
CONTIG	NODE_119_length_898_cov_303.289	898	unaligned
CONTIG	NODE_123_length_697_cov_346.892	697	unaligned
CONTIG	NODE_124_length_657_cov_144.736	657	unaligned
