S1	E1	S2	E2	Reference	Contig	IDY	Ambiguous
217	4611	4395	1	gi_470157235_ref_NC_020553.1__Corynebacterium_callunae_DSM_20147_plasmid_pCC2__complete_sequence	NODE_18_length_4395_cov_148.757	100.0	
CONTIG	NODE_18_length_4395_cov_148.757	4395	correct
CONTIG	NODE_19_length_4186_cov_2298.07	4186	unaligned
