Assembly	prediction
# contigs (>= 0 bp)	119
# contigs (>= 1000 bp)	49
# contigs (>= 5000 bp)	20
# contigs (>= 10000 bp)	10
# contigs (>= 25000 bp)	3
# contigs (>= 50000 bp)	1
Total length (>= 0 bp)	378890
Total length (>= 1000 bp)	352941
Total length (>= 5000 bp)	297190
Total length (>= 10000 bp)	237193
Total length (>= 25000 bp)	136276
Total length (>= 50000 bp)	56873
# contigs	64
Largest contig	56873
Total length	364377
Reference length	113639
GC (%)	52.87
Reference GC (%)	53.93
N50	13083
NG50	56873
N75	5541
NG75	49173
L50	6
LG50	1
L75	16
LG75	2
# misassemblies	0
# misassembled contigs	0
Misassembled contigs length	0
# local misassemblies	1
# unaligned contigs	28 + 7 part
Unaligned length	244280
Genome fraction (%)	94.021
Duplication ratio	1.124
# N's per 100 kbp	51.32
# mismatches per 100 kbp	205.91
# indels per 100 kbp	3.74
Largest alignment	21535
NGA50	5598
NGA75	3220
LGA50	4
LGA75	10
