S1	E1	S2	E2	Reference	Contig	IDY	Ambiguous
CONTIG	NODE_19_length_112462_cov_61.518	112462	unaligned
CONTIG	NODE_20_length_111472_cov_36.0773	111472	unaligned
1	48374	48374	1	gi_828927110_gb_CP011593.1__Klebsiella_oxytoca_strain_CAV1099_plasmid_pCAV1099-69__complete_sequence	NODE_33_length_59208_cov_69.3908	100.0	
fake misassembly (linear representation of circular genome)
58077	68910	59208	48375	gi_828927110_gb_CP011593.1__Klebsiella_oxytoca_strain_CAV1099_plasmid_pCAV1099-69__complete_sequence	NODE_33_length_59208_cov_69.3908	100.0	
CONTIG	NODE_33_length_59208_cov_69.3908	59208	correct
CONTIG	NODE_48_length_26059_cov_35.7735	26059	unaligned
CONTIG	NODE_53_length_20939_cov_42.0628	20939	unaligned
CONTIG	NODE_57_length_9081_cov_41.1851	9081	unaligned
CONTIG	NODE_62_length_6406_cov_39.9374	6406	unaligned
CONTIG	NODE_66_length_5487_cov_180.899	5487	unaligned
CONTIG	NODE_69_length_4813_cov_178.66	4813	unaligned
50620	54382	1	3760	gi_828927110_gb_CP011593.1__Klebsiella_oxytoca_strain_CAV1099_plasmid_pCAV1099-69__complete_sequence	NODE_74_length_3760_cov_78.4073	99.92	
CONTIG	NODE_74_length_3760_cov_78.4073	3760	correct
CONTIG	NODE_76_length_3490_cov_38.3777	3490	unaligned
CONTIG	NODE_82_length_2878_cov_38.9154	2878	unaligned
CONTIG	NODE_85_length_2362_cov_35.5282	2362	unaligned
CONTIG	NODE_87_length_2145_cov_69.0309	2145	unaligned
55291	57410	1	2120	gi_828927110_gb_CP011593.1__Klebsiella_oxytoca_strain_CAV1099_plasmid_pCAV1099-69__complete_sequence	NODE_88_length_2120_cov_60.2075	100.0	
CONTIG	NODE_88_length_2120_cov_60.2075	2120	correct
49436	50699	1	1261	gi_828927110_gb_CP011593.1__Klebsiella_oxytoca_strain_CAV1099_plasmid_pCAV1099-69__complete_sequence	NODE_100_length_1261_cov_148.476	99.6	
CONTIG	NODE_100_length_1261_cov_148.476	1261	correct
CONTIG	NODE_104_length_1122_cov_36.999	1122	unaligned
54306	55367	1062	1	gi_828927110_gb_CP011593.1__Klebsiella_oxytoca_strain_CAV1099_plasmid_pCAV1099-69__complete_sequence	NODE_107_length_1062_cov_224.837	100.0	
CONTIG	NODE_107_length_1062_cov_224.837	1062	correct
CONTIG	NODE_110_length_911_cov_64.3094	911	unaligned
48298	49094	1	797	gi_828927110_gb_CP011593.1__Klebsiella_oxytoca_strain_CAV1099_plasmid_pCAV1099-69__complete_sequence	NODE_114_length_797_cov_209.658	100.0	
CONTIG	NODE_114_length_797_cov_209.658	797	correct
CONTIG	NODE_118_length_692_cov_24.7821	692	unaligned
