S1	E1	S2	E2	Reference	Contig	IDY	Ambiguous
CONTIG	NODE_25_length_56011_cov_20.8724	56011	unaligned
48564	69547	1	20984	gi_556555179_ref_NC_022651.1__Escherichia_coli_JJ1886_plasmid_pJJ1886_5__complete_sequence	NODE_39_length_20984_cov_26.0119	100.0	
CONTIG	NODE_39_length_20984_cov_26.0119	20984	correct
34915	47896	1	12982	gi_556555179_ref_NC_022651.1__Escherichia_coli_JJ1886_plasmid_pJJ1886_5__complete_sequence	NODE_44_length_12982_cov_25.9024	100.0	
CONTIG	NODE_44_length_12982_cov_25.9024	12982	correct
97325	107563	10233	1	gi_556555179_ref_NC_022651.1__Escherichia_coli_JJ1886_plasmid_pJJ1886_5__complete_sequence	NODE_49_length_10233_cov_28.5281	99.87	
CONTIG	NODE_49_length_10233_cov_28.5281	10233	correct
10682	19730	1	9055	gi_556555179_ref_NC_022651.1__Escherichia_coli_JJ1886_plasmid_pJJ1886_5__complete_sequence	NODE_52_length_9055_cov_23.8241	99.92	
CONTIG	NODE_52_length_9055_cov_23.8241	9055	correct
2478	10534	8057	1	gi_556555179_ref_NC_022651.1__Escherichia_coli_JJ1886_plasmid_pJJ1886_5__complete_sequence	NODE_56_length_8057_cov_29.4494	100.0	
CONTIG	NODE_56_length_8057_cov_29.4494	8057	correct
CONTIG	NODE_67_length_5680_cov_234.977	5680	unaligned
25845	31284	5440	1	gi_556555179_ref_NC_022651.1__Escherichia_coli_JJ1886_plasmid_pJJ1886_5__complete_sequence	NODE_71_length_5440_cov_27.2327	100.0	
CONTIG	NODE_71_length_5440_cov_27.2327	5440	correct
CONTIG	NODE_76_length_5222_cov_267.312	5222	unaligned
20240	25177	4938	1	gi_556555179_ref_NC_022651.1__Escherichia_coli_JJ1886_plasmid_pJJ1886_5__complete_sequence	NODE_79_length_4938_cov_27.3099	100.0	
CONTIG	NODE_79_length_4938_cov_27.3099	4938	correct
1	2532	1	2532	gi_556555179_ref_NC_022651.1__Escherichia_coli_JJ1886_plasmid_pJJ1886_5__complete_sequence	NODE_203_length_2532_cov_187.064	100.0	True
107509	110040	1	2532	gi_556555179_ref_NC_022651.1__Escherichia_coli_JJ1886_plasmid_pJJ1886_5__complete_sequence	NODE_203_length_2532_cov_187.064	100.0	True
CONTIG	NODE_203_length_2532_cov_187.064	2532	correct
31952	34247	1	2296	gi_556555179_ref_NC_022651.1__Escherichia_coli_JJ1886_plasmid_pJJ1886_5__complete_sequence	NODE_253_length_2296_cov_29.0549	100.0	
CONTIG	NODE_253_length_2296_cov_29.0549	2296	correct
CONTIG	NODE_505_length_1601_cov_120.274	1601	unaligned
96612	97379	1	768	gi_556555179_ref_NC_022651.1__Escherichia_coli_JJ1886_plasmid_pJJ1886_5__complete_sequence	NODE_1306_length_768_cov_75.5933	100.0	
CONTIG	NODE_1306_length_768_cov_75.5933	768	correct
69493	70111	1	619	gi_556555179_ref_NC_022651.1__Escherichia_coli_JJ1886_plasmid_pJJ1886_5__complete_sequence	NODE_1577_length_619_cov_29.1986	100.0	True
19676	20294	619	1	gi_556555179_ref_NC_022651.1__Escherichia_coli_JJ1886_plasmid_pJJ1886_5__complete_sequence	NODE_1577_length_619_cov_29.1986	99.68	True
CONTIG	NODE_1577_length_619_cov_29.1986	619	correct
