Assembly	prediction
# misassemblies	0
    # relocations	0
    # translocations	0
    # inversions	0
# misassembled contigs	0
Misassembled contigs length	0
# local misassemblies	0
# mismatches	39
# indels	3
    # short indels	3
    # long indels	0
Indels length	3
