/home/arredondo/Documents/Sergio_Plasmid__Reconstruction/quast-4.1/quast.py -R ../Analysis_Data/gitlab_new/Plasmid_Assembly/completegenomes/plasmids/AATZP_plasmids_references/group_1.fasta -o prueba_AATZP_group1_recycler2 --min-alignment 500 --ambiguity-usage all ../Analysis_Data_3/recycler_SRR3228444/assembly_graph.cycs.fasta

Version: 4.1, build 26.05.2016 14:25

System information:
  OS: Linux-3.19.0-56-generic-x86_64-with-debian-jessie-sid (linux_64)
  Python version: 2.7.11
  CPUs number: 2

Started: 2016-10-04 13:34:30

Logging to /home/arredondo/Documents/Sergio_Plasmid__Reconstruction/quast-4.1/prueba_AATZP_group1_recycler2/quast.log

NOTICE: Maximum number of threads is set to 1 (use --threads option to set it manually)

Main parameters: 
  Threads: 1, minimum alignment length (Nucmer): 500, minimum contig length: 500, ambiguity: all, \
  threshold for extensive misassembly size: 1000

Reference:
  ../Analysis_Data/gitlab_new/Plasmid_Assembly/completegenomes/plasmids/AATZP_plasmids_references/group_1.fasta ==> group_1

Contigs:
  ../Analysis_Data_3/recycler_SRR3228444/assembly_graph.cycs.fasta ==> assembly_graph.cycs

2016-10-04 13:34:37
Running Basic statistics processor...
  Reference genome:
    group_1.fasta, Reference length = 121030, Reference GC % = 49.28
  Contig files: 
    assembly_graph.cycs
  Calculating N50 and L50...
    assembly_graph.cycs, N50 = 4167, L50 = 1, Total length = 4167, GC % = 41.49, # N's per 100 kbp =  0.00
  Drawing Nx plot...
    saved to /home/arredondo/Documents/Sergio_Plasmid__Reconstruction/quast-4.1/prueba_AATZP_group1_recycler2/basic_stats/Nx_plot.pdf
  Drawing NGx plot...
    saved to /home/arredondo/Documents/Sergio_Plasmid__Reconstruction/quast-4.1/prueba_AATZP_group1_recycler2/basic_stats/NGx_plot.pdf
  Drawing cumulative plot...
    saved to /home/arredondo/Documents/Sergio_Plasmid__Reconstruction/quast-4.1/prueba_AATZP_group1_recycler2/basic_stats/cumulative_plot.pdf
  Drawing GC content plot...
    saved to /home/arredondo/Documents/Sergio_Plasmid__Reconstruction/quast-4.1/prueba_AATZP_group1_recycler2/basic_stats/GC_content_plot.pdf
Done.

2016-10-04 13:34:38
Running Contig analyzer...
  assembly_graph.cycs
  Logging to files /home/arredondo/Documents/Sergio_Plasmid__Reconstruction/quast-4.1/prueba_AATZP_group1_recycler2/contigs_reports/contigs_report_assembly_graph.cycs.stdout and contigs_report_assembly_graph.cycs.stderr...
  Running Nucmer
  libs/E-MEM-linux/nucmer -c 65 -l 65 --maxmatch -p prueba_AATZP_group1_recycler2/contigs_reports/nucmer_output/assembly_graph.cycs \
  -t 1 prueba_AATZP_group1_recycler2/quast_corrected_input/group_1.fasta prueba_AATZP_group1_recycler2/quast_corrected_input/assembly_graph.cycs.fasta \
  >> prueba_AATZP_group1_recycler2/contigs_reports/contigs_report_assembly_graph.cycs.stdout \
  2>> prueba_AATZP_group1_recycler2/contigs_reports/contigs_report_assembly_graph.cycs.stderr
  libs/E-MEM-linux/delta-filter -i 95 -l 500 prueba_AATZP_group1_recycler2/contigs_reports/nucmer_output/assembly_graph.cycs.delta \
  > prueba_AATZP_group1_recycler2/contigs_reports/nucmer_output/assembly_graph.cycs.fdelta \
  2> prueba_AATZP_group1_recycler2/contigs_reports/contigs_report_assembly_graph.cycs.stderr
  libs/E-MEM-linux/show-coords prueba_AATZP_group1_recycler2/contigs_reports/nucmer_output/assembly_graph.cycs.delta \
  > prueba_AATZP_group1_recycler2/contigs_reports/nucmer_output/assembly_graph.cycs.coords_tmp \
  2> prueba_AATZP_group1_recycler2/contigs_reports/contigs_report_assembly_graph.cycs.stderr
  Nucmer: nothing aligned for 'assembly_graph.cycs'.
  Drawing misassemblies by types plot...
    saved to /home/arredondo/Documents/Sergio_Plasmid__Reconstruction/quast-4.1/prueba_AATZP_group1_recycler2/contigs_reports/misassemblies_plot.pdf
Failed aligning the contigs for all the assemblies. Only basic stats are going to be evaluated.

NOTICE: Genes are not predicted by default. Use --gene-finding option to enable it.

2016-10-04 13:34:38
Creating large visual summaries...
This may take a while: press Ctrl-C to skip this step..
  1 of 2: Creating Icarus viewers...
  2 of 2: Creating PDF with all tables and plots...
Done

2016-10-04 13:34:39
RESULTS:
  Text versions of total report are saved to /home/arredondo/Documents/Sergio_Plasmid__Reconstruction/quast-4.1/prueba_AATZP_group1_recycler2/report.txt, report.tsv, and report.tex
  Text versions of transposed total report are saved to /home/arredondo/Documents/Sergio_Plasmid__Reconstruction/quast-4.1/prueba_AATZP_group1_recycler2/transposed_report.txt, transposed_report.tsv, and transposed_report.tex
  HTML version (interactive tables and plots) saved to /home/arredondo/Documents/Sergio_Plasmid__Reconstruction/quast-4.1/prueba_AATZP_group1_recycler2/report.html
  PDF version (tables and plots) is saved to /home/arredondo/Documents/Sergio_Plasmid__Reconstruction/quast-4.1/prueba_AATZP_group1_recycler2/report.pdf
  Icarus (contig browser) is saved to /home/arredondo/Documents/Sergio_Plasmid__Reconstruction/quast-4.1/prueba_AATZP_group1_recycler2/icarus.html
  Log saved to /home/arredondo/Documents/Sergio_Plasmid__Reconstruction/quast-4.1/prueba_AATZP_group1_recycler2/quast.log

Finished: 2016-10-04 13:34:39
Elapsed time: 0:00:08.906658
NOTICEs: 2; WARNINGs: 0; non-fatal ERRORs: 0

Thank you for using QUAST!
