Assembly	prediction
# fully unaligned contigs	127
Fully unaligned length	2672371
# partially unaligned contigs	0
    # with misassembly	0
    # both parts are significant	0
Partially unaligned length	0
# N's	466
