Assembly	prediction
# contigs (>= 0 bp)	21
# contigs (>= 1000 bp)	14
# contigs (>= 5000 bp)	8
# contigs (>= 10000 bp)	7
# contigs (>= 25000 bp)	4
# contigs (>= 50000 bp)	3
Total length (>= 0 bp)	342728
Total length (>= 1000 bp)	341215
Total length (>= 5000 bp)	322436
Total length (>= 10000 bp)	316824
Total length (>= 25000 bp)	279027
Total length (>= 50000 bp)	250212
# contigs	15
Largest contig	109765
Total length	341806
Reference length	100873
GC (%)	50.92
Reference GC (%)	52.10
N50	71670
NG50	109765
N75	28815
NG75	109765
L50	2
LG50	1
L75	4
LG75	1
# misassemblies	0
# misassembled contigs	0
Misassembled contigs length	0
# local misassemblies	0
# unaligned contigs	7 + 2 part
Unaligned length	240303
Genome fraction (%)	99.266
Duplication ratio	1.014
# N's per 100 kbp	0.00
# mismatches per 100 kbp	22.97
# indels per 100 kbp	0.00
Largest alignment	68777
NGA50	68777
NGA75	16382
LGA50	1
LGA75	2
