Assembly	prediction
# contigs (>= 0 bp)	3
# contigs (>= 1000 bp)	3
# contigs (>= 5000 bp)	3
# contigs (>= 10000 bp)	2
# contigs (>= 25000 bp)	2
# contigs (>= 50000 bp)	1
Total length (>= 0 bp)	152877
Total length (>= 1000 bp)	152877
Total length (>= 5000 bp)	152877
Total length (>= 10000 bp)	147467
Total length (>= 25000 bp)	147467
Total length (>= 50000 bp)	111395
# contigs	3
Largest contig	111395
Total length	152877
Reference length	68910
GC (%)	48.46
Reference GC (%)	52.12
N50	111395
NG50	111395
N75	36072
NG75	111395
L50	1
LG50	1
L75	2
LG75	1
# unaligned contigs	3 + 0 part
Unaligned length	152877
# N's per 100 kbp	0.00
NGA50	-
