gi_749296015_ref_NZ_CP007729.1__Klebsiella_pneumoniae_subsp._pneumoniae_KPNIH10_plasmid_pKPN-498__complete_sequence
1 70
24181 25209
60462 61127
62322 62861
64283 64565
70274 70573
71373 71709
122114 122537
124179 124674
185558 185664
190097 190270
201109 201316
202017 205126
215220 215543
216319 216490
218077 218252
222444 222955
230263 230416
234165 236476
