Aligning contigs to reference...
	Running Nucmer
Parsing coords...
Loading reference...
	Loaded [gi_828965723_gb_CP011638.1__Serratia_marcescens_strain_CAV1492_plasmid_pCAV1492-6393__complete_sequence]
Loading SNPs...
Loading regions...
	No regions given, using whole reference.
	Total Regions: 1
	Total Region Length: 6393
Analyzing contigs...
CONTIG: NODE_17_length_85610_cov_41.7964 (85610bp)
		This contig is unaligned. (85610 bp)
		Unaligned bases: 85610  total: 85610

CONTIG: NODE_36_length_53513_cov_55.6771 (53513bp)
		This contig is unaligned. (53513 bp)
		Unaligned bases: 53513  total: 139123

CONTIG: NODE_39_length_45295_cov_43.4136 (45295bp)
		This contig is unaligned. (45295 bp)
		Unaligned bases: 45295  total: 184418

CONTIG: NODE_42_length_44227_cov_65.4766 (44227bp)
		This contig is unaligned. (44227 bp)
		Unaligned bases: 44227  total: 228645

CONTIG: NODE_56_length_22952_cov_45.2028 (22952bp)
		This contig is unaligned. (22952 bp)
		Unaligned bases: 22952  total: 251597

CONTIG: NODE_74_length_9239_cov_65.9114 (9239bp)
		This contig is unaligned. (9239 bp)
		Unaligned bases: 9239  total: 260836

CONTIG: NODE_78_length_7812_cov_59.7807 (7812bp)
		This contig is unaligned. (7812 bp)
		Unaligned bases: 7812  total: 268648

CONTIG: NODE_82_length_7523_cov_44.4805 (7523bp)
		This contig is unaligned. (7523 bp)
		Unaligned bases: 7523  total: 276171

CONTIG: NODE_84_length_4304_cov_102.448 (4304bp)
		This contig is unaligned. (4304 bp)
		Unaligned bases: 4304  total: 280475

CONTIG: NODE_87_length_3790_cov_42.585 (3790bp)
		This contig is unaligned. (3790 bp)
		Unaligned bases: 3790  total: 284265

CONTIG: NODE_88_length_3788_cov_65.4508 (3788bp)
		This contig is unaligned. (3788 bp)
		Unaligned bases: 3788  total: 288053

CONTIG: NODE_89_length_3664_cov_552.992 (3664bp)
Top Length: 3664  Top ID: 100.0
		One align captures most of this contig: 1481 5144 | 3664 1 | 3664 3664 | 100.0 | gi_828965723_gb_CP011638.1__Serratia_marcescens_strain_CAV1492_plasmid_pCAV1492-6393__complete_sequence NODE_89_length_3664_cov_552.992

CONTIG: NODE_92_length_3258_cov_554.317 (3258bp)
		This contig is unaligned. (3258 bp)
		Unaligned bases: 3258  total: 291311

CONTIG: NODE_96_length_2883_cov_397.245 (2883bp)
Top Length: 1557  Top ID: 100.0
		This contig is misassembled. 2 total aligns.
			Real Alignment 1: 5068 6393 | 1 1326 | 1326 1326 | 100.0 | gi_828965723_gb_CP011638.1__Serratia_marcescens_strain_CAV1492_plasmid_pCAV1492-6393__complete_sequence NODE_96_length_2883_cov_397.245
			  Fake misassembly (caused by linear representation of circular genome) between these two alignments
			Real Alignment 2: 1 1557 | 1327 2883 | 1557 1557 | 100.0 | gi_828965723_gb_CP011638.1__Serratia_marcescens_strain_CAV1492_plasmid_pCAV1492-6393__complete_sequence NODE_96_length_2883_cov_397.245

CONTIG: NODE_97_length_2766_cov_97.9472 (2766bp)
		This contig is unaligned. (2766 bp)
		Unaligned bases: 2766  total: 294077

CONTIG: NODE_104_length_1984_cov_67.1851 (1984bp)
		This contig is unaligned. (1984 bp)
		Unaligned bases: 1984  total: 296061

CONTIG: NODE_105_length_1959_cov_65.6482 (1959bp)
		This contig is unaligned. (1959 bp)
		Unaligned bases: 1959  total: 298020

CONTIG: NODE_112_length_1451_cov_66.7009 (1451bp)
		This contig is unaligned. (1451 bp)
		Unaligned bases: 1451  total: 299471

CONTIG: NODE_113_length_1370_cov_104.36 (1370bp)
		This contig is unaligned. (1370 bp)
		Unaligned bases: 1370  total: 300841

CONTIG: NODE_116_length_1261_cov_86.0321 (1261bp)
		This contig is unaligned. (1261 bp)
		Unaligned bases: 1261  total: 302102

CONTIG: NODE_118_length_1198_cov_97.8243 (1198bp)
		This contig is unaligned. (1198 bp)
		Unaligned bases: 1198  total: 303300

CONTIG: NODE_119_length_1120_cov_41.5628 (1120bp)
		This contig is unaligned. (1120 bp)
		Unaligned bases: 1120  total: 304420

Analyzing coverage...
Writing SNPs into /home/mmbbio/Plasmid_Assembly/completegenomes/plasmids/CAV1492_plasmids_references/group_2.fasta_comparison_cbar/contigs_reports/nucmer_output/prediction.used_snps
	Reference gi_828965723_gb_CP011638.1__Serratia_marcescens_strain_CAV1492_plasmid_pCAV1492-6393__complete_sequence: 3 total alignments. 1 total regions.
		Region: 1 to 6393 (6393 bp)
			Align 1: 1 1557 NODE_96_length_2883_cov_397.245 1327 2883
				Negative gap (overlap) between this and next alignment: 1557 to 1481 (-76 bp)
				Next Alignment: 1481 5144 NODE_89_length_3664_cov_552.992 3664 1

			Previous gap was negative, modifying coordinates to ignore overlap
				Moving contig start from 3664 to 3587.
			Align 2: 1558 5144 NODE_89_length_3664_cov_552.992 3587 1
				Negative gap (overlap) between this and next alignment: 5144 to 5068 (-76 bp)
				Next Alignment: 5068 6393 NODE_96_length_2883_cov_397.245 1 1326

			Previous gap was negative, modifying coordinates to ignore overlap
				Moving contig start from 1 to 78.
			Align 3: 5145 6393 NODE_96_length_2883_cov_397.245 78 1326
			END in current alignment.  Modifying 6393 to 6393.

Analysis is finished!
Founded SNPs were written into /home/mmbbio/Plasmid_Assembly/completegenomes/plasmids/CAV1492_plasmids_references/group_2.fasta_comparison_cbar/contigs_reports/nucmer_output/prediction.used_snps

Results:
	Local Misassemblies: 0
	Misassemblies: 0
		Relocations: 0
		Translocations: 0
		Inversions: 0
	Misassembled Contigs: 0
	Misassembled Contig Bases: 0
	Misassemblies Inter-Contig Overlap: 0
Uncovered Regions: 0 (0)
Unaligned Contigs: 20 + 0 part
Partially Unaligned Contigs with Misassemblies: 0
Unaligned Contig Bases: 304420

Ambiguously Mapped Contigs: 0
Extra Bases in Ambiguously Mapped Contigs: 0
Note that --allow-ambiguity option was set to "all" and each of these contigs was used several times.

	Covered Bases: 6393

	SNPs: 0
	Insertions: 0
	Deletions: 0

	Positive Gaps: 0
		Internal Gaps:  0
		External Gaps:  0
		External Gap Total:  0
		External Gap Average: 0
	Negative Gaps: 2
		Internal Overlaps:  0
		External Overlaps:  2
		External Overlaps Total: -152
		External Overlaps Average: -76
	Contigs with Redundant Alignments: 0 (0)
