Aligning contigs to reference...
	Running Nucmer
Parsing coords...
Loading reference...
	Loaded [gi_764911497_ref_NZ_CP008826.1__Enterobacter_cloacae_ECNIH2_plasmid_pKPC-f91__complete_sequence]
Loading SNPs...
Loading regions...
	No regions given, using whole reference.
	Total Regions: 1
	Total Region Length: 47290
Analyzing contigs...
CONTIG: NODE_23_length_58412_cov_74.3523 (58412bp)
		This contig is unaligned. (58412 bp)
		Unaligned bases: 58412  total: 58412

CONTIG: NODE_24_length_57218_cov_78.6688 (57218bp)
		This contig is unaligned. (57218 bp)
		Unaligned bases: 57218  total: 115630

CONTIG: NODE_30_length_32616_cov_247.178 (32616bp)
		This contig is unaligned. (32616 bp)
		Unaligned bases: 32616  total: 148246

CONTIG: NODE_36_length_24548_cov_170.662 (24548bp)
Top Length: 24548  Top ID: 100.0
		One align captures most of this contig: 3466 28013 | 24548 1 | 24548 24548 | 100.0 | gi_764911497_ref_NZ_CP008826.1__Enterobacter_cloacae_ECNIH2_plasmid_pKPC-f91__complete_sequence NODE_36_length_24548_cov_170.662

CONTIG: NODE_40_length_16701_cov_72.3346 (16701bp)
		This contig is unaligned. (16701 bp)
		Unaligned bases: 16701  total: 164947

CONTIG: NODE_41_length_16615_cov_244.582 (16615bp)
		This contig is unaligned. (16615 bp)
		Unaligned bases: 16615  total: 181562

CONTIG: NODE_43_length_15746_cov_103.957 (15746bp)
		This contig is unaligned. (15746 bp)
		Unaligned bases: 15746  total: 197308

CONTIG: NODE_45_length_12543_cov_251.915 (12543bp)
		This contig is unaligned. (12543 bp)
		Unaligned bases: 12543  total: 209851

CONTIG: NODE_46_length_11997_cov_69.1775 (11997bp)
		This contig is unaligned. (11997 bp)
		Unaligned bases: 11997  total: 221848

CONTIG: NODE_47_length_11538_cov_251.6 (11538bp)
		This contig is unaligned. (11538 bp)
		Unaligned bases: 11538  total: 233386

CONTIG: NODE_48_length_10695_cov_83.8646 (10695bp)
		This contig is unaligned. (10695 bp)
		Unaligned bases: 10695  total: 244081

CONTIG: NODE_50_length_10325_cov_222.992 (10325bp)
		This contig is unaligned. (10325 bp)
		Unaligned bases: 10325  total: 254406

CONTIG: NODE_51_length_10168_cov_294.03 (10168bp)
		This contig is unaligned. (10168 bp)
		Unaligned bases: 10168  total: 264574

CONTIG: NODE_55_length_7962_cov_224.198 (7962bp)
		This contig is unaligned. (7962 bp)
		Unaligned bases: 7962  total: 272536

CONTIG: NODE_56_length_6539_cov_74.232 (6539bp)
		This contig is unaligned. (6539 bp)
		Unaligned bases: 6539  total: 279075

CONTIG: NODE_57_length_6300_cov_136.8 (6300bp)
Top Length: 2299  Top ID: 99.83
		This contig is partially unaligned. (Aligned 2299 out of 6300 bases)
		Alignment: 32327 34626 | 4002 6300 | 2300 2299 | 99.83 | gi_764911497_ref_NZ_CP008826.1__Enterobacter_cloacae_ECNIH2_plasmid_pKPC-f91__complete_sequence NODE_57_length_6300_cov_136.8
		Unaligned bases: 1 to 4001 (4001)
		This contig has both significant aligned and unaligned parts (of length >= 500)!

CONTIG: NODE_58_length_6287_cov_207.662 (6287bp)
		This contig is unaligned. (6287 bp)
		Unaligned bases: 6287  total: 285362

CONTIG: NODE_59_length_6099_cov_211.403 (6099bp)
Top Length: 6098  Top ID: 100.0
		One align captures most of this contig: 41193 47290 | 6099 2 | 6098 6098 | 100.0 | gi_764911497_ref_NZ_CP008826.1__Enterobacter_cloacae_ECNIH2_plasmid_pKPC-f91__complete_sequence NODE_59_length_6099_cov_211.403

CONTIG: NODE_66_length_4752_cov_214.472 (4752bp)
		This contig is unaligned. (4752 bp)
		Unaligned bases: 4752  total: 290114

CONTIG: NODE_69_length_4405_cov_256.067 (4405bp)
		This contig is unaligned. (4405 bp)
		Unaligned bases: 4405  total: 294519

CONTIG: NODE_70_length_4267_cov_248.275 (4267bp)
		This contig is unaligned. (4267 bp)
		Unaligned bases: 4267  total: 298786

CONTIG: NODE_73_length_4106_cov_180.238 (4106bp)
		This contig is unaligned. (4106 bp)
		Unaligned bases: 4106  total: 302892

CONTIG: NODE_74_length_4057_cov_248.049 (4057bp)
		This contig is unaligned. (4057 bp)
		Unaligned bases: 4057  total: 306949

CONTIG: NODE_75_length_3760_cov_73.6533 (3760bp)
		This contig is unaligned. (3760 bp)
		Unaligned bases: 3760  total: 310709

CONTIG: NODE_78_length_3569_cov_262.893 (3569bp)
		This contig is unaligned. (3569 bp)
		Unaligned bases: 3569  total: 314278

CONTIG: NODE_81_length_3062_cov_236.941 (3062bp)
		This contig is unaligned. (3062 bp)
		Unaligned bases: 3062  total: 317340

CONTIG: NODE_82_length_2987_cov_211.085 (2987bp)
		This contig is unaligned. (2987 bp)
		Unaligned bases: 2987  total: 320327

CONTIG: NODE_83_length_2883_cov_71.9102 (2883bp)
		This contig is unaligned. (2883 bp)
		Unaligned bases: 2883  total: 323210

CONTIG: NODE_84_length_2869_cov_312.293 (2869bp)
		This contig is unaligned. (2869 bp)
		Unaligned bases: 2869  total: 326079

CONTIG: NODE_85_length_2760_cov_156.43 (2760bp)
Top Length: 2684  Top ID: 100.0
		This contig is partially unaligned. (Aligned 2684 out of 2760 bases)
		Alignment: 1 2684 | 2684 1 | 2684 2684 | 100.0 | gi_764911497_ref_NZ_CP008826.1__Enterobacter_cloacae_ECNIH2_plasmid_pKPC-f91__complete_sequence NODE_85_length_2760_cov_156.43
		Unaligned bases: 2685 to 2760 (76)

CONTIG: NODE_87_length_2636_cov_558.042 (2636bp)
		This contig is unaligned. (2636 bp)
		Unaligned bases: 2636  total: 328715

CONTIG: NODE_90_length_2404_cov_255.654 (2404bp)
		This contig is unaligned. (2404 bp)
		Unaligned bases: 2404  total: 331119

CONTIG: NODE_91_length_2361_cov_262.009 (2361bp)
		This contig is unaligned. (2361 bp)
		Unaligned bases: 2361  total: 333480

CONTIG: NODE_92_length_2289_cov_257.062 (2289bp)
		This contig is unaligned. (2289 bp)
		Unaligned bases: 2289  total: 335769

CONTIG: NODE_94_length_2206_cov_364.245 (2206bp)
		This contig is unaligned. (2206 bp)
		Unaligned bases: 2206  total: 337975

CONTIG: NODE_97_length_1958_cov_250.895 (1958bp)
		This contig is unaligned. (1958 bp)
		Unaligned bases: 1958  total: 339933

CONTIG: NODE_98_length_1896_cov_155.637 (1896bp)
Top Length: 1896  Top ID: 100.0
		One align captures most of this contig: 30513 32408 | 1896 1 | 1896 1896 | 100.0 | gi_764911497_ref_NZ_CP008826.1__Enterobacter_cloacae_ECNIH2_plasmid_pKPC-f91__complete_sequence NODE_98_length_1896_cov_155.637

CONTIG: NODE_99_length_1870_cov_330.195 (1870bp)
		This contig is unaligned. (1870 bp)
		Unaligned bases: 1870  total: 341803

CONTIG: NODE_100_length_1841_cov_347.804 (1841bp)
		This contig is unaligned. (1841 bp)
		Unaligned bases: 1841  total: 343644

CONTIG: NODE_101_length_1820_cov_267.652 (1820bp)
		This contig is unaligned. (1820 bp)
		Unaligned bases: 1820  total: 345464

CONTIG: NODE_102_length_1796_cov_209.393 (1796bp)
		This contig is unaligned. (1796 bp)
		Unaligned bases: 1796  total: 347260

CONTIG: NODE_104_length_1729_cov_244.223 (1729bp)
		This contig is unaligned. (1729 bp)
		Unaligned bases: 1729  total: 348989

CONTIG: NODE_105_length_1681_cov_329.352 (1681bp)
		This contig is unaligned. (1681 bp)
		Unaligned bases: 1681  total: 350670

CONTIG: NODE_108_length_1585_cov_246.604 (1585bp)
		This contig is unaligned. (1585 bp)
		Unaligned bases: 1585  total: 352255

CONTIG: NODE_109_length_1554_cov_267.992 (1554bp)
		This contig is unaligned. (1554 bp)
		Unaligned bases: 1554  total: 353809

CONTIG: NODE_111_length_1443_cov_269.864 (1443bp)
		This contig is unaligned. (1443 bp)
		Unaligned bases: 1443  total: 355252

CONTIG: NODE_112_length_1433_cov_366.241 (1433bp)
		This contig is unaligned. (1433 bp)
		Unaligned bases: 1433  total: 356685

CONTIG: NODE_114_length_1382_cov_283.267 (1382bp)
		This contig is unaligned. (1382 bp)
		Unaligned bases: 1382  total: 358067

CONTIG: NODE_116_length_1287_cov_250.537 (1287bp)
		This contig is unaligned. (1287 bp)
		Unaligned bases: 1287  total: 359354

CONTIG: NODE_117_length_1282_cov_291.594 (1282bp)
		This contig is unaligned. (1282 bp)
		Unaligned bases: 1282  total: 360636

CONTIG: NODE_120_length_1233_cov_298.811 (1233bp)
		This contig is unaligned. (1233 bp)
		Unaligned bases: 1233  total: 361869

CONTIG: NODE_121_length_1229_cov_1027.6 (1229bp)
		This contig is unaligned. (1229 bp)
		Unaligned bases: 1229  total: 363098

CONTIG: NODE_122_length_1212_cov_341.354 (1212bp)
		This contig is unaligned. (1212 bp)
		Unaligned bases: 1212  total: 364310

CONTIG: NODE_126_length_1056_cov_464.699 (1056bp)
		This contig is unaligned. (1056 bp)
		Unaligned bases: 1056  total: 365366

CONTIG: NODE_128_length_976_cov_507.157 (976bp)
		This contig is unaligned. (976 bp)
		Unaligned bases: 976  total: 366342

CONTIG: NODE_129_length_939_cov_448.389 (939bp)
		This contig is unaligned. (939 bp)
		Unaligned bases: 939  total: 367281

CONTIG: NODE_130_length_935_cov_361.049 (935bp)
Top Length: 935  Top ID: 100.0
		One align captures most of this contig: 2608 3542 | 935 1 | 935 935 | 100.0 | gi_764911497_ref_NZ_CP008826.1__Enterobacter_cloacae_ECNIH2_plasmid_pKPC-f91__complete_sequence NODE_130_length_935_cov_361.049

CONTIG: NODE_136_length_809_cov_489.986 (809bp)
		This contig is unaligned. (809 bp)
		Unaligned bases: 809  total: 368090

CONTIG: NODE_137_length_805_cov_240.234 (805bp)
		This contig is unaligned. (805 bp)
		Unaligned bases: 805  total: 368895

CONTIG: NODE_139_length_776_cov_256.08 (776bp)
		This contig is unaligned. (776 bp)
		Unaligned bases: 776  total: 369671

CONTIG: NODE_141_length_720_cov_464.961 (720bp)
		This contig is unaligned. (720 bp)
		Unaligned bases: 720  total: 370391

CONTIG: NODE_143_length_712_cov_394.276 (712bp)
		This contig is unaligned. (712 bp)
		Unaligned bases: 712  total: 371103

CONTIG: NODE_144_length_678_cov_261.278 (678bp)
		This contig is unaligned. (678 bp)
		Unaligned bases: 678  total: 371781

CONTIG: NODE_145_length_663_cov_922.997 (663bp)
		This contig is unaligned. (663 bp)
		Unaligned bases: 663  total: 372444

CONTIG: NODE_146_length_663_cov_517.478 (663bp)
		This contig is unaligned. (663 bp)
		Unaligned bases: 663  total: 373107

CONTIG: NODE_147_length_650_cov_331.518 (650bp)
		This contig is unaligned. (650 bp)
		Unaligned bases: 650  total: 373757

CONTIG: NODE_148_length_649_cov_570.603 (649bp)
		This contig is unaligned. (649 bp)
		Unaligned bases: 649  total: 374406

CONTIG: NODE_150_length_603_cov_556.652 (603bp)
		This contig is unaligned. (603 bp)
		Unaligned bases: 603  total: 375009

CONTIG: NODE_151_length_581_cov_209.968 (581bp)
		This contig is unaligned. (581 bp)
		Unaligned bases: 581  total: 375590

CONTIG: NODE_155_length_518_cov_327.921 (518bp)
		This contig is unaligned. (518 bp)
		Unaligned bases: 518  total: 376108

Analyzing coverage...
Writing SNPs into /home/mmbbio/Plasmid_Assembly/completegenomes/plasmids/ECNIH2_plasmids_references/group_3.fasta_comparison_cbar/contigs_reports/nucmer_output/prediction.used_snps
	Reference gi_764911497_ref_NZ_CP008826.1__Enterobacter_cloacae_ECNIH2_plasmid_pKPC-f91__complete_sequence: 6 total alignments. 1 total regions.
		Region: 1 to 47290 (47290 bp)
			Align 1: 1 2684 NODE_85_length_2760_cov_156.43 2684 1
				Negative gap (overlap) between this and next alignment: 2684 to 2608 (-76 bp)
				Next Alignment: 2608 3542 NODE_130_length_935_cov_361.049 935 1

			Previous gap was negative, modifying coordinates to ignore overlap
				Moving contig start from 935 to 858.
			Align 2: 2685 3542 NODE_130_length_935_cov_361.049 858 1
				Negative gap (overlap) between this and next alignment: 3542 to 3466 (-76 bp)
				Next Alignment: 3466 28013 NODE_36_length_24548_cov_170.662 24548 1

			Previous gap was negative, modifying coordinates to ignore overlap
				Moving contig start from 24548 to 24471.
			Align 3: 3543 28013 NODE_36_length_24548_cov_170.662 24471 1
				Gap between this and next alignment: 28013 to 30513 (2499 bp)
				Next Alignment: 30513 32408 NODE_98_length_1896_cov_155.637 1896 1

			Align 4: 30513 32408 NODE_98_length_1896_cov_155.637 1896 1
				Negative gap (overlap) between this and next alignment: 32408 to 32327 (-81 bp)
				Next Alignment: 32327 34626 NODE_57_length_6300_cov_136.8 4002 6300

			Previous gap was negative, modifying coordinates to ignore overlap
				Moving contig start from 4002 to 4083.
			Align 5: 32409 34626 NODE_57_length_6300_cov_136.8 4083 6300
				Gap between this and next alignment: 34626 to 41193 (6566 bp)
				Next Alignment: 41193 47290 NODE_59_length_6099_cov_211.403 6099 2

			Align 6: 41193 47290 NODE_59_length_6099_cov_211.403 6099 2
			END in current alignment.  Modifying 47290 to 47290.

Analysis is finished!
Founded SNPs were written into /home/mmbbio/Plasmid_Assembly/completegenomes/plasmids/ECNIH2_plasmids_references/group_3.fasta_comparison_cbar/contigs_reports/nucmer_output/prediction.used_snps

Results:
	Local Misassemblies: 0
	Misassemblies: 0
		Relocations: 0
		Translocations: 0
		Inversions: 0
	Misassembled Contigs: 0
	Misassembled Contig Bases: 0
	Misassemblies Inter-Contig Overlap: 0
Uncovered Regions: 0 (0)
Unaligned Contigs: 64 + 2 part
Partially Unaligned Contigs with Misassemblies: 0
Unaligned Contig Bases: 380185

Ambiguously Mapped Contigs: 0
Extra Bases in Ambiguously Mapped Contigs: 0
Note that --allow-ambiguity option was set to "all" and each of these contigs was used several times.

	Covered Bases: 38225

	SNPs: 3
	Insertions: 0
	Deletions: 0

	Positive Gaps: 2
		Internal Gaps:  0
		External Gaps:  2
		External Gap Total:  9065
		External Gap Average: 4532
	Negative Gaps: 3
		Internal Overlaps:  0
		External Overlaps:  3
		External Overlaps Total: -233
		External Overlaps Average: -78
	Contigs with Redundant Alignments: 0 (0)
