Assembly	prediction
# contigs (>= 0 bp)	4
# contigs (>= 1000 bp)	4
# contigs (>= 5000 bp)	4
# contigs (>= 10000 bp)	2
# contigs (>= 25000 bp)	1
# contigs (>= 50000 bp)	0
Total length (>= 0 bp)	60909
Total length (>= 1000 bp)	60909
Total length (>= 5000 bp)	60909
Total length (>= 10000 bp)	45122
Total length (>= 25000 bp)	32699
Total length (>= 50000 bp)	0
# contigs	4
Largest contig	32699
Total length	60909
Reference length	96842
GC (%)	50.66
Reference GC (%)	51.39
N50	32699
NG50	9133
N75	9133
L50	1
LG50	3
L75	3
# misassemblies	0
# misassembled contigs	0
Misassembled contigs length	0
# local misassemblies	0
# unaligned contigs	2 + 0 part
Unaligned length	21556
Genome fraction (%)	40.636
Duplication ratio	1.000
# N's per 100 kbp	0.00
# mismatches per 100 kbp	0.00
# indels per 100 kbp	0.00
Largest alignment	32699
NA50	32699
NGA50	-
LA50	1
