Aligning contigs to reference...
	Running Nucmer
Parsing coords...
Loading reference...
	Loaded [gi_828958913_gb_CP011634.1__Klebsiella_oxytoca_strain_CAV1374_plasmid_pCAV1374-228__complete_sequence]
Loading SNPs...
Loading regions...
	No regions given, using whole reference.
	Total Regions: 1
	Total Region Length: 227680
Analyzing contigs...
CONTIG: NODE_25_length_79377_cov_72.4629 (79377bp)
		This contig is unaligned. (79377 bp)
		Unaligned bases: 79377  total: 79377

CONTIG: NODE_37_length_58253_cov_77.8527 (58253bp)
		This contig is unaligned. (58253 bp)
		Unaligned bases: 58253  total: 137630

CONTIG: NODE_40_length_56096_cov_67.5721 (56096bp)
		This contig is unaligned. (56096 bp)
		Unaligned bases: 56096  total: 193726

CONTIG: NODE_42_length_54537_cov_66.6317 (54537bp)
		This contig is unaligned. (54537 bp)
		Unaligned bases: 54537  total: 248263

CONTIG: NODE_44_length_51510_cov_148.384 (51510bp)
		This contig is unaligned. (51510 bp)
		Unaligned bases: 51510  total: 299773

CONTIG: NODE_45_length_50970_cov_77.175 (50970bp)
		This contig is unaligned. (50970 bp)
		Unaligned bases: 50970  total: 350743

CONTIG: NODE_51_length_45316_cov_43.1469 (45316bp)
		This contig is unaligned. (45316 bp)
		Unaligned bases: 45316  total: 396059

CONTIG: NODE_61_length_40287_cov_67.376 (40287bp)
Top Length: 24734  Top ID: 100.0
		This contig is misassembled. 2 total aligns.
			Real Alignment 1: 212128 227680 | 1 15553 | 15553 15553 | 100.0 | gi_828958913_gb_CP011634.1__Klebsiella_oxytoca_strain_CAV1374_plasmid_pCAV1374-228__complete_sequence NODE_61_length_40287_cov_67.376
			  Fake misassembly (caused by linear representation of circular genome) between these two alignments
			Real Alignment 2: 1 24734 | 15554 40287 | 24734 24734 | 100.0 | gi_828958913_gb_CP011634.1__Klebsiella_oxytoca_strain_CAV1374_plasmid_pCAV1374-228__complete_sequence NODE_61_length_40287_cov_67.376

CONTIG: NODE_82_length_28815_cov_61.8054 (28815bp)
		This contig is unaligned. (28815 bp)
		Unaligned bases: 28815  total: 424874

CONTIG: NODE_84_length_25960_cov_56.3256 (25960bp)
Top Length: 25960  Top ID: 99.99
		One align captures most of this contig: 106660 132619 | 1 25960 | 25960 25960 | 99.99 | gi_828958913_gb_CP011634.1__Klebsiella_oxytoca_strain_CAV1374_plasmid_pCAV1374-228__complete_sequence NODE_84_length_25960_cov_56.3256

CONTIG: NODE_87_length_25273_cov_60.7908 (25273bp)
Top Length: 25273  Top ID: 100.0
		One align captures most of this contig: 26835 52107 | 1 25273 | 25273 25273 | 100.0 | gi_828958913_gb_CP011634.1__Klebsiella_oxytoca_strain_CAV1374_plasmid_pCAV1374-228__complete_sequence NODE_87_length_25273_cov_60.7908

CONTIG: NODE_91_length_23186_cov_81.3644 (23186bp)
		This contig is unaligned. (23186 bp)
		Unaligned bases: 23186  total: 448060

CONTIG: NODE_92_length_22331_cov_46.0423 (22331bp)
		This contig is unaligned. (22331 bp)
		Unaligned bases: 22331  total: 470391

CONTIG: NODE_97_length_20651_cov_78.2021 (20651bp)
		This contig is unaligned. (20651 bp)
		Unaligned bases: 20651  total: 491042

CONTIG: NODE_100_length_19317_cov_56.0578 (19317bp)
		This contig is unaligned. (19317 bp)
		Unaligned bases: 19317  total: 510359

CONTIG: NODE_104_length_17756_cov_41.1486 (17756bp)
		This contig is unaligned. (17756 bp)
		Unaligned bases: 17756  total: 528115

CONTIG: NODE_106_length_16736_cov_76.6179 (16736bp)
		This contig is unaligned. (16736 bp)
		Unaligned bases: 16736  total: 544851

CONTIG: NODE_110_length_15391_cov_57.7333 (15391bp)
Top Length: 15391  Top ID: 100.0
		One align captures most of this contig: 133035 148425 | 15391 1 | 15391 15391 | 100.0 | gi_828958913_gb_CP011634.1__Klebsiella_oxytoca_strain_CAV1374_plasmid_pCAV1374-228__complete_sequence NODE_110_length_15391_cov_57.7333

CONTIG: NODE_112_length_13627_cov_56.6542 (13627bp)
Top Length: 13627  Top ID: 100.0
		One align captures most of this contig: 92181 105807 | 1 13627 | 13627 13627 | 100.0 | gi_828958913_gb_CP011634.1__Klebsiella_oxytoca_strain_CAV1374_plasmid_pCAV1374-228__complete_sequence NODE_112_length_13627_cov_56.6542

CONTIG: NODE_114_length_12834_cov_44.5527 (12834bp)
		This contig is unaligned. (12834 bp)
		Unaligned bases: 12834  total: 557685

CONTIG: NODE_119_length_11211_cov_58.3121 (11211bp)
Top Length: 791  Top ID: 98.86
		This contig is partially unaligned. (Aligned 791 out of 11211 bases)
		Alignment: 214628 215418 | 6627 7417 | 791 791 | 98.86 | gi_828958913_gb_CP011634.1__Klebsiella_oxytoca_strain_CAV1374_plasmid_pCAV1374-228__complete_sequence NODE_119_length_11211_cov_58.3121
		Unaligned bases: 1 to 6626 (6626)
		Unaligned bases: 7418 to 11211 (3794)
		This contig has both significant aligned and unaligned parts (of length >= 500)!

CONTIG: NODE_122_length_10157_cov_66.5969 (10157bp)
		This contig is unaligned. (10157 bp)
		Unaligned bases: 10157  total: 567842

CONTIG: NODE_124_length_10011_cov_77.3209 (10011bp)
		This contig is unaligned. (10011 bp)
		Unaligned bases: 10011  total: 577853

CONTIG: NODE_128_length_9478_cov_217.071 (9478bp)
		This contig is unaligned. (9478 bp)
		Unaligned bases: 9478  total: 587331

CONTIG: NODE_130_length_8361_cov_59.3095 (8361bp)
		This contig is unaligned. (8361 bp)
		Unaligned bases: 8361  total: 595692

CONTIG: NODE_133_length_7613_cov_119.222 (7613bp)
Top Length: 7613  Top ID: 100.0
		This contig has 2 significant alignments. [An ambiguously mapped contig]
		Using all these alignments (option --ambiguity-usage is set to "all"):
		Alignment: 54672 62284 | 1 7613 | 7613 7613 | 100.0 | gi_828958913_gb_CP011634.1__Klebsiella_oxytoca_strain_CAV1374_plasmid_pCAV1374-228__complete_sequence NODE_133_length_7613_cov_119.222
		Alignment: 150990 158602 | 1 7613 | 7613 7613 | 100.0 | gi_828958913_gb_CP011634.1__Klebsiella_oxytoca_strain_CAV1374_plasmid_pCAV1374-228__complete_sequence NODE_133_length_7613_cov_119.222

CONTIG: NODE_138_length_6361_cov_39.0388 (6361bp)
		This contig is unaligned. (6361 bp)
		Unaligned bases: 6361  total: 602053

CONTIG: NODE_141_length_5850_cov_81.1711 (5850bp)
		This contig is unaligned. (5850 bp)
		Unaligned bases: 5850  total: 607903

CONTIG: NODE_145_length_5125_cov_46.5168 (5125bp)
		This contig is unaligned. (5125 bp)
		Unaligned bases: 5125  total: 613028

CONTIG: NODE_149_length_4476_cov_46.5103 (4476bp)
		This contig is unaligned. (4476 bp)
		Unaligned bases: 4476  total: 617504

CONTIG: NODE_154_length_3851_cov_60.545 (3851bp)
		This contig is unaligned. (3851 bp)
		Unaligned bases: 3851  total: 621355

CONTIG: NODE_155_length_3797_cov_117.372 (3797bp)
Top Length: 3797  Top ID: 100.0
		This contig has 2 significant alignments. [An ambiguously mapped contig]
		Using all these alignments (option --ambiguity-usage is set to "all"):
		Alignment: 63471 67267 | 1 3797 | 3797 3797 | 100.0 | gi_828958913_gb_CP011634.1__Klebsiella_oxytoca_strain_CAV1374_plasmid_pCAV1374-228__complete_sequence NODE_155_length_3797_cov_117.372
		Alignment: 159789 163585 | 1 3797 | 3797 3797 | 100.0 | gi_828958913_gb_CP011634.1__Klebsiella_oxytoca_strain_CAV1374_plasmid_pCAV1374-228__complete_sequence NODE_155_length_3797_cov_117.372

CONTIG: NODE_157_length_3659_cov_1104.6 (3659bp)
Top Length: 3659  Top ID: 100.0
		One align captures most of this contig: 186230 189888 | 3659 1 | 3659 3659 | 100.0 | gi_828958913_gb_CP011634.1__Klebsiella_oxytoca_strain_CAV1374_plasmid_pCAV1374-228__complete_sequence NODE_157_length_3659_cov_1104.6

CONTIG: NODE_158_length_3572_cov_59.6086 (3572bp)
Top Length: 3572  Top ID: 100.0
		One align captures most of this contig: 87603 91174 | 3572 1 | 3572 3572 | 100.0 | gi_828958913_gb_CP011634.1__Klebsiella_oxytoca_strain_CAV1374_plasmid_pCAV1374-228__complete_sequence NODE_158_length_3572_cov_59.6086

CONTIG: NODE_162_length_3180_cov_45.1827 (3180bp)
		This contig is unaligned. (3180 bp)
		Unaligned bases: 3180  total: 624535

CONTIG: NODE_168_length_2662_cov_119.561 (2662bp)
Top Length: 2662  Top ID: 100.0
		This contig has 2 significant alignments. [An ambiguously mapped contig]
		Using all these alignments (option --ambiguity-usage is set to "all"):
		Alignment: 80145 82806 | 1 2662 | 2662 2662 | 100.0 | gi_828958913_gb_CP011634.1__Klebsiella_oxytoca_strain_CAV1374_plasmid_pCAV1374-228__complete_sequence NODE_168_length_2662_cov_119.561
		Alignment: 176463 179124 | 1 2662 | 2662 2662 | 100.0 | gi_828958913_gb_CP011634.1__Klebsiella_oxytoca_strain_CAV1374_plasmid_pCAV1374-228__complete_sequence NODE_168_length_2662_cov_119.561

CONTIG: NODE_170_length_2534_cov_63.8311 (2534bp)
		This contig is unaligned. (2534 bp)
		Unaligned bases: 2534  total: 627069

CONTIG: NODE_173_length_2386_cov_67.1672 (2386bp)
Top Length: 2386  Top ID: 100.0
		One align captures most of this contig: 183921 186306 | 1 2386 | 2386 2386 | 100.0 | gi_828958913_gb_CP011634.1__Klebsiella_oxytoca_strain_CAV1374_plasmid_pCAV1374-228__complete_sequence NODE_173_length_2386_cov_67.1672

CONTIG: NODE_175_length_2254_cov_97.0069 (2254bp)
Top Length: 2254  Top ID: 100.0
		One align captures most of this contig: 24658 26911 | 1 2254 | 2254 2254 | 100.0 | gi_828958913_gb_CP011634.1__Klebsiella_oxytoca_strain_CAV1374_plasmid_pCAV1374-228__complete_sequence NODE_175_length_2254_cov_97.0069

CONTIG: NODE_177_length_2146_cov_551.616 (2146bp)
Top Length: 2146  Top ID: 100.0
		This contig has 2 significant alignments. [An ambiguously mapped contig]
		Using all these alignments (option --ambiguity-usage is set to "all"):
		Alignment: 85534 87679 | 2146 1 | 2146 2146 | 100.0 | gi_828958913_gb_CP011634.1__Klebsiella_oxytoca_strain_CAV1374_plasmid_pCAV1374-228__complete_sequence NODE_177_length_2146_cov_551.616
		Alignment: 181852 183997 | 2146 1 | 2146 2146 | 100.0 | gi_828958913_gb_CP011634.1__Klebsiella_oxytoca_strain_CAV1374_plasmid_pCAV1374-228__complete_sequence NODE_177_length_2146_cov_551.616

CONTIG: NODE_179_length_2023_cov_244.664 (2023bp)
Top Length: 2023  Top ID: 100.0
		This contig has 2 significant alignments. [An ambiguously mapped contig]
		Using all these alignments (option --ambiguity-usage is set to "all"):
		Alignment: 70863 72885 | 2023 1 | 2023 2023 | 100.0 | gi_828958913_gb_CP011634.1__Klebsiella_oxytoca_strain_CAV1374_plasmid_pCAV1374-228__complete_sequence NODE_179_length_2023_cov_244.664
		Alignment: 167181 169203 | 2023 1 | 2023 2023 | 100.0 | gi_828958913_gb_CP011634.1__Klebsiella_oxytoca_strain_CAV1374_plasmid_pCAV1374-228__complete_sequence NODE_179_length_2023_cov_244.664

CONTIG: NODE_180_length_2015_cov_70.6465 (2015bp)
		This contig is unaligned. (2015 bp)
		Unaligned bases: 2015  total: 629084

CONTIG: NODE_181_length_1970_cov_491.458 (1970bp)
		This contig is unaligned. (1970 bp)
		Unaligned bases: 1970  total: 631054

CONTIG: NODE_187_length_1616_cov_563.809 (1616bp)
Top Length: 1616  Top ID: 100.0
		This contig has 2 significant alignments. [An ambiguously mapped contig]
		Using all these alignments (option --ambiguity-usage is set to "all"):
		Alignment: 82730 84345 | 1 1616 | 1616 1616 | 100.0 | gi_828958913_gb_CP011634.1__Klebsiella_oxytoca_strain_CAV1374_plasmid_pCAV1374-228__complete_sequence NODE_187_length_1616_cov_563.809
		Alignment: 179048 180663 | 1 1616 | 1616 1616 | 100.0 | gi_828958913_gb_CP011634.1__Klebsiella_oxytoca_strain_CAV1374_plasmid_pCAV1374-228__complete_sequence NODE_187_length_1616_cov_563.809

CONTIG: NODE_188_length_1542_cov_73.1154 (1542bp)
Top Length: 1542  Top ID: 100.0
		One align captures most of this contig: 189812 191353 | 1 1542 | 1542 1542 | 100.0 | gi_828958913_gb_CP011634.1__Klebsiella_oxytoca_strain_CAV1374_plasmid_pCAV1374-228__complete_sequence NODE_188_length_1542_cov_73.1154

CONTIG: NODE_189_length_1464_cov_58.8248 (1464bp)
Top Length: 1464  Top ID: 100.0
		One align captures most of this contig: 192206 193669 | 1464 1 | 1464 1464 | 100.0 | gi_828958913_gb_CP011634.1__Klebsiella_oxytoca_strain_CAV1374_plasmid_pCAV1374-228__complete_sequence NODE_189_length_1464_cov_58.8248

CONTIG: NODE_191_length_1356_cov_269.219 (1356bp)
Top Length: 1356  Top ID: 99.93
		This contig has 2 significant alignments. [An ambiguously mapped contig]
		Using all these alignments (option --ambiguity-usage is set to "all"):
		Alignment: 67191 68546 | 1 1356 | 1356 1356 | 99.93 | gi_828958913_gb_CP011634.1__Klebsiella_oxytoca_strain_CAV1374_plasmid_pCAV1374-228__complete_sequence NODE_191_length_1356_cov_269.219
		Alignment: 163509 164864 | 1 1356 | 1356 1356 | 99.93 | gi_828958913_gb_CP011634.1__Klebsiella_oxytoca_strain_CAV1374_plasmid_pCAV1374-228__complete_sequence NODE_191_length_1356_cov_269.219

CONTIG: NODE_198_length_1227_cov_46.1383 (1227bp)
		This contig is unaligned. (1227 bp)
		Unaligned bases: 1227  total: 632281

CONTIG: NODE_201_length_1196_cov_1272.29 (1196bp)
		This contig is unaligned. (1196 bp)
		Unaligned bases: 1196  total: 633477

CONTIG: NODE_204_length_1006_cov_898.276 (1006bp)
Top Length: 1006  Top ID: 100.0
		This contig has 3 significant alignments. [An ambiguously mapped contig]
		Using all these alignments (option --ambiguity-usage is set to "all"):
		Alignment: 105731 106736 | 1 1006 | 1006 1006 | 100.0 | gi_828958913_gb_CP011634.1__Klebsiella_oxytoca_strain_CAV1374_plasmid_pCAV1374-228__complete_sequence NODE_204_length_1006_cov_898.276
		Alignment: 191277 192282 | 1006 1 | 1006 1006 | 100.0 | gi_828958913_gb_CP011634.1__Klebsiella_oxytoca_strain_CAV1374_plasmid_pCAV1374-228__complete_sequence NODE_204_length_1006_cov_898.276
		Alignment: 193593 194598 | 1 1006 | 1006 1006 | 100.0 | gi_828958913_gb_CP011634.1__Klebsiella_oxytoca_strain_CAV1374_plasmid_pCAV1374-228__complete_sequence NODE_204_length_1006_cov_898.276

CONTIG: NODE_207_length_986_cov_354.54 (986bp)
Top Length: 986  Top ID: 100.0
		One align captures most of this contig: 91272 92257 | 986 1 | 986 986 | 100.0 | gi_828958913_gb_CP011634.1__Klebsiella_oxytoca_strain_CAV1374_plasmid_pCAV1374-228__complete_sequence NODE_207_length_986_cov_354.54

CONTIG: NODE_211_length_968_cov_548.48 (968bp)
Top Length: 968  Top ID: 100.0
		This contig has 2 significant alignments. [An ambiguously mapped contig]
		Using all these alignments (option --ambiguity-usage is set to "all"):
		Alignment: 84574 85541 | 968 1 | 968 968 | 100.0 | gi_828958913_gb_CP011634.1__Klebsiella_oxytoca_strain_CAV1374_plasmid_pCAV1374-228__complete_sequence NODE_211_length_968_cov_548.48
		Alignment: 180892 181859 | 968 1 | 968 968 | 100.0 | gi_828958913_gb_CP011634.1__Klebsiella_oxytoca_strain_CAV1374_plasmid_pCAV1374-228__complete_sequence NODE_211_length_968_cov_548.48

CONTIG: NODE_214_length_883_cov_217.69 (883bp)
Top Length: 883  Top ID: 100.0
		This contig has 2 significant alignments. [An ambiguously mapped contig]
		Using all these alignments (option --ambiguity-usage is set to "all"):
		Alignment: 69129 70011 | 1 883 | 883 883 | 100.0 | gi_828958913_gb_CP011634.1__Klebsiella_oxytoca_strain_CAV1374_plasmid_pCAV1374-228__complete_sequence NODE_214_length_883_cov_217.69
		Alignment: 165447 166329 | 1 883 | 883 883 | 100.0 | gi_828958913_gb_CP011634.1__Klebsiella_oxytoca_strain_CAV1374_plasmid_pCAV1374-228__complete_sequence NODE_214_length_883_cov_217.69

CONTIG: NODE_219_length_736_cov_135.467 (736bp)
Top Length: 736  Top ID: 100.0
		This contig has 2 significant alignments. [An ambiguously mapped contig]
		Using all these alignments (option --ambiguity-usage is set to "all"):
		Alignment: 68470 69205 | 736 1 | 736 736 | 100.0 | gi_828958913_gb_CP011634.1__Klebsiella_oxytoca_strain_CAV1374_plasmid_pCAV1374-228__complete_sequence NODE_219_length_736_cov_135.467
		Alignment: 164788 165523 | 736 1 | 736 736 | 100.0 | gi_828958913_gb_CP011634.1__Klebsiella_oxytoca_strain_CAV1374_plasmid_pCAV1374-228__complete_sequence NODE_219_length_736_cov_135.467

CONTIG: NODE_222_length_617_cov_452.928 (617bp)
Top Length: 617  Top ID: 99.84
		This contig has 2 significant alignments. [An ambiguously mapped contig]
		Using all these alignments (option --ambiguity-usage is set to "all"):
		Alignment: 62383 62999 | 617 1 | 617 617 | 99.84 | gi_828958913_gb_CP011634.1__Klebsiella_oxytoca_strain_CAV1374_plasmid_pCAV1374-228__complete_sequence NODE_222_length_617_cov_452.928
		Alignment: 158701 159317 | 617 1 | 617 617 | 99.84 | gi_828958913_gb_CP011634.1__Klebsiella_oxytoca_strain_CAV1374_plasmid_pCAV1374-228__complete_sequence NODE_222_length_617_cov_452.928

CONTIG: NODE_224_length_569_cov_107.638 (569bp)
Top Length: 569  Top ID: 100.0
		One align captures most of this contig: 132543 133111 | 1 569 | 569 569 | 100.0 | gi_828958913_gb_CP011634.1__Klebsiella_oxytoca_strain_CAV1374_plasmid_pCAV1374-228__complete_sequence NODE_224_length_569_cov_107.638

CONTIG: NODE_228_length_521_cov_71.7793 (521bp)
		This contig is unaligned. (521 bp)
		Unaligned bases: 521  total: 633998

CONTIG: NODE_230_length_504_cov_55.2155 (504bp)
Top Length: 504  Top ID: 97.62
		One align captures most of this contig: 132116 132619 | 1 504 | 504 504 | 97.62 | gi_828958913_gb_CP011634.1__Klebsiella_oxytoca_strain_CAV1374_plasmid_pCAV1374-228__complete_sequence NODE_230_length_504_cov_55.2155

Analyzing coverage...
Writing SNPs into /home/mmbbio/Plasmid_Assembly/completegenomes/plasmids/CAV1374_plasmids_references/group_10.fasta_comparison_cbar/contigs_reports/nucmer_output/prediction.used_snps
	Reference gi_828958913_gb_CP011634.1__Klebsiella_oxytoca_strain_CAV1374_plasmid_pCAV1374-228__complete_sequence: 41 total alignments. 1 total regions.
		Region: 1 to 227680 (227680 bp)
			Align 1: 1 24734 NODE_61_length_40287_cov_67.376 15554 40287
				Negative gap (overlap) between this and next alignment: 24734 to 24658 (-76 bp)
				Next Alignment: 24658 26911 NODE_175_length_2254_cov_97.0069 1 2254

			Previous gap was negative, modifying coordinates to ignore overlap
				Moving contig start from 1 to 78.
			Align 2: 24735 26911 NODE_175_length_2254_cov_97.0069 78 2254
				Negative gap (overlap) between this and next alignment: 26911 to 26835 (-76 bp)
				Next Alignment: 26835 52107 NODE_87_length_25273_cov_60.7908 1 25273

			Previous gap was negative, modifying coordinates to ignore overlap
				Moving contig start from 1 to 78.
			Align 3: 26912 52107 NODE_87_length_25273_cov_60.7908 78 25273
				Gap between this and next alignment: 52107 to 54672 (2564 bp)
				Next Alignment: 54672 62284 NODE_133_length_7613_cov_119.222 1 7613

			Align 4: 54672 62284 NODE_133_length_7613_cov_119.222 1 7613
				Gap between this and next alignment: 62284 to 62383 (98 bp)
				Next Alignment: 62383 62999 NODE_222_length_617_cov_452.928 617 1

			Align 5: 62383 62999 NODE_222_length_617_cov_452.928 617 1
				Gap between this and next alignment: 62999 to 63471 (471 bp)
				Next Alignment: 63471 67267 NODE_155_length_3797_cov_117.372 1 3797

			Align 6: 63471 67267 NODE_155_length_3797_cov_117.372 1 3797
				Negative gap (overlap) between this and next alignment: 67267 to 67191 (-76 bp)
				Next Alignment: 67191 68546 NODE_191_length_1356_cov_269.219 1 1356

			Previous gap was negative, modifying coordinates to ignore overlap
				Moving contig start from 1 to 78.
			Align 7: 67268 68546 NODE_191_length_1356_cov_269.219 78 1356
				Negative gap (overlap) between this and next alignment: 68546 to 68470 (-76 bp)
				Next Alignment: 68470 69205 NODE_219_length_736_cov_135.467 736 1

			Previous gap was negative, modifying coordinates to ignore overlap
				Moving contig start from 736 to 659.
			Align 8: 68547 69205 NODE_219_length_736_cov_135.467 659 1
				Negative gap (overlap) between this and next alignment: 69205 to 69129 (-76 bp)
				Next Alignment: 69129 70011 NODE_214_length_883_cov_217.69 1 883

			Previous gap was negative, modifying coordinates to ignore overlap
				Moving contig start from 1 to 78.
			Align 9: 69206 70011 NODE_214_length_883_cov_217.69 78 883
				Gap between this and next alignment: 70011 to 70863 (851 bp)
				Next Alignment: 70863 72885 NODE_179_length_2023_cov_244.664 2023 1

			Align 10: 70863 72885 NODE_179_length_2023_cov_244.664 2023 1
				Gap between this and next alignment: 72885 to 80145 (7259 bp)
				Next Alignment: 80145 82806 NODE_168_length_2662_cov_119.561 1 2662

			Align 11: 80145 82806 NODE_168_length_2662_cov_119.561 1 2662
				Negative gap (overlap) between this and next alignment: 82806 to 82730 (-76 bp)
				Next Alignment: 82730 84345 NODE_187_length_1616_cov_563.809 1 1616

			Previous gap was negative, modifying coordinates to ignore overlap
				Moving contig start from 1 to 78.
			Align 12: 82807 84345 NODE_187_length_1616_cov_563.809 78 1616
				Gap between this and next alignment: 84345 to 84574 (228 bp)
				Next Alignment: 84574 85541 NODE_211_length_968_cov_548.48 968 1

			Align 13: 84574 85541 NODE_211_length_968_cov_548.48 968 1
				Negative gap (overlap) between this and next alignment: 85541 to 85534 (-7 bp)
				Next Alignment: 85534 87679 NODE_177_length_2146_cov_551.616 2146 1

			Previous gap was negative, modifying coordinates to ignore overlap
				Moving contig start from 2146 to 2138.
			Align 14: 85542 87679 NODE_177_length_2146_cov_551.616 2138 1
				Negative gap (overlap) between this and next alignment: 87679 to 87603 (-76 bp)
				Next Alignment: 87603 91174 NODE_158_length_3572_cov_59.6086 3572 1

			Previous gap was negative, modifying coordinates to ignore overlap
				Moving contig start from 3572 to 3495.
			Align 15: 87680 91174 NODE_158_length_3572_cov_59.6086 3495 1
				Gap between this and next alignment: 91174 to 91272 (97 bp)
				Next Alignment: 91272 92257 NODE_207_length_986_cov_354.54 986 1

			Align 16: 91272 92257 NODE_207_length_986_cov_354.54 986 1
				Negative gap (overlap) between this and next alignment: 92257 to 92181 (-76 bp)
				Next Alignment: 92181 105807 NODE_112_length_13627_cov_56.6542 1 13627

			Previous gap was negative, modifying coordinates to ignore overlap
				Moving contig start from 1 to 78.
			Align 17: 92258 105807 NODE_112_length_13627_cov_56.6542 78 13627
				Negative gap (overlap) between this and next alignment: 105807 to 105731 (-76 bp)
				Next Alignment: 105731 106736 NODE_204_length_1006_cov_898.276 1 1006

			Previous gap was negative, modifying coordinates to ignore overlap
				Moving contig start from 1 to 78.
			Align 18: 105808 106736 NODE_204_length_1006_cov_898.276 78 1006
				Negative gap (overlap) between this and next alignment: 106736 to 106660 (-76 bp)
				Next Alignment: 106660 132619 NODE_84_length_25960_cov_56.3256 1 25960

			Previous gap was negative, modifying coordinates to ignore overlap
				Moving contig start from 1 to 78.
			Align 19: 106737 132619 NODE_84_length_25960_cov_56.3256 78 25960
				The next alignment (132116 132619 NODE_230_length_504_cov_55.2155 1 504) is redundant. Skipping.
				Negative gap (overlap) between this and next alignment: 132619 to 132543 (-76 bp)
				Next Alignment: 132543 133111 NODE_224_length_569_cov_107.638 1 569

			Previous gap was negative, modifying coordinates to ignore overlap
				Moving contig start from 1 to 78.
			Align 21: 132620 133111 NODE_224_length_569_cov_107.638 78 569
				Negative gap (overlap) between this and next alignment: 133111 to 133035 (-76 bp)
				Next Alignment: 133035 148425 NODE_110_length_15391_cov_57.7333 15391 1

			Previous gap was negative, modifying coordinates to ignore overlap
				Moving contig start from 15391 to 15314.
			Align 22: 133112 148425 NODE_110_length_15391_cov_57.7333 15314 1
				Gap between this and next alignment: 148425 to 150990 (2564 bp)
				Next Alignment: 150990 158602 NODE_133_length_7613_cov_119.222 1 7613

			Align 23: 150990 158602 NODE_133_length_7613_cov_119.222 1 7613
				Gap between this and next alignment: 158602 to 158701 (98 bp)
				Next Alignment: 158701 159317 NODE_222_length_617_cov_452.928 617 1

			Align 24: 158701 159317 NODE_222_length_617_cov_452.928 617 1
				Gap between this and next alignment: 159317 to 159789 (471 bp)
				Next Alignment: 159789 163585 NODE_155_length_3797_cov_117.372 1 3797

			Align 25: 159789 163585 NODE_155_length_3797_cov_117.372 1 3797
				Negative gap (overlap) between this and next alignment: 163585 to 163509 (-76 bp)
				Next Alignment: 163509 164864 NODE_191_length_1356_cov_269.219 1 1356

			Previous gap was negative, modifying coordinates to ignore overlap
				Moving contig start from 1 to 78.
			Align 26: 163586 164864 NODE_191_length_1356_cov_269.219 78 1356
				Negative gap (overlap) between this and next alignment: 164864 to 164788 (-76 bp)
				Next Alignment: 164788 165523 NODE_219_length_736_cov_135.467 736 1

			Previous gap was negative, modifying coordinates to ignore overlap
				Moving contig start from 736 to 659.
			Align 27: 164865 165523 NODE_219_length_736_cov_135.467 659 1
				Negative gap (overlap) between this and next alignment: 165523 to 165447 (-76 bp)
				Next Alignment: 165447 166329 NODE_214_length_883_cov_217.69 1 883

			Previous gap was negative, modifying coordinates to ignore overlap
				Moving contig start from 1 to 78.
			Align 28: 165524 166329 NODE_214_length_883_cov_217.69 78 883
				Gap between this and next alignment: 166329 to 167181 (851 bp)
				Next Alignment: 167181 169203 NODE_179_length_2023_cov_244.664 2023 1

			Align 29: 167181 169203 NODE_179_length_2023_cov_244.664 2023 1
				Gap between this and next alignment: 169203 to 176463 (7259 bp)
				Next Alignment: 176463 179124 NODE_168_length_2662_cov_119.561 1 2662

			Align 30: 176463 179124 NODE_168_length_2662_cov_119.561 1 2662
				Negative gap (overlap) between this and next alignment: 179124 to 179048 (-76 bp)
				Next Alignment: 179048 180663 NODE_187_length_1616_cov_563.809 1 1616

			Previous gap was negative, modifying coordinates to ignore overlap
				Moving contig start from 1 to 78.
			Align 31: 179125 180663 NODE_187_length_1616_cov_563.809 78 1616
				Gap between this and next alignment: 180663 to 180892 (228 bp)
				Next Alignment: 180892 181859 NODE_211_length_968_cov_548.48 968 1

			Align 32: 180892 181859 NODE_211_length_968_cov_548.48 968 1
				Negative gap (overlap) between this and next alignment: 181859 to 181852 (-7 bp)
				Next Alignment: 181852 183997 NODE_177_length_2146_cov_551.616 2146 1

			Previous gap was negative, modifying coordinates to ignore overlap
				Moving contig start from 2146 to 2138.
			Align 33: 181860 183997 NODE_177_length_2146_cov_551.616 2138 1
				Negative gap (overlap) between this and next alignment: 183997 to 183921 (-76 bp)
				Next Alignment: 183921 186306 NODE_173_length_2386_cov_67.1672 1 2386

			Previous gap was negative, modifying coordinates to ignore overlap
				Moving contig start from 1 to 78.
			Align 34: 183998 186306 NODE_173_length_2386_cov_67.1672 78 2386
				Negative gap (overlap) between this and next alignment: 186306 to 186230 (-76 bp)
				Next Alignment: 186230 189888 NODE_157_length_3659_cov_1104.6 3659 1

			Previous gap was negative, modifying coordinates to ignore overlap
				Moving contig start from 3659 to 3582.
			Align 35: 186307 189888 NODE_157_length_3659_cov_1104.6 3582 1
				Negative gap (overlap) between this and next alignment: 189888 to 189812 (-76 bp)
				Next Alignment: 189812 191353 NODE_188_length_1542_cov_73.1154 1 1542

			Previous gap was negative, modifying coordinates to ignore overlap
				Moving contig start from 1 to 78.
			Align 36: 189889 191353 NODE_188_length_1542_cov_73.1154 78 1542
				Negative gap (overlap) between this and next alignment: 191353 to 191277 (-76 bp)
				Next Alignment: 191277 192282 NODE_204_length_1006_cov_898.276 1006 1

			Previous gap was negative, modifying coordinates to ignore overlap
				Moving contig start from 1006 to 929.
			Align 37: 191354 192282 NODE_204_length_1006_cov_898.276 929 1
				Negative gap (overlap) between this and next alignment: 192282 to 192206 (-76 bp)
				Next Alignment: 192206 193669 NODE_189_length_1464_cov_58.8248 1464 1

			Previous gap was negative, modifying coordinates to ignore overlap
				Moving contig start from 1464 to 1387.
			Align 38: 192283 193669 NODE_189_length_1464_cov_58.8248 1387 1
				Negative gap (overlap) between this and next alignment: 193669 to 193593 (-76 bp)
				Next Alignment: 193593 194598 NODE_204_length_1006_cov_898.276 1 1006

			Previous gap was negative, modifying coordinates to ignore overlap
				Moving contig start from 1 to 78.
			Align 39: 193670 194598 NODE_204_length_1006_cov_898.276 78 1006
				Gap between this and next alignment: 194598 to 212128 (17529 bp)
				Next Alignment: 212128 227680 NODE_61_length_40287_cov_67.376 1 15553

			Align 40: 212128 227680 NODE_61_length_40287_cov_67.376 1 15553
			END in current alignment.  Modifying 227680 to 227680.

Analysis is finished!
Founded SNPs were written into /home/mmbbio/Plasmid_Assembly/completegenomes/plasmids/CAV1374_plasmids_references/group_10.fasta_comparison_cbar/contigs_reports/nucmer_output/prediction.used_snps

Results:
	Local Misassemblies: 0
	Misassemblies: 0
		Relocations: 0
		Translocations: 0
		Inversions: 0
	Misassembled Contigs: 0
	Misassembled Contig Bases: 0
	Misassemblies Inter-Contig Overlap: 0
Uncovered Regions: 0 (0)
Unaligned Contigs: 31 + 1 part
Partially Unaligned Contigs with Misassemblies: 0
Unaligned Contig Bases: 644418

Ambiguously Mapped Contigs: 12
Extra Bases in Ambiguously Mapped Contigs: 26429
Note that --allow-ambiguity option was set to "all" and each of these contigs was used several times.

	Covered Bases: 187112

	SNPs: 7
	Insertions: 0
	Deletions: 0

	Positive Gaps: 14
		Internal Gaps:  0
		External Gaps:  14
		External Gap Total:  40568
		External Gap Average: 2898
	Negative Gaps: 24
		Internal Overlaps:  0
		External Overlaps:  24
		External Overlaps Total: -1686
		External Overlaps Average: -70
	Contigs with Redundant Alignments: 1 (504)
