S1	E1	S2	E2	Reference	Contig	IDY	Ambiguous
CONTIG	NODE_25_length_79377_cov_72.4629	79377	unaligned
CONTIG	NODE_37_length_58253_cov_77.8527	58253	unaligned
CONTIG	NODE_40_length_56096_cov_67.5721	56096	unaligned
CONTIG	NODE_42_length_54537_cov_66.6317	54537	unaligned
CONTIG	NODE_44_length_51510_cov_148.384	51510	unaligned
CONTIG	NODE_45_length_50970_cov_77.175	50970	unaligned
CONTIG	NODE_51_length_45316_cov_43.1469	45316	unaligned
46519	47309	3291	2501	gi_828958545_gb_CP011630.1__Klebsiella_oxytoca_strain_CAV1374_plasmid_pCAV1374-49__complete_sequence	NODE_61_length_40287_cov_67.376	97.98	
CONTIG	NODE_61_length_40287_cov_67.376	40287	correct
CONTIG	NODE_82_length_28815_cov_61.8054	28815	unaligned
31943	32709	25196	25960	gi_828958545_gb_CP011630.1__Klebsiella_oxytoca_strain_CAV1374_plasmid_pCAV1374-49__complete_sequence	NODE_84_length_25960_cov_56.3256	97.14	
CONTIG	NODE_84_length_25960_cov_56.3256	25960	correct
CONTIG	NODE_87_length_25273_cov_60.7908	25273	unaligned
CONTIG	NODE_91_length_23186_cov_81.3644	23186	unaligned
CONTIG	NODE_92_length_22331_cov_46.0423	22331	unaligned
CONTIG	NODE_97_length_20651_cov_78.2021	20651	unaligned
12758	32074	1	19317	gi_828958545_gb_CP011630.1__Klebsiella_oxytoca_strain_CAV1374_plasmid_pCAV1374-49__complete_sequence	NODE_100_length_19317_cov_56.0578	99.89	
CONTIG	NODE_100_length_19317_cov_56.0578	19317	correct
CONTIG	NODE_104_length_17756_cov_41.1486	17756	unaligned
CONTIG	NODE_106_length_16736_cov_76.6179	16736	unaligned
CONTIG	NODE_110_length_15391_cov_57.7333	15391	unaligned
CONTIG	NODE_112_length_13627_cov_56.6542	13627	unaligned
21084	21713	637	8	gi_828958545_gb_CP011630.1__Klebsiella_oxytoca_strain_CAV1374_plasmid_pCAV1374-49__complete_sequence	NODE_114_length_12834_cov_44.5527	95.24	
CONTIG	NODE_114_length_12834_cov_44.5527	12834	correct
1	4735	4735	1	gi_828958545_gb_CP011630.1__Klebsiella_oxytoca_strain_CAV1374_plasmid_pCAV1374-49__complete_sequence	NODE_119_length_11211_cov_58.3121	100.0	
fake misassembly (linear representation of circular genome)
42725	49200	11211	4736	gi_828958545_gb_CP011630.1__Klebsiella_oxytoca_strain_CAV1374_plasmid_pCAV1374-49__complete_sequence	NODE_119_length_11211_cov_58.3121	99.89	
CONTIG	NODE_119_length_11211_cov_58.3121	11211	correct
CONTIG	NODE_122_length_10157_cov_66.5969	10157	unaligned
CONTIG	NODE_124_length_10011_cov_77.3209	10011	unaligned
CONTIG	NODE_128_length_9478_cov_217.071	9478	unaligned
33512	41872	8361	1	gi_828958545_gb_CP011630.1__Klebsiella_oxytoca_strain_CAV1374_plasmid_pCAV1374-49__complete_sequence	NODE_130_length_8361_cov_59.3095	100.0	
CONTIG	NODE_130_length_8361_cov_59.3095	8361	correct
CONTIG	NODE_133_length_7613_cov_119.222	7613	unaligned
CONTIG	NODE_138_length_6361_cov_39.0388	6361	unaligned
CONTIG	NODE_141_length_5850_cov_81.1711	5850	unaligned
CONTIG	NODE_145_length_5125_cov_46.5168	5125	unaligned
45954	46517	1931	1368	gi_828958545_gb_CP011630.1__Klebsiella_oxytoca_strain_CAV1374_plasmid_pCAV1374-49__complete_sequence	NODE_149_length_4476_cov_46.5103	97.7	
CONTIG	NODE_149_length_4476_cov_46.5103	4476	correct
8241	12091	3851	1	gi_828958545_gb_CP011630.1__Klebsiella_oxytoca_strain_CAV1374_plasmid_pCAV1374-49__complete_sequence	NODE_154_length_3851_cov_60.545	100.0	
CONTIG	NODE_154_length_3851_cov_60.545	3851	correct
CONTIG	NODE_155_length_3797_cov_117.372	3797	unaligned
4659	8317	3659	1	gi_828958545_gb_CP011630.1__Klebsiella_oxytoca_strain_CAV1374_plasmid_pCAV1374-49__complete_sequence	NODE_157_length_3659_cov_1104.6	100.0	
CONTIG	NODE_157_length_3659_cov_1104.6	3659	correct
CONTIG	NODE_158_length_3572_cov_59.6086	3572	unaligned
CONTIG	NODE_162_length_3180_cov_45.1827	3180	unaligned
CONTIG	NODE_168_length_2662_cov_119.561	2662	unaligned
CONTIG	NODE_170_length_2534_cov_63.8311	2534	unaligned
CONTIG	NODE_173_length_2386_cov_67.1672	2386	unaligned
CONTIG	NODE_175_length_2254_cov_97.0069	2254	unaligned
CONTIG	NODE_177_length_2146_cov_551.616	2146	unaligned
CONTIG	NODE_179_length_2023_cov_244.664	2023	unaligned
CONTIG	NODE_180_length_2015_cov_70.6465	2015	unaligned
CONTIG	NODE_181_length_1970_cov_491.458	1970	unaligned
CONTIG	NODE_187_length_1616_cov_563.809	1616	unaligned
CONTIG	NODE_188_length_1542_cov_73.1154	1542	unaligned
CONTIG	NODE_189_length_1464_cov_58.8248	1464	unaligned
CONTIG	NODE_191_length_1356_cov_269.219	1356	unaligned
CONTIG	NODE_198_length_1227_cov_46.1383	1227	unaligned
CONTIG	NODE_201_length_1196_cov_1272.29	1196	unaligned
41796	42801	1006	1	gi_828958545_gb_CP011630.1__Klebsiella_oxytoca_strain_CAV1374_plasmid_pCAV1374-49__complete_sequence	NODE_204_length_1006_cov_898.276	100.0	
CONTIG	NODE_204_length_1006_cov_898.276	1006	correct
CONTIG	NODE_207_length_986_cov_354.54	986	unaligned
CONTIG	NODE_211_length_968_cov_548.48	968	unaligned
CONTIG	NODE_214_length_883_cov_217.69	883	unaligned
CONTIG	NODE_219_length_736_cov_135.467	736	unaligned
CONTIG	NODE_222_length_617_cov_452.928	617	unaligned
32633	33201	1	569	gi_828958545_gb_CP011630.1__Klebsiella_oxytoca_strain_CAV1374_plasmid_pCAV1374-49__complete_sequence	NODE_224_length_569_cov_107.638	98.77	
CONTIG	NODE_224_length_569_cov_107.638	569	correct
CONTIG	NODE_228_length_521_cov_71.7793	521	unaligned
32206	32709	1	504	gi_828958545_gb_CP011630.1__Klebsiella_oxytoca_strain_CAV1374_plasmid_pCAV1374-49__complete_sequence	NODE_230_length_504_cov_55.2155	100.0	
CONTIG	NODE_230_length_504_cov_55.2155	504	correct
