1: PREPARING DATA
2,3: RUNNING mummer AND CREATING CLUSTERS
# reading input file "/home/mmbbio/Plasmid_Assembly/completegenomes/plasmids/KPNIH24_plasmids_references/group_3.fasta_comparison_cbar/contigs_reports/nucmer_output/prediction.ntref" of length 194878
# construct suffix tree for sequence of length 194878
# (maximum reference length is 536870908)
# (maximum query length is 4294967295)
# process 1948 characters per dot
#....................................................................................................
# CONSTRUCTIONTIME /home/mmbbio/Plasmid_Assembly/programmes/quast-4.1/libs/MUMmer3.23-linux/mummer /home/mmbbio/Plasmid_Assembly/completegenomes/plasmids/KPNIH24_plasmids_references/group_3.fasta_comparison_cbar/contigs_reports/nucmer_output/prediction.ntref 0.03
# reading input file "/home/mmbbio/Plasmid_Assembly/completegenomes/plasmids/KPNIH24_plasmids_references/group_3.fasta_comparison_cbar/quast_corrected_input/prediction.fas" of length 255352
# matching query-file "/home/mmbbio/Plasmid_Assembly/completegenomes/plasmids/KPNIH24_plasmids_references/group_3.fasta_comparison_cbar/quast_corrected_input/prediction.fas"
# against subject-file "/home/mmbbio/Plasmid_Assembly/completegenomes/plasmids/KPNIH24_plasmids_references/group_3.fasta_comparison_cbar/contigs_reports/nucmer_output/prediction.ntref"
# COMPLETETIME /home/mmbbio/Plasmid_Assembly/programmes/quast-4.1/libs/MUMmer3.23-linux/mummer /home/mmbbio/Plasmid_Assembly/completegenomes/plasmids/KPNIH24_plasmids_references/group_3.fasta_comparison_cbar/contigs_reports/nucmer_output/prediction.ntref 0.10
# SPACE /home/mmbbio/Plasmid_Assembly/programmes/quast-4.1/libs/MUMmer3.23-linux/mummer /home/mmbbio/Plasmid_Assembly/completegenomes/plasmids/KPNIH24_plasmids_references/group_3.fasta_comparison_cbar/contigs_reports/nucmer_output/prediction.ntref 0.44
4: FINISHING DATA
