Assembly	prediction
# contigs (>= 0 bp)	12
# contigs (>= 1000 bp)	8
# contigs (>= 5000 bp)	5
# contigs (>= 10000 bp)	3
# contigs (>= 25000 bp)	2
# contigs (>= 50000 bp)	0
Total length (>= 0 bp)	113484
Total length (>= 1000 bp)	110567
Total length (>= 5000 bp)	105468
Total length (>= 10000 bp)	89528
Total length (>= 25000 bp)	74064
Total length (>= 50000 bp)	0
# contigs	12
Largest contig	45249
Total length	113484
Reference length	90452
GC (%)	53.60
Reference GC (%)	56.99
N50	28815
NG50	45249
N75	15464
NG75	28815
L50	2
LG50	1
L75	3
LG75	2
# misassemblies	0
# misassembled contigs	0
Misassembled contigs length	0
# local misassemblies	1
# unaligned contigs	1 + 0 part
Unaligned length	28815
Genome fraction (%)	95.552
Duplication ratio	1.011
# N's per 100 kbp	0.00
# mismatches per 100 kbp	50.91
# indels per 100 kbp	0.00
Largest alignment	45249
NA50	15464
NGA50	45249
NGA75	9969
LA50	2
LGA50	1
LGA75	3
