Assembly	prediction
# contigs (>= 0 bp)	4
# contigs (>= 1000 bp)	4
# contigs (>= 5000 bp)	4
# contigs (>= 10000 bp)	2
# contigs (>= 25000 bp)	1
# contigs (>= 50000 bp)	0
Total length (>= 0 bp)	60909
Total length (>= 1000 bp)	60909
Total length (>= 5000 bp)	60909
Total length (>= 10000 bp)	45122
Total length (>= 25000 bp)	32699
Total length (>= 50000 bp)	0
# contigs	4
Largest contig	32699
Total length	60909
Reference length	59138
GC (%)	50.66
Reference GC (%)	53.26
N50	32699
NG50	32699
N75	9133
NG75	12423
L50	1
LG50	1
L75	3
LG75	2
# misassemblies	0
# misassembled contigs	0
Misassembled contigs length	0
# local misassemblies	0
# unaligned contigs	3 + 0 part
Unaligned length	51776
Genome fraction (%)	15.444
Duplication ratio	1.000
# N's per 100 kbp	0.00
# mismatches per 100 kbp	10.95
# indels per 100 kbp	10.95
Largest alignment	9133
NGA50	-
