Assembly	prediction
# contigs (>= 0 bp)	57
# contigs (>= 1000 bp)	15
# contigs (>= 5000 bp)	12
# contigs (>= 10000 bp)	8
# contigs (>= 25000 bp)	4
# contigs (>= 50000 bp)	2
Total length (>= 0 bp)	302981
Total length (>= 1000 bp)	294457
Total length (>= 5000 bp)	286961
Total length (>= 10000 bp)	260278
Total length (>= 25000 bp)	189989
Total length (>= 50000 bp)	111503
# contigs	19
Largest contig	56816
Total length	296982
Reference length	50333
GC (%)	47.48
Reference GC (%)	52.17
N50	39781
NG50	56816
N75	21213
NG75	56816
L50	3
LG50	1
L75	6
LG75	1
# misassemblies	0
# misassembled contigs	0
Misassembled contigs length	0
# local misassemblies	0
# unaligned contigs	13 + 1 part
Unaligned length	249449
Genome fraction (%)	95.279
Duplication ratio	1.004
# N's per 100 kbp	0.00
# mismatches per 100 kbp	2.09
# indels per 100 kbp	0.00
Largest alignment	21799
NGA50	10692
NGA75	8258
LGA50	2
LGA75	3
