Assembly	prediction
# contigs (>= 0 bp)	15
# contigs (>= 1000 bp)	13
# contigs (>= 5000 bp)	9
# contigs (>= 10000 bp)	4
# contigs (>= 25000 bp)	1
# contigs (>= 50000 bp)	1
Total length (>= 0 bp)	146418
Total length (>= 1000 bp)	145031
Total length (>= 5000 bp)	133664
Total length (>= 10000 bp)	100210
Total length (>= 25000 bp)	56011
Total length (>= 50000 bp)	56011
# contigs	15
Largest contig	56011
Total length	146418
Reference length	55956
GC (%)	49.06
Reference GC (%)	45.88
N50	20984
NG50	56011
N75	8057
NG75	56011
L50	2
LG50	1
L75	6
LG75	1
# misassemblies	0
# misassembled contigs	0
Misassembled contigs length	0
# local misassemblies	0
# unaligned contigs	14 + 0 part
Unaligned length	90407
Genome fraction (%)	100.000
Duplication ratio	1.001
# N's per 100 kbp	0.00
# mismatches per 100 kbp	0.00
# indels per 100 kbp	0.00
Largest alignment	56011
NGA50	56011
NGA75	56011
LGA50	1
LGA75	1
