Aligning contigs to reference...
	Running Nucmer
Parsing coords...
Loading reference...
	Loaded [gi_959190351_gb_CP013324.1__Klebsiella_pneumoniae_strain_CAV1193_plasmid_pCAV1193-166__complete_sequence]
Loading SNPs...
Loading regions...
	No regions given, using whole reference.
	Total Regions: 1
	Total Region Length: 166486
Analyzing contigs...
CONTIG: NODE_56_length_24524_cov_37.3819 (24524bp)
		This contig is unaligned. (24524 bp)
		Unaligned bases: 24524  total: 24524

CONTIG: NODE_44_length_34676_cov_57.4585 (34676bp)
		This contig is unaligned. (34676 bp)
		Unaligned bases: 34676  total: 59200

CONTIG: NODE_12_length_125842_cov_45.2938 (125842bp)
Top Length: 92128  Top ID: 99.99
		This contig is misassembled. 2 total aligns.
			Real Alignment 1: 1 92128 | 92128 1 | 92128 92128 | 99.99 | gi_959190351_gb_CP013324.1__Klebsiella_pneumoniae_strain_CAV1193_plasmid_pCAV1193-166__complete_sequence NODE_12_length_125842_cov_45.2938
			  Fake misassembly (caused by linear representation of circular genome) between these two alignments
			Real Alignment 2: 132773 166486 | 125842 92129 | 33714 33714 | 100.0 | gi_959190351_gb_CP013324.1__Klebsiella_pneumoniae_strain_CAV1193_plasmid_pCAV1193-166__complete_sequence NODE_12_length_125842_cov_45.2938

CONTIG: NODE_48_length_30831_cov_82.258 (30831bp)
		This contig is unaligned. (30831 bp)
		Unaligned bases: 30831  total: 90031

CONTIG: NODE_68_length_13767_cov_42.1999 (13767bp)
		This contig is unaligned. (13767 bp)
		Unaligned bases: 13767  total: 103798

Analyzing coverage...
Writing SNPs into /home/mmbbio/Plasmid_Assembly/completegenomes/plasmids/CAV1193_plasmids_references/group_3.fasta_comparison_plasmidfinder/contigs_reports/nucmer_output/prediction.used_snps
	Reference gi_959190351_gb_CP013324.1__Klebsiella_pneumoniae_strain_CAV1193_plasmid_pCAV1193-166__complete_sequence: 2 total alignments. 1 total regions.
		Region: 1 to 166486 (166486 bp)
			Align 1: 1 92128 NODE_12_length_125842_cov_45.2938 92128 1
				Gap between this and next alignment: 92128 to 132773 (40644 bp)
				Next Alignment: 132773 166486 NODE_12_length_125842_cov_45.2938 125842 92129

			Align 2: 132773 166486 NODE_12_length_125842_cov_45.2938 125842 92129
			END in current alignment.  Modifying 166486 to 166486.

Analysis is finished!
Founded SNPs were written into /home/mmbbio/Plasmid_Assembly/completegenomes/plasmids/CAV1193_plasmids_references/group_3.fasta_comparison_plasmidfinder/contigs_reports/nucmer_output/prediction.used_snps

Results:
	Local Misassemblies: 0
	Misassemblies: 0
		Relocations: 0
		Translocations: 0
		Inversions: 0
	Misassembled Contigs: 0
	Misassembled Contig Bases: 0
	Misassemblies Inter-Contig Overlap: 0
Uncovered Regions: 0 (0)
Unaligned Contigs: 4 + 0 part
Partially Unaligned Contigs with Misassemblies: 0
Unaligned Contig Bases: 103798

Ambiguously Mapped Contigs: 0
Extra Bases in Ambiguously Mapped Contigs: 0
Note that --allow-ambiguity option was set to "all" and each of these contigs was used several times.

	Covered Bases: 125842

	SNPs: 1
	Insertions: 0
	Deletions: 0

	Positive Gaps: 1
		Internal Gaps:  1
		External Gaps:  0
		External Gap Total:  0
		External Gap Average: 0
	Negative Gaps: 0
		Internal Overlaps:  0
		External Overlaps:  0
		External Overlaps Total:  0
		External Overlaps Average: 0
	Contigs with Redundant Alignments: 0 (0)
