S1	E1	S2	E2	Reference	Contig	IDY	Ambiguous
CONTIG	NODE_1_length_56873_cov_26.336_component_0	56873	unaligned
CONTIG	NODE_2_length_49173_cov_19.0524_component_0	49173	unaligned
CONTIG	NODE_3_length_30230_cov_17.5884_component_0	30230	unaligned
CONTIG	NODE_4_length_21535_cov_19.8846_component_0	21535	unaligned
CONTIG	NODE_5_length_20798_cov_18.4989_component_0	20798	unaligned
CONTIG	NODE_6_length_13083_cov_20.5707_component_0	13083	unaligned
1	3559	3559	1	gi_749295863_ref_NZ_CP008828.1__Klebsiella_pneumoniae_subsp._pneumoniae_KPNIH1_plasmid_pAAC154-a50__complete_sequence	NODE_7_length_12714_cov_30.0231_component_0	100.0	
fake misassembly (linear representation of circular genome)
5942	15096	12714	3560	gi_749295863_ref_NZ_CP008828.1__Klebsiella_pneumoniae_subsp._pneumoniae_KPNIH1_plasmid_pAAC154-a50__complete_sequence	NODE_7_length_12714_cov_30.0231_component_0	100.0	
CONTIG	NODE_7_length_12714_cov_30.0231_component_0	12714	correct
CONTIG	NODE_8_length_11816_cov_18.3336_component_0	11816	unaligned
CONTIG	NODE_9_length_10838_cov_24.5888_component_0	10838	unaligned
CONTIG	NODE_10_length_10133_cov_19.9212_component_0	10133	unaligned
CONTIG	NODE_11_length_7603_cov_20.504_component_0	7603	unaligned
CONTIG	NODE_12_length_7491_cov_20.2083_component_0	7491	unaligned
CONTIG	NODE_13_length_6585_cov_20.5426_component_0	6585	unaligned
CONTIG	NODE_14_length_5830_cov_19.8808_component_1	5830	unaligned
CONTIG	NODE_15_length_5598_cov_23.9634_component_0	5598	unaligned
CONTIG	NODE_16_length_5541_cov_21.4369_component_0	5541	unaligned
CONTIG	NODE_17_length_5517_cov_17.0243_component_0	5517	unaligned
CONTIG	NODE_18_length_5424_cov_20.5588_component_0	5424	unaligned
CONTIG	NODE_19_length_5317_cov_21.888_component_0	5317	unaligned
CONTIG	NODE_20_length_5091_cov_26.1089_component_0	5091	unaligned
CONTIG	NODE_21_length_4926_cov_22.4729_component_0	4926	unaligned
CONTIG	NODE_22_length_4384_cov_103.166_component_1	4384	unaligned
CONTIG	NODE_23_length_4316_cov_29.5622_component_0	4316	unaligned
CONTIG	NODE_24_length_2988_cov_33.9282_component_0	2988	unaligned
CONTIG	NODE_25_length_2738_cov_20.5212_component_0	2738	unaligned
CONTIG	NODE_26_length_2452_cov_40.6371_component_0	2452	unaligned
CONTIG	NODE_27_length_2433_cov_27.0216_component_0	2433	unaligned
CONTIG	NODE_28_length_2321_cov_17.8409_component_0	2321	unaligned
CONTIG	NODE_29_length_2281_cov_15.7291_component_0	2281	unaligned
CONTIG	NODE_30_length_2005_cov_39.2547_component_0	2005	unaligned
CONTIG	NODE_31_length_1899_cov_16.213_component_0	1899	unaligned
CONTIG	NODE_32_length_1694_cov_32.4187_component_0	1694	unaligned
CONTIG	NODE_33_length_1655_cov_45.5634_component_0	1655	unaligned
CONTIG	NODE_34_length_1641_cov_16.6381_component_0	1641	unaligned
CONTIG	NODE_35_length_1586_cov_15.008_component_0	1586	unaligned
CONTIG	NODE_36_length_1370_cov_18.1423_component_0	1370	unaligned
CONTIG	NODE_37_length_1344_cov_23.9361_component_0	1344	unaligned
CONTIG	NODE_38_length_1341_cov_19.5593_component_0	1341	unaligned
CONTIG	NODE_39_length_1276_cov_19.1334_component_0	1276	unaligned
CONTIG	NODE_40_length_1199_cov_183.819_component_0	1199	unaligned
CONTIG	NODE_41_length_1194_cov_25.6983_component_0	1194	unaligned
CONTIG	NODE_42_length_1156_cov_18.6015_component_0	1156	unaligned
CONTIG	NODE_43_length_1141_cov_16.2378_component_0	1141	unaligned
CONTIG	NODE_44_length_1134_cov_19.1769_component_0	1134	unaligned
CONTIG	NODE_45_length_1103_cov_19.8587_component_0	1103	unaligned
CONTIG	NODE_46_length_1071_cov_24.335_component_0	1071	unaligned
CONTIG	NODE_47_length_1057_cov_38.8602_component_0	1057	unaligned
3926	4953	1028	1	gi_749295863_ref_NZ_CP008828.1__Klebsiella_pneumoniae_subsp._pneumoniae_KPNIH1_plasmid_pAAC154-a50__complete_sequence	NODE_48_length_1028_cov_29.2334_component_0	100.0	
CONTIG	NODE_48_length_1028_cov_29.2334_component_0	1028	correct
CONTIG	NODE_49_length_1018_cov_35_component_0	1018	unaligned
CONTIG	NODE_50_length_964_cov_36.8918_component_0	964	unaligned
CONTIG	NODE_51_length_961_cov_11.4593_component_0	961	unaligned
CONTIG	NODE_52_length_958_cov_13.807_component_0	958	unaligned
CONTIG	NODE_53_length_938_cov_28.5482_component_0	938	unaligned
CONTIG	NODE_54_length_825_cov_15.3997_component_0	825	unaligned
CONTIG	NODE_55_length_823_cov_25.252_component_0	823	unaligned
CONTIG	NODE_56_length_798_cov_10.0583_component_0	798	unaligned
CONTIG	NODE_57_length_775_cov_32.8782_component_0	775	unaligned
CONTIG	NODE_58_length_720_cov_16.4152_component_0	720	unaligned
CONTIG	NODE_59_length_695_cov_13.8835_component_1	695	unaligned
CONTIG	NODE_60_length_671_cov_38.0034_component_0	671	unaligned
CONTIG	NODE_61_length_608_cov_15.5179_component_0	608	unaligned
CONTIG	NODE_62_length_600_cov_28.4168_component_0	600	unaligned
CONTIG	NODE_63_length_580_cov_32.2147_component_0	580	unaligned
3483	4002	1	520	gi_749295863_ref_NZ_CP008828.1__Klebsiella_pneumoniae_subsp._pneumoniae_KPNIH1_plasmid_pAAC154-a50__complete_sequence	NODE_64_length_520_cov_59.2596_component_0	100.0	
CONTIG	NODE_64_length_520_cov_59.2596_component_0	520	correct
