Assembly	prediction
# contigs (>= 0 bp)	5
# contigs (>= 1000 bp)	5
# contigs (>= 5000 bp)	5
# contigs (>= 10000 bp)	5
# contigs (>= 25000 bp)	3
# contigs (>= 50000 bp)	1
Total length (>= 0 bp)	232490
Total length (>= 1000 bp)	232490
Total length (>= 5000 bp)	232490
Total length (>= 10000 bp)	232490
Total length (>= 25000 bp)	191199
Total length (>= 50000 bp)	125630
# contigs	5
Largest contig	125630
Total length	232490
Reference length	3741
GC (%)	51.20
Reference GC (%)	45.90
N50	125630
NG50	125630
N75	30893
NG75	125630
L50	1
LG50	1
L75	3
LG75	1
# unaligned contigs	5 + 0 part
Unaligned length	232490
# N's per 100 kbp	0.00
NGA50	-
