gi_764911390_ref_NZ_CP008825.1__Enterobacter_cloacae_ECNIH2_plasmid_pKPC-272__complete_sequence
7116 7473
23469 50724
122308 128873
135173 136287
137093 137198
137708 138457
140187 140569
141885 146634
167523 168508
172615 176124
179008 179480
180130 180348
239349 258811
270660 276405
