S1	E1	S2	E2	Reference	Contig	IDY	Ambiguous
CONTIG	NODE_1_length_125842_cov_45.2938_component_0	125842	unaligned
CONTIG	NODE_2_length_115362_cov_14.865_component_0	115362	unaligned
CONTIG	NODE_3_length_68935_cov_30.4645_component_0	68935	unaligned
CONTIG	NODE_4_length_62136_cov_15.4356_component_0	62136	unaligned
CONTIG	NODE_5_length_53283_cov_14.5515_component_0	53283	unaligned
CONTIG	NODE_6_length_43394_cov_30.748_component_1	43394	unaligned
CONTIG	NODE_7_length_40078_cov_34.2518_component_0	40078	unaligned
CONTIG	NODE_8_length_35762_cov_30.9433_component_0	35762	unaligned
1	21523	21523	1	gi_959195734_gb_CP013326.1__Klebsiella_pneumoniae_strain_CAV1193_plasmid_pCAV1193-78__complete_sequence	NODE_9_length_34676_cov_57.4585_component_0	100.0	
fake misassembly (linear representation of circular genome)
64656	77808	34676	21524	gi_959195734_gb_CP013326.1__Klebsiella_pneumoniae_strain_CAV1193_plasmid_pCAV1193-78__complete_sequence	NODE_9_length_34676_cov_57.4585_component_0	100.0	
CONTIG	NODE_9_length_34676_cov_57.4585_component_0	34676	correct
CONTIG	NODE_10_length_30893_cov_82.434_component_0	30893	unaligned
CONTIG	NODE_11_length_27828_cov_40.352_component_0	27828	unaligned
CONTIG	NODE_12_length_27824_cov_32.6197_component_0	27824	unaligned
CONTIG	NODE_13_length_25306_cov_15.5473_component_0	25306	unaligned
CONTIG	NODE_14_length_25069_cov_55.1396_component_0	25069	unaligned
53450	54873	22966	21543	gi_959195734_gb_CP013326.1__Klebsiella_pneumoniae_strain_CAV1193_plasmid_pCAV1193-78__complete_sequence	NODE_15_length_24524_cov_37.3819_component_0	97.75	
51808	53285	24524	23046	gi_959195734_gb_CP013326.1__Klebsiella_pneumoniae_strain_CAV1193_plasmid_pCAV1193-78__complete_sequence	NODE_15_length_24524_cov_37.3819_component_0	97.3	
CONTIG	NODE_16_length_23008_cov_36.749_component_0	23008	unaligned
CONTIG	NODE_17_length_22405_cov_47.5228_component_0	22405	unaligned
CONTIG	NODE_18_length_20948_cov_29.6246_component_0	20948	unaligned
CONTIG	NODE_19_length_17311_cov_29.9333_component_0	17311	unaligned
CONTIG	NODE_20_length_13028_cov_37.7074_component_0	13028	unaligned
CONTIG	NODE_21_length_13012_cov_38.3512_component_0	13012	unaligned
38623	50930	12308	1	gi_959195734_gb_CP013326.1__Klebsiella_pneumoniae_strain_CAV1193_plasmid_pCAV1193-78__complete_sequence	NODE_22_length_12308_cov_59.403_component_0	100.0	
CONTIG	NODE_22_length_12308_cov_59.403_component_0	12308	correct
CONTIG	NODE_23_length_10850_cov_34.2518_component_0	10850	unaligned
CONTIG	NODE_24_length_10810_cov_38.7619_component_0	10810	unaligned
CONTIG	NODE_25_length_10551_cov_46.2922_component_0	10551	unaligned
CONTIG	NODE_26_length_10536_cov_56.9467_component_0	10536	unaligned
CONTIG	NODE_27_length_10157_cov_51.0077_component_0	10157	unaligned
CONTIG	NODE_28_length_9730_cov_55.9839_component_0	9730	unaligned
CONTIG	NODE_29_length_9462_cov_30.9258_component_0	9462	unaligned
CONTIG	NODE_30_length_8365_cov_40.7043_component_0	8365	unaligned
CONTIG	NODE_31_length_7355_cov_41.503_component_0	7355	unaligned
CONTIG	NODE_32_length_7130_cov_16.8646_component_0	7130	unaligned
CONTIG	NODE_33_length_6143_cov_43.1691_component_0	6143	unaligned
CONTIG	NODE_34_length_6043_cov_42.8599_component_0	6043	unaligned
CONTIG	NODE_35_length_5838_cov_52.8827_component_0	5838	unaligned
24419	29267	4849	1	gi_959195734_gb_CP013326.1__Klebsiella_pneumoniae_strain_CAV1193_plasmid_pCAV1193-78__complete_sequence	NODE_36_length_4849_cov_77.456_component_0	100.0	
CONTIG	NODE_36_length_4849_cov_77.456_component_0	4849	correct
CONTIG	NODE_37_length_4815_cov_45.7491_component_0	4815	unaligned
CONTIG	NODE_38_length_4563_cov_50.2624_component_0	4563	unaligned
31851	36297	4447	1	gi_959195734_gb_CP013326.1__Klebsiella_pneumoniae_strain_CAV1193_plasmid_pCAV1193-78__complete_sequence	NODE_39_length_4447_cov_59.513_component_0	100.0	
CONTIG	NODE_39_length_4447_cov_59.513_component_0	4447	correct
52738	56812	1	4075	gi_959195734_gb_CP013326.1__Klebsiella_pneumoniae_strain_CAV1193_plasmid_pCAV1193-78__complete_sequence	NODE_40_length_4075_cov_64.5768_component_0	100.0	
CONTIG	NODE_40_length_4075_cov_64.5768_component_0	4075	correct
CONTIG	NODE_41_length_3818_cov_656.274_component_2	3818	unaligned
CONTIG	NODE_42_length_3815_cov_35.1683_component_0	3815	unaligned
26503	27507	1999	995	gi_959195734_gb_CP013326.1__Klebsiella_pneumoniae_strain_CAV1193_plasmid_pCAV1193-78__complete_sequence	NODE_43_length_3393_cov_55.437_component_0	96.32	
CONTIG	NODE_43_length_3393_cov_55.437_component_0	3393	correct
CONTIG	NODE_44_length_3232_cov_242.043_component_0	3232	unaligned
CONTIG	NODE_45_length_3098_cov_83.7448_component_0	3098	unaligned
CONTIG	NODE_46_length_3027_cov_65.2095_component_0	3027	unaligned
29191	31927	2737	1	gi_959195734_gb_CP013326.1__Klebsiella_pneumoniae_strain_CAV1193_plasmid_pCAV1193-78__complete_sequence	NODE_47_length_2737_cov_87.9474_component_0	100.0	
CONTIG	NODE_47_length_2737_cov_87.9474_component_0	2737	correct
CONTIG	NODE_48_length_2727_cov_40.6253_component_0	2727	unaligned
58168	60848	2681	1	gi_959195734_gb_CP013326.1__Klebsiella_pneumoniae_strain_CAV1193_plasmid_pCAV1193-78__complete_sequence	NODE_49_length_2681_cov_104.174_component_0	100.0	
CONTIG	NODE_49_length_2681_cov_104.174_component_0	2681	correct
CONTIG	NODE_50_length_2565_cov_32.6403_component_0	2565	unaligned
CONTIG	NODE_51_length_2294_cov_62.7334_component_0	2294	unaligned
62587	64732	2146	1	gi_959195734_gb_CP013326.1__Klebsiella_pneumoniae_strain_CAV1193_plasmid_pCAV1193-78__complete_sequence	NODE_52_length_2146_cov_165.735_component_0	100.0	
CONTIG	NODE_52_length_2146_cov_165.735_component_0	2146	correct
CONTIG	NODE_53_length_2132_cov_65.419_component_0	2132	unaligned
CONTIG	NODE_54_length_1916_cov_186.744_component_0	1916	unaligned
CONTIG	NODE_55_length_1912_cov_38.3793_component_0	1912	unaligned
CONTIG	NODE_56_length_1496_cov_18.0176_component_0	1496	unaligned
CONTIG	NODE_57_length_1487_cov_52.2695_component_0	1487	unaligned
CONTIG	NODE_58_length_1486_cov_42.1057_component_0	1486	unaligned
61215	62594	1380	1	gi_959195734_gb_CP013326.1__Klebsiella_pneumoniae_strain_CAV1193_plasmid_pCAV1193-78__complete_sequence	NODE_59_length_1380_cov_174.229_component_0	100.0	
CONTIG	NODE_59_length_1380_cov_174.229_component_0	1380	correct
22294	23612	1319	1	gi_959195734_gb_CP013326.1__Klebsiella_pneumoniae_strain_CAV1193_plasmid_pCAV1193-78__complete_sequence	NODE_60_length_1319_cov_51.7319_component_0	100.0	
CONTIG	NODE_60_length_1319_cov_51.7319_component_0	1319	correct
CONTIG	NODE_61_length_1102_cov_164.423_component_0	1102	unaligned
56736	57801	1	1066	gi_959195734_gb_CP013326.1__Klebsiella_pneumoniae_strain_CAV1193_plasmid_pCAV1193-78__complete_sequence	NODE_62_length_1066_cov_192.278_component_0	100.0	
CONTIG	NODE_62_length_1066_cov_192.278_component_0	1066	correct
CONTIG	NODE_63_length_909_cov_34.8357_component_0	909	unaligned
CONTIG	NODE_64_length_1040_cov_274.175_component_0	1040	unaligned
50854	51884	1031	1	gi_959195734_gb_CP013326.1__Klebsiella_pneumoniae_strain_CAV1193_plasmid_pCAV1193-78__complete_sequence	NODE_65_length_1031_cov_70.7788_component_0	100.0	
CONTIG	NODE_65_length_1031_cov_70.7788_component_0	1031	correct
36221	37244	1	1024	gi_959195734_gb_CP013326.1__Klebsiella_pneumoniae_strain_CAV1193_plasmid_pCAV1193-78__complete_sequence	NODE_66_length_1024_cov_89.0676_component_0	100.0	
CONTIG	NODE_66_length_1024_cov_89.0676_component_0	1024	correct
CONTIG	NODE_67_length_1020_cov_73.772_component_0	1020	unaligned
37168	38143	1	976	gi_959195734_gb_CP013326.1__Klebsiella_pneumoniae_strain_CAV1193_plasmid_pCAV1193-78__complete_sequence	NODE_68_length_976_cov_61.931_component_0	100.0	
CONTIG	NODE_68_length_976_cov_61.931_component_0	976	correct
CONTIG	NODE_69_length_974_cov_32.4861_component_0	974	unaligned
CONTIG	NODE_70_length_973_cov_52.7891_component_0	973	unaligned
CONTIG	NODE_71_length_960_cov_39.5651_component_0	960	unaligned
23536	24495	960	1	gi_959195734_gb_CP013326.1__Klebsiella_pneumoniae_strain_CAV1193_plasmid_pCAV1193-78__complete_sequence	NODE_72_length_960_cov_85.3635_component_0	100.0	
CONTIG	NODE_72_length_960_cov_85.3635_component_0	960	correct
21447	22370	1	924	gi_959195734_gb_CP013326.1__Klebsiella_pneumoniae_strain_CAV1193_plasmid_pCAV1193-78__complete_sequence	NODE_73_length_924_cov_103.678_component_0	100.0	
CONTIG	NODE_73_length_924_cov_103.678_component_0	924	correct
CONTIG	NODE_74_length_914_cov_43.5986_component_0	914	unaligned
CONTIG	NODE_75_length_879_cov_177.498_component_0	879	unaligned
CONTIG	NODE_76_length_753_cov_23.1849_component_0	753	unaligned
CONTIG	NODE_77_length_745_cov_29.6841_component_0	745	unaligned
22294	23005	712	1	gi_959195734_gb_CP013326.1__Klebsiella_pneumoniae_strain_CAV1193_plasmid_pCAV1193-78__complete_sequence	NODE_78_length_712_cov_33.7591_component_0	97.05	
CONTIG	NODE_78_length_712_cov_33.7591_component_0	712	correct
CONTIG	NODE_79_length_677_cov_212.603_component_0	677	unaligned
CONTIG	NODE_80_length_676_cov_246.958_component_0	676	unaligned
CONTIG	NODE_81_length_660_cov_225.532_component_0	660	unaligned
CONTIG	NODE_82_length_650_cov_243.234_component_0	650	unaligned
CONTIG	NODE_83_length_647_cov_277.607_component_0	647	unaligned
38067	38699	633	1	gi_959195734_gb_CP013326.1__Klebsiella_pneumoniae_strain_CAV1193_plasmid_pCAV1193-78__complete_sequence	NODE_84_length_633_cov_101.214_component_0	100.0	
CONTIG	NODE_84_length_633_cov_101.214_component_0	633	correct
CONTIG	NODE_85_length_614_cov_27.2775_component_0	614	unaligned
CONTIG	NODE_86_length_612_cov_24.772_component_0	612	unaligned
23065	23612	1	548	gi_959195734_gb_CP013326.1__Klebsiella_pneumoniae_strain_CAV1193_plasmid_pCAV1193-78__complete_sequence	NODE_87_length_548_cov_24.9469_component_0	95.99	
CONTIG	NODE_87_length_548_cov_24.9469_component_0	548	correct
CONTIG	NODE_88_length_532_cov_38.4593_component_0	532	unaligned
57725	58244	1	520	gi_959195734_gb_CP013326.1__Klebsiella_pneumoniae_strain_CAV1193_plasmid_pCAV1193-78__complete_sequence	NODE_89_length_520_cov_315.343_component_0	100.0	True
60772	61291	1	520	gi_959195734_gb_CP013326.1__Klebsiella_pneumoniae_strain_CAV1193_plasmid_pCAV1193-78__complete_sequence	NODE_89_length_520_cov_315.343_component_0	100.0	True
CONTIG	NODE_89_length_520_cov_315.343_component_0	520	correct
