Assembly	prediction
# contigs (>= 0 bp)	16
# contigs (>= 1000 bp)	11
# contigs (>= 5000 bp)	5
# contigs (>= 10000 bp)	3
# contigs (>= 25000 bp)	2
# contigs (>= 50000 bp)	0
Total length (>= 0 bp)	121586
Total length (>= 1000 bp)	117620
Total length (>= 5000 bp)	105459
Total length (>= 10000 bp)	89600
Total length (>= 25000 bp)	74064
Total length (>= 50000 bp)	0
# contigs	16
Largest contig	45249
Total length	121586
Reference length	90452
GC (%)	53.55
Reference GC (%)	56.99
N50	28815
NG50	45249
N75	9969
NG75	28815
L50	2
LG50	1
L75	4
LG75	2
# misassemblies	0
# misassembled contigs	0
Misassembled contigs length	0
# local misassemblies	1
# unaligned contigs	2 + 0 part
Unaligned length	32115
Genome fraction (%)	95.552
Duplication ratio	1.066
# N's per 100 kbp	0.00
# mismatches per 100 kbp	40.50
# indels per 100 kbp	0.00
Largest alignment	45249
NA50	9969
NGA50	45249
NGA75	9969
LA50	3
LGA50	1
LGA75	3
