S1	E1	S2	E2	Reference	Contig	IDY	Ambiguous
1	28602	28602	1	gi_828971542_gb_CP011645.1__Klebsiella_pneumoniae_strain_CAV1596_plasmid_pKPC_CAV1596-78__complete_sequence	NODE_42_length_34148_cov_135.093	99.99	
fake misassembly (linear representation of circular genome)
72256	77801	34148	28603	gi_828971542_gb_CP011645.1__Klebsiella_pneumoniae_strain_CAV1596_plasmid_pKPC_CAV1596-78__complete_sequence	NODE_42_length_34148_cov_135.093	100.0	
CONTIG	NODE_42_length_34148_cov_135.093	34148	correct
28582	57097	1	28516	gi_828971542_gb_CP011645.1__Klebsiella_pneumoniae_strain_CAV1596_plasmid_pKPC_CAV1596-78__complete_sequence	NODE_44_length_28516_cov_135.386	100.0	
CONTIG	NODE_44_length_28516_cov_135.386	28516	correct
CONTIG	NODE_49_length_23370_cov_121.004	23370	unaligned
CONTIG	NODE_55_length_11936_cov_139.524	11936	unaligned
CONTIG	NODE_58_length_10908_cov_74.1271	10908	unaligned
CONTIG	NODE_62_length_9348_cov_80.6127	9348	unaligned
CONTIG	NODE_63_length_8423_cov_96.1976	8423	unaligned
CONTIG	NODE_65_length_6983_cov_136.44	6983	unaligned
CONTIG	NODE_67_length_5015_cov_115.942	5015	unaligned
CONTIG	NODE_69_length_4245_cov_112.205	4245	unaligned
CONTIG	NODE_71_length_3042_cov_113.261	3042	unaligned
CONTIG	NODE_72_length_3004_cov_2007.02	3004	unaligned
69096	71715	1	2620	gi_828971542_gb_CP011645.1__Klebsiella_pneumoniae_strain_CAV1596_plasmid_pKPC_CAV1596-78__complete_sequence	NODE_74_length_2620_cov_135.692	100.0	
CONTIG	NODE_74_length_2620_cov_135.692	2620	correct
CONTIG	NODE_76_length_1892_cov_233.734	1892	unaligned
57021	58448	1	1428	gi_828971542_gb_CP011645.1__Klebsiella_pneumoniae_strain_CAV1596_plasmid_pKPC_CAV1596-78__complete_sequence	NODE_79_length_1428_cov_258.599	99.02	
CONTIG	NODE_79_length_1428_cov_258.599	1428	correct
CONTIG	NODE_82_length_1337_cov_193.033	1337	unaligned
CONTIG	NODE_90_length_956_cov_167.618	956	unaligned
58372	59243	872	1	gi_828971542_gb_CP011645.1__Klebsiella_pneumoniae_strain_CAV1596_plasmid_pKPC_CAV1596-78__complete_sequence	NODE_91_length_872_cov_90.0101	100.0	
CONTIG	NODE_91_length_872_cov_90.0101	872	correct
CONTIG	NODE_95_length_713_cov_342.814	713	unaligned
