Aligning contigs to reference...
	Running Nucmer
Parsing coords...
Loading reference...
	Loaded [gi_828958596_gb_CP011631.1__Klebsiella_oxytoca_strain_CAV1374_plasmid_pCAV1374-54__complete_sequence]
Loading SNPs...
Loading regions...
	No regions given, using whole reference.
	Total Regions: 1
	Total Region Length: 53596
Analyzing contigs...
CONTIG: NODE_1_length_79377_cov_72.4629_component_0 (79377bp)
		This contig is unaligned. (79377 bp)
		Unaligned bases: 79377  total: 79377

CONTIG: NODE_2_length_58253_cov_77.8527_component_0 (58253bp)
		This contig is unaligned. (58253 bp)
		Unaligned bases: 58253  total: 137630

CONTIG: NODE_3_length_57893_cov_69.4622_component_0 (57893bp)
		This contig is unaligned. (57893 bp)
		Unaligned bases: 57893  total: 195523

CONTIG: NODE_4_length_56096_cov_67.5721_component_0 (56096bp)
		This contig is unaligned. (56096 bp)
		Unaligned bases: 56096  total: 251619

CONTIG: NODE_5_length_54537_cov_66.6317_component_0 (54537bp)
		This contig is unaligned. (54537 bp)
		Unaligned bases: 54537  total: 306156

CONTIG: NODE_6_length_51510_cov_148.384_component_0 (51510bp)
Top Length: 30026  Top ID: 100.0
		This contig is misassembled. 3 total aligns.
			Real Alignment 1: 1 30026 | 30026 1 | 30026 30026 | 100.0 | gi_828958596_gb_CP011631.1__Klebsiella_oxytoca_strain_CAV1374_plasmid_pCAV1374-54__complete_sequence NODE_6_length_51510_cov_148.384_component_0
			  Fake misassembly (caused by linear representation of circular genome) between these two alignments
			Real Alignment 2: 39341 53596 | 44282 30027 | 14256 14256 | 99.99 | gi_828958596_gb_CP011631.1__Klebsiella_oxytoca_strain_CAV1374_plasmid_pCAV1374-54__complete_sequence NODE_6_length_51510_cov_148.384_component_0
			  Extensive misassembly ( relocation, inconsistency = 1044 ) between these two alignments
			Real Alignment 3: 31069 39471 | 51510 43108 | 8403 8403 | 99.94 | gi_828958596_gb_CP011631.1__Klebsiella_oxytoca_strain_CAV1374_plasmid_pCAV1374-54__complete_sequence NODE_6_length_51510_cov_148.384_component_0

CONTIG: NODE_7_length_50970_cov_77.175_component_0 (50970bp)
		This contig is unaligned. (50970 bp)
		Unaligned bases: 50970  total: 357126

CONTIG: NODE_8_length_45316_cov_43.1469_component_0 (45316bp)
		This contig is unaligned. (45316 bp)
		Unaligned bases: 45316  total: 402442

CONTIG: NODE_9_length_28815_cov_61.8054_component_0 (28815bp)
		This contig is unaligned. (28815 bp)
		Unaligned bases: 28815  total: 431257

CONTIG: NODE_10_length_25960_cov_56.3256_component_0 (25960bp)
		This contig is unaligned. (25960 bp)
		Unaligned bases: 25960  total: 457217

CONTIG: NODE_11_length_25273_cov_60.7908_component_0 (25273bp)
		This contig is unaligned. (25273 bp)
		Unaligned bases: 25273  total: 482490

CONTIG: NODE_12_length_23186_cov_81.3644_component_0 (23186bp)
		This contig is unaligned. (23186 bp)
		Unaligned bases: 23186  total: 505676

CONTIG: NODE_13_length_22505_cov_47.9143_component_0 (22505bp)
		This contig is unaligned. (22505 bp)
		Unaligned bases: 22505  total: 528181

CONTIG: NODE_14_length_20651_cov_78.2021_component_0 (20651bp)
		This contig is unaligned. (20651 bp)
		Unaligned bases: 20651  total: 548832

CONTIG: NODE_15_length_19317_cov_56.0578_component_0 (19317bp)
		This contig is unaligned. (19317 bp)
		Unaligned bases: 19317  total: 568149

CONTIG: NODE_16_length_17931_cov_44.205_component_0 (17931bp)
		This contig is unaligned. (17931 bp)
		Unaligned bases: 17931  total: 586080

CONTIG: NODE_17_length_16736_cov_76.6179_component_0 (16736bp)
		This contig is unaligned. (16736 bp)
		Unaligned bases: 16736  total: 602816

CONTIG: NODE_18_length_15391_cov_57.7333_component_0 (15391bp)
		This contig is unaligned. (15391 bp)
		Unaligned bases: 15391  total: 618207

CONTIG: NODE_19_length_13627_cov_56.6542_component_0 (13627bp)
		This contig is unaligned. (13627 bp)
		Unaligned bases: 13627  total: 631834

CONTIG: NODE_20_length_12834_cov_44.5527_component_0 (12834bp)
		This contig is unaligned. (12834 bp)
		Unaligned bases: 12834  total: 644668

CONTIG: NODE_21_length_11211_cov_58.3121_component_0 (11211bp)
		This contig is unaligned. (11211 bp)
		Unaligned bases: 11211  total: 655879

CONTIG: NODE_22_length_10157_cov_66.5969_component_0 (10157bp)
		This contig is unaligned. (10157 bp)
		Unaligned bases: 10157  total: 666036

CONTIG: NODE_23_length_10060_cov_41.7869_component_0 (10060bp)
		This contig is unaligned. (10060 bp)
		Unaligned bases: 10060  total: 676096

CONTIG: NODE_24_length_10011_cov_77.3209_component_0 (10011bp)
		This contig is unaligned. (10011 bp)
		Unaligned bases: 10011  total: 686107

CONTIG: NODE_25_length_9478_cov_217.071_component_0 (9478bp)
		This contig is unaligned. (9478 bp)
		Unaligned bases: 9478  total: 695585

CONTIG: NODE_26_length_8361_cov_59.3095_component_0 (8361bp)
		This contig is unaligned. (8361 bp)
		Unaligned bases: 8361  total: 703946

CONTIG: NODE_27_length_7600_cov_119.023_component_0 (7600bp)
		This contig is unaligned. (7600 bp)
		Unaligned bases: 7600  total: 711546

CONTIG: NODE_28_length_7421_cov_78.3917_component_0 (7421bp)
		This contig is unaligned. (7421 bp)
		Unaligned bases: 7421  total: 718967

CONTIG: NODE_29_length_5850_cov_81.1711_component_0 (5850bp)
		This contig is unaligned. (5850 bp)
		Unaligned bases: 5850  total: 724817

CONTIG: NODE_30_length_5125_cov_46.5168_component_0 (5125bp)
		This contig is unaligned. (5125 bp)
		Unaligned bases: 5125  total: 729942

CONTIG: NODE_31_length_4785_cov_71.1648_component_0 (4785bp)
		This contig is unaligned. (4785 bp)
		Unaligned bases: 4785  total: 734727

CONTIG: NODE_32_length_4772_cov_149.257_component_0 (4772bp)
		This contig is unaligned. (4772 bp)
		Unaligned bases: 4772  total: 739499

CONTIG: NODE_33_length_4471_cov_46.2524_component_0 (4471bp)
		This contig is unaligned. (4471 bp)
		Unaligned bases: 4471  total: 743970

CONTIG: NODE_34_length_3851_cov_60.545_component_0 (3851bp)
		This contig is unaligned. (3851 bp)
		Unaligned bases: 3851  total: 747821

CONTIG: NODE_35_length_3833_cov_119.608_component_0 (3833bp)
		This contig is unaligned. (3833 bp)
		Unaligned bases: 3833  total: 751654

CONTIG: NODE_36_length_3659_cov_1104.6_component_0 (3659bp)
		This contig is unaligned. (3659 bp)
		Unaligned bases: 3659  total: 755313

CONTIG: NODE_37_length_3572_cov_59.6086_component_0 (3572bp)
		This contig is unaligned. (3572 bp)
		Unaligned bases: 3572  total: 758885

CONTIG: NODE_38_length_3033_cov_735.465_component_0 (3033bp)
		This contig is unaligned. (3033 bp)
		Unaligned bases: 3033  total: 761918

CONTIG: NODE_39_length_3003_cov_48.379_component_0 (3003bp)
		This contig is unaligned. (3003 bp)
		Unaligned bases: 3003  total: 764921

CONTIG: NODE_40_length_2987_cov_90.4598_component_0 (2987bp)
		This contig is unaligned. (2987 bp)
		Unaligned bases: 2987  total: 767908

CONTIG: NODE_41_length_2718_cov_311.928_component_0 (2718bp)
		This contig is unaligned. (2718 bp)
		Unaligned bases: 2718  total: 770626

CONTIG: NODE_42_length_2662_cov_119.561_component_0 (2662bp)
		This contig is unaligned. (2662 bp)
		Unaligned bases: 2662  total: 773288

CONTIG: NODE_43_length_2534_cov_63.8311_component_0 (2534bp)
		This contig is unaligned. (2534 bp)
		Unaligned bases: 2534  total: 775822

CONTIG: NODE_44_length_2386_cov_67.1672_component_0 (2386bp)
		This contig is unaligned. (2386 bp)
		Unaligned bases: 2386  total: 778208

CONTIG: NODE_45_length_2318_cov_116.093_component_0 (2318bp)
		This contig is unaligned. (2318 bp)
		Unaligned bases: 2318  total: 780526

CONTIG: NODE_46_length_2254_cov_97.0069_component_0 (2254bp)
		This contig is unaligned. (2254 bp)
		Unaligned bases: 2254  total: 782780

CONTIG: NODE_47_length_2146_cov_551.616_component_0 (2146bp)
		This contig is unaligned. (2146 bp)
		Unaligned bases: 2146  total: 784926

CONTIG: NODE_48_length_2023_cov_244.664_component_0 (2023bp)
		This contig is unaligned. (2023 bp)
		Unaligned bases: 2023  total: 786949

CONTIG: NODE_49_length_2015_cov_70.6465_component_0 (2015bp)
		This contig is unaligned. (2015 bp)
		Unaligned bases: 2015  total: 788964

CONTIG: NODE_50_length_1970_cov_491.458_component_0 (1970bp)
		This contig is unaligned. (1970 bp)
		Unaligned bases: 1970  total: 790934

CONTIG: NODE_51_length_1744_cov_32.4223_component_0 (1744bp)
		This contig is unaligned. (1744 bp)
		Unaligned bases: 1744  total: 792678

CONTIG: NODE_52_length_1741_cov_48.3077_component_0 (1741bp)
		This contig is unaligned. (1741 bp)
		Unaligned bases: 1741  total: 794419

CONTIG: NODE_53_length_1616_cov_563.809_component_0 (1616bp)
		This contig is unaligned. (1616 bp)
		Unaligned bases: 1616  total: 796035

CONTIG: NODE_54_length_1542_cov_73.1154_component_0 (1542bp)
		This contig is unaligned. (1542 bp)
		Unaligned bases: 1542  total: 797577

CONTIG: NODE_55_length_1464_cov_58.8248_component_0 (1464bp)
		This contig is unaligned. (1464 bp)
		Unaligned bases: 1464  total: 799041

CONTIG: NODE_56_length_1356_cov_269.219_component_0 (1356bp)
		This contig is unaligned. (1356 bp)
		Unaligned bases: 1356  total: 800397

CONTIG: NODE_57_length_1263_cov_55.3811_component_0 (1263bp)
		This contig is unaligned. (1263 bp)
		Unaligned bases: 1263  total: 801660

CONTIG: NODE_58_length_1196_cov_1272.29_component_0 (1196bp)
Top Length: 1196  Top ID: 99.92
		One align captures most of this contig: 29950 31145 | 1196 1 | 1196 1196 | 99.92 | gi_828958596_gb_CP011631.1__Klebsiella_oxytoca_strain_CAV1374_plasmid_pCAV1374-54__complete_sequence NODE_58_length_1196_cov_1272.29_component_0

CONTIG: NODE_59_length_1006_cov_898.276_component_0 (1006bp)
		This contig is unaligned. (1006 bp)
		Unaligned bases: 1006  total: 802666

CONTIG: NODE_60_length_1005_cov_135.928_component_0 (1005bp)
		This contig is unaligned. (1005 bp)
		Unaligned bases: 1005  total: 803671

CONTIG: NODE_61_length_986_cov_354.54_component_0 (986bp)
		This contig is unaligned. (986 bp)
		Unaligned bases: 986  total: 804657

CONTIG: NODE_62_length_968_cov_548.48_component_0 (968bp)
		This contig is unaligned. (968 bp)
		Unaligned bases: 968  total: 805625

CONTIG: NODE_63_length_943_cov_27.6686_component_0 (943bp)
		This contig is unaligned. (943 bp)
		Unaligned bases: 943  total: 806568

CONTIG: NODE_64_length_883_cov_217.69_component_0 (883bp)
		This contig is unaligned. (883 bp)
		Unaligned bases: 883  total: 807451

CONTIG: NODE_65_length_877_cov_92.6575_component_0 (877bp)
		This contig is unaligned. (877 bp)
		Unaligned bases: 877  total: 808328

CONTIG: NODE_66_length_820_cov_100.118_component_0 (820bp)
		This contig is unaligned. (820 bp)
		Unaligned bases: 820  total: 809148

CONTIG: NODE_67_length_801_cov_30.2873_component_0 (801bp)
		This contig is unaligned. (801 bp)
		Unaligned bases: 801  total: 809949

CONTIG: NODE_68_length_744_cov_61.3493_component_0 (744bp)
		This contig is unaligned. (744 bp)
		Unaligned bases: 744  total: 810693

CONTIG: NODE_69_length_736_cov_135.467_component_0 (736bp)
		This contig is unaligned. (736 bp)
		Unaligned bases: 736  total: 811429

CONTIG: NODE_70_length_639_cov_22.6317_component_0 (639bp)
		This contig is unaligned. (639 bp)
		Unaligned bases: 639  total: 812068

CONTIG: NODE_71_length_617_cov_452.928_component_0 (617bp)
		This contig is unaligned. (617 bp)
		Unaligned bases: 617  total: 812685

CONTIG: NODE_72_length_569_cov_107.638_component_0 (569bp)
		This contig is unaligned. (569 bp)
		Unaligned bases: 569  total: 813254

CONTIG: NODE_73_length_521_cov_71.7793_component_0 (521bp)
		This contig is unaligned. (521 bp)
		Unaligned bases: 521  total: 813775

CONTIG: NODE_74_length_504_cov_55.2155_component_0 (504bp)
		This contig is unaligned. (504 bp)
		Unaligned bases: 504  total: 814279

CONTIG: NODE_75_length_500_cov_75.9149_component_0 (500bp)
		This contig is unaligned. (500 bp)
		Unaligned bases: 500  total: 814779

Analyzing coverage...
Writing SNPs into /home/mmbbio/Plasmid_Assembly/completegenomes/plasmids/CAV1374_plasmids_references/group_7.fasta_comparison_spades/contigs_reports/nucmer_output/prediction.used_snps
	Reference gi_828958596_gb_CP011631.1__Klebsiella_oxytoca_strain_CAV1374_plasmid_pCAV1374-54__complete_sequence: 4 total alignments. 1 total regions.
		Region: 1 to 53596 (53596 bp)
			Align 1: 1 30026 NODE_6_length_51510_cov_148.384_component_0 30026 1
				Negative gap (overlap) between this and next alignment: 30026 to 29950 (-76 bp)
				Next Alignment: 29950 31145 NODE_58_length_1196_cov_1272.29_component_0 1196 1

			Previous gap was negative, modifying coordinates to ignore overlap
				Moving contig start from 1196 to 1119.
			Align 2: 30027 31145 NODE_58_length_1196_cov_1272.29_component_0 1119 1
				Negative gap (overlap) between this and next alignment: 31145 to 31069 (-76 bp)
				Next Alignment: 31069 39471 NODE_6_length_51510_cov_148.384_component_0 51510 43108

			Previous gap was negative, modifying coordinates to ignore overlap
				Moving contig start from 51510 to 51433.
			Align 3: 31146 39471 NODE_6_length_51510_cov_148.384_component_0 51433 43108
				Negative gap (overlap) between this and next alignment: 39471 to 39341 (-130 bp)
				Next Alignment: 39341 53596 NODE_6_length_51510_cov_148.384_component_0 44282 30027

			Previous gap was negative, modifying coordinates to ignore overlap
				Moving contig start from 44282 to 44151.
			Align 4: 39472 53596 NODE_6_length_51510_cov_148.384_component_0 44151 30027
			END in current alignment.  Modifying 53596 to 53596.

Analysis is finished!
Founded SNPs were written into /home/mmbbio/Plasmid_Assembly/completegenomes/plasmids/CAV1374_plasmids_references/group_7.fasta_comparison_spades/contigs_reports/nucmer_output/prediction.used_snps

Results:
	Local Misassemblies: 0
	Misassemblies: 1
		Relocations: 1
		Translocations: 0
		Inversions: 0
	Misassembled Contigs: 1
	Misassembled Contig Bases: 51510
	Misassemblies Inter-Contig Overlap: 1044
Uncovered Regions: 0 (0)
Unaligned Contigs: 73 + 0 part
Partially Unaligned Contigs with Misassemblies: 0
Unaligned Contig Bases: 814779

Ambiguously Mapped Contigs: 0
Extra Bases in Ambiguously Mapped Contigs: 0
Note that --allow-ambiguity option was set to "all" and each of these contigs was used several times.

	Covered Bases: 53596

	SNPs: 8
	Insertions: 0
	Deletions: 0

	Positive Gaps: 0
		Internal Gaps:  0
		External Gaps:  0
		External Gap Total:  0
		External Gap Average: 0
	Negative Gaps: 3
		Internal Overlaps:  1
		External Overlaps:  2
		External Overlaps Total: -152
		External Overlaps Average: -76
	Contigs with Redundant Alignments: 0 (0)
