S1	E1	S2	E2	Reference	Contig	IDY	Ambiguous
CONTIG	NODE_1_length_49065_cov_59.4575_component_0	49065	unaligned
CONTIG	NODE_2_length_43243_cov_77.3052_component_0	43243	unaligned
CONTIG	NODE_3_length_40753_cov_56.7699_component_0	40753	unaligned
CONTIG	NODE_4_length_28815_cov_118.034_component_0	28815	unaligned
CONTIG	NODE_5_length_27961_cov_52.7628_component_0	27961	unaligned
957	6108	5152	1	gi_828895865_gb_CP011571.1__Enterobacter_cloacae_strain_CAV1311_plasmid_pKPC_CAV1311__complete_sequence	NODE_6_length_20082_cov_94.7271_component_0	99.61	
local misassembly
1	1478	6324	4847	gi_828895865_gb_CP011571.1__Enterobacter_cloacae_strain_CAV1311_plasmid_pKPC_CAV1311__complete_sequence	NODE_6_length_20082_cov_94.7271_component_0	97.9	
fake misassembly (linear representation of circular genome)
79966	90452	16811	6325	gi_828895865_gb_CP011571.1__Enterobacter_cloacae_strain_CAV1311_plasmid_pKPC_CAV1311__complete_sequence	NODE_6_length_20082_cov_94.7271_component_0	100.0	
relocation, inconsistency = -60110
28977	33613	15446	20082	gi_828895865_gb_CP011571.1__Enterobacter_cloacae_strain_CAV1311_plasmid_pKPC_CAV1311__complete_sequence	NODE_6_length_20082_cov_94.7271_component_0	100.0	
CONTIG	NODE_6_length_20082_cov_94.7271_component_0	20082	misassembled
CONTIG	NODE_7_length_18146_cov_55.3242_component_1	18146	unaligned
14433	24401	9969	1	gi_828895865_gb_CP011571.1__Enterobacter_cloacae_strain_CAV1311_plasmid_pKPC_CAV1311__complete_sequence	NODE_8_length_9969_cov_50.8438_component_0	100.0	
CONTIG	NODE_8_length_9969_cov_50.8438_component_0	9969	correct
CONTIG	NODE_9_length_7749_cov_317.084_component_2	7749	unaligned
6551	12440	5890	1	gi_828895865_gb_CP011571.1__Enterobacter_cloacae_strain_CAV1311_plasmid_pKPC_CAV1311__complete_sequence	NODE_10_length_5890_cov_87.0335_component_0	100.0	
CONTIG	NODE_10_length_5890_cov_87.0335_component_0	5890	correct
CONTIG	NODE_11_length_4196_cov_346.216_component_0	4196	unaligned
CONTIG	NODE_12_length_3300_cov_1206.26_component_3	3300	unaligned
12364	14509	1	2146	gi_828895865_gb_CP011571.1__Enterobacter_cloacae_strain_CAV1311_plasmid_pKPC_CAV1311__complete_sequence	NODE_13_length_2146_cov_173.029_component_0	99.95	
CONTIG	NODE_13_length_2146_cov_173.029_component_0	2146	correct
27060	29053	1994	1	gi_828895865_gb_CP011571.1__Enterobacter_cloacae_strain_CAV1311_plasmid_pKPC_CAV1311__complete_sequence	NODE_14_length_1994_cov_88.6046_component_0	99.95	
CONTIG	NODE_14_length_1994_cov_88.6046_component_0	1994	correct
CONTIG	NODE_15_length_1861_cov_72.5359_component_0	1861	unaligned
25521	27136	1616	1	gi_828895865_gb_CP011571.1__Enterobacter_cloacae_strain_CAV1311_plasmid_pKPC_CAV1311__complete_sequence	NODE_16_length_1616_cov_187.567_component_0	100.0	
CONTIG	NODE_16_length_1616_cov_187.567_component_0	1616	correct
CONTIG	NODE_17_length_1471_cov_81.3931_component_0	1471	unaligned
CONTIG	NODE_18_length_1228_cov_289.899_component_0	1228	unaligned
24325	25292	1	968	gi_828895865_gb_CP011571.1__Enterobacter_cloacae_strain_CAV1311_plasmid_pKPC_CAV1311__complete_sequence	NODE_19_length_968_cov_167.369_component_0	100.0	
CONTIG	NODE_19_length_968_cov_167.369_component_0	968	correct
CONTIG	NODE_20_length_626_cov_96.6412_component_0	626	unaligned
CONTIG	NODE_21_length_612_cov_194.944_component_0	612	unaligned
