Assembly	prediction
# misassemblies	0
    # relocations	0
    # translocations	0
    # inversions	0
# misassembled contigs	0
Misassembled contigs length	0
# local misassemblies	3
# mismatches	312
# indels	12
    # short indels	11
    # long indels	1
Indels length	55
