1: PREPARING DATA
2,3: RUNNING mummer AND CREATING CLUSTERS
# reading input file "/home/mmbbio/Plasmid_Assembly/completegenomes/plasmids/CAV1492_plasmids_references/group_1.fasta_comparison_spades/contigs_reports/nucmer_output/prediction.ntref" of length 3224
# construct suffix tree for sequence of length 3224
# (maximum reference length is 536870908)
# (maximum query length is 4294967295)
# CONSTRUCTIONTIME /home/mmbbio/Plasmid_Assembly/programmes/quast-4.1/libs/MUMmer3.23-linux/mummer /home/mmbbio/Plasmid_Assembly/completegenomes/plasmids/CAV1492_plasmids_references/group_1.fasta_comparison_spades/contigs_reports/nucmer_output/prediction.ntref 0.00
# reading input file "/home/mmbbio/Plasmid_Assembly/completegenomes/plasmids/CAV1492_plasmids_references/group_1.fasta_comparison_spades/quast_corrected_input/prediction.fas" of length 342445
# matching query-file "/home/mmbbio/Plasmid_Assembly/completegenomes/plasmids/CAV1492_plasmids_references/group_1.fasta_comparison_spades/quast_corrected_input/prediction.fas"
# against subject-file "/home/mmbbio/Plasmid_Assembly/completegenomes/plasmids/CAV1492_plasmids_references/group_1.fasta_comparison_spades/contigs_reports/nucmer_output/prediction.ntref"
# COMPLETETIME /home/mmbbio/Plasmid_Assembly/programmes/quast-4.1/libs/MUMmer3.23-linux/mummer /home/mmbbio/Plasmid_Assembly/completegenomes/plasmids/CAV1492_plasmids_references/group_1.fasta_comparison_spades/contigs_reports/nucmer_output/prediction.ntref 0.06
# SPACE /home/mmbbio/Plasmid_Assembly/programmes/quast-4.1/libs/MUMmer3.23-linux/mummer /home/mmbbio/Plasmid_Assembly/completegenomes/plasmids/CAV1492_plasmids_references/group_1.fasta_comparison_spades/contigs_reports/nucmer_output/prediction.ntref 0.34
4: FINISHING DATA
