S1	E1	S2	E2	Reference	Contig	IDY	Ambiguous
CONTIG	NODE_1_length_135428_cov_71.2963_component_0	135428	unaligned
36756	37382	1	628	gi_1008423686_gb_CP014452.1__Enterococcus_faecium_strain_ATCC_700221_plasmid_unnamed3__complete_sequence	NODE_2_length_100102_cov_75.6357_component_0	99.84	
CONTIG	NODE_2_length_100102_cov_75.6357_component_0	100102	correct
CONTIG	NODE_3_length_69986_cov_65.3042_component_0	69986	unaligned
CONTIG	NODE_4_length_62867_cov_22.2713_component_0	62867	unaligned
CONTIG	NODE_5_length_62363_cov_55.9942_component_0	62363	unaligned
CONTIG	NODE_6_length_60941_cov_20.8291_component_0	60941	unaligned
CONTIG	NODE_7_length_29367_cov_51.9017_component_0	29367	unaligned
CONTIG	NODE_8_length_28081_cov_55.6122_component_0	28081	unaligned
CONTIG	NODE_9_length_24088_cov_70.1967_component_0	24088	unaligned
CONTIG	NODE_10_length_23850_cov_59.8184_component_0	23850	unaligned
CONTIG	NODE_11_length_22067_cov_76.2083_component_0	22067	unaligned
CONTIG	NODE_12_length_22038_cov_27.7651_component_0	22038	unaligned
CONTIG	NODE_13_length_21758_cov_16.8455_component_0	21758	unaligned
CONTIG	NODE_14_length_21718_cov_15.8697_component_0	21718	unaligned
27641	28176	21415	20880	gi_1008423686_gb_CP014452.1__Enterococcus_faecium_strain_ATCC_700221_plasmid_unnamed3__complete_sequence	NODE_15_length_21415_cov_72.202_component_0	99.81	
CONTIG	NODE_15_length_21415_cov_72.202_component_0	21415	correct
CONTIG	NODE_16_length_21119_cov_71.8212_component_0	21119	unaligned
CONTIG	NODE_17_length_19954_cov_12.6644_component_0	19954	unaligned
CONTIG	NODE_18_length_18174_cov_54.3614_component_0	18174	unaligned
CONTIG	NODE_19_length_17158_cov_19.4937_component_0	17158	unaligned
CONTIG	NODE_20_length_16156_cov_49.7752_component_0	16156	unaligned
27641	28176	1	536	gi_1008423686_gb_CP014452.1__Enterococcus_faecium_strain_ATCC_700221_plasmid_unnamed3__complete_sequence	NODE_21_length_15858_cov_73.2949_component_0	99.63	
CONTIG	NODE_21_length_15858_cov_73.2949_component_0	15858	correct
CONTIG	NODE_22_length_13745_cov_68.6425_component_0	13745	unaligned
CONTIG	NODE_23_length_12619_cov_80.4479_component_0	12619	unaligned
CONTIG	NODE_24_length_12589_cov_97.2197_component_1	12589	unaligned
CONTIG	NODE_25_length_11196_cov_10.8312_component_0	11196	unaligned
CONTIG	NODE_26_length_11140_cov_142.491_component_0	11140	unaligned
12514	23205	1	10698	gi_1008423686_gb_CP014452.1__Enterococcus_faecium_strain_ATCC_700221_plasmid_unnamed3__complete_sequence	NODE_27_length_10698_cov_124.309_component_0	99.93	
CONTIG	NODE_27_length_10698_cov_124.309_component_0	10698	correct
CONTIG	NODE_28_length_9965_cov_20.5131_component_0	9965	unaligned
CONTIG	NODE_29_length_9357_cov_82.4595_component_0	9357	unaligned
CONTIG	NODE_30_length_9329_cov_56.1758_component_0	9329	unaligned
CONTIG	NODE_31_length_9310_cov_24.4993_component_0	9310	unaligned
27135	36237	9104	1	gi_1008423686_gb_CP014452.1__Enterococcus_faecium_strain_ATCC_700221_plasmid_unnamed3__complete_sequence	NODE_32_length_9104_cov_512.662_component_0	99.97	
CONTIG	NODE_32_length_9104_cov_512.662_component_0	9104	correct
CONTIG	NODE_33_length_8696_cov_19.3109_component_0	8696	unaligned
CONTIG	NODE_34_length_8553_cov_15.4143_component_0	8553	unaligned
CONTIG	NODE_35_length_7857_cov_10.6364_component_0	7857	unaligned
4591	12246	1	7656	gi_1008423686_gb_CP014452.1__Enterococcus_faecium_strain_ATCC_700221_plasmid_unnamed3__complete_sequence	NODE_36_length_7656_cov_114.856_component_0	100.0	
CONTIG	NODE_36_length_7656_cov_114.856_component_0	7656	correct
CONTIG	NODE_37_length_6900_cov_23.2014_component_0	6900	unaligned
CONTIG	NODE_38_length_6657_cov_30.8897_component_0	6657	unaligned
CONTIG	NODE_39_length_6643_cov_136.598_component_0	6643	unaligned
CONTIG	NODE_40_length_5777_cov_23.4508_component_0	5777	unaligned
CONTIG	NODE_41_length_5513_cov_952.517_component_2	5513	unaligned
37252	39138	1	1888	gi_1008423686_gb_CP014452.1__Enterococcus_faecium_strain_ATCC_700221_plasmid_unnamed3__complete_sequence	NODE_42_length_5426_cov_273.839_component_0	99.95	
fake misassembly (gap in the contig is small or filled with Ns)
1	3535	1888	5424	gi_1008423686_gb_CP014452.1__Enterococcus_faecium_strain_ATCC_700221_plasmid_unnamed3__complete_sequence	NODE_42_length_5426_cov_273.839_component_0	99.38	
CONTIG	NODE_42_length_5426_cov_273.839_component_0	5426	correct
CONTIG	NODE_43_length_5308_cov_18.6308_component_0	5308	unaligned
CONTIG	NODE_44_length_5158_cov_19.5854_component_0	5158	unaligned
CONTIG	NODE_45_length_5068_cov_9.61202_component_0	5068	unaligned
CONTIG	NODE_46_length_4836_cov_46.688_component_0	4836	unaligned
CONTIG	NODE_47_length_4780_cov_86.3926_component_0	4780	unaligned
CONTIG	NODE_48_length_4372_cov_14.3715_component_0	4372	unaligned
CONTIG	NODE_49_length_3992_cov_227.071_component_0	3992	unaligned
CONTIG	NODE_50_length_3801_cov_10.4782_component_0	3801	unaligned
CONTIG	NODE_51_length_3599_cov_181.721_component_0	3599	unaligned
23764	27239	3477	1	gi_1008423686_gb_CP014452.1__Enterococcus_faecium_strain_ATCC_700221_plasmid_unnamed3__complete_sequence	NODE_52_length_3477_cov_229.418_component_0	99.97	
CONTIG	NODE_52_length_3477_cov_229.418_component_0	3477	correct
CONTIG	NODE_53_length_3461_cov_144.702_component_0	3461	unaligned
CONTIG	NODE_54_length_3085_cov_758.5_component_0	3085	unaligned
CONTIG	NODE_55_length_2957_cov_23.8014_component_0	2957	unaligned
CONTIG	NODE_56_length_2821_cov_17.147_component_0	2821	unaligned
CONTIG	NODE_57_length_2742_cov_9.07342_component_0	2742	unaligned
CONTIG	NODE_58_length_2688_cov_8.52675_component_0	2688	unaligned
CONTIG	NODE_59_length_2660_cov_11.7201_component_0	2660	unaligned
CONTIG	NODE_60_length_2608_cov_129.105_component_0	2608	unaligned
CONTIG	NODE_61_length_2409_cov_60.6648_component_0	2409	unaligned
CONTIG	NODE_62_length_2361_cov_26.637_component_0	2361	unaligned
CONTIG	NODE_63_length_2348_cov_103.703_component_0	2348	unaligned
CONTIG	NODE_64_length_2133_cov_4.43868_component_0	2133	unaligned
CONTIG	NODE_65_length_1957_cov_9.84208_component_0	1957	unaligned
CONTIG	NODE_66_length_1956_cov_18.2094_component_0	1956	unaligned
CONTIG	NODE_67_length_1914_cov_109.803_component_0	1914	unaligned
CONTIG	NODE_68_length_1899_cov_7.85497_component_0	1899	unaligned
CONTIG	NODE_69_length_1794_cov_273.632_component_0	1794	unaligned
CONTIG	NODE_70_length_1659_cov_13.0855_component_0	1659	unaligned
CONTIG	NODE_71_length_1646_cov_2609.31_component_0	1646	unaligned
CONTIG	NODE_72_length_1560_cov_2.91277_component_0	1560	unaligned
CONTIG	NODE_73_length_1543_cov_691.348_component_0	1543	unaligned
CONTIG	NODE_74_length_1507_cov_3235.94_component_0	1507	unaligned
CONTIG	NODE_75_length_1503_cov_1467.48_component_0	1503	unaligned
CONTIG	NODE_76_length_1502_cov_273.079_component_0	1502	unaligned
CONTIG	NODE_77_length_1485_cov_159.338_component_0	1485	unaligned
CONTIG	NODE_78_length_1483_cov_818.212_component_0	1483	unaligned
CONTIG	NODE_79_length_1475_cov_2916_component_0	1475	unaligned
CONTIG	NODE_80_length_1466_cov_652.147_component_0	1466	unaligned
CONTIG	NODE_81_length_1443_cov_49.8017_component_0	1443	unaligned
CONTIG	NODE_82_length_1334_cov_18.1756_component_0	1334	unaligned
CONTIG	NODE_83_length_1308_cov_9.96867_component_0	1308	unaligned
CONTIG	NODE_84_length_1302_cov_277.266_component_0	1302	unaligned
3160	4034	875	1	gi_1008423686_gb_CP014452.1__Enterococcus_faecium_strain_ATCC_700221_plasmid_unnamed3__complete_sequence	NODE_85_length_1245_cov_377.898_component_0	99.89	
CONTIG	NODE_85_length_1245_cov_377.898_component_0	1245	correct
CONTIG	NODE_86_length_1232_cov_71.7919_component_0	1232	unaligned
CONTIG	NODE_87_length_1192_cov_1181.62_component_0	1192	unaligned
CONTIG	NODE_88_length_1192_cov_1298.06_component_0	1192	unaligned
CONTIG	NODE_89_length_1192_cov_1365.4_component_0	1192	unaligned
CONTIG	NODE_90_length_1192_cov_1249.97_component_0	1192	unaligned
CONTIG	NODE_91_length_1066_cov_87.1182_component_0	1066	unaligned
CONTIG	NODE_92_length_1065_cov_33.0789_component_0	1065	unaligned
CONTIG	NODE_93_length_1047_cov_1219.33_component_0	1047	unaligned
CONTIG	NODE_94_length_1047_cov_1232.64_component_0	1047	unaligned
CONTIG	NODE_95_length_1047_cov_1217.12_component_0	1047	unaligned
CONTIG	NODE_96_length_1047_cov_51.1641_component_0	1047	unaligned
CONTIG	NODE_97_length_1044_cov_763.364_component_0	1044	unaligned
CONTIG	NODE_98_length_1013_cov_318.228_component_0	1013	unaligned
CONTIG	NODE_99_length_930_cov_339.26_component_0	930	unaligned
27263	28176	914	1	gi_1008423686_gb_CP014452.1__Enterococcus_faecium_strain_ATCC_700221_plasmid_unnamed3__complete_sequence	NODE_100_length_914_cov_1535.95_component_0	99.45	
CONTIG	NODE_100_length_914_cov_1535.95_component_0	914	correct
CONTIG	NODE_101_length_889_cov_430.711_component_0	889	unaligned
CONTIG	NODE_102_length_884_cov_19.9287_component_0	884	unaligned
CONTIG	NODE_103_length_876_cov_140.623_component_0	876	unaligned
CONTIG	NODE_104_length_869_cov_1559.08_component_0	869	unaligned
CONTIG	NODE_105_length_862_cov_108.992_component_0	862	unaligned
CONTIG	NODE_106_length_834_cov_27.6591_component_0	834	unaligned
CONTIG	NODE_107_length_833_cov_33.1572_component_0	833	unaligned
CONTIG	NODE_108_length_831_cov_10.1875_component_0	831	unaligned
CONTIG	NODE_109_length_785_cov_12.2021_component_0	785	unaligned
CONTIG	NODE_110_length_772_cov_1221.4_component_0	772	unaligned
CONTIG	NODE_111_length_772_cov_1433.42_component_0	772	unaligned
CONTIG	NODE_112_length_755_cov_431.205_component_0	755	unaligned
CONTIG	NODE_113_length_747_cov_857.182_component_0	747	unaligned
27263	27966	704	1	gi_1008423686_gb_CP014452.1__Enterococcus_faecium_strain_ATCC_700221_plasmid_unnamed3__complete_sequence	NODE_114_length_704_cov_1890.9_component_0	99.43	
CONTIG	NODE_114_length_704_cov_1890.9_component_0	704	correct
CONTIG	NODE_115_length_688_cov_497.866_component_0	688	unaligned
CONTIG	NODE_116_length_679_cov_1239.48_component_0	679	unaligned
CONTIG	NODE_117_length_671_cov_61.7665_component_0	671	unaligned
CONTIG	NODE_118_length_666_cov_1039.96_component_0	666	unaligned
CONTIG	NODE_119_length_666_cov_1211.68_component_0	666	unaligned
CONTIG	NODE_120_length_660_cov_635.553_component_0	660	unaligned
CONTIG	NODE_121_length_650_cov_1081.43_component_0	650	unaligned
CONTIG	NODE_122_length_629_cov_1528.77_component_0	629	unaligned
CONTIG	NODE_123_length_627_cov_1018.11_component_0	627	unaligned
CONTIG	NODE_124_length_588_cov_38.1085_component_0	588	unaligned
CONTIG	NODE_125_length_573_cov_124.406_component_0	573	unaligned
CONTIG	NODE_126_length_572_cov_2019.62_component_0	572	unaligned
CONTIG	NODE_127_length_565_cov_1019.37_component_0	565	unaligned
CONTIG	NODE_128_length_565_cov_1098.3_component_0	565	unaligned
CONTIG	NODE_129_length_542_cov_439.689_component_0	542	unaligned
27641	28176	536	1	gi_1008423686_gb_CP014452.1__Enterococcus_faecium_strain_ATCC_700221_plasmid_unnamed3__complete_sequence	NODE_130_length_536_cov_1555.26_component_0	99.63	
CONTIG	NODE_130_length_536_cov_1555.26_component_0	536	correct
CONTIG	NODE_131_length_521_cov_208.03_component_0	521	unaligned
27135	27639	1	505	gi_1008423686_gb_CP014452.1__Enterococcus_faecium_strain_ATCC_700221_plasmid_unnamed3__complete_sequence	NODE_132_length_505_cov_1233.53_component_0	99.41	
CONTIG	NODE_132_length_505_cov_1233.53_component_0	505	correct
27263	27767	505	1	gi_1008423686_gb_CP014452.1__Enterococcus_faecium_strain_ATCC_700221_plasmid_unnamed3__complete_sequence	NODE_133_length_505_cov_1499.14_component_0	99.41	
CONTIG	NODE_133_length_505_cov_1499.14_component_0	505	correct
