All statistics are based on contigs of size >= 500 bp, unless otherwise noted (e.g., "# contigs (>= 0 bp)" and "Total length (>= 0 bp)" include all contigs).

Assembly                     prediction
# contigs (>= 0 bp)          5         
# contigs (>= 1000 bp)       5         
# contigs (>= 5000 bp)       5         
# contigs (>= 10000 bp)      5         
# contigs (>= 25000 bp)      3         
# contigs (>= 50000 bp)      1         
Total length (>= 0 bp)       229640    
Total length (>= 1000 bp)    229640    
Total length (>= 5000 bp)    229640    
Total length (>= 10000 bp)   229640    
Total length (>= 25000 bp)   191349    
Total length (>= 50000 bp)   125842    
# contigs                    5         
Largest contig               125842    
Total length                 229640    
Reference length             77808     
GC (%)                       51.19     
Reference GC (%)             53.33     
N50                          125842    
NG50                         125842    
N75                          30831     
NG75                         125842    
L50                          1         
LG50                         1         
L75                          3         
LG75                         1         
# misassemblies              0         
# misassembled contigs       0         
Misassembled contigs length  0         
# local misassemblies        0         
# unaligned contigs          3 + 1 part
Unaligned length             192061    
Genome fraction (%)          48.296    
Duplication ratio            1.000     
# N's per 100 kbp            0.00      
# mismatches per 100 kbp     188.94    
# indels per 100 kbp         2.66      
Largest alignment            34676     
NGA50                        -         
