Assembly	prediction
# contigs (>= 0 bp)	6
# contigs (>= 1000 bp)	6
# contigs (>= 5000 bp)	3
# contigs (>= 10000 bp)	2
# contigs (>= 25000 bp)	1
# contigs (>= 50000 bp)	1
Total length (>= 0 bp)	91133
Total length (>= 1000 bp)	91133
Total length (>= 5000 bp)	83089
Total length (>= 10000 bp)	73655
Total length (>= 25000 bp)	56315
Total length (>= 50000 bp)	56315
# contigs	6
Largest contig	56315
Total length	91133
Reference length	255013
GC (%)	55.71
Reference GC (%)	46.71
N50	56315
N75	17340
L50	1
L75	2
# unaligned contigs	6 + 0 part
Unaligned length	91133
# N's per 100 kbp	0.00
NGA50	-
