Aligning contigs to reference...
	Running Nucmer
Parsing coords...
Loading reference...
	Loaded [gi_757718048_ref_NZ_CP008789.1__Klebsiella_oxytoca_KONIH1_plasmid_pKOX-137__complete_sequence]
Loading SNPs...
Loading regions...
	No regions given, using whole reference.
	Total Regions: 1
	Total Region Length: 133397
Analyzing contigs...
CONTIG: NODE_34_length_56974_cov_72.3812 (56974bp)
		This contig is unaligned. (56974 bp)
		Unaligned bases: 56974  total: 56974

CONTIG: NODE_41_length_40456_cov_73.9843 (40456bp)
		This contig is unaligned. (40456 bp)
		Unaligned bases: 40456  total: 97430

CONTIG: NODE_42_length_38916_cov_55.9785 (38916bp)
Top Length: 38916  Top ID: 100.0
		One align captures most of this contig: 48344 87259 | 1 38916 | 38916 38916 | 100.0 | gi_757718048_ref_NZ_CP008789.1__Klebsiella_oxytoca_KONIH1_plasmid_pKOX-137__complete_sequence NODE_42_length_38916_cov_55.9785

CONTIG: NODE_45_length_36511_cov_61.1621 (36511bp)
Top Length: 35046  Top ID: 100.0
		This contig is misassembled. 2 total aligns.
			Real Alignment 1: 131933 133397 | 1 1465 | 1465 1465 | 100.0 | gi_757718048_ref_NZ_CP008789.1__Klebsiella_oxytoca_KONIH1_plasmid_pKOX-137__complete_sequence NODE_45_length_36511_cov_61.1621
			  Fake misassembly (caused by linear representation of circular genome) between these two alignments
			Real Alignment 2: 1 35046 | 1466 36511 | 35046 35046 | 100.0 | gi_757718048_ref_NZ_CP008789.1__Klebsiella_oxytoca_KONIH1_plasmid_pKOX-137__complete_sequence NODE_45_length_36511_cov_61.1621

CONTIG: NODE_46_length_34755_cov_74.5393 (34755bp)
		This contig is unaligned. (34755 bp)
		Unaligned bases: 34755  total: 132185

CONTIG: NODE_50_length_32049_cov_102.973 (32049bp)
		This contig is unaligned. (32049 bp)
		Unaligned bases: 32049  total: 164234

CONTIG: NODE_52_length_28324_cov_110.024 (28324bp)
Top Length: 1724  Top ID: 96.64
		This contig is partially unaligned. (Aligned 1724 out of 28324 bases)
		Alignment: 117566 119287 | 8946 7223 | 1722 1724 | 96.64 | gi_757718048_ref_NZ_CP008789.1__Klebsiella_oxytoca_KONIH1_plasmid_pKOX-137__complete_sequence NODE_52_length_28324_cov_110.024
		Unaligned bases: 1 to 7222 (7222)
		Unaligned bases: 8947 to 28324 (19378)
		This contig has both significant aligned and unaligned parts (of length >= 500)!

CONTIG: NODE_56_length_22150_cov_64.2631 (22150bp)
Top Length: 22150  Top ID: 99.94
		One align captures most of this contig: 108810 130959 | 22150 1 | 22150 22150 | 99.94 | gi_757718048_ref_NZ_CP008789.1__Klebsiella_oxytoca_KONIH1_plasmid_pKOX-137__complete_sequence NODE_56_length_22150_cov_64.2631

CONTIG: NODE_57_length_20901_cov_100.518 (20901bp)
		This contig is unaligned. (20901 bp)
		Unaligned bases: 20901  total: 185135

CONTIG: NODE_58_length_20875_cov_57.5479 (20875bp)
Top Length: 20875  Top ID: 100.0
		One align captures most of this contig: 87945 108819 | 1 20875 | 20875 20875 | 100.0 | gi_757718048_ref_NZ_CP008789.1__Klebsiella_oxytoca_KONIH1_plasmid_pKOX-137__complete_sequence NODE_58_length_20875_cov_57.5479

CONTIG: NODE_63_length_14409_cov_106.025 (14409bp)
		This contig is unaligned. (14409 bp)
		Unaligned bases: 14409  total: 199544

CONTIG: NODE_66_length_10484_cov_74.5539 (10484bp)
		This contig is unaligned. (10484 bp)
		Unaligned bases: 10484  total: 210028

CONTIG: NODE_69_length_9218_cov_221.33 (9218bp)
		This contig is unaligned. (9218 bp)
		Unaligned bases: 9218  total: 219246

CONTIG: NODE_72_length_8150_cov_112.594 (8150bp)
		This contig is unaligned. (8150 bp)
		Unaligned bases: 8150  total: 227396

CONTIG: NODE_74_length_8051_cov_107.218 (8051bp)
		This contig is unaligned. (8051 bp)
		Unaligned bases: 8051  total: 235447

CONTIG: NODE_75_length_8046_cov_110.506 (8046bp)
		This contig is unaligned. (8046 bp)
		Unaligned bases: 8046  total: 243493

CONTIG: NODE_76_length_7941_cov_145.019 (7941bp)
Top Length: 7941  Top ID: 100.0
		One align captures most of this contig: 40480 48420 | 1 7941 | 7941 7941 | 100.0 | gi_757718048_ref_NZ_CP008789.1__Klebsiella_oxytoca_KONIH1_plasmid_pKOX-137__complete_sequence NODE_76_length_7941_cov_145.019

CONTIG: NODE_77_length_6983_cov_115.927 (6983bp)
		This contig is unaligned. (6983 bp)
		Unaligned bases: 6983  total: 250476

CONTIG: NODE_78_length_6581_cov_78.9866 (6581bp)
		This contig is unaligned. (6581 bp)
		Unaligned bases: 6581  total: 257057

CONTIG: NODE_81_length_5813_cov_75.4318 (5813bp)
		This contig is unaligned. (5813 bp)
		Unaligned bases: 5813  total: 262870

CONTIG: NODE_82_length_5723_cov_111.386 (5723bp)
		This contig is unaligned. (5723 bp)
		Unaligned bases: 5723  total: 268593

CONTIG: NODE_83_length_5491_cov_94.6849 (5491bp)
		This contig is unaligned. (5491 bp)
		Unaligned bases: 5491  total: 274084

CONTIG: NODE_91_length_3266_cov_43.0969 (3266bp)
Top Length: 3266  Top ID: 100.0
		One align captures most of this contig: 35713 38978 | 1 3266 | 3266 3266 | 100.0 | gi_757718048_ref_NZ_CP008789.1__Klebsiella_oxytoca_KONIH1_plasmid_pKOX-137__complete_sequence NODE_91_length_3266_cov_43.0969

CONTIG: NODE_92_length_2987_cov_67.7237 (2987bp)
		This contig is unaligned. (2987 bp)
		Unaligned bases: 2987  total: 277071

CONTIG: NODE_95_length_2273_cov_195.658 (2273bp)
		This contig is unaligned. (2273 bp)
		Unaligned bases: 2273  total: 279344

CONTIG: NODE_98_length_1927_cov_80.593 (1927bp)
		This contig is unaligned. (1927 bp)
		Unaligned bases: 1927  total: 281271

CONTIG: NODE_104_length_1452_cov_69.2422 (1452bp)
		This contig is unaligned. (1452 bp)
		Unaligned bases: 1452  total: 282723

CONTIG: NODE_105_length_1403_cov_288.1 (1403bp)
		This contig is unaligned. (1403 bp)
		Unaligned bases: 1403  total: 284126

CONTIG: NODE_106_length_1379_cov_333.974 (1379bp)
		This contig is unaligned. (1379 bp)
		Unaligned bases: 1379  total: 285505

CONTIG: NODE_107_length_1356_cov_112.484 (1356bp)
		This contig is unaligned. (1356 bp)
		Unaligned bases: 1356  total: 286861

CONTIG: NODE_108_length_1340_cov_201.947 (1340bp)
Top Length: 1340  Top ID: 100.0
		One align captures most of this contig: 38902 40241 | 1340 1 | 1340 1340 | 100.0 | gi_757718048_ref_NZ_CP008789.1__Klebsiella_oxytoca_KONIH1_plasmid_pKOX-137__complete_sequence NODE_108_length_1340_cov_201.947

CONTIG: NODE_112_length_1127_cov_161.977 (1127bp)
Top Length: 1127  Top ID: 100.0
		One align captures most of this contig: 130883 132009 | 1127 1 | 1127 1127 | 100.0 | gi_757718048_ref_NZ_CP008789.1__Klebsiella_oxytoca_KONIH1_plasmid_pKOX-137__complete_sequence NODE_112_length_1127_cov_161.977

CONTIG: NODE_114_length_1063_cov_105.7 (1063bp)
		This contig is unaligned. (1063 bp)
		Unaligned bases: 1063  total: 287924

CONTIG: NODE_120_length_839_cov_200.079 (839bp)
Top Length: 839  Top ID: 100.0
		One align captures most of this contig: 87183 88021 | 839 1 | 839 839 | 100.0 | gi_757718048_ref_NZ_CP008789.1__Klebsiella_oxytoca_KONIH1_plasmid_pKOX-137__complete_sequence NODE_120_length_839_cov_200.079

CONTIG: NODE_123_length_778_cov_214.471 (778bp)
		This contig is unaligned. (778 bp)
		Unaligned bases: 778  total: 288702

CONTIG: NODE_124_length_768_cov_243.622 (768bp)
		This contig is unaligned. (768 bp)
		Unaligned bases: 768  total: 289470

Analyzing coverage...
Writing SNPs into /home/mmbbio/Plasmid_Assembly/completegenomes/plasmids/KONIH1_plasmids_references/group_1.fasta_comparison_cbar/contigs_reports/nucmer_output/prediction.used_snps
	Reference gi_757718048_ref_NZ_CP008789.1__Klebsiella_oxytoca_KONIH1_plasmid_pKOX-137__complete_sequence: 11 total alignments. 1 total regions.
		Region: 1 to 133397 (133397 bp)
			Align 1: 1 35046 NODE_45_length_36511_cov_61.1621 1466 36511
				Gap between this and next alignment: 35046 to 35713 (666 bp)
				Next Alignment: 35713 38978 NODE_91_length_3266_cov_43.0969 1 3266

			Align 2: 35713 38978 NODE_91_length_3266_cov_43.0969 1 3266
				Negative gap (overlap) between this and next alignment: 38978 to 38902 (-76 bp)
				Next Alignment: 38902 40241 NODE_108_length_1340_cov_201.947 1340 1

			Previous gap was negative, modifying coordinates to ignore overlap
				Moving contig start from 1340 to 1263.
			Align 3: 38979 40241 NODE_108_length_1340_cov_201.947 1263 1
				Gap between this and next alignment: 40241 to 40480 (238 bp)
				Next Alignment: 40480 48420 NODE_76_length_7941_cov_145.019 1 7941

			Align 4: 40480 48420 NODE_76_length_7941_cov_145.019 1 7941
				Negative gap (overlap) between this and next alignment: 48420 to 48344 (-76 bp)
				Next Alignment: 48344 87259 NODE_42_length_38916_cov_55.9785 1 38916

			Previous gap was negative, modifying coordinates to ignore overlap
				Moving contig start from 1 to 78.
			Align 5: 48421 87259 NODE_42_length_38916_cov_55.9785 78 38916
				Negative gap (overlap) between this and next alignment: 87259 to 87183 (-76 bp)
				Next Alignment: 87183 88021 NODE_120_length_839_cov_200.079 839 1

			Previous gap was negative, modifying coordinates to ignore overlap
				Moving contig start from 839 to 762.
			Align 6: 87260 88021 NODE_120_length_839_cov_200.079 762 1
				Negative gap (overlap) between this and next alignment: 88021 to 87945 (-76 bp)
				Next Alignment: 87945 108819 NODE_58_length_20875_cov_57.5479 1 20875

			Previous gap was negative, modifying coordinates to ignore overlap
				Moving contig start from 1 to 78.
			Align 7: 88022 108819 NODE_58_length_20875_cov_57.5479 78 20875
				Negative gap (overlap) between this and next alignment: 108819 to 108810 (-9 bp)
				Next Alignment: 108810 130959 NODE_56_length_22150_cov_64.2631 22150 1

			Previous gap was negative, modifying coordinates to ignore overlap
				Moving contig start from 22150 to 22140.
			Align 8: 108820 130959 NODE_56_length_22150_cov_64.2631 22140 1
				The next alignment (117566 119287 NODE_52_length_28324_cov_110.024 8946 7223) is redundant. Skipping.
				Negative gap (overlap) between this and next alignment: 130959 to 130883 (-76 bp)
				Next Alignment: 130883 132009 NODE_112_length_1127_cov_161.977 1127 1

			Previous gap was negative, modifying coordinates to ignore overlap
				Moving contig start from 1127 to 1050.
			Align 10: 130960 132009 NODE_112_length_1127_cov_161.977 1050 1
				Negative gap (overlap) between this and next alignment: 132009 to 131933 (-76 bp)
				Next Alignment: 131933 133397 NODE_45_length_36511_cov_61.1621 1 1465

			Previous gap was negative, modifying coordinates to ignore overlap
				Moving contig start from 1 to 78.
			Align 11: 132010 133397 NODE_45_length_36511_cov_61.1621 78 1465
			END in current alignment.  Modifying 133397 to 133397.

Analysis is finished!
Founded SNPs were written into /home/mmbbio/Plasmid_Assembly/completegenomes/plasmids/KONIH1_plasmids_references/group_1.fasta_comparison_cbar/contigs_reports/nucmer_output/prediction.used_snps

Results:
	Local Misassemblies: 0
	Misassemblies: 0
		Relocations: 0
		Translocations: 0
		Inversions: 0
	Misassembled Contigs: 0
	Misassembled Contig Bases: 0
	Misassemblies Inter-Contig Overlap: 0
Uncovered Regions: 0 (0)
Unaligned Contigs: 26 + 1 part
Partially Unaligned Contigs with Misassemblies: 0
Unaligned Contig Bases: 316070

Ambiguously Mapped Contigs: 0
Extra Bases in Ambiguously Mapped Contigs: 0
Note that --allow-ambiguity option was set to "all" and each of these contigs was used several times.

	Covered Bases: 132493

	SNPs: 13
	Insertions: 0
	Deletions: 0

	Positive Gaps: 2
		Internal Gaps:  0
		External Gaps:  2
		External Gap Total:  904
		External Gap Average: 452
	Negative Gaps: 7
		Internal Overlaps:  0
		External Overlaps:  7
		External Overlaps Total: -465
		External Overlaps Average: -66
	Contigs with Redundant Alignments: 1 (1722)
