Assembly	prediction
# contigs (>= 0 bp)	4
# contigs (>= 1000 bp)	4
# contigs (>= 5000 bp)	4
# contigs (>= 10000 bp)	2
# contigs (>= 25000 bp)	1
# contigs (>= 50000 bp)	0
Total length (>= 0 bp)	78703
Total length (>= 1000 bp)	78703
Total length (>= 5000 bp)	78703
Total length (>= 10000 bp)	62606
Total length (>= 25000 bp)	40456
Total length (>= 50000 bp)	0
# contigs	4
Largest contig	40456
Total length	78703
Reference length	193725
GC (%)	51.93
Reference GC (%)	51.58
N50	40456
N75	22150
L50	1
L75	2
# misassemblies	0
# misassembled contigs	0
Misassembled contigs length	0
# local misassemblies	0
# unaligned contigs	3 + 0 part
Unaligned length	38247
Genome fraction (%)	20.883
Duplication ratio	1.000
# N's per 100 kbp	0.00
# mismatches per 100 kbp	0.00
# indels per 100 kbp	0.00
Largest alignment	40456
NA50	40456
NGA50	-
LA50	1
