Assembly	prediction
# contigs (>= 0 bp)	4
# contigs (>= 1000 bp)	4
# contigs (>= 5000 bp)	4
# contigs (>= 10000 bp)	3
# contigs (>= 25000 bp)	1
# contigs (>= 50000 bp)	0
Total length (>= 0 bp)	95998
Total length (>= 1000 bp)	95998
Total length (>= 5000 bp)	95998
Total length (>= 10000 bp)	87429
Total length (>= 25000 bp)	49338
Total length (>= 50000 bp)	0
# contigs	4
Largest contig	49338
Total length	95998
Reference length	50333
GC (%)	48.19
Reference GC (%)	52.17
N50	49338
NG50	49338
N75	16454
NG75	49338
L50	1
LG50	1
L75	3
LG75	1
# misassemblies	0
# misassembled contigs	0
Misassembled contigs length	0
# local misassemblies	0
# unaligned contigs	3 + 1 part
Unaligned length	87740
Genome fraction (%)	16.407
Duplication ratio	1.000
# N's per 100 kbp	0.00
# mismatches per 100 kbp	12.11
# indels per 100 kbp	0.00
Largest alignment	8258
NGA50	-
