Assembly	prediction
# contigs (>= 0 bp)	46
# contigs (>= 1000 bp)	37
# contigs (>= 5000 bp)	14
# contigs (>= 10000 bp)	9
# contigs (>= 25000 bp)	4
# contigs (>= 50000 bp)	3
Total length (>= 0 bp)	477670
Total length (>= 1000 bp)	471524
Total length (>= 5000 bp)	418029
Total length (>= 10000 bp)	382550
Total length (>= 25000 bp)	310971
Total length (>= 50000 bp)	276385
# contigs	46
Largest contig	144675
Total length	477670
Reference length	3820
GC (%)	49.98
Reference GC (%)	52.09
N50	56128
NG50	144675
N75	13117
NG75	144675
L50	3
LG50	1
L75	7
LG75	1
# misassemblies	0
# misassembled contigs	0
Misassembled contigs length	0
# local misassemblies	0
# unaligned contigs	44 + 0 part
Unaligned length	473913
Genome fraction (%)	96.335
Duplication ratio	1.021
# N's per 100 kbp	0.00
# mismatches per 100 kbp	0.00
# indels per 100 kbp	0.00
Largest alignment	3256
NGA50	3256
NGA75	3256
LGA50	1
LGA75	1
