Assembly	prediction
# contigs (>= 0 bp)	2
# contigs (>= 1000 bp)	2
# contigs (>= 5000 bp)	1
# contigs (>= 10000 bp)	0
# contigs (>= 25000 bp)	0
# contigs (>= 50000 bp)	0
Total length (>= 0 bp)	12719
Total length (>= 1000 bp)	12719
Total length (>= 5000 bp)	9453
Total length (>= 10000 bp)	0
Total length (>= 25000 bp)	0
Total length (>= 50000 bp)	0
# contigs	2
Largest contig	9453
Total length	12719
Reference length	268334
GC (%)	56.47
Reference GC (%)	52.61
N50	9453
N75	3266
L50	1
L75	2
# unaligned contigs	2 + 0 part
Unaligned length	12719
# N's per 100 kbp	0.00
NGA50	-
