Assembly	prediction
# contigs (>= 0 bp)	15
# contigs (>= 1000 bp)	15
# contigs (>= 5000 bp)	4
# contigs (>= 10000 bp)	1
# contigs (>= 25000 bp)	1
# contigs (>= 50000 bp)	0
Total length (>= 0 bp)	87076
Total length (>= 1000 bp)	87076
Total length (>= 5000 bp)	61634
Total length (>= 10000 bp)	42611
Total length (>= 25000 bp)	42611
Total length (>= 50000 bp)	0
# contigs	15
Largest contig	42611
Total length	87076
Reference length	130603
GC (%)	43.84
Reference GC (%)	50.82
N50	8225
NG50	4863
N75	4863
L50	2
LG50	5
L75	5
# unaligned contigs	15 + 0 part
Unaligned length	87076
# N's per 100 kbp	0.00
NGA50	-
