S1	E1	S2	E2	Reference	Contig	IDY	Ambiguous
73418	89243	15825	1	gi_828905996_gb_CP011577.1__Klebsiella_pneumoniae_strain_CAV1392_plasmid_pCAV1392-131__complete_sequence	NODE_31_length_65173_cov_50.4139	99.99	
relocation, inconsistency = 2788
21282	71227	65173	15228	gi_828905996_gb_CP011577.1__Klebsiella_pneumoniae_strain_CAV1392_plasmid_pCAV1392-131__complete_sequence	NODE_31_length_65173_cov_50.4139	99.98	
CONTIG	NODE_31_length_65173_cov_50.4139	65173	misassembled
CONTIG	NODE_35_length_43698_cov_118.975	43698	unaligned
1	4935	4935	1	gi_828905996_gb_CP011577.1__Klebsiella_pneumoniae_strain_CAV1392_plasmid_pCAV1392-131__complete_sequence	NODE_41_length_22981_cov_55.0822	100.0	
fake misassembly (linear representation of circular genome)
112674	130719	22981	4936	gi_828905996_gb_CP011577.1__Klebsiella_pneumoniae_strain_CAV1392_plasmid_pCAV1392-131__complete_sequence	NODE_41_length_22981_cov_55.0822	99.99	
CONTIG	NODE_41_length_22981_cov_55.0822	22981	correct
95476	112054	1	16579	gi_828905996_gb_CP011577.1__Klebsiella_pneumoniae_strain_CAV1392_plasmid_pCAV1392-131__complete_sequence	NODE_48_length_16579_cov_59.4073	100.0	
CONTIG	NODE_48_length_16579_cov_59.4073	16579	correct
CONTIG	NODE_52_length_7372_cov_83.8263	7372	unaligned
CONTIG	NODE_53_length_5954_cov_53.9694	5954	unaligned
CONTIG	NODE_54_length_5835_cov_87.2015	5835	unaligned
CONTIG	NODE_56_length_4492_cov_88.1841	4492	unaligned
90983	95294	1	4312	gi_828905996_gb_CP011577.1__Klebsiella_pneumoniae_strain_CAV1392_plasmid_pCAV1392-131__complete_sequence	NODE_57_length_4312_cov_47.4017	99.98	
CONTIG	NODE_57_length_4312_cov_47.4017	4312	correct
CONTIG	NODE_59_length_3581_cov_70.3396	3581	unaligned
CONTIG	NODE_62_length_2786_cov_74.3854	2786	unaligned
CONTIG	NODE_64_length_2404_cov_110.183	2404	unaligned
71140	73494	2355	1	gi_828905996_gb_CP011577.1__Klebsiella_pneumoniae_strain_CAV1392_plasmid_pCAV1392-131__complete_sequence	NODE_65_length_2355_cov_48.9903	99.96	
CONTIG	NODE_65_length_2355_cov_48.9903	2355	correct
89167	91059	1893	1	gi_828905996_gb_CP011577.1__Klebsiella_pneumoniae_strain_CAV1392_plasmid_pCAV1392-131__complete_sequence	NODE_67_length_1893_cov_346.64	100.0	
CONTIG	NODE_67_length_1893_cov_346.64	1893	correct
4859	6054	1	1196	gi_828905996_gb_CP011577.1__Klebsiella_pneumoniae_strain_CAV1392_plasmid_pCAV1392-131__complete_sequence	NODE_75_length_1196_cov_191.025	100.0	
CONTIG	NODE_75_length_1196_cov_191.025	1196	correct
