Aligning contigs to reference...
	Running Nucmer
Parsing coords...
Loading reference...
	Loaded [gi_828905996_gb_CP011577.1__Klebsiella_pneumoniae_strain_CAV1392_plasmid_pCAV1392-131__complete_sequence]
Loading SNPs...
Loading regions...
	No regions given, using whole reference.
	Total Regions: 1
	Total Region Length: 130719
Analyzing contigs...
CONTIG: NODE_31_length_65173_cov_50.4139 (65173bp)
Top Length: 49946  Top ID: 99.98
		This contig is misassembled. 2 total aligns.
			Real Alignment 1: 73418 89243 | 15825 1 | 15826 15825 | 99.99 | gi_828905996_gb_CP011577.1__Klebsiella_pneumoniae_strain_CAV1392_plasmid_pCAV1392-131__complete_sequence NODE_31_length_65173_cov_50.4139
			  Extensive misassembly ( relocation, inconsistency = 2788 ) between these two alignments
			Real Alignment 2: 21282 71227 | 65173 15228 | 49946 49946 | 99.98 | gi_828905996_gb_CP011577.1__Klebsiella_pneumoniae_strain_CAV1392_plasmid_pCAV1392-131__complete_sequence NODE_31_length_65173_cov_50.4139

CONTIG: NODE_35_length_43698_cov_118.975 (43698bp)
		This contig is unaligned. (43698 bp)
		Unaligned bases: 43698  total: 43698

CONTIG: NODE_41_length_22981_cov_55.0822 (22981bp)
Top Length: 18046  Top ID: 99.99
			Skipping redundant alignments after choosing the best set of alignments
		Skipping redundant alignment 111981 112481 | 20974 21474 | 501 501 | 99.4 | gi_828905996_gb_CP011577.1__Klebsiella_pneumoniae_strain_CAV1392_plasmid_pCAV1392-131__complete_sequence NODE_41_length_22981_cov_55.0822
		This contig is misassembled. 3 total aligns.
			Real Alignment 1: 1 4935 | 4935 1 | 4935 4935 | 100.0 | gi_828905996_gb_CP011577.1__Klebsiella_pneumoniae_strain_CAV1392_plasmid_pCAV1392-131__complete_sequence NODE_41_length_22981_cov_55.0822
			  Fake misassembly (caused by linear representation of circular genome) between these two alignments
			Real Alignment 2: 112674 130719 | 22981 4936 | 18046 18046 | 99.99 | gi_828905996_gb_CP011577.1__Klebsiella_pneumoniae_strain_CAV1392_plasmid_pCAV1392-131__complete_sequence NODE_41_length_22981_cov_55.0822

CONTIG: NODE_48_length_16579_cov_59.4073 (16579bp)
Top Length: 16579  Top ID: 100.0
		Marking as insignificant: 95433 105508 | 1 10033 | 10076 10033 | 99.57 | gi_828905996_gb_CP011577.1__Klebsiella_pneumoniae_strain_CAV1392_plasmid_pCAV1392-131__complete_sequence NODE_48_length_16579_cov_59.4073
		One align captures most of this contig: 95476 112054 | 1 16579 | 16579 16579 | 100.0 | gi_828905996_gb_CP011577.1__Klebsiella_pneumoniae_strain_CAV1392_plasmid_pCAV1392-131__complete_sequence NODE_48_length_16579_cov_59.4073

CONTIG: NODE_52_length_7372_cov_83.8263 (7372bp)
		This contig is unaligned. (7372 bp)
		Unaligned bases: 7372  total: 51070

CONTIG: NODE_53_length_5954_cov_53.9694 (5954bp)
		This contig is unaligned. (5954 bp)
		Unaligned bases: 5954  total: 57024

CONTIG: NODE_54_length_5835_cov_87.2015 (5835bp)
		This contig is unaligned. (5835 bp)
		Unaligned bases: 5835  total: 62859

CONTIG: NODE_56_length_4492_cov_88.1841 (4492bp)
		This contig is unaligned. (4492 bp)
		Unaligned bases: 4492  total: 67351

CONTIG: NODE_57_length_4312_cov_47.4017 (4312bp)
Top Length: 4312  Top ID: 99.98
		One align captures most of this contig: 90983 95294 | 1 4312 | 4312 4312 | 99.98 | gi_828905996_gb_CP011577.1__Klebsiella_pneumoniae_strain_CAV1392_plasmid_pCAV1392-131__complete_sequence NODE_57_length_4312_cov_47.4017

CONTIG: NODE_59_length_3581_cov_70.3396 (3581bp)
		This contig is unaligned. (3581 bp)
		Unaligned bases: 3581  total: 70932

CONTIG: NODE_62_length_2786_cov_74.3854 (2786bp)
		This contig is unaligned. (2786 bp)
		Unaligned bases: 2786  total: 73718

CONTIG: NODE_64_length_2404_cov_110.183 (2404bp)
		This contig is unaligned. (2404 bp)
		Unaligned bases: 2404  total: 76122

CONTIG: NODE_65_length_2355_cov_48.9903 (2355bp)
Top Length: 2355  Top ID: 99.96
		One align captures most of this contig: 71140 73494 | 2355 1 | 2355 2355 | 99.96 | gi_828905996_gb_CP011577.1__Klebsiella_pneumoniae_strain_CAV1392_plasmid_pCAV1392-131__complete_sequence NODE_65_length_2355_cov_48.9903

CONTIG: NODE_67_length_1893_cov_346.64 (1893bp)
Top Length: 1893  Top ID: 100.0
		One align captures most of this contig: 89167 91059 | 1893 1 | 1893 1893 | 100.0 | gi_828905996_gb_CP011577.1__Klebsiella_pneumoniae_strain_CAV1392_plasmid_pCAV1392-131__complete_sequence NODE_67_length_1893_cov_346.64

CONTIG: NODE_75_length_1196_cov_191.025 (1196bp)
Top Length: 1196  Top ID: 100.0
		One align captures most of this contig: 4859 6054 | 1 1196 | 1196 1196 | 100.0 | gi_828905996_gb_CP011577.1__Klebsiella_pneumoniae_strain_CAV1392_plasmid_pCAV1392-131__complete_sequence NODE_75_length_1196_cov_191.025

Analyzing coverage...
Writing SNPs into /home/mmbbio/Plasmid_Assembly/completegenomes/plasmids/CAV1392_plasmids_references/group_3.fasta_comparison_cbar/contigs_reports/nucmer_output/prediction.used_snps
	Reference gi_828905996_gb_CP011577.1__Klebsiella_pneumoniae_strain_CAV1392_plasmid_pCAV1392-131__complete_sequence: 9 total alignments. 1 total regions.
		Region: 1 to 130719 (130719 bp)
			Align 1: 1 4935 NODE_41_length_22981_cov_55.0822 4935 1
				Negative gap (overlap) between this and next alignment: 4935 to 4859 (-76 bp)
				Next Alignment: 4859 6054 NODE_75_length_1196_cov_191.025 1 1196

			Previous gap was negative, modifying coordinates to ignore overlap
				Moving contig start from 1 to 78.
			Align 2: 4936 6054 NODE_75_length_1196_cov_191.025 78 1196
				Gap between this and next alignment: 6054 to 21282 (15227 bp)
				Next Alignment: 21282 71227 NODE_31_length_65173_cov_50.4139 65173 15228

			Align 3: 21282 71227 NODE_31_length_65173_cov_50.4139 65173 15228
				Negative gap (overlap) between this and next alignment: 71227 to 71140 (-87 bp)
				Next Alignment: 71140 73494 NODE_65_length_2355_cov_48.9903 2355 1

			Previous gap was negative, modifying coordinates to ignore overlap
				Moving contig start from 2355 to 2267.
			Align 4: 71228 73494 NODE_65_length_2355_cov_48.9903 2267 1
				Negative gap (overlap) between this and next alignment: 73494 to 73418 (-76 bp)
				Next Alignment: 73418 89243 NODE_31_length_65173_cov_50.4139 15825 1

			Previous gap was negative, modifying coordinates to ignore overlap
				Moving contig start from 15825 to 15748.
			Align 5: 73495 89243 NODE_31_length_65173_cov_50.4139 15748 1
				Negative gap (overlap) between this and next alignment: 89243 to 89167 (-76 bp)
				Next Alignment: 89167 91059 NODE_67_length_1893_cov_346.64 1893 1

			Previous gap was negative, modifying coordinates to ignore overlap
				Moving contig start from 1893 to 1816.
			Align 6: 89244 91059 NODE_67_length_1893_cov_346.64 1816 1
				Negative gap (overlap) between this and next alignment: 91059 to 90983 (-76 bp)
				Next Alignment: 90983 95294 NODE_57_length_4312_cov_47.4017 1 4312

			Previous gap was negative, modifying coordinates to ignore overlap
				Moving contig start from 1 to 78.
			Align 7: 91060 95294 NODE_57_length_4312_cov_47.4017 78 4312
				Gap between this and next alignment: 95294 to 95476 (181 bp)
				Next Alignment: 95476 112054 NODE_48_length_16579_cov_59.4073 1 16579

			Align 8: 95476 112054 NODE_48_length_16579_cov_59.4073 1 16579
				Gap between this and next alignment: 112054 to 112674 (619 bp)
				Next Alignment: 112674 130719 NODE_41_length_22981_cov_55.0822 22981 4936

			Align 9: 112674 130719 NODE_41_length_22981_cov_55.0822 22981 4936
			END in current alignment.  Modifying 130719 to 130719.

Analysis is finished!
Founded SNPs were written into /home/mmbbio/Plasmid_Assembly/completegenomes/plasmids/CAV1392_plasmids_references/group_3.fasta_comparison_cbar/contigs_reports/nucmer_output/prediction.used_snps

Results:
	Local Misassemblies: 0
	Misassemblies: 1
		Relocations: 1
		Translocations: 0
		Inversions: 0
	Misassembled Contigs: 1
	Misassembled Contig Bases: 65173
	Misassemblies Inter-Contig Overlap: 598
Uncovered Regions: 0 (0)
Unaligned Contigs: 8 + 0 part
Partially Unaligned Contigs with Misassemblies: 0
Unaligned Contig Bases: 76122

Ambiguously Mapped Contigs: 0
Extra Bases in Ambiguously Mapped Contigs: 0
Note that --allow-ambiguity option was set to "all" and each of these contigs was used several times.

	Covered Bases: 114692

	SNPs: 10
	Insertions: 0
	Deletions: 4

	Positive Gaps: 3
		Internal Gaps:  0
		External Gaps:  3
		External Gap Total:  16027
		External Gap Average: 5342
	Negative Gaps: 5
		Internal Overlaps:  0
		External Overlaps:  5
		External Overlaps Total: -391
		External Overlaps Average: -78
	Contigs with Redundant Alignments: 0 (0)
