Assembly	prediction
# fully unaligned contigs	19
Fully unaligned length	90390
# partially unaligned contigs	8
    # with misassembly	1
    # both parts are significant	7
Partially unaligned length	29501
# N's	187
