Assembly	prediction
# contigs (>= 0 bp)	3
# contigs (>= 1000 bp)	3
# contigs (>= 5000 bp)	3
# contigs (>= 10000 bp)	2
# contigs (>= 25000 bp)	1
# contigs (>= 50000 bp)	0
Total length (>= 0 bp)	61002
Total length (>= 1000 bp)	61002
Total length (>= 5000 bp)	61002
Total length (>= 10000 bp)	55592
Total length (>= 25000 bp)	36072
Total length (>= 50000 bp)	0
# contigs	3
Largest contig	36072
Total length	61002
Reference length	113105
GC (%)	49.32
Reference GC (%)	54.18
N50	36072
NG50	5410
N75	19520
L50	1
LG50	3
L75	2
# unaligned contigs	3 + 0 part
Unaligned length	61002
# N's per 100 kbp	0.00
NGA50	-
