/home/mmbbio/Plasmid_Assembly/programmes/quast-4.1/quast.py -R /home/mmbbio/Plasmid_Assembly/completegenomes/plasmids/CAV1374_plasmids_references/group_4.fasta -o /home/mmbbio/Plasmid_Assembly/completegenomes/plasmids/CAV1374_plasmids_references/group_4.fasta_comparison_spades --min-alignment 500 --ambiguity-usage all CAV1374/prediction.fas

Version: 4.1, build 26.05.2016 14:25

System information:
  OS: Linux-3.13.0-95-generic-x86_64-with-debian-jessie-sid (linux_64)
  Python version: 2.7.12
  CPUs number: 3

Started: 2016-09-15 09:05:18

Logging to /home/mmbbio/Plasmid_Assembly/completegenomes/plasmids/CAV1374_plasmids_references/group_4.fasta_comparison_spades/quast.log

NOTICE: Maximum number of threads is set to 1 (use --threads option to set it manually)

Main parameters: 
  Threads: 1, minimum alignment length (Nucmer): 500, minimum contig length: 500, ambiguity: all, \
  threshold for extensive misassembly size: 1000

WARNING: Can't draw plots: please install python-matplotlib.

Reference:
  /home/mmbbio/Plasmid_Assembly/completegenomes/plasmids/CAV1374_plasmids_references/group_4.fasta ==> group_4

Contigs:
  CAV1374/prediction.fas ==> prediction

2016-09-15 09:05:18
Running Basic statistics processor...
  Reference genome:
    group_4.fasta, Reference length = 16069, Reference GC % = 59.34
  Contig files: 
    prediction
  Calculating N50 and L50...
    prediction, N50 = 45316, L50 = 8, Total length = 867485, GC % = 51.90, # N's per 100 kbp =  0.00
Done.

2016-09-15 09:05:18
Running Contig analyzer...
WARNING: Previous try of E-MEM compilation was unsuccessful! For forced retrying, please remove /home/mmbbio/Plasmid_Assembly/programmes/quast-4.1/libs/E-MEM-linux/make.failed and restart QUAST.
  prediction
  Logging to files /home/mmbbio/Plasmid_Assembly/completegenomes/plasmids/CAV1374_plasmids_references/group_4.fasta_comparison_spades/contigs_reports/contigs_report_prediction.stdout and contigs_report_prediction.stderr...
  Running Nucmer
  /home/mmbbio/Plasmid_Assembly/programmes/quast-4.1/libs/MUMmer3.23-linux/nucmer \
  -c 65 -l 65 --maxmatch -p /home/mmbbio/Plasmid_Assembly/completegenomes/plasmids/CAV1374_plasmids_references/group_4.fasta_comparison_spades/contigs_reports/nucmer_output/prediction \
  /home/mmbbio/Plasmid_Assembly/completegenomes/plasmids/CAV1374_plasmids_references/group_4.fasta_comparison_spades/quast_corrected_input/group_4.fasta \
  /home/mmbbio/Plasmid_Assembly/completegenomes/plasmids/CAV1374_plasmids_references/group_4.fasta_comparison_spades/quast_corrected_input/prediction.fas \
  >> /home/mmbbio/Plasmid_Assembly/completegenomes/plasmids/CAV1374_plasmids_references/group_4.fasta_comparison_spades/contigs_reports/contigs_report_prediction.stdout \
  2>> /home/mmbbio/Plasmid_Assembly/completegenomes/plasmids/CAV1374_plasmids_references/group_4.fasta_comparison_spades/contigs_reports/contigs_report_prediction.stderr
  /home/mmbbio/Plasmid_Assembly/programmes/quast-4.1/libs/MUMmer3.23-linux/delta-filter \
  -i 95 -l 500 /home/mmbbio/Plasmid_Assembly/completegenomes/plasmids/CAV1374_plasmids_references/group_4.fasta_comparison_spades/contigs_reports/nucmer_output/prediction.delta \
  > /home/mmbbio/Plasmid_Assembly/completegenomes/plasmids/CAV1374_plasmids_references/group_4.fasta_comparison_spades/contigs_reports/nucmer_output/prediction.fdelta \
  2> /home/mmbbio/Plasmid_Assembly/completegenomes/plasmids/CAV1374_plasmids_references/group_4.fasta_comparison_spades/contigs_reports/contigs_report_prediction.stderr
  /home/mmbbio/Plasmid_Assembly/programmes/quast-4.1/libs/MUMmer3.23-linux/show-coords \
  /home/mmbbio/Plasmid_Assembly/completegenomes/plasmids/CAV1374_plasmids_references/group_4.fasta_comparison_spades/contigs_reports/nucmer_output/prediction.delta \
  > /home/mmbbio/Plasmid_Assembly/completegenomes/plasmids/CAV1374_plasmids_references/group_4.fasta_comparison_spades/contigs_reports/nucmer_output/prediction.coords_tmp \
  2> /home/mmbbio/Plasmid_Assembly/completegenomes/plasmids/CAV1374_plasmids_references/group_4.fasta_comparison_spades/contigs_reports/contigs_report_prediction.stderr
  /home/mmbbio/Plasmid_Assembly/programmes/quast-4.1/libs/MUMmer3.23-linux/show-snps \
  -S -T -H /home/mmbbio/Plasmid_Assembly/completegenomes/plasmids/CAV1374_plasmids_references/group_4.fasta_comparison_spades/contigs_reports/nucmer_output/prediction.delta \
  < /home/mmbbio/Plasmid_Assembly/completegenomes/plasmids/CAV1374_plasmids_references/group_4.fasta_comparison_spades/contigs_reports/nucmer_output/prediction.coords.headless \
  > /home/mmbbio/Plasmid_Assembly/completegenomes/plasmids/CAV1374_plasmids_references/group_4.fasta_comparison_spades/contigs_reports/nucmer_output/prediction.all_snps \
  2> /home/mmbbio/Plasmid_Assembly/completegenomes/plasmids/CAV1374_plasmids_references/group_4.fasta_comparison_spades/contigs_reports/contigs_report_prediction.stderr
  Alignments: ../completegenomes/plasmids/CAV1374_plasmids_references/group_4.fasta_comparison_spades/contigs_reports/alignments_prediction.tsv
  Analysis is finished.

  Creating total report...
    saved to /home/mmbbio/Plasmid_Assembly/completegenomes/plasmids/CAV1374_plasmids_references/group_4.fasta_comparison_spades/contigs_reports/misassemblies_report.txt, misassemblies_report.tsv, and misassemblies_report.tex
  Transposed version of total report...
    saved to /home/mmbbio/Plasmid_Assembly/completegenomes/plasmids/CAV1374_plasmids_references/group_4.fasta_comparison_spades/contigs_reports/transposed_report_misassemblies.txt, transposed_report_misassemblies.tsv, and transposed_report_misassemblies.tex
  Creating total report...
    saved to /home/mmbbio/Plasmid_Assembly/completegenomes/plasmids/CAV1374_plasmids_references/group_4.fasta_comparison_spades/contigs_reports/unaligned_report.txt, unaligned_report.tsv, and unaligned_report.tex
Done.

2016-09-15 09:05:19
Running NA-NGA calculation...
  prediction, Largest alignment = 10011, NA50 = None, NGA50 = 10011, LA50 = None, LGA50 = 1
Done.

2016-09-15 09:05:19
Running Genome analyzer...
  NOTICE: No file with genes provided. Use the -G option if you want to specify it.
  NOTICE: No file with operons provided. Use the -O option if you want to specify it.
  prediction
  Analysis is finished.
Done.

NOTICE: Genes are not predicted by default. Use --gene-finding option to enable it.

2016-09-15 09:05:19
Creating large visual summaries...
This may take a while: press Ctrl-C to skip this step..
  1 of 1: Creating Icarus viewers...
Done

2016-09-15 09:05:19
RESULTS:
  Text versions of total report are saved to /home/mmbbio/Plasmid_Assembly/completegenomes/plasmids/CAV1374_plasmids_references/group_4.fasta_comparison_spades/report.txt, report.tsv, and report.tex
  Text versions of transposed total report are saved to /home/mmbbio/Plasmid_Assembly/completegenomes/plasmids/CAV1374_plasmids_references/group_4.fasta_comparison_spades/transposed_report.txt, transposed_report.tsv, and transposed_report.tex
  HTML version (interactive tables and plots) saved to /home/mmbbio/Plasmid_Assembly/completegenomes/plasmids/CAV1374_plasmids_references/group_4.fasta_comparison_spades/report.html
  Icarus (contig browser) is saved to /home/mmbbio/Plasmid_Assembly/completegenomes/plasmids/CAV1374_plasmids_references/group_4.fasta_comparison_spades/icarus.html
  Log saved to /home/mmbbio/Plasmid_Assembly/completegenomes/plasmids/CAV1374_plasmids_references/group_4.fasta_comparison_spades/quast.log

Finished: 2016-09-15 09:05:19
Elapsed time: 0:00:00.934125
NOTICEs: 4; WARNINGs: 2; non-fatal ERRORs: 0

Thank you for using QUAST!
