Aligning contigs to reference...
	Running Nucmer
Parsing coords...
Loading reference...
	Loaded [gi_828927201_gb_CP011594.1__Klebsiella_oxytoca_strain_CAV1099_plasmid_pCAV1099-111__complete_sequence]
Loading SNPs...
Loading regions...
	No regions given, using whole reference.
	Total Regions: 1
	Total Region Length: 111395
Analyzing contigs...
CONTIG: RNODE_2_length_5432_cov_180.89900 (5410bp)
		This contig is unaligned. (5410 bp)
		Unaligned bases: 5410  total: 5410

CONTIG: RNODE_3_length_36116_cov_33.46951 (36072bp)
		This contig is unaligned. (36072 bp)
		Unaligned bases: 36072  total: 41482

CONTIG: RNODE_1_length_111417_cov_36.07730 (111395bp)
Top Length: 76412  Top ID: 100.0
		This contig is misassembled. 2 total aligns.
			Real Alignment 1: 34984 111395 | 1 76412 | 76412 76412 | 100.0 | gi_828927201_gb_CP011594.1__Klebsiella_oxytoca_strain_CAV1099_plasmid_pCAV1099-111__complete_sequence RNODE_1_length_111417_cov_36.07730
			  Fake misassembly (caused by linear representation of circular genome) between these two alignments
			Real Alignment 2: 1 34983 | 76413 111395 | 34983 34983 | 100.0 | gi_828927201_gb_CP011594.1__Klebsiella_oxytoca_strain_CAV1099_plasmid_pCAV1099-111__complete_sequence RNODE_1_length_111417_cov_36.07730

Analyzing coverage...
Writing SNPs into /home/mmbbio/Plasmid_Assembly/completegenomes/plasmids/CAV1099_plasmids_references/group_3.fasta_comparison_recycler/contigs_reports/nucmer_output/prediction.used_snps
	Reference gi_828927201_gb_CP011594.1__Klebsiella_oxytoca_strain_CAV1099_plasmid_pCAV1099-111__complete_sequence: 2 total alignments. 1 total regions.
		Region: 1 to 111395 (111395 bp)
			Align 1: 1 34983 RNODE_1_length_111417_cov_36.07730 76413 111395
				Next Alignment: 34984 111395 RNODE_1_length_111417_cov_36.07730 1 76412

			Align 2: 34984 111395 RNODE_1_length_111417_cov_36.07730 1 76412
			END in current alignment.  Modifying 111395 to 111395.

Analysis is finished!
Founded SNPs were written into /home/mmbbio/Plasmid_Assembly/completegenomes/plasmids/CAV1099_plasmids_references/group_3.fasta_comparison_recycler/contigs_reports/nucmer_output/prediction.used_snps

Results:
	Local Misassemblies: 0
	Misassemblies: 0
		Relocations: 0
		Translocations: 0
		Inversions: 0
	Misassembled Contigs: 0
	Misassembled Contig Bases: 0
	Misassemblies Inter-Contig Overlap: 0
Uncovered Regions: 0 (0)
Unaligned Contigs: 2 + 0 part
Partially Unaligned Contigs with Misassemblies: 0
Unaligned Contig Bases: 41482

Ambiguously Mapped Contigs: 0
Extra Bases in Ambiguously Mapped Contigs: 0
Note that --allow-ambiguity option was set to "all" and each of these contigs was used several times.

	Covered Bases: 111395

	SNPs: 0
	Insertions: 0
	Deletions: 0

	Positive Gaps: 0
		Internal Gaps:  0
		External Gaps:  0
		External Gap Total:  0
		External Gap Average: 0
	Negative Gaps: 0
		Internal Overlaps:  0
		External Overlaps:  0
		External Overlaps Total:  0
		External Overlaps Average: 0
	Contigs with Redundant Alignments: 0 (0)
