Aligning contigs to reference...
	Running Nucmer
Parsing coords...
Loading reference...
	Loaded [gi_1039515083_ref_NZ_CP015160.1__Escherichia_coli_strain_Eco889_plasmid_pECO-fce__complete_sequence]
Loading SNPs...
Loading regions...
	No regions given, using whole reference.
	Total Regions: 1
	Total Region Length: 212180
Analyzing contigs...
CONTIG: NODE_42_length_6682_cov_270.097 (6682bp)
Top Length: 6682  Top ID: 100.0
		Marking as insignificant: 15437 16359 | 6682 5760 | 923 923 | 99.13 | gi_1039515083_ref_NZ_CP015160.1__Escherichia_coli_strain_Eco889_plasmid_pECO-fce__complete_sequence NODE_42_length_6682_cov_270.097
		One align captures most of this contig: 21604 28285 | 1 6682 | 6682 6682 | 100.0 | gi_1039515083_ref_NZ_CP015160.1__Escherichia_coli_strain_Eco889_plasmid_pECO-fce__complete_sequence NODE_42_length_6682_cov_270.097

CONTIG: NODE_26_length_19916_cov_285.106 (19916bp)
Top Length: 10503  Top ID: 100.0
		This contig is misassembled. 2 total aligns.
			Real Alignment 1: 1 9413 | 9413 1 | 9413 9413 | 100.0 | gi_1039515083_ref_NZ_CP015160.1__Escherichia_coli_strain_Eco889_plasmid_pECO-fce__complete_sequence NODE_26_length_19916_cov_285.106
			  Fake misassembly (caused by linear representation of circular genome) between these two alignments
			Real Alignment 2: 201678 212180 | 19916 9414 | 10503 10503 | 100.0 | gi_1039515083_ref_NZ_CP015160.1__Escherichia_coli_strain_Eco889_plasmid_pECO-fce__complete_sequence NODE_26_length_19916_cov_285.106

CONTIG: NODE_28_length_16874_cov_294.376 (16874bp)
Top Length: 16874  Top ID: 100.0
		One align captures most of this contig: 130026 146899 | 16874 1 | 16874 16874 | 100.0 | gi_1039515083_ref_NZ_CP015160.1__Escherichia_coli_strain_Eco889_plasmid_pECO-fce__complete_sequence NODE_28_length_16874_cov_294.376

CONTIG: NODE_23_length_30634_cov_232.928 (30634bp)
Top Length: 721  Top ID: 95.01
		This contig is partially unaligned. (Aligned 721 out of 30634 bases)
		Alignment: 206295 207015 | 27055 26335 | 721 721 | 95.01 | gi_1039515083_ref_NZ_CP015160.1__Escherichia_coli_strain_Eco889_plasmid_pECO-fce__complete_sequence NODE_23_length_30634_cov_232.928
		Unaligned bases: 1 to 26334 (26334)
		Unaligned bases: 27056 to 30634 (3579)
		This contig has both significant aligned and unaligned parts (of length >= 500)!

CONTIG: NODE_37_length_10671_cov_263.382 (10671bp)
Top Length: 10671  Top ID: 100.0
		One align captures most of this contig: 68855 79525 | 10671 1 | 10671 10671 | 100.0 | gi_1039515083_ref_NZ_CP015160.1__Escherichia_coli_strain_Eco889_plasmid_pECO-fce__complete_sequence NODE_37_length_10671_cov_263.382

Analyzing coverage...
Writing SNPs into /home/mmbbio/Plasmid_Assembly/completegenomes/plasmids/ECO889_plasmids_references/group_1.fasta_comparison_plasmidfinder/contigs_reports/nucmer_output/prediction.used_snps
	Reference gi_1039515083_ref_NZ_CP015160.1__Escherichia_coli_strain_Eco889_plasmid_pECO-fce__complete_sequence: 6 total alignments. 1 total regions.
		Region: 1 to 212180 (212180 bp)
			Align 1: 1 9413 NODE_26_length_19916_cov_285.106 9413 1
				Gap between this and next alignment: 9413 to 21604 (12190 bp)
				Next Alignment: 21604 28285 NODE_42_length_6682_cov_270.097 1 6682

			Align 2: 21604 28285 NODE_42_length_6682_cov_270.097 1 6682
				Gap between this and next alignment: 28285 to 68855 (40569 bp)
				Next Alignment: 68855 79525 NODE_37_length_10671_cov_263.382 10671 1

			Align 3: 68855 79525 NODE_37_length_10671_cov_263.382 10671 1
				Gap between this and next alignment: 79525 to 130026 (50500 bp)
				Next Alignment: 130026 146899 NODE_28_length_16874_cov_294.376 16874 1

			Align 4: 130026 146899 NODE_28_length_16874_cov_294.376 16874 1
				Gap between this and next alignment: 146899 to 201678 (54778 bp)
				Next Alignment: 201678 212180 NODE_26_length_19916_cov_285.106 19916 9414

			Align 5: 201678 212180 NODE_26_length_19916_cov_285.106 19916 9414
			END in current alignment.  Modifying 212180 to 212180.

Analysis is finished!
Founded SNPs were written into /home/mmbbio/Plasmid_Assembly/completegenomes/plasmids/ECO889_plasmids_references/group_1.fasta_comparison_plasmidfinder/contigs_reports/nucmer_output/prediction.used_snps

Results:
	Local Misassemblies: 0
	Misassemblies: 0
		Relocations: 0
		Translocations: 0
		Inversions: 0
	Misassembled Contigs: 0
	Misassembled Contig Bases: 0
	Misassemblies Inter-Contig Overlap: 0
Uncovered Regions: 0 (0)
Unaligned Contigs: 0 + 1 part
Partially Unaligned Contigs with Misassemblies: 0
Unaligned Contig Bases: 29913

Ambiguously Mapped Contigs: 0
Extra Bases in Ambiguously Mapped Contigs: 0
Note that --allow-ambiguity option was set to "all" and each of these contigs was used several times.

	Covered Bases: 54143

	SNPs: 0
	Insertions: 0
	Deletions: 0

	Positive Gaps: 4
		Internal Gaps:  0
		External Gaps:  4
		External Gap Total:  158037
		External Gap Average: 39509
	Negative Gaps: 0
		Internal Overlaps:  0
		External Overlaps:  0
		External Overlaps Total:  0
		External Overlaps Average: 0
	Contigs with Redundant Alignments: 0 (0)
