Assembly	prediction
# contigs (>= 0 bp)	6
# contigs (>= 1000 bp)	6
# contigs (>= 5000 bp)	6
# contigs (>= 10000 bp)	6
# contigs (>= 25000 bp)	5
# contigs (>= 50000 bp)	3
Total length (>= 0 bp)	275965
Total length (>= 1000 bp)	275965
Total length (>= 5000 bp)	275965
Total length (>= 10000 bp)	275965
Total length (>= 25000 bp)	260574
Total length (>= 50000 bp)	186443
# contigs	6
Largest contig	79377
Total length	275965
Reference length	16069
GC (%)	50.65
Reference GC (%)	59.34
N50	50970
NG50	79377
N75	45316
NG75	79377
L50	3
LG50	1
L75	4
LG75	1
# unaligned contigs	6 + 0 part
Unaligned length	275965
# N's per 100 kbp	0.00
NGA50	-
