Aligning contigs to reference...
	Running Nucmer
Parsing coords...
Loading reference...
	Loaded [gi_828933578_gb_CP011600.1__Kluyvera_intermedia_strain_CAV1151_plasmid_pCAV1151-215__complete_sequence]
Loading SNPs...
Loading regions...
	No regions given, using whole reference.
	Total Regions: 1
	Total Region Length: 215092
Analyzing contigs...
CONTIG: NODE_1_length_118664_cov_37.0376_component_0 (118664bp)
		This contig is unaligned. (118664 bp)
		Unaligned bases: 118664  total: 118664

CONTIG: NODE_2_length_56122_cov_65.4178_component_0 (56122bp)
		This contig is unaligned. (56122 bp)
		Unaligned bases: 56122  total: 174786

CONTIG: NODE_3_length_50075_cov_54.5094_component_0 (50075bp)
Top Length: 50075  Top ID: 100.0
		One align captures most of this contig: 59347 109421 | 1 50075 | 50075 50075 | 100.0 | gi_828933578_gb_CP011600.1__Kluyvera_intermedia_strain_CAV1151_plasmid_pCAV1151-215__complete_sequence NODE_3_length_50075_cov_54.5094_component_0

CONTIG: NODE_4_length_39259_cov_35.7075_component_0 (39259bp)
		This contig is unaligned. (39259 bp)
		Unaligned bases: 39259  total: 214045

CONTIG: NODE_5_length_38788_cov_50.7759_component_0 (38788bp)
Top Length: 30009  Top ID: 99.92
			Skipping redundant alignments after choosing the best set of alignments
		Skipping redundant alignment 55732 56273 | 546 1 | 542 546 | 96.71 | gi_828933578_gb_CP011600.1__Kluyvera_intermedia_strain_CAV1151_plasmid_pCAV1151-215__complete_sequence NODE_5_length_38788_cov_50.7759_component_0
		This contig is misassembled. 3 total aligns.
			Real Alignment 1: 23994 54002 | 30009 1 | 30009 30009 | 99.92 | gi_828933578_gb_CP011600.1__Kluyvera_intermedia_strain_CAV1151_plasmid_pCAV1151-215__complete_sequence NODE_5_length_38788_cov_50.7759_component_0
			  Overlap between these two alignments (local misassembly). Inconsistency = -111  
			Real Alignment 2: 15326 24505 | 38788 29609 | 9180 9180 | 99.6 | gi_828933578_gb_CP011600.1__Kluyvera_intermedia_strain_CAV1151_plasmid_pCAV1151-215__complete_sequence NODE_5_length_38788_cov_50.7759_component_0

CONTIG: NODE_6_length_30499_cov_46.7511_component_0 (30499bp)
Top Length: 2081  Top ID: 96.25
		This contig is partially unaligned. (Aligned 2081 out of 30499 bases)
		Alignment: 120447 122527 | 4597 6677 | 2081 2081 | 96.25 | gi_828933578_gb_CP011600.1__Kluyvera_intermedia_strain_CAV1151_plasmid_pCAV1151-215__complete_sequence NODE_6_length_30499_cov_46.7511_component_0
		Unaligned bases: 1 to 4596 (4596)
		Unaligned bases: 6678 to 30499 (23822)
		This contig has both significant aligned and unaligned parts (of length >= 500)!

CONTIG: NODE_7_length_28815_cov_57.6469_component_0 (28815bp)
		This contig is unaligned. (28815 bp)
		Unaligned bases: 28815  total: 242860

CONTIG: NODE_8_length_19400_cov_66.8712_component_0 (19400bp)
Top Length: 19400  Top ID: 99.98
		Marking as insignificant: 174684 175459 | 776 1 | 776 776 | 98.58 | gi_828933578_gb_CP011600.1__Kluyvera_intermedia_strain_CAV1151_plasmid_pCAV1151-215__complete_sequence NODE_8_length_19400_cov_66.8712_component_0
		One align captures most of this contig: 110576 129975 | 1 19400 | 19400 19400 | 99.98 | gi_828933578_gb_CP011600.1__Kluyvera_intermedia_strain_CAV1151_plasmid_pCAV1151-215__complete_sequence NODE_8_length_19400_cov_66.8712_component_0

CONTIG: NODE_9_length_16963_cov_51.2236_component_0 (16963bp)
Top Length: 10996  Top ID: 100.0
		This contig is misassembled. 2 total aligns.
			Real Alignment 1: 1 10996 | 10996 1 | 10996 10996 | 100.0 | gi_828933578_gb_CP011600.1__Kluyvera_intermedia_strain_CAV1151_plasmid_pCAV1151-215__complete_sequence NODE_9_length_16963_cov_51.2236_component_0
			  Fake misassembly (caused by linear representation of circular genome) between these two alignments
			Real Alignment 2: 209126 215092 | 16963 10997 | 5967 5967 | 100.0 | gi_828933578_gb_CP011600.1__Kluyvera_intermedia_strain_CAV1151_plasmid_pCAV1151-215__complete_sequence NODE_9_length_16963_cov_51.2236_component_0

CONTIG: NODE_10_length_13990_cov_39.0344_component_0 (13990bp)
		This contig is unaligned. (13990 bp)
		Unaligned bases: 13990  total: 256850

CONTIG: NODE_11_length_13736_cov_55.2457_component_0 (13736bp)
Top Length: 9446  Top ID: 99.8
		This contig is misassembled. 2 total aligns.
			Real Alignment 1: 183211 192656 | 1 9446 | 9446 9446 | 99.8 | gi_828933578_gb_CP011600.1__Kluyvera_intermedia_strain_CAV1151_plasmid_pCAV1151-215__complete_sequence NODE_11_length_13736_cov_55.2457_component_0
			  Gap between these two alignments (local misassembly). Inconsistency = 86  
			Real Alignment 2: 192063 197032 | 8767 13736 | 4970 4970 | 99.38 | gi_828933578_gb_CP011600.1__Kluyvera_intermedia_strain_CAV1151_plasmid_pCAV1151-215__complete_sequence NODE_11_length_13736_cov_55.2457_component_0

CONTIG: NODE_12_length_13735_cov_35.8235_component_0 (13735bp)
		This contig is unaligned. (13735 bp)
		Unaligned bases: 13735  total: 270585

CONTIG: NODE_13_length_10157_cov_55.1913_component_0 (10157bp)
		This contig is unaligned. (10157 bp)
		Unaligned bases: 10157  total: 280742

CONTIG: NODE_14_length_8636_cov_58.2374_component_0 (8636bp)
Top Length: 8636  Top ID: 100.0
		One align captures most of this contig: 141139 149774 | 8636 1 | 8636 8636 | 100.0 | gi_828933578_gb_CP011600.1__Kluyvera_intermedia_strain_CAV1151_plasmid_pCAV1151-215__complete_sequence NODE_14_length_8636_cov_58.2374_component_0

CONTIG: NODE_15_length_7748_cov_51.0284_component_0 (7748bp)
Top Length: 7748  Top ID: 100.0
		One align captures most of this contig: 200782 208529 | 1 7748 | 7748 7748 | 100.0 | gi_828933578_gb_CP011600.1__Kluyvera_intermedia_strain_CAV1151_plasmid_pCAV1151-215__complete_sequence NODE_15_length_7748_cov_51.0284_component_0

CONTIG: NODE_16_length_6186_cov_37.9326_component_0 (6186bp)
		This contig is unaligned. (6186 bp)
		Unaligned bases: 6186  total: 286928

CONTIG: NODE_17_length_5565_cov_107.61_component_0 (5565bp)
		This contig is unaligned. (5565 bp)
		Unaligned bases: 5565  total: 292493

CONTIG: NODE_18_length_5553_cov_53.198_component_0 (5553bp)
Top Length: 5553  Top ID: 100.0
		One align captures most of this contig: 176614 182166 | 1 5553 | 5553 5553 | 100.0 | gi_828933578_gb_CP011600.1__Kluyvera_intermedia_strain_CAV1151_plasmid_pCAV1151-215__complete_sequence NODE_18_length_5553_cov_53.198_component_0

CONTIG: NODE_19_length_5244_cov_50.755_component_0 (5244bp)
Top Length: 5244  Top ID: 100.0
		One align captures most of this contig: 163336 168579 | 1 5244 | 5244 5244 | 100.0 | gi_828933578_gb_CP011600.1__Kluyvera_intermedia_strain_CAV1151_plasmid_pCAV1151-215__complete_sequence NODE_19_length_5244_cov_50.755_component_0

CONTIG: NODE_20_length_5224_cov_38.1517_component_0 (5224bp)
		This contig is unaligned. (5224 bp)
		Unaligned bases: 5224  total: 297717

CONTIG: NODE_21_length_5086_cov_35.8317_component_0 (5086bp)
		This contig is unaligned. (5086 bp)
		Unaligned bases: 5086  total: 302803

CONTIG: NODE_22_length_4966_cov_36.8233_component_0 (4966bp)
		This contig is unaligned. (4966 bp)
		Unaligned bases: 4966  total: 307769

CONTIG: NODE_23_length_4775_cov_71.4342_component_0 (4775bp)
		This contig is unaligned. (4775 bp)
		Unaligned bases: 4775  total: 312544

CONTIG: NODE_24_length_4312_cov_96.6144_component_0 (4312bp)
		This contig is unaligned. (4312 bp)
		Unaligned bases: 4312  total: 316856

CONTIG: NODE_25_length_4295_cov_91.4647_component_0 (4295bp)
		This contig is unaligned. (4295 bp)
		Unaligned bases: 4295  total: 321151

CONTIG: NODE_26_length_4181_cov_52.6333_component_0 (4181bp)
Top Length: 4181  Top ID: 100.0
		One align captures most of this contig: 169777 173957 | 1 4181 | 4181 4181 | 100.0 | gi_828933578_gb_CP011600.1__Kluyvera_intermedia_strain_CAV1151_plasmid_pCAV1151-215__complete_sequence NODE_26_length_4181_cov_52.6333_component_0

CONTIG: NODE_27_length_4099_cov_35.8881_component_0 (4099bp)
		This contig is unaligned. (4099 bp)
		Unaligned bases: 4099  total: 325250

CONTIG: NODE_28_length_4060_cov_78.9601_component_0 (4060bp)
Top Length: 4060  Top ID: 100.0
		One align captures most of this contig: 135650 139709 | 4060 1 | 4060 4060 | 100.0 | gi_828933578_gb_CP011600.1__Kluyvera_intermedia_strain_CAV1151_plasmid_pCAV1151-215__complete_sequence NODE_28_length_4060_cov_78.9601_component_0

CONTIG: NODE_29_length_4024_cov_50.2926_component_0 (4024bp)
Top Length: 4024  Top ID: 100.0
		One align captures most of this contig: 158136 162159 | 1 4024 | 4024 4024 | 100.0 | gi_828933578_gb_CP011600.1__Kluyvera_intermedia_strain_CAV1151_plasmid_pCAV1151-215__complete_sequence NODE_29_length_4024_cov_50.2926_component_0

CONTIG: NODE_30_length_3817_cov_94.3545_component_0 (3817bp)
		This contig is unaligned. (3817 bp)
		Unaligned bases: 3817  total: 329067

CONTIG: NODE_31_length_3811_cov_29.936_component_0 (3811bp)
		This contig is unaligned. (3811 bp)
		Unaligned bases: 3811  total: 332878

CONTIG: NODE_32_length_3387_cov_55.223_component_0 (3387bp)
Top Length: 3387  Top ID: 100.0
		One align captures most of this contig: 153573 156959 | 1 3387 | 3387 3387 | 100.0 | gi_828933578_gb_CP011600.1__Kluyvera_intermedia_strain_CAV1151_plasmid_pCAV1151-215__complete_sequence NODE_32_length_3387_cov_55.223_component_0

CONTIG: NODE_33_length_3274_cov_46.213_component_0 (3274bp)
Top Length: 3274  Top ID: 100.0
		One align captures most of this contig: 131152 134425 | 1 3274 | 3274 3274 | 100.0 | gi_828933578_gb_CP011600.1__Kluyvera_intermedia_strain_CAV1151_plasmid_pCAV1151-215__complete_sequence NODE_33_length_3274_cov_46.213_component_0

CONTIG: NODE_34_length_3156_cov_123.638_component_0 (3156bp)
Top Length: 3156  Top ID: 100.0
		One align captures most of this contig: 10920 14075 | 1 3156 | 3156 3156 | 100.0 | gi_828933578_gb_CP011600.1__Kluyvera_intermedia_strain_CAV1151_plasmid_pCAV1151-215__complete_sequence NODE_34_length_3156_cov_123.638_component_0

CONTIG: NODE_35_length_2932_cov_146.354_component_0 (2932bp)
		This contig is unaligned. (2932 bp)
		Unaligned bases: 2932  total: 335810

CONTIG: NODE_36_length_2911_cov_52.8246_component_0 (2911bp)
Top Length: 2911  Top ID: 100.0
		One align captures most of this contig: 55871 58781 | 2911 1 | 2911 2911 | 100.0 | gi_828933578_gb_CP011600.1__Kluyvera_intermedia_strain_CAV1151_plasmid_pCAV1151-215__complete_sequence NODE_36_length_2911_cov_52.8246_component_0

CONTIG: NODE_37_length_2558_cov_36.0867_component_0 (2558bp)
		This contig is unaligned. (2558 bp)
		Unaligned bases: 2558  total: 338368

CONTIG: NODE_38_length_2146_cov_91.1237_component_0 (2146bp)
		This contig is unaligned. (2146 bp)
		Unaligned bases: 2146  total: 340514

CONTIG: NODE_39_length_2022_cov_50.853_component_0 (2022bp)
Top Length: 2022  Top ID: 100.0
		One align captures most of this contig: 53926 55947 | 1 2022 | 2022 2022 | 100.0 | gi_828933578_gb_CP011600.1__Kluyvera_intermedia_strain_CAV1151_plasmid_pCAV1151-215__complete_sequence NODE_39_length_2022_cov_50.853_component_0

CONTIG: NODE_40_length_1924_cov_50.8809_component_0 (1924bp)
Top Length: 1924  Top ID: 100.0
		One align captures most of this contig: 197682 199605 | 1924 1 | 1924 1924 | 100.0 | gi_828933578_gb_CP011600.1__Kluyvera_intermedia_strain_CAV1151_plasmid_pCAV1151-215__complete_sequence NODE_40_length_1924_cov_50.8809_component_0

CONTIG: NODE_41_length_1851_cov_55.2475_component_0 (1851bp)
Top Length: 1851  Top ID: 100.0
		One align captures most of this contig: 150546 152396 | 1851 1 | 1851 1851 | 100.0 | gi_828933578_gb_CP011600.1__Kluyvera_intermedia_strain_CAV1151_plasmid_pCAV1151-215__complete_sequence NODE_41_length_1851_cov_55.2475_component_0

CONTIG: NODE_42_length_1785_cov_36.1692_component_0 (1785bp)
		This contig is unaligned. (1785 bp)
		Unaligned bases: 1785  total: 342299

CONTIG: NODE_43_length_1616_cov_93.1585_component_0 (1616bp)
		This contig is unaligned. (1616 bp)
		Unaligned bases: 1616  total: 343915

CONTIG: NODE_44_length_1615_cov_69.3693_component_0 (1615bp)
		This contig is unaligned. (1615 bp)
		Unaligned bases: 1615  total: 345530

CONTIG: NODE_45_length_1570_cov_68.8714_component_0 (1570bp)
		This contig is unaligned. (1570 bp)
		Unaligned bases: 1570  total: 347100

CONTIG: NODE_46_length_1356_cov_159.68_component_0 (1356bp)
		This contig is unaligned. (1356 bp)
		Unaligned bases: 1356  total: 348456

CONTIG: NODE_47_length_1330_cov_584.962_component_0 (1330bp)
Top Length: 1330  Top ID: 100.0
		This contig has 8 significant alignments. [An ambiguously mapped contig]
		Using all these alignments (option --ambiguity-usage is set to "all"):
		Alignment: 14073 15402 | 1330 1 | 1330 1330 | 100.0 | gi_828933578_gb_CP011600.1__Kluyvera_intermedia_strain_CAV1151_plasmid_pCAV1151-215__complete_sequence NODE_47_length_1330_cov_584.962_component_0
		Alignment: 129899 131228 | 1 1330 | 1330 1330 | 100.0 | gi_828933578_gb_CP011600.1__Kluyvera_intermedia_strain_CAV1151_plasmid_pCAV1151-215__complete_sequence NODE_47_length_1330_cov_584.962_component_0
		Alignment: 134349 135678 | 1 1330 | 1330 1330 | 100.0 | gi_828933578_gb_CP011600.1__Kluyvera_intermedia_strain_CAV1151_plasmid_pCAV1151-215__complete_sequence NODE_47_length_1330_cov_584.962_component_0
		Alignment: 152320 153649 | 1 1330 | 1330 1330 | 100.0 | gi_828933578_gb_CP011600.1__Kluyvera_intermedia_strain_CAV1151_plasmid_pCAV1151-215__complete_sequence NODE_47_length_1330_cov_584.962_component_0
		Alignment: 156883 158212 | 1 1330 | 1330 1330 | 100.0 | gi_828933578_gb_CP011600.1__Kluyvera_intermedia_strain_CAV1151_plasmid_pCAV1151-215__complete_sequence NODE_47_length_1330_cov_584.962_component_0
		Alignment: 162083 163412 | 1 1330 | 1330 1330 | 100.0 | gi_828933578_gb_CP011600.1__Kluyvera_intermedia_strain_CAV1151_plasmid_pCAV1151-215__complete_sequence NODE_47_length_1330_cov_584.962_component_0
		Alignment: 168503 169832 | 1330 1 | 1330 1330 | 100.0 | gi_828933578_gb_CP011600.1__Kluyvera_intermedia_strain_CAV1151_plasmid_pCAV1151-215__complete_sequence NODE_47_length_1330_cov_584.962_component_0
		Alignment: 199529 200858 | 1 1330 | 1330 1330 | 100.0 | gi_828933578_gb_CP011600.1__Kluyvera_intermedia_strain_CAV1151_plasmid_pCAV1151-215__complete_sequence NODE_47_length_1330_cov_584.962_component_0

CONTIG: NODE_48_length_1315_cov_128.09_component_0 (1315bp)
		This contig is unaligned. (1315 bp)
		Unaligned bases: 1315  total: 349771

CONTIG: NODE_49_length_1308_cov_97.9025_component_0 (1308bp)
Top Length: 1308  Top ID: 99.85
		Marking as insignificant: 109345 110652 | 1 1308 | 1308 1308 | 98.24 | gi_828933578_gb_CP011600.1__Kluyvera_intermedia_strain_CAV1151_plasmid_pCAV1151-215__complete_sequence NODE_49_length_1308_cov_97.9025_component_0
		One align captures most of this contig: 175383 176690 | 1308 1 | 1308 1308 | 99.85 | gi_828933578_gb_CP011600.1__Kluyvera_intermedia_strain_CAV1151_plasmid_pCAV1151-215__complete_sequence NODE_49_length_1308_cov_97.9025_component_0

CONTIG: NODE_50_length_1198_cov_198.767_component_0 (1198bp)
Top Length: 1198  Top ID: 100.0
		One align captures most of this contig: 182090 183287 | 1198 1 | 1198 1198 | 100.0 | gi_828933578_gb_CP011600.1__Kluyvera_intermedia_strain_CAV1151_plasmid_pCAV1151-215__complete_sequence NODE_50_length_1198_cov_198.767_component_0

CONTIG: NODE_51_length_1004_cov_29.849_component_0 (1004bp)
		This contig is unaligned. (1004 bp)
		Unaligned bases: 1004  total: 350775

CONTIG: NODE_52_length_968_cov_95.33_component_0 (968bp)
		This contig is unaligned. (968 bp)
		Unaligned bases: 968  total: 351743

CONTIG: NODE_53_length_857_cov_57.4474_component_0 (857bp)
Top Length: 857  Top ID: 100.0
		One align captures most of this contig: 139633 140489 | 1 857 | 857 857 | 100.0 | gi_828933578_gb_CP011600.1__Kluyvera_intermedia_strain_CAV1151_plasmid_pCAV1151-215__complete_sequence NODE_53_length_857_cov_57.4474_component_0

CONTIG: NODE_54_length_803_cov_442.584_component_0 (803bp)
Top Length: 803  Top ID: 100.0
		This contig has 3 significant alignments. [An ambiguously mapped contig]
		Using all these alignments (option --ambiguity-usage is set to "all"):
		Alignment: 140413 141215 | 803 1 | 803 803 | 100.0 | gi_828933578_gb_CP011600.1__Kluyvera_intermedia_strain_CAV1151_plasmid_pCAV1151-215__complete_sequence NODE_54_length_803_cov_442.584_component_0
		Alignment: 173881 174683 | 1 803 | 803 803 | 99.63 | gi_828933578_gb_CP011600.1__Kluyvera_intermedia_strain_CAV1151_plasmid_pCAV1151-215__complete_sequence NODE_54_length_803_cov_442.584_component_0
		Alignment: 196956 197758 | 803 1 | 803 803 | 99.63 | gi_828933578_gb_CP011600.1__Kluyvera_intermedia_strain_CAV1151_plasmid_pCAV1151-215__complete_sequence NODE_54_length_803_cov_442.584_component_0

CONTIG: NODE_55_length_750_cov_96.7444_component_0 (750bp)
Top Length: 750  Top ID: 100.0
		One align captures most of this contig: 208453 209202 | 750 1 | 750 750 | 100.0 | gi_828933578_gb_CP011600.1__Kluyvera_intermedia_strain_CAV1151_plasmid_pCAV1151-215__complete_sequence NODE_55_length_750_cov_96.7444_component_0

CONTIG: NODE_56_length_719_cov_109.442_component_0 (719bp)
Top Length: 719  Top ID: 100.0
		One align captures most of this contig: 58705 59423 | 719 1 | 719 719 | 100.0 | gi_828933578_gb_CP011600.1__Kluyvera_intermedia_strain_CAV1151_plasmid_pCAV1151-215__complete_sequence NODE_56_length_719_cov_109.442_component_0

CONTIG: NODE_57_length_671_cov_36.6448_component_0 (671bp)
		This contig is unaligned. (671 bp)
		Unaligned bases: 671  total: 352414

CONTIG: NODE_58_length_637_cov_101.343_component_0 (637bp)
		This contig is unaligned. (637 bp)
		Unaligned bases: 637  total: 353051

CONTIG: NODE_59_length_538_cov_19.6095_component_0 (538bp)
		This contig is unaligned. (538 bp)
		Unaligned bases: 538  total: 353589

CONTIG: NODE_60_length_504_cov_209.183_component_0 (504bp)
Top Length: 504  Top ID: 99.8
		One align captures most of this contig: 150064 150567 | 1 504 | 504 504 | 99.8 | gi_828933578_gb_CP011600.1__Kluyvera_intermedia_strain_CAV1151_plasmid_pCAV1151-215__complete_sequence NODE_60_length_504_cov_209.183_component_0

CONTIG: NODE_61_length_500_cov_84.7707_component_0 (500bp)
		This contig is unaligned. (500 bp)
		Unaligned bases: 500  total: 354089

Analyzing coverage...
Writing SNPs into /home/mmbbio/Plasmid_Assembly/completegenomes/plasmids/CAV1151_plasmids_references/group_3.fasta_comparison_spades/contigs_reports/nucmer_output/prediction.used_snps
	Reference gi_828933578_gb_CP011600.1__Kluyvera_intermedia_strain_CAV1151_plasmid_pCAV1151-215__complete_sequence: 40 total alignments. 1 total regions.
		Region: 1 to 215092 (215092 bp)
			Align 1: 1 10996 NODE_9_length_16963_cov_51.2236_component_0 10996 1
				Negative gap (overlap) between this and next alignment: 10996 to 10920 (-76 bp)
				Next Alignment: 10920 14075 NODE_34_length_3156_cov_123.638_component_0 1 3156

			Previous gap was negative, modifying coordinates to ignore overlap
				Moving contig start from 1 to 78.
			Align 2: 10997 14075 NODE_34_length_3156_cov_123.638_component_0 78 3156
				Negative gap (overlap) between this and next alignment: 14075 to 14073 (-2 bp)
				Next Alignment: 14073 15402 NODE_47_length_1330_cov_584.962_component_0 1330 1

			Previous gap was negative, modifying coordinates to ignore overlap
				Moving contig start from 1330 to 1327.
			Align 3: 14076 15402 NODE_47_length_1330_cov_584.962_component_0 1327 1
				Negative gap (overlap) between this and next alignment: 15402 to 15326 (-76 bp)
				Next Alignment: 15326 24505 NODE_5_length_38788_cov_50.7759_component_0 38788 29609

			Previous gap was negative, modifying coordinates to ignore overlap
				Moving contig start from 38788 to 38711.
			Align 4: 15403 24505 NODE_5_length_38788_cov_50.7759_component_0 38711 29609
				Negative gap (overlap) between this and next alignment: 24505 to 23994 (-511 bp)
				Next Alignment: 23994 54002 NODE_5_length_38788_cov_50.7759_component_0 30009 1

			Previous gap was negative, modifying coordinates to ignore overlap
				Moving contig start from 30009 to 29497.
			Align 5: 24506 54002 NODE_5_length_38788_cov_50.7759_component_0 29497 1
				Negative gap (overlap) between this and next alignment: 54002 to 53926 (-76 bp)
				Next Alignment: 53926 55947 NODE_39_length_2022_cov_50.853_component_0 1 2022

			Previous gap was negative, modifying coordinates to ignore overlap
				Moving contig start from 1 to 78.
			Align 6: 54003 55947 NODE_39_length_2022_cov_50.853_component_0 78 2022
				Negative gap (overlap) between this and next alignment: 55947 to 55871 (-76 bp)
				Next Alignment: 55871 58781 NODE_36_length_2911_cov_52.8246_component_0 2911 1

			Previous gap was negative, modifying coordinates to ignore overlap
				Moving contig start from 2911 to 2834.
			Align 7: 55948 58781 NODE_36_length_2911_cov_52.8246_component_0 2834 1
				Negative gap (overlap) between this and next alignment: 58781 to 58705 (-76 bp)
				Next Alignment: 58705 59423 NODE_56_length_719_cov_109.442_component_0 719 1

			Previous gap was negative, modifying coordinates to ignore overlap
				Moving contig start from 719 to 642.
			Align 8: 58782 59423 NODE_56_length_719_cov_109.442_component_0 642 1
				Negative gap (overlap) between this and next alignment: 59423 to 59347 (-76 bp)
				Next Alignment: 59347 109421 NODE_3_length_50075_cov_54.5094_component_0 1 50075

			Previous gap was negative, modifying coordinates to ignore overlap
				Moving contig start from 1 to 78.
			Align 9: 59424 109421 NODE_3_length_50075_cov_54.5094_component_0 78 50075
				Gap between this and next alignment: 109421 to 110576 (1154 bp)
				Next Alignment: 110576 129975 NODE_8_length_19400_cov_66.8712_component_0 1 19400

			Align 10: 110576 129975 NODE_8_length_19400_cov_66.8712_component_0 1 19400
				The next alignment (120447 122527 NODE_6_length_30499_cov_46.7511_component_0 4597 6677) is redundant. Skipping.
				Negative gap (overlap) between this and next alignment: 129975 to 129899 (-76 bp)
				Next Alignment: 129899 131228 NODE_47_length_1330_cov_584.962_component_0 1 1330

			Previous gap was negative, modifying coordinates to ignore overlap
				Moving contig start from 1 to 78.
			Align 12: 129976 131228 NODE_47_length_1330_cov_584.962_component_0 78 1330
				Negative gap (overlap) between this and next alignment: 131228 to 131152 (-76 bp)
				Next Alignment: 131152 134425 NODE_33_length_3274_cov_46.213_component_0 1 3274

			Previous gap was negative, modifying coordinates to ignore overlap
				Moving contig start from 1 to 78.
			Align 13: 131229 134425 NODE_33_length_3274_cov_46.213_component_0 78 3274
				Negative gap (overlap) between this and next alignment: 134425 to 134349 (-76 bp)
				Next Alignment: 134349 135678 NODE_47_length_1330_cov_584.962_component_0 1 1330

			Previous gap was negative, modifying coordinates to ignore overlap
				Moving contig start from 1 to 78.
			Align 14: 134426 135678 NODE_47_length_1330_cov_584.962_component_0 78 1330
				Negative gap (overlap) between this and next alignment: 135678 to 135650 (-28 bp)
				Next Alignment: 135650 139709 NODE_28_length_4060_cov_78.9601_component_0 4060 1

			Previous gap was negative, modifying coordinates to ignore overlap
				Moving contig start from 4060 to 4031.
			Align 15: 135679 139709 NODE_28_length_4060_cov_78.9601_component_0 4031 1
				Negative gap (overlap) between this and next alignment: 139709 to 139633 (-76 bp)
				Next Alignment: 139633 140489 NODE_53_length_857_cov_57.4474_component_0 1 857

			Previous gap was negative, modifying coordinates to ignore overlap
				Moving contig start from 1 to 78.
			Align 16: 139710 140489 NODE_53_length_857_cov_57.4474_component_0 78 857
				Negative gap (overlap) between this and next alignment: 140489 to 140413 (-76 bp)
				Next Alignment: 140413 141215 NODE_54_length_803_cov_442.584_component_0 803 1

			Previous gap was negative, modifying coordinates to ignore overlap
				Moving contig start from 803 to 726.
			Align 17: 140490 141215 NODE_54_length_803_cov_442.584_component_0 726 1
				Negative gap (overlap) between this and next alignment: 141215 to 141139 (-76 bp)
				Next Alignment: 141139 149774 NODE_14_length_8636_cov_58.2374_component_0 8636 1

			Previous gap was negative, modifying coordinates to ignore overlap
				Moving contig start from 8636 to 8559.
			Align 18: 141216 149774 NODE_14_length_8636_cov_58.2374_component_0 8559 1
				Gap between this and next alignment: 149774 to 150064 (289 bp)
				Next Alignment: 150064 150567 NODE_60_length_504_cov_209.183_component_0 1 504

			Align 19: 150064 150567 NODE_60_length_504_cov_209.183_component_0 1 504
				Negative gap (overlap) between this and next alignment: 150567 to 150546 (-21 bp)
				Next Alignment: 150546 152396 NODE_41_length_1851_cov_55.2475_component_0 1851 1

			Previous gap was negative, modifying coordinates to ignore overlap
				Moving contig start from 1851 to 1829.
			Align 20: 150568 152396 NODE_41_length_1851_cov_55.2475_component_0 1829 1
				Negative gap (overlap) between this and next alignment: 152396 to 152320 (-76 bp)
				Next Alignment: 152320 153649 NODE_47_length_1330_cov_584.962_component_0 1 1330

			Previous gap was negative, modifying coordinates to ignore overlap
				Moving contig start from 1 to 78.
			Align 21: 152397 153649 NODE_47_length_1330_cov_584.962_component_0 78 1330
				Negative gap (overlap) between this and next alignment: 153649 to 153573 (-76 bp)
				Next Alignment: 153573 156959 NODE_32_length_3387_cov_55.223_component_0 1 3387

			Previous gap was negative, modifying coordinates to ignore overlap
				Moving contig start from 1 to 78.
			Align 22: 153650 156959 NODE_32_length_3387_cov_55.223_component_0 78 3387
				Negative gap (overlap) between this and next alignment: 156959 to 156883 (-76 bp)
				Next Alignment: 156883 158212 NODE_47_length_1330_cov_584.962_component_0 1 1330

			Previous gap was negative, modifying coordinates to ignore overlap
				Moving contig start from 1 to 78.
			Align 23: 156960 158212 NODE_47_length_1330_cov_584.962_component_0 78 1330
				Negative gap (overlap) between this and next alignment: 158212 to 158136 (-76 bp)
				Next Alignment: 158136 162159 NODE_29_length_4024_cov_50.2926_component_0 1 4024

			Previous gap was negative, modifying coordinates to ignore overlap
				Moving contig start from 1 to 78.
			Align 24: 158213 162159 NODE_29_length_4024_cov_50.2926_component_0 78 4024
				Negative gap (overlap) between this and next alignment: 162159 to 162083 (-76 bp)
				Next Alignment: 162083 163412 NODE_47_length_1330_cov_584.962_component_0 1 1330

			Previous gap was negative, modifying coordinates to ignore overlap
				Moving contig start from 1 to 78.
			Align 25: 162160 163412 NODE_47_length_1330_cov_584.962_component_0 78 1330
				Negative gap (overlap) between this and next alignment: 163412 to 163336 (-76 bp)
				Next Alignment: 163336 168579 NODE_19_length_5244_cov_50.755_component_0 1 5244

			Previous gap was negative, modifying coordinates to ignore overlap
				Moving contig start from 1 to 78.
			Align 26: 163413 168579 NODE_19_length_5244_cov_50.755_component_0 78 5244
				Negative gap (overlap) between this and next alignment: 168579 to 168503 (-76 bp)
				Next Alignment: 168503 169832 NODE_47_length_1330_cov_584.962_component_0 1330 1

			Previous gap was negative, modifying coordinates to ignore overlap
				Moving contig start from 1330 to 1253.
			Align 27: 168580 169832 NODE_47_length_1330_cov_584.962_component_0 1253 1
				Negative gap (overlap) between this and next alignment: 169832 to 169777 (-55 bp)
				Next Alignment: 169777 173957 NODE_26_length_4181_cov_52.6333_component_0 1 4181

			Previous gap was negative, modifying coordinates to ignore overlap
				Moving contig start from 1 to 57.
			Align 28: 169833 173957 NODE_26_length_4181_cov_52.6333_component_0 57 4181
				Negative gap (overlap) between this and next alignment: 173957 to 173881 (-76 bp)
				Next Alignment: 173881 174683 NODE_54_length_803_cov_442.584_component_0 1 803

			Previous gap was negative, modifying coordinates to ignore overlap
				Moving contig start from 1 to 78.
			Align 29: 173958 174683 NODE_54_length_803_cov_442.584_component_0 78 803
				Gap between this and next alignment: 174683 to 175383 (699 bp)
				Next Alignment: 175383 176690 NODE_49_length_1308_cov_97.9025_component_0 1308 1

			Align 30: 175383 176690 NODE_49_length_1308_cov_97.9025_component_0 1308 1
				Negative gap (overlap) between this and next alignment: 176690 to 176614 (-76 bp)
				Next Alignment: 176614 182166 NODE_18_length_5553_cov_53.198_component_0 1 5553

			Previous gap was negative, modifying coordinates to ignore overlap
				Moving contig start from 1 to 78.
			Align 31: 176691 182166 NODE_18_length_5553_cov_53.198_component_0 78 5553
				Negative gap (overlap) between this and next alignment: 182166 to 182090 (-76 bp)
				Next Alignment: 182090 183287 NODE_50_length_1198_cov_198.767_component_0 1198 1

			Previous gap was negative, modifying coordinates to ignore overlap
				Moving contig start from 1198 to 1121.
			Align 32: 182167 183287 NODE_50_length_1198_cov_198.767_component_0 1121 1
				Negative gap (overlap) between this and next alignment: 183287 to 183211 (-76 bp)
				Next Alignment: 183211 192656 NODE_11_length_13736_cov_55.2457_component_0 1 9446

			Previous gap was negative, modifying coordinates to ignore overlap
				Moving contig start from 1 to 78.
			Align 33: 183288 192656 NODE_11_length_13736_cov_55.2457_component_0 78 9446
				Negative gap (overlap) between this and next alignment: 192656 to 192063 (-593 bp)
				Next Alignment: 192063 197032 NODE_11_length_13736_cov_55.2457_component_0 8767 13736

			Previous gap was negative, modifying coordinates to ignore overlap
				Moving contig start from 8767 to 9361.
			Align 34: 192657 197032 NODE_11_length_13736_cov_55.2457_component_0 9361 13736
				Negative gap (overlap) between this and next alignment: 197032 to 196956 (-76 bp)
				Next Alignment: 196956 197758 NODE_54_length_803_cov_442.584_component_0 803 1

			Previous gap was negative, modifying coordinates to ignore overlap
				Moving contig start from 803 to 726.
			Align 35: 197033 197758 NODE_54_length_803_cov_442.584_component_0 726 1
				Negative gap (overlap) between this and next alignment: 197758 to 197682 (-76 bp)
				Next Alignment: 197682 199605 NODE_40_length_1924_cov_50.8809_component_0 1924 1

			Previous gap was negative, modifying coordinates to ignore overlap
				Moving contig start from 1924 to 1847.
			Align 36: 197759 199605 NODE_40_length_1924_cov_50.8809_component_0 1847 1
				Negative gap (overlap) between this and next alignment: 199605 to 199529 (-76 bp)
				Next Alignment: 199529 200858 NODE_47_length_1330_cov_584.962_component_0 1 1330

			Previous gap was negative, modifying coordinates to ignore overlap
				Moving contig start from 1 to 78.
			Align 37: 199606 200858 NODE_47_length_1330_cov_584.962_component_0 78 1330
				Negative gap (overlap) between this and next alignment: 200858 to 200782 (-76 bp)
				Next Alignment: 200782 208529 NODE_15_length_7748_cov_51.0284_component_0 1 7748

			Previous gap was negative, modifying coordinates to ignore overlap
				Moving contig start from 1 to 78.
			Align 38: 200859 208529 NODE_15_length_7748_cov_51.0284_component_0 78 7748
				Negative gap (overlap) between this and next alignment: 208529 to 208453 (-76 bp)
				Next Alignment: 208453 209202 NODE_55_length_750_cov_96.7444_component_0 750 1

			Previous gap was negative, modifying coordinates to ignore overlap
				Moving contig start from 750 to 673.
			Align 39: 208530 209202 NODE_55_length_750_cov_96.7444_component_0 673 1
				Negative gap (overlap) between this and next alignment: 209202 to 209126 (-76 bp)
				Next Alignment: 209126 215092 NODE_9_length_16963_cov_51.2236_component_0 16963 10997

			Previous gap was negative, modifying coordinates to ignore overlap
				Moving contig start from 16963 to 16886.
			Align 40: 209203 215092 NODE_9_length_16963_cov_51.2236_component_0 16886 10997
			END in current alignment.  Modifying 215092 to 215092.

Analysis is finished!
Founded SNPs were written into /home/mmbbio/Plasmid_Assembly/completegenomes/plasmids/CAV1151_plasmids_references/group_3.fasta_comparison_spades/contigs_reports/nucmer_output/prediction.used_snps

Results:
	Local Misassemblies: 2
	Misassemblies: 0
		Relocations: 0
		Translocations: 0
		Inversions: 0
	Misassembled Contigs: 0
	Misassembled Contig Bases: 0
	Misassemblies Inter-Contig Overlap: 86
Uncovered Regions: 0 (0)
Unaligned Contigs: 33 + 1 part
Partially Unaligned Contigs with Misassemblies: 0
Unaligned Contig Bases: 382507

Ambiguously Mapped Contigs: 2
Extra Bases in Ambiguously Mapped Contigs: 10916
Note that --allow-ambiguity option was set to "all" and each of these contigs was used several times.

	Covered Bases: 212950

	SNPs: 66
	Insertions: 1
	Deletions: 1

	Positive Gaps: 3
		Internal Gaps:  0
		External Gaps:  3
		External Gap Total:  2142
		External Gap Average: 714
	Negative Gaps: 35
		Internal Overlaps:  2
		External Overlaps:  33
		External Overlaps Total: -2310
		External Overlaps Average: -70
	Contigs with Redundant Alignments: 1 (2081)
