Aligning contigs to reference...
	Running Nucmer
Parsing coords...
Loading reference...
	Loaded [gi_828945376_gb_CP011615.1__Klebsiella_oxytoca_strain_CAV1335_plasmid_pKPC_CAV1335__complete_sequence]
Loading SNPs...
Loading regions...
	No regions given, using whole reference.
	Total Regions: 1
	Total Region Length: 113105
Analyzing contigs...
CONTIG: NODE_26_length_103961_cov_31.3807 (103961bp)
Top Length: 98923  Top ID: 100.0
		This contig is misassembled. 2 total aligns.
			Real Alignment 1: 108068 113105 | 1 5038 | 5038 5038 | 100.0 | gi_828945376_gb_CP011615.1__Klebsiella_oxytoca_strain_CAV1335_plasmid_pKPC_CAV1335__complete_sequence NODE_26_length_103961_cov_31.3807
			  Fake misassembly (caused by linear representation of circular genome) between these two alignments
			Real Alignment 2: 1 98923 | 5039 103961 | 98923 98923 | 100.0 | gi_828945376_gb_CP011615.1__Klebsiella_oxytoca_strain_CAV1335_plasmid_pKPC_CAV1335__complete_sequence NODE_26_length_103961_cov_31.3807

CONTIG: NODE_35_length_61605_cov_37.2952 (61605bp)
		This contig is unaligned. (61605 bp)
		Unaligned bases: 61605  total: 61605

Analyzing coverage...
Writing SNPs into /home/mmbbio/Plasmid_Assembly/completegenomes/plasmids/CAV1335_plasmids_references/group_3.fasta_comparison_plasmidfinder/contigs_reports/nucmer_output/prediction.used_snps
	Reference gi_828945376_gb_CP011615.1__Klebsiella_oxytoca_strain_CAV1335_plasmid_pKPC_CAV1335__complete_sequence: 2 total alignments. 1 total regions.
		Region: 1 to 113105 (113105 bp)
			Align 1: 1 98923 NODE_26_length_103961_cov_31.3807 5039 103961
				Gap between this and next alignment: 98923 to 108068 (9144 bp)
				Next Alignment: 108068 113105 NODE_26_length_103961_cov_31.3807 1 5038

			Align 2: 108068 113105 NODE_26_length_103961_cov_31.3807 1 5038
			END in current alignment.  Modifying 113105 to 113105.

Analysis is finished!
Founded SNPs were written into /home/mmbbio/Plasmid_Assembly/completegenomes/plasmids/CAV1335_plasmids_references/group_3.fasta_comparison_plasmidfinder/contigs_reports/nucmer_output/prediction.used_snps

Results:
	Local Misassemblies: 0
	Misassemblies: 0
		Relocations: 0
		Translocations: 0
		Inversions: 0
	Misassembled Contigs: 0
	Misassembled Contig Bases: 0
	Misassemblies Inter-Contig Overlap: 0
Uncovered Regions: 0 (0)
Unaligned Contigs: 1 + 0 part
Partially Unaligned Contigs with Misassemblies: 0
Unaligned Contig Bases: 61605

Ambiguously Mapped Contigs: 0
Extra Bases in Ambiguously Mapped Contigs: 0
Note that --allow-ambiguity option was set to "all" and each of these contigs was used several times.

	Covered Bases: 103961

	SNPs: 0
	Insertions: 0
	Deletions: 0

	Positive Gaps: 1
		Internal Gaps:  1
		External Gaps:  0
		External Gap Total:  0
		External Gap Average: 0
	Negative Gaps: 0
		Internal Overlaps:  0
		External Overlaps:  0
		External Overlaps Total:  0
		External Overlaps Average: 0
	Contigs with Redundant Alignments: 0 (0)
