Assembly	prediction
# contigs (>= 0 bp)	14
# contigs (>= 1000 bp)	10
# contigs (>= 5000 bp)	7
# contigs (>= 10000 bp)	7
# contigs (>= 25000 bp)	4
# contigs (>= 50000 bp)	3
Total length (>= 0 bp)	314201
Total length (>= 1000 bp)	311448
Total length (>= 5000 bp)	303610
Total length (>= 10000 bp)	303610
Total length (>= 25000 bp)	268944
Total length (>= 50000 bp)	219653
# contigs	14
Largest contig	94266
Total length	314201
Reference length	142858
GC (%)	51.65
Reference GC (%)	52.45
N50	74234
NG50	94266
N75	49291
NG75	74234
L50	2
LG50	1
L75	4
LG75	2
# misassemblies	0
# misassembled contigs	0
Misassembled contigs length	0
# local misassemblies	0
# unaligned contigs	6 + 1 part
Unaligned length	208638
Genome fraction (%)	80.199
Duplication ratio	1.009
# N's per 100 kbp	0.00
# mismatches per 100 kbp	6.98
# indels per 100 kbp	1.75
Largest alignment	74234
NGA50	74234
LGA50	1
