S1	E1	S2	E2	Reference	Contig	IDY	Ambiguous
CONTIG	NODE_34_length_49338_cov_66.1672	49338	unaligned
CONTIG	NODE_36_length_45180_cov_65.9048	45180	unaligned
CONTIG	NODE_37_length_39781_cov_100.513	39781	unaligned
20636	21248	22165	22777	gi_749295309_ref_NZ_CP008898.1__Enterobacter_cloacae_ECNIH3_plasmid_pENT-576__complete_sequence	NODE_44_length_28276_cov_161.526	100.0	
CONTIG	NODE_44_length_28276_cov_161.526	28276	correct
CONTIG	NODE_45_length_27522_cov_57.2553	27522	unaligned
38450	60086	1	21637	gi_749295309_ref_NZ_CP008898.1__Enterobacter_cloacae_ECNIH3_plasmid_pENT-576__complete_sequence	NODE_51_length_21637_cov_104.486	100.0	
CONTIG	NODE_51_length_21637_cov_104.486	21637	correct
CONTIG	NODE_52_length_21176_cov_104.95	21176	unaligned
CONTIG	NODE_53_length_20884_cov_61.8582	20884	unaligned
7996	20638	1	12643	gi_749295309_ref_NZ_CP008898.1__Enterobacter_cloacae_ECNIH3_plasmid_pENT-576__complete_sequence	NODE_56_length_16585_cov_91.6079	100.0	
relocation, inconsistency = -20630
1	3362	15997	12636	gi_749295309_ref_NZ_CP008898.1__Enterobacter_cloacae_ECNIH3_plasmid_pENT-576__complete_sequence	NODE_56_length_16585_cov_91.6079	100.0	
fake misassembly (linear representation of circular genome)
61660	62247	16585	15998	gi_749295309_ref_NZ_CP008898.1__Enterobacter_cloacae_ECNIH3_plasmid_pENT-576__complete_sequence	NODE_56_length_16585_cov_91.6079	100.0	
CONTIG	NODE_56_length_16585_cov_91.6079	16585	misassembled
21382	37835	1	16454	gi_749295309_ref_NZ_CP008898.1__Enterobacter_cloacae_ECNIH3_plasmid_pENT-576__complete_sequence	NODE_57_length_16454_cov_93.1849	100.0	
CONTIG	NODE_57_length_16454_cov_93.1849	16454	correct
CONTIG	NODE_60_length_10692_cov_146.185	10692	unaligned
CONTIG	NODE_61_length_9581_cov_48.6332	9581	unaligned
CONTIG	NODE_63_length_8569_cov_157.771	8569	unaligned
CONTIG	NODE_67_length_4615_cov_41.6569	4615	unaligned
CONTIG	NODE_70_length_3616_cov_70.1012	3616	unaligned
CONTIG	NODE_73_length_2882_cov_70.077	2882	unaligned
CONTIG	NODE_75_length_2829_cov_81.6166	2829	unaligned
CONTIG	NODE_81_length_1384_cov_59.7399	1384	unaligned
60010	60917	1	908	gi_749295309_ref_NZ_CP008898.1__Enterobacter_cloacae_ECNIH3_plasmid_pENT-576__complete_sequence	NODE_88_length_908_cov_194.045	100.0	
CONTIG	NODE_88_length_908_cov_194.045	908	correct
37759	38526	768	1	gi_749295309_ref_NZ_CP008898.1__Enterobacter_cloacae_ECNIH3_plasmid_pENT-576__complete_sequence	NODE_90_length_768_cov_208.92	99.09	
CONTIG	NODE_90_length_768_cov_208.92	768	correct
