S1	E1	S2	E2	Reference	Contig	IDY	Ambiguous
79274	88023	1	8750	gi_1039515084_ref_NZ_CP015161.1__Escherichia_coli_strain_Eco889_plasmid_pECO-93a__complete_sequence	NODE_19_length_54395_cov_183.646	100.0	
fake misassembly (linear representation of circular genome)
1	45645	8751	54395	gi_1039515084_ref_NZ_CP015161.1__Escherichia_coli_strain_Eco889_plasmid_pECO-93a__complete_sequence	NODE_19_length_54395_cov_183.646	99.99	
CONTIG	NODE_19_length_54395_cov_183.646	54395	correct
46950	77476	30634	111	gi_1039515084_ref_NZ_CP015161.1__Escherichia_coli_strain_Eco889_plasmid_pECO-93a__complete_sequence	NODE_23_length_30634_cov_232.928	99.99	
CONTIG	NODE_23_length_30634_cov_232.928	30634	correct
50529	51249	15299	14579	gi_1039515084_ref_NZ_CP015161.1__Escherichia_coli_strain_Eco889_plasmid_pECO-93a__complete_sequence	NODE_26_length_19916_cov_285.106	95.01	
CONTIG	NODE_26_length_19916_cov_285.106	19916	correct
CONTIG	NODE_28_length_16874_cov_294.376	16874	unaligned
CONTIG	NODE_30_length_14876_cov_540.745	14876	unaligned
CONTIG	NODE_37_length_10671_cov_263.382	10671	unaligned
CONTIG	NODE_38_length_10220_cov_217.204	10220	unaligned
CONTIG	NODE_41_length_6805_cov_202.176	6805	unaligned
CONTIG	NODE_42_length_6682_cov_270.097	6682	unaligned
CONTIG	NODE_43_length_6536_cov_287.663	6536	unaligned
CONTIG	NODE_44_length_6509_cov_262.51	6509	unaligned
CONTIG	NODE_45_length_5033_cov_312.327	5033	unaligned
CONTIG	NODE_46_length_5017_cov_267.988	5017	unaligned
CONTIG	NODE_51_length_4284_cov_527.882	4284	unaligned
CONTIG	NODE_52_length_4191_cov_227.157	4191	unaligned
CONTIG	NODE_59_length_2648_cov_337.562	2648	unaligned
CONTIG	NODE_60_length_2590_cov_304.04	2590	unaligned
44950	45510	2	562	gi_1039515084_ref_NZ_CP015161.1__Escherichia_coli_strain_Eco889_plasmid_pECO-93a__complete_sequence	NODE_61_length_2590_cov_295.324	95.9	
CONTIG	NODE_61_length_2590_cov_295.324	2590	correct
45519	47076	1	1558	gi_1039515084_ref_NZ_CP015161.1__Escherichia_coli_strain_Eco889_plasmid_pECO-93a__complete_sequence	NODE_78_length_1558_cov_475.069	99.1	
CONTIG	NODE_78_length_1558_cov_475.069	1558	correct
CONTIG	NODE_79_length_1548_cov_260.517	1548	unaligned
CONTIG	NODE_84_length_1385_cov_255.953	1385	unaligned
CONTIG	NODE_85_length_1384_cov_281.555	1384	unaligned
CONTIG	NODE_92_length_1085_cov_476.144	1085	unaligned
CONTIG	NODE_96_length_985_cov_730.775	985	unaligned
78523	79400	878	1	gi_1039515084_ref_NZ_CP015161.1__Escherichia_coli_strain_Eco889_plasmid_pECO-93a__complete_sequence	NODE_99_length_878_cov_253.585	100.0	
CONTIG	NODE_99_length_878_cov_253.585	878	correct
CONTIG	NODE_101_length_841_cov_508.478	841	unaligned
CONTIG	NODE_104_length_758_cov_414.862	758	unaligned
CONTIG	NODE_107_length_702_cov_383.134	702	unaligned
CONTIG	NODE_109_length_687_cov_257.632	687	unaligned
CONTIG	NODE_110_length_682_cov_252.852	682	unaligned
CONTIG	NODE_118_length_615_cov_317.254	615	unaligned
CONTIG	NODE_121_length_610_cov_444.046	610	unaligned
CONTIG	NODE_131_length_556_cov_373.72	556	unaligned
CONTIG	NODE_132_length_555_cov_302.119	555	unaligned
CONTIG	NODE_133_length_547_cov_248.019	547	unaligned
CONTIG	NODE_136_length_541_cov_233.444	541	unaligned
CONTIG	NODE_147_length_505_cov_1334.57	505	unaligned
