Assembly	prediction
# contigs (>= 0 bp)	3
# contigs (>= 1000 bp)	3
# contigs (>= 5000 bp)	2
# contigs (>= 10000 bp)	1
# contigs (>= 25000 bp)	0
# contigs (>= 50000 bp)	0
Total length (>= 0 bp)	20349
Total length (>= 1000 bp)	20349
Total length (>= 5000 bp)	17848
Total length (>= 10000 bp)	12462
Total length (>= 25000 bp)	0
Total length (>= 50000 bp)	0
# contigs	3
Largest contig	12462
Total length	20349
Reference length	39138
GC (%)	34.29
Reference GC (%)	35.54
N50	12462
NG50	2501
N75	5386
L50	1
LG50	3
L75	2
# unaligned contigs	3 + 0 part
Unaligned length	20349
# N's per 100 kbp	0.00
NGA50	-
