Assembly	prediction
# contigs (>= 0 bp)	115
# contigs (>= 1000 bp)	35
# contigs (>= 5000 bp)	20
# contigs (>= 10000 bp)	9
# contigs (>= 25000 bp)	3
# contigs (>= 50000 bp)	1
Total length (>= 0 bp)	354807
Total length (>= 1000 bp)	336388
Total length (>= 5000 bp)	304674
Total length (>= 10000 bp)	223045
Total length (>= 25000 bp)	136032
Total length (>= 50000 bp)	57992
# contigs	47
Largest contig	57992
Total length	344500
Reference length	96842
GC (%)	51.52
Reference GC (%)	51.39
N50	14356
NG50	57992
N75	7975
NG75	45161
L50	5
LG50	1
L75	13
LG75	2
# misassemblies	0
# misassembled contigs	0
Misassembled contigs length	0
# local misassemblies	0
# unaligned contigs	29 + 3 part
Unaligned length	248427
Genome fraction (%)	97.529
Duplication ratio	1.017
# N's per 100 kbp	0.00
# mismatches per 100 kbp	63.53
# indels per 100 kbp	0.00
Largest alignment	32879
NGA50	7207
NGA75	5895
LGA50	3
LGA75	7
