Assembly	prediction
# contigs (>= 0 bp)	25
# contigs (>= 1000 bp)	19
# contigs (>= 5000 bp)	10
# contigs (>= 10000 bp)	8
# contigs (>= 25000 bp)	4
# contigs (>= 50000 bp)	3
Total length (>= 0 bp)	368287
Total length (>= 1000 bp)	364419
Total length (>= 5000 bp)	334167
Total length (>= 10000 bp)	319471
Total length (>= 25000 bp)	268944
Total length (>= 50000 bp)	219653
# contigs	24
Largest contig	94266
Total length	367878
Reference length	142858
GC (%)	51.82
Reference GC (%)	52.45
N50	51153
NG50	94266
N75	15861
NG75	74234
L50	3
LG50	1
L75	5
LG75	2
# misassemblies	0
# misassembled contigs	0
Misassembled contigs length	0
# local misassemblies	0
# unaligned contigs	13 + 1 part
Unaligned length	235583
Genome fraction (%)	99.640
Duplication ratio	1.009
# N's per 100 kbp	0.00
# mismatches per 100 kbp	5.62
# indels per 100 kbp	1.41
Largest alignment	74234
NGA50	74234
NGA75	10524
LGA50	1
LGA75	4
