S1	E1	S2	E2	Reference	Contig	IDY	Ambiguous
2478	10534	8057	1	gi_556555179_ref_NC_022651.1__Escherichia_coli_JJ1886_plasmid_pJJ1886_5__complete_sequence	NODE_56_length_8057_cov_29.4494	100.0	
CONTIG	NODE_56_length_8057_cov_29.4494	8057	correct
34915	47896	1	12982	gi_556555179_ref_NC_022651.1__Escherichia_coli_JJ1886_plasmid_pJJ1886_5__complete_sequence	NODE_44_length_12982_cov_25.9024	100.0	
CONTIG	NODE_44_length_12982_cov_25.9024	12982	correct
