Assembly	prediction
# contigs (>= 0 bp)	87
# contigs (>= 1000 bp)	39
# contigs (>= 5000 bp)	17
# contigs (>= 10000 bp)	9
# contigs (>= 25000 bp)	6
# contigs (>= 50000 bp)	3
Total length (>= 0 bp)	544013
Total length (>= 1000 bp)	529888
Total length (>= 5000 bp)	475351
Total length (>= 10000 bp)	417373
Total length (>= 25000 bp)	372990
Total length (>= 50000 bp)	279491
# contigs	49
Largest contig	111574
Total length	537052
Reference length	5410
GC (%)	51.35
Reference GC (%)	52.22
N50	63957
NG50	111574
N75	14425
NG75	111574
L50	3
LG50	1
L75	8
LG75	1
# misassemblies	0
# misassembled contigs	0
Misassembled contigs length	0
# local misassemblies	0
# unaligned contigs	48 + 0 part
Unaligned length	531565
Genome fraction (%)	100.000
Duplication ratio	1.014
# N's per 100 kbp	0.00
# mismatches per 100 kbp	0.00
# indels per 100 kbp	0.00
Largest alignment	5487
NGA50	5487
NGA75	5487
LGA50	1
LGA75	1
