S1	E1	S2	E2	Reference	Contig	IDY	Ambiguous
CONTIG	NODE_19_length_112462_cov_61.518	112462	unaligned
34907	111395	1	76489	gi_828927201_gb_CP011594.1__Klebsiella_oxytoca_strain_CAV1099_plasmid_pCAV1099-111__complete_sequence	NODE_20_length_111472_cov_36.0773	100.0	
fake misassembly (linear representation of circular genome)
1	34983	76490	111472	gi_828927201_gb_CP011594.1__Klebsiella_oxytoca_strain_CAV1099_plasmid_pCAV1099-111__complete_sequence	NODE_20_length_111472_cov_36.0773	100.0	
CONTIG	NODE_20_length_111472_cov_36.0773	111472	correct
CONTIG	NODE_33_length_59208_cov_69.3908	59208	unaligned
CONTIG	NODE_48_length_26059_cov_35.7735	26059	unaligned
CONTIG	NODE_53_length_20939_cov_42.0628	20939	unaligned
CONTIG	NODE_57_length_9081_cov_41.1851	9081	unaligned
CONTIG	NODE_62_length_6406_cov_39.9374	6406	unaligned
CONTIG	NODE_66_length_5487_cov_180.899	5487	unaligned
CONTIG	NODE_69_length_4813_cov_178.66	4813	unaligned
CONTIG	NODE_74_length_3760_cov_78.4073	3760	unaligned
CONTIG	NODE_76_length_3490_cov_38.3777	3490	unaligned
CONTIG	NODE_82_length_2878_cov_38.9154	2878	unaligned
CONTIG	NODE_85_length_2362_cov_35.5282	2362	unaligned
CONTIG	NODE_87_length_2145_cov_69.0309	2145	unaligned
CONTIG	NODE_88_length_2120_cov_60.2075	2120	unaligned
CONTIG	NODE_100_length_1261_cov_148.476	1261	unaligned
CONTIG	NODE_104_length_1122_cov_36.999	1122	unaligned
CONTIG	NODE_107_length_1062_cov_224.837	1062	unaligned
CONTIG	NODE_110_length_911_cov_64.3094	911	unaligned
CONTIG	NODE_114_length_797_cov_209.658	797	unaligned
CONTIG	NODE_118_length_692_cov_24.7821	692	unaligned
