Aligning contigs to reference...
	Running Nucmer
Parsing coords...
Loading reference...
	Loaded [gi_828905996_gb_CP011577.1__Klebsiella_pneumoniae_strain_CAV1392_plasmid_pCAV1392-131__complete_sequence]
Loading SNPs...
Loading regions...
	No regions given, using whole reference.
	Total Regions: 1
	Total Region Length: 130719
Analyzing contigs...
CONTIG: NODE_35_length_43698_cov_118.975 (43698bp)
		This contig is unaligned. (43698 bp)
		Unaligned bases: 43698  total: 43698

CONTIG: NODE_54_length_5835_cov_87.2015 (5835bp)
		This contig is unaligned. (5835 bp)
		Unaligned bases: 5835  total: 49533

CONTIG: NODE_31_length_65173_cov_50.4139 (65173bp)
Top Length: 49946  Top ID: 99.98
		This contig is misassembled. 2 total aligns.
			Real Alignment 1: 73418 89243 | 15825 1 | 15826 15825 | 99.99 | gi_828905996_gb_CP011577.1__Klebsiella_pneumoniae_strain_CAV1392_plasmid_pCAV1392-131__complete_sequence NODE_31_length_65173_cov_50.4139
			  Extensive misassembly ( relocation, inconsistency = 2788 ) between these two alignments
			Real Alignment 2: 21282 71227 | 65173 15228 | 49946 49946 | 99.98 | gi_828905996_gb_CP011577.1__Klebsiella_pneumoniae_strain_CAV1392_plasmid_pCAV1392-131__complete_sequence NODE_31_length_65173_cov_50.4139

CONTIG: NODE_48_length_16579_cov_59.4073 (16579bp)
Top Length: 16579  Top ID: 100.0
		Marking as insignificant: 95433 105508 | 1 10033 | 10076 10033 | 99.57 | gi_828905996_gb_CP011577.1__Klebsiella_pneumoniae_strain_CAV1392_plasmid_pCAV1392-131__complete_sequence NODE_48_length_16579_cov_59.4073
		One align captures most of this contig: 95476 112054 | 1 16579 | 16579 16579 | 100.0 | gi_828905996_gb_CP011577.1__Klebsiella_pneumoniae_strain_CAV1392_plasmid_pCAV1392-131__complete_sequence NODE_48_length_16579_cov_59.4073

Analyzing coverage...
Writing SNPs into /home/mmbbio/Plasmid_Assembly/completegenomes/plasmids/CAV1392_plasmids_references/group_3.fasta_comparison_plasmidfinder/contigs_reports/nucmer_output/prediction.used_snps
	Reference gi_828905996_gb_CP011577.1__Klebsiella_pneumoniae_strain_CAV1392_plasmid_pCAV1392-131__complete_sequence: 3 total alignments. 1 total regions.
		Region: 1 to 130719 (130719 bp)
			START in gap: 1 to 21282 (21281 bp)
			Align 1: 21282 71227 NODE_31_length_65173_cov_50.4139 65173 15228
				Gap between this and next alignment: 71227 to 73418 (2190 bp)
				Next Alignment: 73418 89243 NODE_31_length_65173_cov_50.4139 15825 1

			Align 2: 73418 89243 NODE_31_length_65173_cov_50.4139 15825 1
				Gap between this and next alignment: 89243 to 95476 (6232 bp)
				Next Alignment: 95476 112054 NODE_48_length_16579_cov_59.4073 1 16579

			Align 3: 95476 112054 NODE_48_length_16579_cov_59.4073 1 16579
			END in gap: 112054 to 130719 (18665 bp)

Analysis is finished!
Founded SNPs were written into /home/mmbbio/Plasmid_Assembly/completegenomes/plasmids/CAV1392_plasmids_references/group_3.fasta_comparison_plasmidfinder/contigs_reports/nucmer_output/prediction.used_snps

Results:
	Local Misassemblies: 0
	Misassemblies: 1
		Relocations: 1
		Translocations: 0
		Inversions: 0
	Misassembled Contigs: 1
	Misassembled Contig Bases: 65173
	Misassemblies Inter-Contig Overlap: 598
Uncovered Regions: 0 (0)
Unaligned Contigs: 2 + 0 part
Partially Unaligned Contigs with Misassemblies: 0
Unaligned Contig Bases: 49533

Ambiguously Mapped Contigs: 0
Extra Bases in Ambiguously Mapped Contigs: 0
Note that --allow-ambiguity option was set to "all" and each of these contigs was used several times.

	Covered Bases: 82351

	SNPs: 8
	Insertions: 0
	Deletions: 4

	Positive Gaps: 4
		Internal Gaps:  1
		External Gaps:  3
		External Gap Total:  46178
		External Gap Average: 15393
	Negative Gaps: 0
		Internal Overlaps:  0
		External Overlaps:  0
		External Overlaps Total:  0
		External Overlaps Average: 0
	Contigs with Redundant Alignments: 0 (0)
