Assembly	prediction
# fully unaligned contigs	18
Fully unaligned length	292595
# partially unaligned contigs	3
    # with misassembly	0
    # both parts are significant	3
Partially unaligned length	46102
# N's	228
