All statistics are based on contigs of size >= 500 bp, unless otherwise noted (e.g., "# contigs (>= 0 bp)" and "Total length (>= 0 bp)" include all contigs).

Assembly    # contigs (>= 0 bp)  # contigs (>= 1000 bp)  # contigs (>= 5000 bp)  # contigs (>= 10000 bp)  # contigs (>= 25000 bp)  # contigs (>= 50000 bp)  Total length (>= 0 bp)  Total length (>= 1000 bp)  Total length (>= 5000 bp)  Total length (>= 10000 bp)  Total length (>= 25000 bp)  Total length (>= 50000 bp)  # contigs  Largest contig  Total length  Reference length  GC (%)  Reference GC (%)  N50     NG50    N75    NG75    L50  LG50  L75  LG75  # misassemblies  # misassembled contigs  Misassembled contigs length  # local misassemblies  # unaligned contigs  Unaligned length  Genome fraction (%)  Duplication ratio  # N's per 100 kbp  # mismatches per 100 kbp  # indels per 100 kbp  Largest alignment  NA50    NGA50   NGA75   LA50  LGA50  LGA75
prediction  5                    5                       5                       5                        3                        1                        229640                  229640                     229640                     229640                      191349                      125842                      5          125842          229640        166486            51.19   52.44             125842  125842  30831  125842  1    1     3    1     0                0                       0                            0                      4 + 0 part           103798            75.587               1.000              0.00               0.79                      0.00                  125842             125842  125842  125842  1     1      1    
