42 Nucmer: nothing aligned for /home/mmbbio/Plasmid_Assembly/completegenomes/plasmids/Corynebacterium_callunae_DSM_20147_plasmids_references/group_2.fasta_comparison_recycler/quast_corrected_input/recycler_SRR933489_assembly_graph.cycs.fasta
nucmer_output/recycler_SRR933489_assembly_graph.cycs.ntref" of length 85024
# construct suffix tree for sequence of length 85024
# (maximum reference length is 536870908)
# (maximum query length is 4294967295)
# CONSTRUCTIONTIME /home/mmbbio/Plasmid_Assembly/programmes/quast-4.1/libs/MUMmer3.23-linux/mummer /home/mmbbio/Plasmid_Assembly/completegenomes/plasmids/Corynebacterium_callunae_DSM_20147_plasmids_references/group_2.fasta_comparison_recycler/contigs_reports/nucmer_output/recycler_SRR933489_assembly_graph.cycs.ntref 0.01
# reading input file "/home/mmbbio/Plasmid_Assembly/completegenomes/plasmids/Corynebacterium_callunae_DSM_20147_plasmids_references/group_2.fasta_comparison_recycler/quast_corrected_input/recycler_SRR933489_assembly_graph.cycs.fasta" of length 87090
# matching query-file "/home/mmbbio/Plasmid_Assembly/completegenomes/plasmids/Corynebacterium_callunae_DSM_20147_plasmids_references/group_2.fasta_comparison_recycler/quast_corrected_input/recycler_SRR933489_assembly_graph.cycs.fasta"
# against subject-file "/home/mmbbio/Plasmid_Assembly/completegenomes/plasmids/Corynebacterium_callunae_DSM_20147_plasmids_references/group_2.fasta_comparison_recycler/contigs_reports/nucmer_output/recycler_SRR933489_assembly_graph.cycs.ntref"
# COMPLETETIME /home/mmbbio/Plasmid_Assembly/programmes/quast-4.1/libs/MUMmer3.23-linux/mummer /home/mmbbio/Plasmid_Assembly/completegenomes/plasmids/Corynebacterium_callunae_DSM_20147_plasmids_references/group_2.fasta_comparison_recycler/contigs_reports/nucmer_output/recycler_SRR933489_assembly_graph.cycs.ntref 0.03
# SPACE /home/mmbbio/Plasmid_Assembly/programmes/quast-4.1/libs/MUMmer3.23-linux/mummer /home/mmbbio/Plasmid_Assembly/completegenomes/plasmids/Corynebacterium_callunae_DSM_20147_plasmids_references/group_2.fasta_comparison_recycler/contigs_reports/nucmer_output/recycler_SRR933489_assembly_graph.cycs.ntref 0.17
4: FINISHING DATA
