Nucmer: nothing aligned for /home/mmbbio/Plasmid_Assembly/completegenomes/plasmids/ECR091_plasmids_references/group_2.fasta_comparison_recycler/quast_corrected_input/prediction.fas
parison_recycler/contigs_reports/nucmer_output/prediction.ntref" of length 111228
# construct suffix tree for sequence of length 111228
# (maximum reference length is 536870908)
# (maximum query length is 4294967295)
# process 1112 characters per dot
#....................................................................................................
# CONSTRUCTIONTIME /home/mmbbio/Plasmid_Assembly/programmes/quast-4.1/libs/MUMmer3.23-linux/mummer /home/mmbbio/Plasmid_Assembly/completegenomes/plasmids/ECR091_plasmids_references/group_2.fasta_comparison_recycler/contigs_reports/nucmer_output/prediction.ntref 0.01
# reading input file "/home/mmbbio/Plasmid_Assembly/completegenomes/plasmids/ECR091_plasmids_references/group_2.fasta_comparison_recycler/quast_corrected_input/prediction.fas" of length 94564
# matching query-file "/home/mmbbio/Plasmid_Assembly/completegenomes/plasmids/ECR091_plasmids_references/group_2.fasta_comparison_recycler/quast_corrected_input/prediction.fas"
# against subject-file "/home/mmbbio/Plasmid_Assembly/completegenomes/plasmids/ECR091_plasmids_references/group_2.fasta_comparison_recycler/contigs_reports/nucmer_output/prediction.ntref"
# COMPLETETIME /home/mmbbio/Plasmid_Assembly/programmes/quast-4.1/libs/MUMmer3.23-linux/mummer /home/mmbbio/Plasmid_Assembly/completegenomes/plasmids/ECR091_plasmids_references/group_2.fasta_comparison_recycler/contigs_reports/nucmer_output/prediction.ntref 0.04
# SPACE /home/mmbbio/Plasmid_Assembly/programmes/quast-4.1/libs/MUMmer3.23-linux/mummer /home/mmbbio/Plasmid_Assembly/completegenomes/plasmids/ECR091_plasmids_references/group_2.fasta_comparison_recycler/contigs_reports/nucmer_output/prediction.ntref 0.20
4: FINISHING DATA
