S1	E1	S2	E2	Reference	Contig	IDY	Ambiguous
CONTIG	NODE_39_length_34880_cov_80.3536	34880	unaligned
CONTIG	NODE_54_length_22109_cov_70.3878	22109	unaligned
CONTIG	NODE_62_length_13551_cov_64.9201	13551	unaligned
CONTIG	NODE_63_length_12757_cov_70.2397	12757	unaligned
CONTIG	NODE_64_length_12423_cov_40.7965	12423	unaligned
CONTIG	NODE_66_length_10713_cov_72.4625	10713	unaligned
CONTIG	NODE_69_length_9509_cov_72.4271	9509	unaligned
CONTIG	NODE_70_length_9133_cov_73.1019	9133	unaligned
CONTIG	NODE_72_length_7975_cov_43.1421	7975	unaligned
59422	67089	1	7668	gi_828922004_gb_CP011590.1__Enterobacter_asburiae_strain_CAV1043_plasmid_pCAV1043-97__complete_sequence	NODE_73_length_7668_cov_35.0908	99.97	
CONTIG	NODE_73_length_7668_cov_35.0908	7668	correct
18937	26474	1	7538	gi_828922004_gb_CP011590.1__Enterobacter_asburiae_strain_CAV1043_plasmid_pCAV1043-97__complete_sequence	NODE_74_length_7538_cov_44.8467	100.0	
CONTIG	NODE_74_length_7538_cov_44.8467	7538	correct
42316	48969	6654	1	gi_828922004_gb_CP011590.1__Enterobacter_asburiae_strain_CAV1043_plasmid_pCAV1043-97__complete_sequence	NODE_76_length_6654_cov_39.9748	100.0	
CONTIG	NODE_76_length_6654_cov_39.9748	6654	correct
32439	38805	1	6367	gi_828922004_gb_CP011590.1__Enterobacter_asburiae_strain_CAV1043_plasmid_pCAV1043-97__complete_sequence	NODE_80_length_6367_cov_37.3493	100.0	
CONTIG	NODE_80_length_6367_cov_37.3493	6367	correct
11140	17335	1	6196	gi_828922004_gb_CP011590.1__Enterobacter_asburiae_strain_CAV1043_plasmid_pCAV1043-97__complete_sequence	NODE_81_length_6196_cov_42.2536	99.98	
CONTIG	NODE_81_length_6196_cov_42.2536	6196	correct
CONTIG	NODE_86_length_5571_cov_251.072	5571	unaligned
38729	42392	1	3664	gi_828922004_gb_CP011590.1__Enterobacter_asburiae_strain_CAV1043_plasmid_pCAV1043-97__complete_sequence	NODE_93_length_3664_cov_291.432	100.0	
CONTIG	NODE_93_length_3664_cov_291.432	3664	correct
38729	42392	1	3664	gi_828922004_gb_CP011590.1__Enterobacter_asburiae_strain_CAV1043_plasmid_pCAV1043-97__complete_sequence	NODE_93_length_3664_cov_291.432	100.0	
CONTIG	NODE_93_length_3664_cov_291.432	3664	correct
48893	52521	1	3629	gi_828922004_gb_CP011590.1__Enterobacter_asburiae_strain_CAV1043_plasmid_pCAV1043-97__complete_sequence	NODE_94_length_3629_cov_79.5526	99.64	
CONTIG	NODE_94_length_3629_cov_79.5526	3629	correct
48893	52521	1	3629	gi_828922004_gb_CP011590.1__Enterobacter_asburiae_strain_CAV1043_plasmid_pCAV1043-97__complete_sequence	NODE_94_length_3629_cov_79.5526	99.64	
CONTIG	NODE_94_length_3629_cov_79.5526	3629	correct
CONTIG	NODE_96_length_3281_cov_41.9863	3281	unaligned
71081	73418	2338	1	gi_828922004_gb_CP011590.1__Enterobacter_asburiae_strain_CAV1043_plasmid_pCAV1043-97__complete_sequence	NODE_98_length_2338_cov_46.4507	100.0	
CONTIG	NODE_98_length_2338_cov_46.4507	2338	correct
CONTIG	NODE_100_length_2287_cov_40.6774	2287	unaligned
67933	69917	1985	1	gi_828922004_gb_CP011590.1__Enterobacter_asburiae_strain_CAV1043_plasmid_pCAV1043-97__complete_sequence	NODE_102_length_1985_cov_42.1258	100.0	
CONTIG	NODE_102_length_1985_cov_42.1258	1985	correct
CONTIG	NODE_104_length_1937_cov_352.388	1937	unaligned
CONTIG	NODE_119_length_898_cov_303.289	898	unaligned
31345	32041	1	697	gi_828922004_gb_CP011590.1__Enterobacter_asburiae_strain_CAV1043_plasmid_pCAV1043-97__complete_sequence	NODE_123_length_697_cov_346.892	99.71	
CONTIG	NODE_123_length_697_cov_346.892	697	correct
58842	59498	1	657	gi_828922004_gb_CP011590.1__Enterobacter_asburiae_strain_CAV1043_plasmid_pCAV1043-97__complete_sequence	NODE_124_length_657_cov_144.736	99.39	
CONTIG	NODE_124_length_657_cov_144.736	657	correct
