S1	E1	S2	E2	Reference	Contig	IDY	Ambiguous
30781	41390	10610	1	gi_1039487545_ref_NZ_CP015026.1__Klebsiella_pneumoniae_strain_Kpn223_plasmid_pKPN-065__complete_sequence	NODE_1_length_10610_cov_260.849_component_0	99.99	
CONTIG	NODE_1_length_10610_cov_260.849_component_0	10610	correct
135887	140539	1197	5849	gi_1039487545_ref_NZ_CP015026.1__Klebsiella_pneumoniae_strain_Kpn223_plasmid_pKPN-065__complete_sequence	NODE_2_length_6053_cov_303.016_component_0	99.91	
CONTIG	NODE_2_length_6053_cov_303.016_component_0	6053	correct
CONTIG	NODE_3_length_4294_cov_137.112_component_1	4294	unaligned
CONTIG	NODE_4_length_4141_cov_222.112_component_2	4141	unaligned
17622	20299	1	2678	gi_1039487545_ref_NZ_CP015026.1__Klebsiella_pneumoniae_strain_Kpn223_plasmid_pKPN-065__complete_sequence	NODE_5_length_3511_cov_535.796_component_0	98.02	
relocation, inconsistency = -12977
6266	8155	1622	3511	gi_1039487545_ref_NZ_CP015026.1__Klebsiella_pneumoniae_strain_Kpn223_plasmid_pKPN-065__complete_sequence	NODE_5_length_3511_cov_535.796_component_0	99.89	
CONTIG	NODE_5_length_3511_cov_535.796_component_0	3511	misassembled
19579	21501	1	1923	gi_1039487545_ref_NZ_CP015026.1__Klebsiella_pneumoniae_strain_Kpn223_plasmid_pKPN-065__complete_sequence	NODE_6_length_1923_cov_457.151_component_0	99.9	
CONTIG	NODE_6_length_1923_cov_457.151_component_0	1923	correct
