Aligning contigs to reference...
	Running Nucmer
Parsing coords...
Loading reference...
	Loaded [gi_828982776_gb_CP011655.1__Citrobacter_freundii_strain_CAV1741_plasmid_pCAV1741-110__complete_sequence]
Loading SNPs...
Loading regions...
	No regions given, using whole reference.
	Total Regions: 1
	Total Region Length: 109688
Analyzing contigs...
CONTIG: RNODE_5_length_1347_cov_101.13792 (1303bp)
		This contig is unaligned. (1303 bp)
		Unaligned bases: 1303  total: 1303

CONTIG: RNODE_2_length_1938_cov_723.33500 (1916bp)
		This contig is unaligned. (1916 bp)
		Unaligned bases: 1916  total: 3219

CONTIG: RNODE_4_length_179576_cov_27.54159 (179532bp)
		This contig is unaligned. (179532 bp)
		Unaligned bases: 179532  total: 182751

CONTIG: RNODE_1_length_109710_cov_49.61400 (109688bp)
Top Length: 59715  Top ID: 100.0
		This contig is misassembled. 2 total aligns.
			Real Alignment 1: 1 49973 | 49973 1 | 49973 49973 | 100.0 | gi_828982776_gb_CP011655.1__Citrobacter_freundii_strain_CAV1741_plasmid_pCAV1741-110__complete_sequence RNODE_1_length_109710_cov_49.61400
			  Fake misassembly (caused by linear representation of circular genome) between these two alignments
			Real Alignment 2: 49974 109688 | 109688 49974 | 59715 59715 | 100.0 | gi_828982776_gb_CP011655.1__Citrobacter_freundii_strain_CAV1741_plasmid_pCAV1741-110__complete_sequence RNODE_1_length_109710_cov_49.61400

CONTIG: RNODE_3_length_3245_cov_642.14700 (3223bp)
		This contig is unaligned. (3223 bp)
		Unaligned bases: 3223  total: 185974

Analyzing coverage...
Writing SNPs into /home/mmbbio/Plasmid_Assembly/completegenomes/plasmids/CAV1741_plasmids_references/group_5.fasta_comparison_recycler/contigs_reports/nucmer_output/prediction.used_snps
	Reference gi_828982776_gb_CP011655.1__Citrobacter_freundii_strain_CAV1741_plasmid_pCAV1741-110__complete_sequence: 2 total alignments. 1 total regions.
		Region: 1 to 109688 (109688 bp)
			Align 1: 1 49973 RNODE_1_length_109710_cov_49.61400 49973 1
				Next Alignment: 49974 109688 RNODE_1_length_109710_cov_49.61400 109688 49974

			Align 2: 49974 109688 RNODE_1_length_109710_cov_49.61400 109688 49974
			END in current alignment.  Modifying 109688 to 109688.

Analysis is finished!
Founded SNPs were written into /home/mmbbio/Plasmid_Assembly/completegenomes/plasmids/CAV1741_plasmids_references/group_5.fasta_comparison_recycler/contigs_reports/nucmer_output/prediction.used_snps

Results:
	Local Misassemblies: 0
	Misassemblies: 0
		Relocations: 0
		Translocations: 0
		Inversions: 0
	Misassembled Contigs: 0
	Misassembled Contig Bases: 0
	Misassemblies Inter-Contig Overlap: 0
Uncovered Regions: 0 (0)
Unaligned Contigs: 4 + 0 part
Partially Unaligned Contigs with Misassemblies: 0
Unaligned Contig Bases: 185974

Ambiguously Mapped Contigs: 0
Extra Bases in Ambiguously Mapped Contigs: 0
Note that --allow-ambiguity option was set to "all" and each of these contigs was used several times.

	Covered Bases: 109688

	SNPs: 0
	Insertions: 0
	Deletions: 0

	Positive Gaps: 0
		Internal Gaps:  0
		External Gaps:  0
		External Gap Total:  0
		External Gap Average: 0
	Negative Gaps: 0
		Internal Overlaps:  0
		External Overlaps:  0
		External Overlaps Total:  0
		External Overlaps Average: 0
	Contigs with Redundant Alignments: 0 (0)
