S1	E1	S2	E2	Reference	Contig	IDY	Ambiguous
23671	88131	1	64455	gi_1039504630_ref_NZ_CP015132.1__Klebsiella_pneumoniae_strain_Kpn555_plasmid_pKPN-d90__complete_sequence	NODE_14_length_94266_cov_220.396	99.97	
relocation, inconsistency = 2781
90322	120723	63865	94266	gi_1039504630_ref_NZ_CP015132.1__Klebsiella_pneumoniae_strain_Kpn555_plasmid_pKPN-d90__complete_sequence	NODE_14_length_94266_cov_220.396	100.0	
CONTIG	NODE_14_length_94266_cov_220.396	94266	misassembled
CONTIG	NODE_20_length_74234_cov_423.421	74234	unaligned
CONTIG	NODE_30_length_10524_cov_439.454	10524	unaligned
