Aligning contigs to reference...
	Running Nucmer
Parsing coords...
Loading reference...
	Loaded [gi_1033167584_ref_NZ_CP014758.1__Klebsiella_pneumoniae_strain_AATZP_plasmid_pKPN-041__complete_sequence]
Loading SNPs...
Loading regions...
	No regions given, using whole reference.
	Total Regions: 1
	Total Region Length: 38384
Analyzing contigs...
CONTIG: NODE_15_length_113130_cov_86.7539 (113130bp)
		This contig is unaligned. (113130 bp)
		Unaligned bases: 113130  total: 113130

CONTIG: NODE_25_length_23865_cov_110.078 (23865bp)
Top Length: 17274  Top ID: 100.0
		This contig is misassembled. 2 total aligns.
			Real Alignment 1: 1 17274 | 17274 1 | 17274 17274 | 100.0 | gi_1033167584_ref_NZ_CP014758.1__Klebsiella_pneumoniae_strain_AATZP_plasmid_pKPN-041__complete_sequence NODE_25_length_23865_cov_110.078
			  Fake misassembly (caused by linear representation of circular genome) between these two alignments
			Real Alignment 2: 31794 38384 | 23865 17275 | 6591 6591 | 100.0 | gi_1033167584_ref_NZ_CP014758.1__Klebsiella_pneumoniae_strain_AATZP_plasmid_pKPN-041__complete_sequence NODE_25_length_23865_cov_110.078

CONTIG: NODE_42_length_1445_cov_123.936 (1445bp)
Top Length: 1445  Top ID: 100.0
		One align captures most of this contig: 18915 20359 | 1445 1 | 1445 1445 | 100.0 | gi_1033167584_ref_NZ_CP014758.1__Klebsiella_pneumoniae_strain_AATZP_plasmid_pKPN-041__complete_sequence NODE_42_length_1445_cov_123.936

CONTIG: NODE_27_length_12432_cov_109.829 (12432bp)
		This contig is unaligned. (12432 bp)
		Unaligned bases: 12432  total: 125562

Analyzing coverage...
Writing SNPs into /home/mmbbio/Plasmid_Assembly/completegenomes/plasmids/AATZP_plasmids_references/group_3.fasta_comparison_plasmidfinder/contigs_reports/nucmer_output/prediction.used_snps
	Reference gi_1033167584_ref_NZ_CP014758.1__Klebsiella_pneumoniae_strain_AATZP_plasmid_pKPN-041__complete_sequence: 3 total alignments. 1 total regions.
		Region: 1 to 38384 (38384 bp)
			Align 1: 1 17274 NODE_25_length_23865_cov_110.078 17274 1
				Gap between this and next alignment: 17274 to 18915 (1640 bp)
				Next Alignment: 18915 20359 NODE_42_length_1445_cov_123.936 1445 1

			Align 2: 18915 20359 NODE_42_length_1445_cov_123.936 1445 1
				Gap between this and next alignment: 20359 to 31794 (11434 bp)
				Next Alignment: 31794 38384 NODE_25_length_23865_cov_110.078 23865 17275

			Align 3: 31794 38384 NODE_25_length_23865_cov_110.078 23865 17275
			END in current alignment.  Modifying 38384 to 38384.

Analysis is finished!
Founded SNPs were written into /home/mmbbio/Plasmid_Assembly/completegenomes/plasmids/AATZP_plasmids_references/group_3.fasta_comparison_plasmidfinder/contigs_reports/nucmer_output/prediction.used_snps

Results:
	Local Misassemblies: 0
	Misassemblies: 0
		Relocations: 0
		Translocations: 0
		Inversions: 0
	Misassembled Contigs: 0
	Misassembled Contig Bases: 0
	Misassemblies Inter-Contig Overlap: 0
Uncovered Regions: 0 (0)
Unaligned Contigs: 2 + 0 part
Partially Unaligned Contigs with Misassemblies: 0
Unaligned Contig Bases: 125562

Ambiguously Mapped Contigs: 0
Extra Bases in Ambiguously Mapped Contigs: 0
Note that --allow-ambiguity option was set to "all" and each of these contigs was used several times.

	Covered Bases: 25310

	SNPs: 0
	Insertions: 0
	Deletions: 0

	Positive Gaps: 2
		Internal Gaps:  0
		External Gaps:  2
		External Gap Total:  13074
		External Gap Average: 6537
	Negative Gaps: 0
		Internal Overlaps:  0
		External Overlaps:  0
		External Overlaps Total:  0
		External Overlaps Average: 0
	Contigs with Redundant Alignments: 0 (0)
