Aligning contigs to reference...
	Running Nucmer
Parsing coords...
Loading reference...
	Loaded [gi_1040187127_ref_NZ_CP014649.1__Klebsiella_pneumoniae_strain_KPNIH36_plasmid_pKPN-fff__complete_sequence]
Loading SNPs...
Loading regions...
	No regions given, using whole reference.
	Total Regions: 1
	Total Region Length: 133484
Analyzing contigs...
CONTIG: NODE_61_length_9793_cov_17.4302 (9793bp)
Top Length: 9793  Top ID: 100.0
		One align captures most of this contig: 63619 73411 | 1 9793 | 9793 9793 | 100.0 | gi_1040187127_ref_NZ_CP014649.1__Klebsiella_pneumoniae_strain_KPNIH36_plasmid_pKPN-fff__complete_sequence NODE_61_length_9793_cov_17.4302

CONTIG: NODE_36_length_65587_cov_21.8059 (65587bp)
Top Length: 675  Top ID: 97.78
		This contig is partially unaligned. (Aligned 675 out of 65587 bases)
		Alignment: 15617 16293 | 62744 63418 | 677 675 | 97.78 | gi_1040187127_ref_NZ_CP014649.1__Klebsiella_pneumoniae_strain_KPNIH36_plasmid_pKPN-fff__complete_sequence NODE_36_length_65587_cov_21.8059
		Unaligned bases: 1 to 62743 (62743)
		Unaligned bases: 63419 to 65587 (2169)
		This contig has both significant aligned and unaligned parts (of length >= 500)!

CONTIG: NODE_54_length_16132_cov_66.9039 (16132bp)
		This contig is unaligned. (16132 bp)
		Unaligned bases: 16132  total: 16132

CONTIG: NODE_41_length_34935_cov_22.2843 (34935bp)
Top Length: 1164  Top ID: 99.31
		This contig is misassembled. 2 total aligns.
			Warning! This contig is more unaligned than misassembled. Contig length is 34935 and total length of all aligns is 1856
		Alignment: 15830 16993 | 1 1164 | 1164 1164 | 99.31 | gi_1040187127_ref_NZ_CP014649.1__Klebsiella_pneumoniae_strain_KPNIH36_plasmid_pKPN-fff__complete_sequence NODE_41_length_34935_cov_22.2843
		Alignment: 83863 84554 | 22106 22797 | 692 692 | 98.7 | gi_1040187127_ref_NZ_CP014649.1__Klebsiella_pneumoniae_strain_KPNIH36_plasmid_pKPN-fff__complete_sequence NODE_41_length_34935_cov_22.2843
		Unaligned bases: 33079
		This contig has both significant aligned and unaligned parts (of length >= 500)!
Analyzing coverage...
Writing SNPs into /home/mmbbio/Plasmid_Assembly/completegenomes/plasmids/KPNIH36_plasmids_references/group_2.fasta_comparison_plasmidfinder/contigs_reports/nucmer_output/prediction.used_snps
	Reference gi_1040187127_ref_NZ_CP014649.1__Klebsiella_pneumoniae_strain_KPNIH36_plasmid_pKPN-fff__complete_sequence: 4 total alignments. 1 total regions.
		Region: 1 to 133484 (133484 bp)
			START in gap: 1 to 15617 (15616 bp)
			Align 1: 15617 16293 NODE_36_length_65587_cov_21.8059 62744 63418
				Negative gap (overlap) between this and next alignment: 16293 to 15830 (-463 bp)
				Next Alignment: 15830 16993 NODE_41_length_34935_cov_22.2843 1 1164

			Previous gap was negative, modifying coordinates to ignore overlap
				Moving contig start from 1 to 465.
			Align 2: 16294 16993 NODE_41_length_34935_cov_22.2843 465 1164
				Gap between this and next alignment: 16993 to 63619 (46625 bp)
				Next Alignment: 63619 73411 NODE_61_length_9793_cov_17.4302 1 9793

			Align 3: 63619 73411 NODE_61_length_9793_cov_17.4302 1 9793
				Gap between this and next alignment: 73411 to 83863 (10451 bp)
				Next Alignment: 83863 84554 NODE_41_length_34935_cov_22.2843 22106 22797

			Align 4: 83863 84554 NODE_41_length_34935_cov_22.2843 22106 22797
			END in gap: 84554 to 133484 (48930 bp)

Analysis is finished!
Founded SNPs were written into /home/mmbbio/Plasmid_Assembly/completegenomes/plasmids/KPNIH36_plasmids_references/group_2.fasta_comparison_plasmidfinder/contigs_reports/nucmer_output/prediction.used_snps

Results:
	Local Misassemblies: 0
	Misassemblies: 0
		Relocations: 0
		Translocations: 0
		Inversions: 0
	Misassembled Contigs: 0
	Misassembled Contig Bases: 0
	Misassemblies Inter-Contig Overlap: 0
Uncovered Regions: 0 (0)
Unaligned Contigs: 1 + 2 part
Partially Unaligned Contigs with Misassemblies: 1
Unaligned Contig Bases: 114123

Ambiguously Mapped Contigs: 0
Extra Bases in Ambiguously Mapped Contigs: 0
Note that --allow-ambiguity option was set to "all" and each of these contigs was used several times.

	Covered Bases: 11862

	SNPs: 30
	Insertions: 0
	Deletions: 2

	Positive Gaps: 4
		Internal Gaps:  0
		External Gaps:  4
		External Gap Total:  121622
		External Gap Average: 30406
	Negative Gaps: 1
		Internal Overlaps:  0
		External Overlaps:  1
		External Overlaps Total: -463
		External Overlaps Average: -463
	Contigs with Redundant Alignments: 0 (0)
