S1	E1	S2	E2	Reference	Contig	IDY	Ambiguous
1	92017	92017	1	gi_828952302_gb_CP011622.1__Klebsiella_pneumoniae_strain_CAV1344_plasmid_pKPC_CAV1344__complete_sequence	NODE_1_length_125620_cov_33.7423_component_0	99.99	
fake misassembly (linear representation of circular genome)
142895	176497	125620	92018	gi_828952302_gb_CP011622.1__Klebsiella_pneumoniae_strain_CAV1344_plasmid_pKPC_CAV1344__complete_sequence	NODE_1_length_125620_cov_33.7423_component_0	100.0	
CONTIG	NODE_1_length_125620_cov_33.7423_component_0	125620	correct
CONTIG	NODE_2_length_45989_cov_18.8173_component_0	45989	unaligned
CONTIG	NODE_3_length_44345_cov_15.4227_component_0	44345	unaligned
CONTIG	NODE_4_length_35560_cov_16.8645_component_0	35560	unaligned
CONTIG	NODE_5_length_34676_cov_36.9824_component_0	34676	unaligned
128646	132374	31550	27822	gi_828952302_gb_CP011622.1__Klebsiella_pneumoniae_strain_CAV1344_plasmid_pKPC_CAV1344__complete_sequence	NODE_6_length_31550_cov_30.4625_component_0	100.0	
CONTIG	NODE_6_length_31550_cov_30.4625_component_0	31550	correct
CONTIG	NODE_7_length_30893_cov_46.076_component_0	30893	unaligned
CONTIG	NODE_8_length_27749_cov_15.3501_component_0	27749	unaligned
CONTIG	NODE_9_length_21224_cov_18.0119_component_0	21224	unaligned
CONTIG	NODE_10_length_19078_cov_14.8287_component_0	19078	unaligned
CONTIG	NODE_11_length_17693_cov_25.2293_component_0	17693	unaligned
131318	132378	6189	5129	gi_828952302_gb_CP011622.1__Klebsiella_pneumoniae_strain_CAV1344_plasmid_pKPC_CAV1344__complete_sequence	NODE_12_length_14056_cov_53.5166_component_0	98.77	
131318	132375	13135	12078	gi_828952302_gb_CP011622.1__Klebsiella_pneumoniae_strain_CAV1344_plasmid_pKPC_CAV1344__complete_sequence	NODE_12_length_14056_cov_53.5166_component_0	97.17	
CONTIG	NODE_13_length_13763_cov_38.164_component_0	13763	unaligned
CONTIG	NODE_14_length_13028_cov_20.2259_component_0	13028	unaligned
CONTIG	NODE_15_length_13012_cov_20.9422_component_0	13012	unaligned
CONTIG	NODE_16_length_10849_cov_17.9659_component_0	10849	unaligned
CONTIG	NODE_17_length_10810_cov_21.8188_component_0	10810	unaligned
131317	132038	722	1	gi_828952302_gb_CP011622.1__Klebsiella_pneumoniae_strain_CAV1344_plasmid_pKPC_CAV1344__complete_sequence	NODE_18_length_10536_cov_31.326_component_0	100.0	
CONTIG	NODE_18_length_10536_cov_31.326_component_0	10536	correct
112784	122940	10157	1	gi_828952302_gb_CP011622.1__Klebsiella_pneumoniae_strain_CAV1344_plasmid_pKPC_CAV1344__complete_sequence	NODE_19_length_10157_cov_22.604_component_0	100.0	
CONTIG	NODE_19_length_10157_cov_22.604_component_0	10157	correct
CONTIG	NODE_20_length_9730_cov_32.2321_component_0	9730	unaligned
132298	141703	1	9406	gi_828952302_gb_CP011622.1__Klebsiella_pneumoniae_strain_CAV1344_plasmid_pKPC_CAV1344__complete_sequence	NODE_21_length_9406_cov_21.3031_component_0	100.0	
CONTIG	NODE_21_length_9406_cov_21.3031_component_0	9406	correct
CONTIG	NODE_22_length_8364_cov_20.9333_component_0	8364	unaligned
CONTIG	NODE_23_length_6760_cov_21.0854_component_0	6760	unaligned
CONTIG	NODE_24_length_6143_cov_23.4031_component_0	6143	unaligned
93161	99198	1	6038	gi_828952302_gb_CP011622.1__Klebsiella_pneumoniae_strain_CAV1344_plasmid_pKPC_CAV1344__complete_sequence	NODE_25_length_6038_cov_24.5568_component_0	100.0	
CONTIG	NODE_25_length_6038_cov_24.5568_component_0	6038	correct
CONTIG	NODE_26_length_5794_cov_25.7976_component_0	5794	unaligned
CONTIG	NODE_27_length_5156_cov_36.4859_component_0	5156	unaligned
CONTIG	NODE_28_length_5032_cov_17.2708_component_0	5032	unaligned
CONTIG	NODE_29_length_5005_cov_39.4515_component_0	5005	unaligned
CONTIG	NODE_30_length_4849_cov_49.5859_component_0	4849	unaligned
CONTIG	NODE_31_length_4815_cov_24.2921_component_0	4815	unaligned
104082	108843	4762	1	gi_828952302_gb_CP011622.1__Klebsiella_pneumoniae_strain_CAV1344_plasmid_pKPC_CAV1344__complete_sequence	NODE_32_length_4762_cov_18.607_component_0	100.0	
CONTIG	NODE_32_length_4762_cov_18.607_component_0	4762	correct
CONTIG	NODE_33_length_4563_cov_26.2314_component_0	4563	unaligned
CONTIG	NODE_34_length_4447_cov_37.1973_component_0	4447	unaligned
CONTIG	NODE_35_length_3818_cov_356.647_component_1	3818	unaligned
CONTIG	NODE_36_length_3815_cov_15.3577_component_0	3815	unaligned
CONTIG	NODE_37_length_3393_cov_32.9789_component_0	3393	unaligned
CONTIG	NODE_38_length_3076_cov_44.125_component_0	3076	unaligned
100108	103172	3065	1	gi_828952302_gb_CP011622.1__Klebsiella_pneumoniae_strain_CAV1344_plasmid_pKPC_CAV1344__complete_sequence	NODE_39_length_3065_cov_24.9029_component_0	100.0	
CONTIG	NODE_39_length_3065_cov_24.9029_component_0	3065	correct
CONTIG	NODE_40_length_3027_cov_32.3034_component_0	3027	unaligned
CONTIG	NODE_41_length_2737_cov_52.5951_component_0	2737	unaligned
124610	127290	1	2681	gi_828952302_gb_CP011622.1__Klebsiella_pneumoniae_strain_CAV1344_plasmid_pKPC_CAV1344__complete_sequence	NODE_42_length_2681_cov_77.3833_component_0	100.0	
CONTIG	NODE_42_length_2681_cov_77.3833_component_0	2681	correct
CONTIG	NODE_43_length_2368_cov_96.6731_component_0	2368	unaligned
CONTIG	NODE_44_length_2330_cov_108.344_component_0	2330	unaligned
CONTIG	NODE_45_length_2154_cov_31.2571_component_0	2154	unaligned
110715	112860	1	2146	gi_828952302_gb_CP011622.1__Klebsiella_pneumoniae_strain_CAV1344_plasmid_pKPC_CAV1344__complete_sequence	NODE_46_length_2146_cov_98.2156_component_0	100.0	
CONTIG	NODE_46_length_2146_cov_98.2156_component_0	2146	correct
CONTIG	NODE_47_length_1917_cov_94.1446_component_0	1917	unaligned
CONTIG	NODE_48_length_1487_cov_24.3759_component_0	1487	unaligned
CONTIG	NODE_49_length_1486_cov_18.8531_component_0	1486	unaligned
122864	124243	1	1380	gi_828952302_gb_CP011622.1__Klebsiella_pneumoniae_strain_CAV1344_plasmid_pKPC_CAV1344__complete_sequence	NODE_50_length_1380_cov_106.852_component_0	100.0	
CONTIG	NODE_50_length_1380_cov_106.852_component_0	1380	correct
CONTIG	NODE_51_length_1319_cov_20.9461_component_0	1319	unaligned
91945	93237	1	1293	gi_828952302_gb_CP011622.1__Klebsiella_pneumoniae_strain_CAV1344_plasmid_pKPC_CAV1344__complete_sequence	NODE_52_length_1293_cov_96.2031_component_0	97.99	True
108771	110063	1	1293	gi_828952302_gb_CP011622.1__Klebsiella_pneumoniae_strain_CAV1344_plasmid_pKPC_CAV1344__complete_sequence	NODE_52_length_1293_cov_96.2031_component_0	97.99	True
141675	142967	1293	1	gi_828952302_gb_CP011622.1__Klebsiella_pneumoniae_strain_CAV1344_plasmid_pKPC_CAV1344__complete_sequence	NODE_52_length_1293_cov_96.2031_component_0	97.91	True
CONTIG	NODE_52_length_1293_cov_96.2031_component_0	1293	correct
CONTIG	NODE_53_length_1102_cov_86.1337_component_0	1102	unaligned
127657	128722	1066	1	gi_828952302_gb_CP011622.1__Klebsiella_pneumoniae_strain_CAV1344_plasmid_pKPC_CAV1344__complete_sequence	NODE_54_length_1066_cov_132.674_component_0	100.0	
CONTIG	NODE_54_length_1066_cov_132.674_component_0	1066	correct
99122	100184	1	1063	gi_828952302_gb_CP011622.1__Klebsiella_pneumoniae_strain_CAV1344_plasmid_pKPC_CAV1344__complete_sequence	NODE_55_length_1063_cov_37.8266_component_0	100.0	True
103096	104158	1	1063	gi_828952302_gb_CP011622.1__Klebsiella_pneumoniae_strain_CAV1344_plasmid_pKPC_CAV1344__complete_sequence	NODE_55_length_1063_cov_37.8266_component_0	100.0	True
CONTIG	NODE_55_length_1063_cov_37.8266_component_0	1063	correct
CONTIG	NODE_56_length_1043_cov_15.5704_component_0	1043	unaligned
CONTIG	NODE_57_length_1040_cov_145.71_component_0	1040	unaligned
CONTIG	NODE_58_length_1031_cov_42.4885_component_0	1031	unaligned
CONTIG	NODE_59_length_1024_cov_48.9905_component_0	1024	unaligned
CONTIG	NODE_60_length_976_cov_25.1368_component_0	976	unaligned
CONTIG	NODE_61_length_960_cov_53.1314_component_0	960	unaligned
CONTIG	NODE_62_length_924_cov_62.9799_component_0	924	unaligned
CONTIG	NODE_63_length_921_cov_18.6789_component_0	921	unaligned
CONTIG	NODE_64_length_914_cov_12.221_component_0	914	unaligned
CONTIG	NODE_65_length_912_cov_12.3916_component_0	912	unaligned
CONTIG	NODE_66_length_899_cov_10.6691_component_0	899	unaligned
109987	110791	1	805	gi_828952302_gb_CP011622.1__Klebsiella_pneumoniae_strain_CAV1344_plasmid_pKPC_CAV1344__complete_sequence	NODE_67_length_805_cov_23.864_component_0	100.0	
CONTIG	NODE_67_length_805_cov_23.864_component_0	805	correct
CONTIG	NODE_68_length_768_cov_18.424_component_0	768	unaligned
CONTIG	NODE_69_length_725_cov_103.17_component_0	725	unaligned
CONTIG	NODE_70_length_717_cov_38.6187_component_0	717	unaligned
CONTIG	NODE_71_length_712_cov_26.9323_component_0	712	unaligned
92622	93229	608	1	gi_828952302_gb_CP011622.1__Klebsiella_pneumoniae_strain_CAV1344_plasmid_pKPC_CAV1344__complete_sequence	NODE_72_length_608_cov_104.392_component_0	100.0	True
109448	110055	608	1	gi_828952302_gb_CP011622.1__Klebsiella_pneumoniae_strain_CAV1344_plasmid_pKPC_CAV1344__complete_sequence	NODE_72_length_608_cov_104.392_component_0	100.0	True
141683	142290	1	608	gi_828952302_gb_CP011622.1__Klebsiella_pneumoniae_strain_CAV1344_plasmid_pKPC_CAV1344__complete_sequence	NODE_72_length_608_cov_104.392_component_0	99.84	True
CONTIG	NODE_72_length_608_cov_104.392_component_0	608	correct
CONTIG	NODE_73_length_548_cov_25.1401_component_0	548	unaligned
CONTIG	NODE_74_length_532_cov_18.8989_component_0	532	unaligned
124167	124686	520	1	gi_828952302_gb_CP011622.1__Klebsiella_pneumoniae_strain_CAV1344_plasmid_pKPC_CAV1344__complete_sequence	NODE_75_length_520_cov_209.005_component_0	100.0	True
127214	127733	520	1	gi_828952302_gb_CP011622.1__Klebsiella_pneumoniae_strain_CAV1344_plasmid_pKPC_CAV1344__complete_sequence	NODE_75_length_520_cov_209.005_component_0	100.0	True
CONTIG	NODE_75_length_520_cov_209.005_component_0	520	correct
CONTIG	NODE_76_length_511_cov_106.205_component_0	511	unaligned
