Assembly	pspades_DRR016448_scaffolds	pspades_DRR024501_scaffolds	pspades_SRR058725_scaffolds	pspades_SRR1284629_scaffolds	pspades_SRR1427234_scaffolds	pspades_SRR1427243_scaffolds	pspades_SRR1501122_scaffolds	pspades_SRR1501128_scaffolds	pspades_SRR1505904_scaffolds	pspades_SRR1508819_scaffolds	pspades_SRR1510963_scaffolds	pspades_SRR1515967_scaffolds	pspades_SRR1558174_scaffolds	pspades_SRR1576778_scaffolds	pspades_SRR1576808_scaffolds	pspades_SRR1582868_scaffolds	pspades_SRR1582875_scaffolds	pspades_SRR1582895_scaffolds	pspades_SRR2965612_scaffolds	pspades_SRR2965616_scaffolds	pspades_SRR2965639_scaffolds	pspades_SRR2965655_scaffolds	pspades_SRR2965660_scaffolds	pspades_SRR2965672_scaffolds	pspades_SRR2965690_scaffolds	pspades_SRR2965721_scaffolds	pspades_SRR2965730_scaffolds	pspades_SRR2965739_scaffolds	pspades_SRR2965748_scaffolds	pspades_SRR2965752_scaffolds	pspades_SRR2965815_scaffolds	pspades_SRR2965820_scaffolds	pspades_SRR3176159_scaffolds	pspades_SRR3217430_scaffolds	pspades_SRR3221963_scaffolds	pspades_SRR3222156_scaffolds	pspades_SRR3228444_scaffolds	pspades_SRR3465535_scaffolds	pspades_SRR3465539_scaffolds	pspades_SRR3465557_scaffolds	pspades_SRR3465562_scaffolds	pspades_SRR522246_scaffolds	pspades_SRR892039_scaffolds	pspades_SRR933487_scaffolds	pspades_SRR933489_scaffolds
# contigs (>= 0 bp)	3	1	76	60	1097	317	77	84	119	140	34	207	13	57	52	70	166	47	39	35	31	89	87	170	62	93	33	21	38	115	46	47	582	40	10	41	9	58	78	17	25	26	3	63	172
# contigs (>= 1000 bp)	3	1	34	19	86	96	46	36	49	52	5	34	5	15	17	24	59	20	14	12	21	60	39	66	26	51	27	14	3	35	18	15	98	24	5	21	2	30	44	6	19	13	3	27	112
# contigs (>= 5000 bp)	2	1	25	9	21	42	26	13	20	27	4	15	2	12	6	13	29	10	6	7	8	30	17	35	13	21	10	8	2	20	10	8	45	16	5	10	1	14	15	2	10	8	1	11	67
# contigs (>= 10000 bp)	0	1	19	5	8	24	16	8	10	16	4	9	1	8	2	10	19	7	4	5	5	24	9	27	9	13	6	7	2	9	7	5	27	11	4	7	1	8	10	1	8	7	0	4	61
# contigs (>= 25000 bp)	0	1	10	2	4	12	7	4	3	7	3	4	1	4	0	7	8	7	3	4	3	11	6	14	5	7	4	4	1	3	5	4	8	6	2	5	1	3	4	0	4	6	0	2	37
# contigs (>= 50000 bp)	0	0	2	2	0	3	1	1	1	3	1	1	0	2	0	2	1	3	0	0	2	7	3	5	3	3	2	3	0	1	0	1	6	1	2	2	1	1	1	0	3	4	0	1	18
Total length (>= 0 bp)	13166	41098	645318	271572	589203	998606	547389	340609	378890	685273	166767	373399	64654	302981	98559	379835	702312	449182	172894	198630	399543	870887	544013	1086701	479014	594575	343286	342728	56074	354807	276378	242679	1246243	427476	242375	309030	91550	301557	326861	33186	368287	458736	14538	221584	2687152
Total length (>= 1000 bp)	13166	41098	632336	262616	428706	934273	537927	323989	352941	663344	161333	338452	61701	294457	91631	366168	672313	442827	167306	193361	394409	856377	529888	1053595	468500	582043	342419	341215	50753	336388	269485	234770	1127239	421686	239701	300859	90179	290217	310361	30532	364419	452697	14538	208197	2665681
Total length (>= 5000 bp)	11460	41098	610457	239852	282772	785301	488313	264881	297190	606838	158420	288600	56071	286961	63165	339651	598016	411792	149744	182891	361332	781452	475351	975902	432446	499445	300269	322436	47432	304674	251673	220512	1018752	400549	239701	277109	85885	257306	249833	16663	334167	445902	8160	171176	2554753
Total length (>= 10000 bp)	0	41098	567193	209291	193669	661559	420766	228111	237193	536777	158420	242818	48929	260278	32816	315052	530588	392631	133801	167032	337599	737617	417373	915836	402854	450203	267867	316824	47432	223045	228065	196820	886475	366616	231230	253670	85885	220321	220364	10610	319471	439622	0	124432	2512114
Total length (>= 25000 bp)	0	41098	414211	159052	129737	500040	282563	167007	136276	370312	145566	167020	48929	189989	0	279382	376382	392631	117277	150508	310954	534000	372990	716388	342426	362222	230690	279027	33374	136032	189837	181296	549135	292184	206863	212756	85885	138903	139789	0	268944	427608	0	95789	2144713
Total length (>= 50000 bp)	0	0	170716	159052	0	210699	62419	51142	56873	217736	71552	80509	0	111503	0	108739	125620	230231	0	0	284923	408636	279491	425558	277673	224861	139123	250212	0	57992	0	64019	491687	106215	206863	119839	85885	61704	56535	0	219653	364407	0	56011	1487814
# contigs	3	1	39	23	115	134	51	47	64	63	6	49	8	19	20	33	76	23	15	13	27	75	49	89	33	61	27	15	3	47	21	18	133	28	9	27	2	40	60	6	24	19	3	39	128
Largest contig	5947	41098	120556	92135	46687	92135	62419	51142	56873	111748	71552	80509	48929	56816	22124	55260	125620	96774	45219	45219	173451	79377	111574	125842	144675	118664	85610	109765	33374	57992	49065	64019	135428	106215	114481	65587	85885	61704	56535	10610	94266	122958	8160	56011	132059
Total length	13166	41098	635955	266080	448856	961945	541738	332276	364377	671416	162028	349738	63892	296982	93736	373771	685265	445158	168274	194329	398545	867485	537052	1071043	473318	588990	342419	341806	50753	344500	271691	237232	1151904	424002	242263	305253	90179	297297	321807	30532	367878	457118	14538	217054	2677593
Reference length	4109	4109	4109	4109	4109	4109	4109	4109	4109	4109	4109	4109	4109	4109	4109	4109	4109	4109	4109	4109	4109	4109	4109	4109	4109	4109	4109	4109	4109	4109	4109	4109	4109	4109	4109	4109	4109	4109	4109	4109	4109	4109	4109	4109	4109
GC (%)	42.59	39.41	56.69	52.25	53.16	51.61	51.95	52.38	52.87	49.26	53.50	51.47	41.06	47.48	51.71	49.65	51.41	52.13	53.38	53.01	51.41	51.90	51.35	53.42	49.70	49.74	50.80	50.92	52.34	51.52	49.00	51.21	37.42	52.34	51.81	53.25	51.74	52.11	49.68	45.54	51.82	66.90	51.92	43.51	34.07
Reference GC (%)	54.42	54.42	54.42	54.42	54.42	54.42	54.42	54.42	54.42	54.42	54.42	54.42	54.42	54.42	54.42	54.42	54.42	54.42	54.42	54.42	54.42	54.42	54.42	54.42	54.42	54.42	54.42	54.42	54.42	54.42	54.42	54.42	54.42	54.42	54.42	54.42	54.42	54.42	54.42	54.42	54.42	54.42	54.42	54.42	54.42
N50	5513	41098	30045	66917	7495	26080	32049	30757	13083	34986	37564	20338	48929	39781	8569	35041	30893	52614	43243	33231	111472	45316	63957	35762	56128	38788	47340	71670	33374	14356	28815	43243	23850	36834	92382	34935	85885	20998	15427	6053	51153	112826	8160	17914	54922
NG50	5947	41098	120556	92135	46687	92135	62419	51142	56873	111748	71552	80509	48929	56816	22124	55260	125620	96774	45219	45219	173451	79377	111574	125842	144675	118664	85610	109765	33374	57992	49065	64019	135428	106215	114481	65587	85885	61704	56535	10610	94266	122958	8160	56011	132059
N75	5513	41098	19457	10708	3342	7712	10107	7499	5541	14902	36450	8245	48929	21213	4387	14757	10536	42287	16524	28815	26031	16736	14425	20948	22010	10157	14477	28815	14058	7975	20082	28815	11196	14571	92382	24782	85885	7241	5101	4141	15861	55361	4186	5276	28800
NG75	5947	41098	120556	92135	46687	92135	62419	51142	56873	111748	71552	80509	48929	56816	22124	55260	125620	96774	45219	45219	173451	79377	111574	125842	144675	118664	85610	109765	33374	57992	49065	64019	135428	106215	114481	65587	85885	61704	56535	10610	94266	122958	8160	56011	132059
L50	2	1	7	2	12	12	7	4	6	6	2	5	1	3	4	5	7	3	2	3	2	8	3	8	3	5	3	2	1	5	4	3	10	4	2	3	1	4	6	2	3	2	1	3	16
LG50	1	1	1	1	1	1	1	1	1	1	1	1	1	1	1	1	1	1	1	1	1	1	1	1	1	1	1	1	1	1	1	1	1	1	1	1	1	1	1	1	1	1	1	1	1
L75	2	1	13	5	36	31	15	11	16	14	3	12	1	6	8	8	18	6	4	4	3	17	8	18	6	13	6	4	2	13	6	4	25	8	2	6	1	9	14	4	5	4	2	10	32
LG75	1	1	1	1	1	1	1	1	1	1	1	1	1	1	1	1	1	1	1	1	1	1	1	1	1	1	1	1	1	1	1	1	1	1	1	1	1	1	1	1	1	1	1	1	1
# misassemblies	-	-	-	-	-	-	-	-	-	-	-	-	-	-	-	-	-	-	-	-	-	-	-	-	-	-	-	-	-	-	-	-	-	-	-	-	-	-	-	-	-	-	0	-	-
# misassembled contigs	-	-	-	-	-	-	-	-	-	-	-	-	-	-	-	-	-	-	-	-	-	-	-	-	-	-	-	-	-	-	-	-	-	-	-	-	-	-	-	-	-	-	0	-	-
Misassembled contigs length	-	-	-	-	-	-	-	-	-	-	-	-	-	-	-	-	-	-	-	-	-	-	-	-	-	-	-	-	-	-	-	-	-	-	-	-	-	-	-	-	-	-	0	-	-
# local misassemblies	-	-	-	-	-	-	-	-	-	-	-	-	-	-	-	-	-	-	-	-	-	-	-	-	-	-	-	-	-	-	-	-	-	-	-	-	-	-	-	-	-	-	0	-	-
# unaligned contigs	3 + 0 part	1 + 0 part	39 + 0 part	23 + 0 part	115 + 0 part	134 + 0 part	51 + 0 part	47 + 0 part	64 + 0 part	63 + 0 part	6 + 0 part	49 + 0 part	8 + 0 part	19 + 0 part	20 + 0 part	33 + 0 part	76 + 0 part	23 + 0 part	15 + 0 part	13 + 0 part	27 + 0 part	75 + 0 part	49 + 0 part	89 + 0 part	33 + 0 part	61 + 0 part	27 + 0 part	15 + 0 part	3 + 0 part	47 + 0 part	21 + 0 part	18 + 0 part	133 + 0 part	28 + 0 part	9 + 0 part	27 + 0 part	2 + 0 part	40 + 0 part	60 + 0 part	6 + 0 part	24 + 0 part	19 + 0 part	2 + 1 part	39 + 0 part	128 + 0 part
Unaligned length	13166	41098	635955	266080	448856	961945	541738	332276	364377	671416	162028	349738	63892	296982	93736	373771	685265	445158	168274	194329	398545	867485	537052	1071043	473318	588990	342419	341806	50753	344500	271691	237232	1151904	424002	242263	305253	90179	297297	321807	30532	367878	457118	10686	217054	2677593
Genome fraction (%)	-	-	-	-	-	-	-	-	-	-	-	-	-	-	-	-	-	-	-	-	-	-	-	-	-	-	-	-	-	-	-	-	-	-	-	-	-	-	-	-	-	-	93.745	-	-
Duplication ratio	-	-	-	-	-	-	-	-	-	-	-	-	-	-	-	-	-	-	-	-	-	-	-	-	-	-	-	-	-	-	-	-	-	-	-	-	-	-	-	-	-	-	1.000	-	-
# N's per 100 kbp	0.00	0.00	90.42	0.00	0.00	130.57	0.00	0.00	51.32	53.77	0.00	0.00	0.00	0.00	0.00	0.00	30.06	0.00	0.00	9.26	0.00	0.00	0.00	19.23	48.17	0.00	0.00	0.00	0.00	0.00	114.84	7.59	0.00	0.00	0.00	272.89	0.00	0.00	0.00	0.00	0.00	3.06	0.00	292.55	17.40
# mismatches per 100 kbp	-	-	-	-	-	-	-	-	-	-	-	-	-	-	-	-	-	-	-	-	-	-	-	-	-	-	-	-	-	-	-	-	-	-	-	-	-	-	-	-	-	-	0.00	-	-
# indels per 100 kbp	-	-	-	-	-	-	-	-	-	-	-	-	-	-	-	-	-	-	-	-	-	-	-	-	-	-	-	-	-	-	-	-	-	-	-	-	-	-	-	-	-	-	0.00	-	-
Largest alignment	-	-	-	-	-	-	-	-	-	-	-	-	-	-	-	-	-	-	-	-	-	-	-	-	-	-	-	-	-	-	-	-	-	-	-	-	-	-	-	-	-	-	3852	-	-
NGA50	-	-	-	-	-	-	-	-	-	-	-	-	-	-	-	-	-	-	-	-	-	-	-	-	-	-	-	-	-	-	-	-	-	-	-	-	-	-	-	-	-	-	3852	-	-
NGA75	-	-	-	-	-	-	-	-	-	-	-	-	-	-	-	-	-	-	-	-	-	-	-	-	-	-	-	-	-	-	-	-	-	-	-	-	-	-	-	-	-	-	3852	-	-
LGA50	-	-	-	-	-	-	-	-	-	-	-	-	-	-	-	-	-	-	-	-	-	-	-	-	-	-	-	-	-	-	-	-	-	-	-	-	-	-	-	-	-	-	1	-	-
LGA75	-	-	-	-	-	-	-	-	-	-	-	-	-	-	-	-	-	-	-	-	-	-	-	-	-	-	-	-	-	-	-	-	-	-	-	-	-	-	-	-	-	-	1	-	-
