All statistics are based on contigs of size >= 500 bp, unless otherwise noted (e.g., "# contigs (>= 0 bp)" and "Total length (>= 0 bp)" include all contigs).

Assembly                     prediction
# contigs (>= 0 bp)          4         
# contigs (>= 1000 bp)       4         
# contigs (>= 5000 bp)       3         
# contigs (>= 10000 bp)      3         
# contigs (>= 25000 bp)      1         
# contigs (>= 50000 bp)      1         
Total length (>= 0 bp)       150872    
Total length (>= 1000 bp)    150872    
Total length (>= 5000 bp)    149427    
Total length (>= 10000 bp)   149427    
Total length (>= 25000 bp)   113130    
Total length (>= 50000 bp)   113130    
# contigs                    4         
Largest contig               113130    
Total length                 150872    
Reference length             38384     
GC (%)                       49.66     
Reference GC (%)             51.76     
N50                          113130    
NG50                         113130    
N75                          23865     
NG75                         113130    
L50                          1         
LG50                         1         
L75                          2         
LG75                         1         
# misassemblies              0         
# misassembled contigs       0         
Misassembled contigs length  0         
# local misassemblies        0         
# unaligned contigs          2 + 0 part
Unaligned length             125562    
Genome fraction (%)          65.939    
Duplication ratio            1.000     
# N's per 100 kbp            0.00      
# mismatches per 100 kbp     0.00      
# indels per 100 kbp         0.00      
Largest alignment            23865     
NGA50                        23865     
LGA50                        1         
