Aligning contigs to reference...
	Running Nucmer
Parsing coords...
Loading reference...
	Loaded [gi_764911390_ref_NZ_CP008825.1__Enterobacter_cloacae_ECNIH2_plasmid_pKPC-272__complete_sequence]
Loading SNPs...
Loading regions...
	No regions given, using whole reference.
	Total Regions: 1
	Total Region Length: 282439
Analyzing contigs...
CONTIG: NODE_30_length_32616_cov_247.178 (32616bp)
		This contig is unaligned. (32616 bp)
		Unaligned bases: 32616  total: 32616

CONTIG: NODE_46_length_11997_cov_69.1775 (11997bp)
Top Length: 7115  Top ID: 100.0
		This contig is misassembled. 2 total aligns.
			Real Alignment 1: 277558 282439 | 1 4882 | 4882 4882 | 100.0 | gi_764911390_ref_NZ_CP008825.1__Enterobacter_cloacae_ECNIH2_plasmid_pKPC-272__complete_sequence NODE_46_length_11997_cov_69.1775
			  Fake misassembly (caused by linear representation of circular genome) between these two alignments
			Real Alignment 2: 1 7115 | 4883 11997 | 7115 7115 | 100.0 | gi_764911390_ref_NZ_CP008825.1__Enterobacter_cloacae_ECNIH2_plasmid_pKPC-272__complete_sequence NODE_46_length_11997_cov_69.1775

CONTIG: NODE_48_length_10695_cov_83.8646 (10695bp)
Top Length: 10695  Top ID: 100.0
		One align captures most of this contig: 259965 270659 | 10695 1 | 10695 10695 | 100.0 | gi_764911390_ref_NZ_CP008825.1__Enterobacter_cloacae_ECNIH2_plasmid_pKPC-272__complete_sequence NODE_48_length_10695_cov_83.8646

CONTIG: NODE_102_length_1796_cov_209.393 (1796bp)
		This contig is unaligned. (1796 bp)
		Unaligned bases: 1796  total: 34412

CONTIG: NODE_85_length_2760_cov_156.43 (2760bp)
		This contig is unaligned. (2760 bp)
		Unaligned bases: 2760  total: 37172

Analyzing coverage...
Writing SNPs into /home/mmbbio/Plasmid_Assembly/completegenomes/plasmids/ECNIH2_plasmids_references/group_2.fasta_comparison_plasmidfinder/contigs_reports/nucmer_output/prediction.used_snps
	Reference gi_764911390_ref_NZ_CP008825.1__Enterobacter_cloacae_ECNIH2_plasmid_pKPC-272__complete_sequence: 3 total alignments. 1 total regions.
		Region: 1 to 282439 (282439 bp)
			Align 1: 1 7115 NODE_46_length_11997_cov_69.1775 4883 11997
				Gap between this and next alignment: 7115 to 259965 (252849 bp)
				Next Alignment: 259965 270659 NODE_48_length_10695_cov_83.8646 10695 1

			Align 2: 259965 270659 NODE_48_length_10695_cov_83.8646 10695 1
				Gap between this and next alignment: 270659 to 277558 (6898 bp)
				Next Alignment: 277558 282439 NODE_46_length_11997_cov_69.1775 1 4882

			Align 3: 277558 282439 NODE_46_length_11997_cov_69.1775 1 4882
			END in current alignment.  Modifying 282439 to 282439.

Analysis is finished!
Founded SNPs were written into /home/mmbbio/Plasmid_Assembly/completegenomes/plasmids/ECNIH2_plasmids_references/group_2.fasta_comparison_plasmidfinder/contigs_reports/nucmer_output/prediction.used_snps

Results:
	Local Misassemblies: 0
	Misassemblies: 0
		Relocations: 0
		Translocations: 0
		Inversions: 0
	Misassembled Contigs: 0
	Misassembled Contig Bases: 0
	Misassemblies Inter-Contig Overlap: 0
Uncovered Regions: 0 (0)
Unaligned Contigs: 3 + 0 part
Partially Unaligned Contigs with Misassemblies: 0
Unaligned Contig Bases: 37172

Ambiguously Mapped Contigs: 0
Extra Bases in Ambiguously Mapped Contigs: 0
Note that --allow-ambiguity option was set to "all" and each of these contigs was used several times.

	Covered Bases: 22692

	SNPs: 0
	Insertions: 0
	Deletions: 0

	Positive Gaps: 2
		Internal Gaps:  0
		External Gaps:  2
		External Gap Total:  259747
		External Gap Average: 129874
	Negative Gaps: 0
		Internal Overlaps:  0
		External Overlaps:  0
		External Overlaps Total:  0
		External Overlaps Average: 0
	Contigs with Redundant Alignments: 0 (0)
